test_case	test_number	transform	cluster_alg	seconds	adjusted_rand	annotation_correspondence	n_clusters	cluster_sizes	transformed_modularity	modularity	modularity_cutoff	transformed_modularity_cutoff
GO BP 500 medium	1	Pearson > Cutoff(5)	None	0.0222330093384	6.24175429489e-17	0.102040816327	1	539	0.0	0.0	0.0	0.0
GO BP 500 medium	1	Pearson > Cutoff(5)	Louvain	0.0297629833221	0.133401569401	0.25974025974	41	1,1,1,1,1,1,1,1,1,1,1,1,1,1,1,1,1,1,1,1,1,1,1,1,1,1,1,1,2,2,3,3,3,21,48,51,57,58,69,82,112	0.662838665105	-0.00162808390807	0.395004985295	0.662838665105
GO BP 500 medium	1	Pearson > Cutoff(5)	Greedy Modularity	0.045382976532	0.111539810254	0.220779220779	40	1,1,1,1,1,1,1,1,1,1,1,1,1,1,1,1,1,1,1,1,1,1,1,1,1,1,1,1,2,2,2,3,3,3,21,56,62,105,117,135	0.643243320433	-0.00153610711606	0.407021067076	0.643243320433
GO BP 500 medium	1	Pearson > Cutoff(5)	Infomap	0.448163986206	0.141085528388	0.324675324675	60	1,1,1,1,1,1,1,1,1,1,1,1,1,1,1,1,1,1,1,1,1,1,1,1,1,1,1,1,2,2,2,2,2,2,2,3,3,3,3,3,3,5,5,6,6,6,7,7,9,10,10,14,23,25,30,34,49,54,67,112	0.650861233783	-0.0016898112376	0.359250315814	0.650861233783
GO BP 500 medium	1	Pearson > Cutoff(5)	Label Propagation	0.0227570533752	0.124105329801	0.309833024119	56	1,1,1,1,1,1,1,1,1,1,1,1,1,1,1,1,1,1,1,1,1,1,1,1,1,1,1,1,2,2,2,2,2,2,2,3,3,3,5,5,5,6,6,7,7,9,9,12,18,20,29,39,55,58,68,130	0.648730834518	-0.00165635000901	0.36330663615	0.648730834518
GO BP 500 medium	1	Pearson > Cutoff(5)	Walkttrap	0.101908922195	0.131548487604	0.322820037106	66	1,1,1,1,1,1,1,1,1,1,1,1,1,1,1,1,1,1,1,1,1,1,1,1,1,1,1,1,1,1,1,1,1,1,2,2,2,2,2,2,2,2,3,3,3,3,3,4,4,5,6,6,6,6,6,7,9,12,21,23,28,33,53,57,68,120	0.649408177995	-0.00167609405326	0.357912248385	0.649408177995
GO BP 500 medium	1	Spearman > Cutoff(5)	None	0.0185589790344	6.24175429489e-17	0.102040816327	1	539	0.0	0.0	0.0	0.0
GO BP 500 medium	1	Spearman > Cutoff(5)	Louvain	0.0288288593292	0.0916966271239	0.411873840445	172	1,1,1,1,1,1,1,1,1,1,1,1,1,1,1,1,1,1,1,1,1,1,1,1,1,1,1,1,1,1,1,1,1,1,1,1,1,1,1,1,1,1,1,1,1,1,1,1,1,1,1,1,1,1,1,1,1,1,1,1,1,1,1,1,1,1,1,1,1,1,1,1,1,1,1,1,1,1,1,1,1,1,1,1,1,1,1,1,1,1,1,1,1,1,1,1,1,1,1,1,1,1,1,1,1,1,1,1,1,1,1,1,1,1,1,1,1,1,1,1,1,1,1,1,1,1,1,1,1,1,1,1,1,1,1,1,1,1,1,1,1,1,1,1,1,1,1,1,1,1,1,1,1,1,1,1,1,1,1,1,1,1,1,1,2,2,4,4,11,104,116,132	0.533114692695	-0.00158988820354	0.383515322263	0.533114692695
GO BP 500 medium	1	Spearman > Cutoff(5)	Greedy Modularity	0.0282621383667	0.0941372867383	0.408163265306	172	1,1,1,1,1,1,1,1,1,1,1,1,1,1,1,1,1,1,1,1,1,1,1,1,1,1,1,1,1,1,1,1,1,1,1,1,1,1,1,1,1,1,1,1,1,1,1,1,1,1,1,1,1,1,1,1,1,1,1,1,1,1,1,1,1,1,1,1,1,1,1,1,1,1,1,1,1,1,1,1,1,1,1,1,1,1,1,1,1,1,1,1,1,1,1,1,1,1,1,1,1,1,1,1,1,1,1,1,1,1,1,1,1,1,1,1,1,1,1,1,1,1,1,1,1,1,1,1,1,1,1,1,1,1,1,1,1,1,1,1,1,1,1,1,1,1,1,1,1,1,1,1,1,1,1,1,1,1,1,1,1,1,1,1,2,2,4,4,6,105,122,130	0.513060737383	-0.00158331112075	0.377314581361	0.513060737383
GO BP 500 medium	1	Spearman > Cutoff(5)	Infomap	0.250731945038	0.0998128925047	0.439703153989	181	1,1,1,1,1,1,1,1,1,1,1,1,1,1,1,1,1,1,1,1,1,1,1,1,1,1,1,1,1,1,1,1,1,1,1,1,1,1,1,1,1,1,1,1,1,1,1,1,1,1,1,1,1,1,1,1,1,1,1,1,1,1,1,1,1,1,1,1,1,1,1,1,1,1,1,1,1,1,1,1,1,1,1,1,1,1,1,1,1,1,1,1,1,1,1,1,1,1,1,1,1,1,1,1,1,1,1,1,1,1,1,1,1,1,1,1,1,1,1,1,1,1,1,1,1,1,1,1,1,1,1,1,1,1,1,1,1,1,1,1,1,1,1,1,1,1,1,1,1,1,1,1,1,1,1,1,1,1,1,1,1,1,1,1,2,2,2,2,2,4,4,4,6,7,8,15,18,31,71,79,118	0.519925275629	-0.00168537106692	0.351313460676	0.519925275629
GO BP 500 medium	1	Spearman > Cutoff(5)	Label Propagation	0.020213842392	0.0852721824627	0.413729128015	173	1,1,1,1,1,1,1,1,1,1,1,1,1,1,1,1,1,1,1,1,1,1,1,1,1,1,1,1,1,1,1,1,1,1,1,1,1,1,1,1,1,1,1,1,1,1,1,1,1,1,1,1,1,1,1,1,1,1,1,1,1,1,1,1,1,1,1,1,1,1,1,1,1,1,1,1,1,1,1,1,1,1,1,1,1,1,1,1,1,1,1,1,1,1,1,1,1,1,1,1,1,1,1,1,1,1,1,1,1,1,1,1,1,1,1,1,1,1,1,1,1,1,1,1,1,1,1,1,1,1,1,1,1,1,1,1,1,1,1,1,1,1,1,1,1,1,1,1,1,1,1,1,1,1,1,1,1,1,1,1,1,1,1,1,2,2,2,4,4,4,84,132,141	0.522817036932	-0.00157348388421	0.379426413965	0.522817036932
GO BP 500 medium	1	Spearman > Cutoff(5)	Walkttrap	0.0885820388794	0.0942841256896	0.424860853432	178	1,1,1,1,1,1,1,1,1,1,1,1,1,1,1,1,1,1,1,1,1,1,1,1,1,1,1,1,1,1,1,1,1,1,1,1,1,1,1,1,1,1,1,1,1,1,1,1,1,1,1,1,1,1,1,1,1,1,1,1,1,1,1,1,1,1,1,1,1,1,1,1,1,1,1,1,1,1,1,1,1,1,1,1,1,1,1,1,1,1,1,1,1,1,1,1,1,1,1,1,1,1,1,1,1,1,1,1,1,1,1,1,1,1,1,1,1,1,1,1,1,1,1,1,1,1,1,1,1,1,1,1,1,1,1,1,1,1,1,1,1,1,1,1,1,1,1,1,1,1,1,1,1,1,1,1,1,1,1,1,1,1,1,1,2,2,2,2,3,3,4,4,6,11,16,83,112,125	0.525347035479	-0.00163032318723	0.368343153141	0.525347035479
GO BP 500 medium	1	Cosine > Cutoff(5)	None	0.0186371803284	6.24175429489e-17	0.102040816327	1	539	0.0	0.0	0.0	0.0
GO BP 500 medium	1	Cosine > Cutoff(5)	Louvain	0.0309948921204	0.126711004385	0.382189239332	105	1,1,1,1,1,1,1,1,1,1,1,1,1,1,1,1,1,1,1,1,1,1,1,1,1,1,1,1,1,1,1,1,1,1,1,1,1,1,1,1,1,1,1,1,1,1,1,1,1,1,1,1,1,1,1,1,1,1,1,1,1,1,1,1,1,1,1,1,1,1,1,1,1,1,1,1,1,1,2,2,2,2,2,2,2,2,2,3,3,3,4,4,4,5,6,6,6,7,8,12,44,61,66,92,109	0.491649716892	-0.00166080297556	0.301871145869	0.491649716892
GO BP 500 medium	1	Cosine > Cutoff(5)	Greedy Modularity	0.0403039455414	0.109964301661	0.358070500928	105	1,1,1,1,1,1,1,1,1,1,1,1,1,1,1,1,1,1,1,1,1,1,1,1,1,1,1,1,1,1,1,1,1,1,1,1,1,1,1,1,1,1,1,1,1,1,1,1,1,1,1,1,1,1,1,1,1,1,1,1,1,1,1,1,1,1,1,1,1,1,1,1,1,1,1,1,1,1,2,2,2,2,2,2,2,2,2,2,3,3,3,4,4,4,5,5,6,6,6,7,22,58,68,89,148	0.432474054734	-0.00161115495762	0.310310708225	0.432474054734
GO BP 500 medium	1	Cosine > Cutoff(5)	Infomap	0.365813016891	0.101941156696	0.430426716141	113	1,1,1,1,1,1,1,1,1,1,1,1,1,1,1,1,1,1,1,1,1,1,1,1,1,1,1,1,1,1,1,1,1,1,1,1,1,1,1,1,1,1,1,1,1,1,1,1,1,1,1,1,1,1,1,1,1,1,1,1,1,1,1,1,1,1,1,1,1,1,1,1,1,1,1,1,1,1,2,2,2,2,2,2,2,2,2,2,2,3,3,3,3,3,4,4,4,5,6,6,6,6,8,9,11,12,14,17,20,24,41,41,186	0.394342841607	-0.00160145567989	0.253776712775	0.394342841607
GO BP 500 medium	1	Cosine > Cutoff(5)	Label Propagation	0.0231008529663	0.0891314737278	0.411873840445	110	1,1,1,1,1,1,1,1,1,1,1,1,1,1,1,1,1,1,1,1,1,1,1,1,1,1,1,1,1,1,1,1,1,1,1,1,1,1,1,1,1,1,1,1,1,1,1,1,1,1,1,1,1,1,1,1,1,1,1,1,1,1,1,1,1,1,1,1,1,1,1,1,1,1,1,1,1,1,2,2,2,2,2,2,2,2,2,2,3,3,3,3,3,3,4,4,4,5,6,6,7,8,9,12,13,14,23,44,54,210	0.385549363359	-0.00153563366847	0.268374831672	0.385549363359
GO BP 500 medium	1	Cosine > Cutoff(5)	Walkttrap	0.107300043106	0.122183846049	0.506493506494	161	1,1,1,1,1,1,1,1,1,1,1,1,1,1,1,1,1,1,1,1,1,1,1,1,1,1,1,1,1,1,1,1,1,1,1,1,1,1,1,1,1,1,1,1,1,1,1,1,1,1,1,1,1,1,1,1,1,1,1,1,1,1,1,1,1,1,1,1,1,1,1,1,1,1,1,1,1,1,1,1,1,1,1,1,1,1,1,1,1,1,1,1,1,1,1,1,1,1,1,1,1,1,1,1,1,1,1,1,1,1,1,1,1,1,1,1,1,1,2,2,2,2,2,2,2,2,2,2,2,2,2,2,2,2,2,2,3,3,3,3,3,3,3,4,4,4,4,4,5,5,5,5,6,6,9,12,22,40,41,60,128	0.431900386569	-0.00170212087504	0.216440305057	0.431900386569
GO BP 500 medium	1	KNN(10) > Cutoff(5)	None	0.0179538726807	6.24175429489e-17	0.102040816327	1	539	0.0	0.0	0.0	0.0
GO BP 500 medium	1	KNN(10) > Cutoff(5)	Louvain	0.0373449325562	0.149600774446	0.213358070501	7	57,63,68,76,85,88,102	0.624012624098	-0.0015836822013	0.428161266838	0.624012624098
GO BP 500 medium	1	KNN(10) > Cutoff(5)	Greedy Modularity	0.0812878608704	0.122979165248	0.168831168831	5	12,90,95,159,183	0.56614808894	-0.00137224306508	0.44095892922	0.56614808894
GO BP 500 medium	1	KNN(10) > Cutoff(5)	Infomap	0.599864959717	0.146597185802	0.233766233766	12	8,11,14,15,34,42,46,55,67,71,75,101	0.607814881343	-0.00164105893131	0.408033093834	0.607814881343
GO BP 500 medium	1	KNN(10) > Cutoff(5)	Leading Eigenvector	0.201367855072	0.122539254829	0.192949907236	6	62,65,67,76,120,149	0.589404781879	-0.00150726520048	0.426210896221	0.589404781879
GO BP 500 medium	1	KNN(10) > Cutoff(5)	Label Propagation	0.0273418426514	0.12393266841	0.191094619666	8	10,11,48,62,70,107,112,119	0.612968105294	-0.00154253064828	0.424404831544	0.612968105294
GO BP 500 medium	1	KNN(10) > Cutoff(5)	Walkttrap	0.144503116608	0.115132794017	0.183673469388	7	10,55,57,74,85,107,151	0.615914602827	-0.00151756588462	0.435108992051	0.615914602827
GO BP 500 medium	1	KNN(50) > Cutoff(5)	None	0.0179870128632	6.24175429489e-17	0.102040816327	1	539	0.0	0.0	0.0	0.0
GO BP 500 medium	1	KNN(50) > Cutoff(5)	Louvain	0.0274279117584	0.109292879428	0.289424860853	85	1,1,1,1,1,1,1,1,1,1,1,1,1,1,1,1,1,1,1,1,1,1,1,1,1,1,1,1,1,1,1,1,1,1,1,1,1,1,1,1,1,1,1,1,1,1,1,1,1,1,1,1,1,1,1,1,1,1,1,1,1,1,1,1,1,1,1,1,1,1,1,1,1,1,1,2,2,3,3,51,52,61,67,109,114	0.685707430795	-0.00161246013747	0.45254454675	0.685707430795
GO BP 500 medium	1	KNN(50) > Cutoff(5)	Greedy Modularity	0.0279898643494	0.112688209489	0.283858998145	84	1,1,1,1,1,1,1,1,1,1,1,1,1,1,1,1,1,1,1,1,1,1,1,1,1,1,1,1,1,1,1,1,1,1,1,1,1,1,1,1,1,1,1,1,1,1,1,1,1,1,1,1,1,1,1,1,1,1,1,1,1,1,1,1,1,1,1,1,1,1,1,1,1,1,1,2,2,3,3,14,55,112,117,156	0.658685241179	-0.00151394465032	0.445105624313	0.658685241179
GO BP 500 medium	1	KNN(50) > Cutoff(5)	Infomap	0.393532037735	0.12206327838	0.30612244898	93	1,1,1,1,1,1,1,1,1,1,1,1,1,1,1,1,1,1,1,1,1,1,1,1,1,1,1,1,1,1,1,1,1,1,1,1,1,1,1,1,1,1,1,1,1,1,1,1,1,1,1,1,1,1,1,1,1,1,1,1,1,1,1,1,1,1,1,1,1,1,1,1,1,1,1,2,2,2,3,3,7,7,8,10,12,14,19,30,30,60,64,85,106	0.677249114316	-0.00167303583772	0.424561016934	0.677249114316
GO BP 500 medium	1	KNN(50) > Cutoff(5)	Label Propagation	0.0219960212708	0.102409962773	0.285714285714	86	1,1,1,1,1,1,1,1,1,1,1,1,1,1,1,1,1,1,1,1,1,1,1,1,1,1,1,1,1,1,1,1,1,1,1,1,1,1,1,1,1,1,1,1,1,1,1,1,1,1,1,1,1,1,1,1,1,1,1,1,1,1,1,1,1,1,1,1,1,1,1,1,1,1,1,2,2,3,3,13,28,32,53,80,115,133	0.675630816732	-0.00158873657426	0.435993717344	0.675630816732
GO BP 500 medium	1	KNN(50) > Cutoff(5)	Walkttrap	0.105376005173	0.110473697469	0.30612244898	93	1,1,1,1,1,1,1,1,1,1,1,1,1,1,1,1,1,1,1,1,1,1,1,1,1,1,1,1,1,1,1,1,1,1,1,1,1,1,1,1,1,1,1,1,1,1,1,1,1,1,1,1,1,1,1,1,1,1,1,1,1,1,1,1,1,1,1,1,1,1,1,1,1,1,1,1,2,2,2,3,3,4,5,7,8,9,10,32,34,53,75,105,109	0.679252549318	-0.00164145560362	0.440761876252	0.679252549318
GO BP 500 medium	1	KNN(100) > Cutoff(5)	None	0.0176868438721	6.24175429489e-17	0.102040816327	1	539	0.0	0.0	0.0	0.0
GO BP 500 medium	1	KNN(100) > Cutoff(5)	Louvain	0.0271098613739	0.119780150082	0.374768089054	128	1,1,1,1,1,1,1,1,1,1,1,1,1,1,1,1,1,1,1,1,1,1,1,1,1,1,1,1,1,1,1,1,1,1,1,1,1,1,1,1,1,1,1,1,1,1,1,1,1,1,1,1,1,1,1,1,1,1,1,1,1,1,1,1,1,1,1,1,1,1,1,1,1,1,1,1,1,1,1,1,1,1,1,1,1,1,1,1,1,1,1,1,1,1,1,1,1,1,1,1,1,1,1,1,1,1,1,1,1,1,1,1,1,1,1,1,1,2,3,4,5,8,24,45,63,65,96,107	0.673366559004	-0.0016559533367	0.410606216628	0.673366559004
GO BP 500 medium	1	KNN(100) > Cutoff(5)	Greedy Modularity	0.0262188911438	0.106155435909	0.345083487941	129	1,1,1,1,1,1,1,1,1,1,1,1,1,1,1,1,1,1,1,1,1,1,1,1,1,1,1,1,1,1,1,1,1,1,1,1,1,1,1,1,1,1,1,1,1,1,1,1,1,1,1,1,1,1,1,1,1,1,1,1,1,1,1,1,1,1,1,1,1,1,1,1,1,1,1,1,1,1,1,1,1,1,1,1,1,1,1,1,1,1,1,1,1,1,1,1,1,1,1,1,1,1,1,1,1,1,1,1,1,1,1,1,1,1,1,1,1,2,2,3,4,4,5,5,8,10,113,114,152	0.659461075592	-0.00154364388992	0.416292418231	0.659461075592
GO BP 500 medium	1	KNN(100) > Cutoff(5)	Infomap	0.357099056244	0.123493002828	0.376623376623	136	1,1,1,1,1,1,1,1,1,1,1,1,1,1,1,1,1,1,1,1,1,1,1,1,1,1,1,1,1,1,1,1,1,1,1,1,1,1,1,1,1,1,1,1,1,1,1,1,1,1,1,1,1,1,1,1,1,1,1,1,1,1,1,1,1,1,1,1,1,1,1,1,1,1,1,1,1,1,1,1,1,1,1,1,1,1,1,1,1,1,1,1,1,1,1,1,1,1,1,1,1,1,1,1,1,1,1,1,1,1,1,1,1,1,1,1,1,2,2,3,3,4,4,4,5,5,5,5,6,10,25,29,59,64,86,101	0.669190610543	-0.00168556300513	0.396844642098	0.669190610543
GO BP 500 medium	1	KNN(100) > Cutoff(5)	Label Propagation	0.0204060077667	0.100540161927	0.343228200371	130	1,1,1,1,1,1,1,1,1,1,1,1,1,1,1,1,1,1,1,1,1,1,1,1,1,1,1,1,1,1,1,1,1,1,1,1,1,1,1,1,1,1,1,1,1,1,1,1,1,1,1,1,1,1,1,1,1,1,1,1,1,1,1,1,1,1,1,1,1,1,1,1,1,1,1,1,1,1,1,1,1,1,1,1,1,1,1,1,1,1,1,1,1,1,1,1,1,1,1,1,1,1,1,1,1,1,1,1,1,1,1,1,1,1,1,1,1,2,2,2,2,2,4,5,5,6,27,115,122,128	0.66489087336	-0.00156787928837	0.420386707332	0.66489087336
GO BP 500 medium	1	KNN(100) > Cutoff(5)	Walkttrap	0.091089963913	0.116160571666	0.371057513915	139	1,1,1,1,1,1,1,1,1,1,1,1,1,1,1,1,1,1,1,1,1,1,1,1,1,1,1,1,1,1,1,1,1,1,1,1,1,1,1,1,1,1,1,1,1,1,1,1,1,1,1,1,1,1,1,1,1,1,1,1,1,1,1,1,1,1,1,1,1,1,1,1,1,1,1,1,1,1,1,1,1,1,1,1,1,1,1,1,1,1,1,1,1,1,1,1,1,1,1,1,1,1,1,1,1,1,1,1,1,1,1,1,1,1,1,1,1,1,1,2,2,2,2,2,2,2,2,2,3,3,4,4,5,5,26,59,69,112,112	0.672538003345	-0.00163953622149	0.41423457365	0.672538003345
GO BP 500 medium	1	KNN(250) > Cutoff(5)	None	0.0215609073639	6.24175429489e-17	0.102040816327	1	539	0.0	0.0	0.0	0.0
GO BP 500 medium	1	KNN(250) > Cutoff(5)	Louvain	0.0354671478271	0.0846092800848	0.367346938776	147	1,1,1,1,1,1,1,1,1,1,1,1,1,1,1,1,1,1,1,1,1,1,1,1,1,1,1,1,1,1,1,1,1,1,1,1,1,1,1,1,1,1,1,1,1,1,1,1,1,1,1,1,1,1,1,1,1,1,1,1,1,1,1,1,1,1,1,1,1,1,1,1,1,1,1,1,1,1,1,1,1,1,1,1,1,1,1,1,1,1,1,1,1,1,1,1,1,1,1,1,1,1,1,1,1,1,1,1,1,1,1,1,1,1,1,1,1,1,1,1,1,1,1,1,1,1,1,1,1,1,1,1,1,1,1,1,1,1,2,2,2,7,25,29,99,112,123	0.554041436427	-0.00160832706794	0.393607217476	0.554041436427
GO BP 500 medium	1	KNN(250) > Cutoff(5)	Greedy Modularity	0.0332238674164	0.0949288885643	0.371057513915	145	1,1,1,1,1,1,1,1,1,1,1,1,1,1,1,1,1,1,1,1,1,1,1,1,1,1,1,1,1,1,1,1,1,1,1,1,1,1,1,1,1,1,1,1,1,1,1,1,1,1,1,1,1,1,1,1,1,1,1,1,1,1,1,1,1,1,1,1,1,1,1,1,1,1,1,1,1,1,1,1,1,1,1,1,1,1,1,1,1,1,1,1,1,1,1,1,1,1,1,1,1,1,1,1,1,1,1,1,1,1,1,1,1,1,1,1,1,1,1,1,1,1,1,1,1,1,1,1,1,1,1,1,1,1,1,1,1,1,2,2,2,8,109,134,144	0.526923028352	-0.00153380385749	0.387268347189	0.526923028352
GO BP 500 medium	1	KNN(250) > Cutoff(5)	Infomap	0.313172101974	0.0934346550039	0.382189239332	159	1,1,1,1,1,1,1,1,1,1,1,1,1,1,1,1,1,1,1,1,1,1,1,1,1,1,1,1,1,1,1,1,1,1,1,1,1,1,1,1,1,1,1,1,1,1,1,1,1,1,1,1,1,1,1,1,1,1,1,1,1,1,1,1,1,1,1,1,1,1,1,1,1,1,1,1,1,1,1,1,1,1,1,1,1,1,1,1,1,1,1,1,1,1,1,1,1,1,1,1,1,1,1,1,1,1,1,1,1,1,1,1,1,1,1,1,1,1,1,1,1,1,1,1,1,1,1,1,1,1,1,1,1,1,1,1,1,1,2,2,2,2,2,2,2,2,3,3,5,6,7,8,8,14,14,22,73,110,112	0.544031957543	-0.00165864047169	0.36027722504	0.544031957543
GO BP 500 medium	1	KNN(250) > Cutoff(5)	Label Propagation	0.0220091342926	0.0836008300024	0.369202226345	149	1,1,1,1,1,1,1,1,1,1,1,1,1,1,1,1,1,1,1,1,1,1,1,1,1,1,1,1,1,1,1,1,1,1,1,1,1,1,1,1,1,1,1,1,1,1,1,1,1,1,1,1,1,1,1,1,1,1,1,1,1,1,1,1,1,1,1,1,1,1,1,1,1,1,1,1,1,1,1,1,1,1,1,1,1,1,1,1,1,1,1,1,1,1,1,1,1,1,1,1,1,1,1,1,1,1,1,1,1,1,1,1,1,1,1,1,1,1,1,1,1,1,1,1,1,1,1,1,1,1,1,1,1,1,1,1,1,1,2,2,2,2,2,3,6,8,88,142,144	0.545655551718	-0.00154580639379	0.387068272255	0.545655551718
GO BP 500 medium	1	KNN(250) > Cutoff(5)	Walkttrap	0.096314907074	0.0855860427028	0.367346938776	152	1,1,1,1,1,1,1,1,1,1,1,1,1,1,1,1,1,1,1,1,1,1,1,1,1,1,1,1,1,1,1,1,1,1,1,1,1,1,1,1,1,1,1,1,1,1,1,1,1,1,1,1,1,1,1,1,1,1,1,1,1,1,1,1,1,1,1,1,1,1,1,1,1,1,1,1,1,1,1,1,1,1,1,1,1,1,1,1,1,1,1,1,1,1,1,1,1,1,1,1,1,1,1,1,1,1,1,1,1,1,1,1,1,1,1,1,1,1,1,1,1,1,1,1,1,1,1,1,1,1,1,1,1,1,1,1,1,1,2,2,2,2,2,2,3,5,6,6,21,88,121,139	0.547268089534	-0.001587367415	0.387767198795	0.547268089534
GO BP 500 medium	1	KNN(500) > Cutoff(5)	None	0.0219490528107	6.24175429489e-17	0.102040816327	1	539	0.0	0.0	0.0	0.0
GO BP 500 medium	1	KNN(500) > Cutoff(5)	Louvain	0.029876947403	0.0560288278129	0.443413729128	194	1,1,1,1,1,1,1,1,1,1,1,1,1,1,1,1,1,1,1,1,1,1,1,1,1,1,1,1,1,1,1,1,1,1,1,1,1,1,1,1,1,1,1,1,1,1,1,1,1,1,1,1,1,1,1,1,1,1,1,1,1,1,1,1,1,1,1,1,1,1,1,1,1,1,1,1,1,1,1,1,1,1,1,1,1,1,1,1,1,1,1,1,1,1,1,1,1,1,1,1,1,1,1,1,1,1,1,1,1,1,1,1,1,1,1,1,1,1,1,1,1,1,1,1,1,1,1,1,1,1,1,1,1,1,1,1,1,1,1,1,1,1,1,1,1,1,1,1,1,1,1,1,1,1,1,1,1,1,1,1,1,1,1,1,1,1,1,1,1,1,1,1,1,1,1,1,1,1,1,1,1,1,1,1,2,2,2,3,3,6,6,102,111,118	0.324599985588	-0.0016224281287	0.194058816536	0.324599985588
GO BP 500 medium	1	KNN(500) > Cutoff(5)	Greedy Modularity	0.041955947876	0.0571032520779	0.432282003711	191	1,1,1,1,1,1,1,1,1,1,1,1,1,1,1,1,1,1,1,1,1,1,1,1,1,1,1,1,1,1,1,1,1,1,1,1,1,1,1,1,1,1,1,1,1,1,1,1,1,1,1,1,1,1,1,1,1,1,1,1,1,1,1,1,1,1,1,1,1,1,1,1,1,1,1,1,1,1,1,1,1,1,1,1,1,1,1,1,1,1,1,1,1,1,1,1,1,1,1,1,1,1,1,1,1,1,1,1,1,1,1,1,1,1,1,1,1,1,1,1,1,1,1,1,1,1,1,1,1,1,1,1,1,1,1,1,1,1,1,1,1,1,1,1,1,1,1,1,1,1,1,1,1,1,1,1,1,1,1,1,1,1,1,1,1,1,1,1,1,1,1,1,1,1,1,1,1,1,1,1,1,1,1,1,2,2,2,3,59,124,163	0.284222808085	-0.00156679163849	0.20543460169	0.284222808085
GO BP 500 medium	1	KNN(500) > Cutoff(5)	Infomap	0.225665092468	0.0605286051812	0.450834879406	198	1,1,1,1,1,1,1,1,1,1,1,1,1,1,1,1,1,1,1,1,1,1,1,1,1,1,1,1,1,1,1,1,1,1,1,1,1,1,1,1,1,1,1,1,1,1,1,1,1,1,1,1,1,1,1,1,1,1,1,1,1,1,1,1,1,1,1,1,1,1,1,1,1,1,1,1,1,1,1,1,1,1,1,1,1,1,1,1,1,1,1,1,1,1,1,1,1,1,1,1,1,1,1,1,1,1,1,1,1,1,1,1,1,1,1,1,1,1,1,1,1,1,1,1,1,1,1,1,1,1,1,1,1,1,1,1,1,1,1,1,1,1,1,1,1,1,1,1,1,1,1,1,1,1,1,1,1,1,1,1,1,1,1,1,1,1,1,1,1,1,1,1,1,1,1,1,1,1,1,1,1,1,1,1,2,2,2,2,2,2,2,3,6,6,8,11,112,195	0.261374523191	-0.00153214039298	0.216907449712	0.261374523191
GO BP 500 medium	1	KNN(500) > Cutoff(5)	Leading Eigenvector	0.140471220016	0.0514191481764	0.423005565863	190	1,1,1,1,1,1,1,1,1,1,1,1,1,1,1,1,1,1,1,1,1,1,1,1,1,1,1,1,1,1,1,1,1,1,1,1,1,1,1,1,1,1,1,1,1,1,1,1,1,1,1,1,1,1,1,1,1,1,1,1,1,1,1,1,1,1,1,1,1,1,1,1,1,1,1,1,1,1,1,1,1,1,1,1,1,1,1,1,1,1,1,1,1,1,1,1,1,1,1,1,1,1,1,1,1,1,1,1,1,1,1,1,1,1,1,1,1,1,1,1,1,1,1,1,1,1,1,1,1,1,1,1,1,1,1,1,1,1,1,1,1,1,1,1,1,1,1,1,1,1,1,1,1,1,1,1,1,1,1,1,1,1,1,1,1,1,1,1,1,1,1,1,1,1,1,1,1,1,1,1,1,1,1,1,2,2,2,109,116,124	0.321536280747	-0.00159700271333	0.186316901832	0.321536280747
GO BP 500 medium	1	KNN(500) > Cutoff(5)	Label Propagation	0.0201189517975	0.0583398492406	0.443413729128	192	1,1,1,1,1,1,1,1,1,1,1,1,1,1,1,1,1,1,1,1,1,1,1,1,1,1,1,1,1,1,1,1,1,1,1,1,1,1,1,1,1,1,1,1,1,1,1,1,1,1,1,1,1,1,1,1,1,1,1,1,1,1,1,1,1,1,1,1,1,1,1,1,1,1,1,1,1,1,1,1,1,1,1,1,1,1,1,1,1,1,1,1,1,1,1,1,1,1,1,1,1,1,1,1,1,1,1,1,1,1,1,1,1,1,1,1,1,1,1,1,1,1,1,1,1,1,1,1,1,1,1,1,1,1,1,1,1,1,1,1,1,1,1,1,1,1,1,1,1,1,1,1,1,1,1,1,1,1,1,1,1,1,1,1,1,1,1,1,1,1,1,1,1,1,1,1,1,1,1,1,1,1,2,2,2,2,2,3,4,6,118,216	0.25695740158	-0.00146947896414	0.229195063113	0.25695740158
GO BP 500 medium	1	KNN(500) > Cutoff(5)	Walkttrap	0.125141143799	0.0583364641012	0.447124304267	192	1,1,1,1,1,1,1,1,1,1,1,1,1,1,1,1,1,1,1,1,1,1,1,1,1,1,1,1,1,1,1,1,1,1,1,1,1,1,1,1,1,1,1,1,1,1,1,1,1,1,1,1,1,1,1,1,1,1,1,1,1,1,1,1,1,1,1,1,1,1,1,1,1,1,1,1,1,1,1,1,1,1,1,1,1,1,1,1,1,1,1,1,1,1,1,1,1,1,1,1,1,1,1,1,1,1,1,1,1,1,1,1,1,1,1,1,1,1,1,1,1,1,1,1,1,1,1,1,1,1,1,1,1,1,1,1,1,1,1,1,1,1,1,1,1,1,1,1,1,1,1,1,1,1,1,1,1,1,1,1,1,1,1,1,1,1,1,1,1,1,1,1,1,1,1,1,1,1,1,1,1,1,1,1,2,2,2,3,6,6,118,216	0.257076982732	-0.00146937659709	0.229884819551	0.257076982732
GO BP 500 medium	1	Topological Overlap > Cutoff(5)	None	0.0184690952301	6.24175429489e-17	0.102040816327	1	539	0.0	0.0	0.0	0.0
GO BP 500 medium	1	Topological Overlap > Cutoff(5)	Louvain	0.0300698280334	0.118177178604	0.421150278293	152	1,1,1,1,1,1,1,1,1,1,1,1,1,1,1,1,1,1,1,1,1,1,1,1,1,1,1,1,1,1,1,1,1,1,1,1,1,1,1,1,1,1,1,1,1,1,1,1,1,1,1,1,1,1,1,1,1,1,1,1,1,1,1,1,1,1,1,1,1,1,1,1,1,1,1,1,1,1,1,1,1,1,1,1,1,1,1,1,1,1,1,1,1,1,1,1,1,1,1,1,1,1,1,1,1,1,1,1,1,1,1,1,1,1,1,1,1,1,1,1,1,1,1,1,1,1,1,1,1,1,1,1,1,1,1,1,1,1,1,1,2,2,2,2,2,2,3,6,22,102,112,142	0.464672559232	-0.00157847427776	0.386735439267	0.464672559232
GO BP 500 medium	1	Topological Overlap > Cutoff(5)	Greedy Modularity	0.0458199977875	0.0864195239681	0.410018552876	152	1,1,1,1,1,1,1,1,1,1,1,1,1,1,1,1,1,1,1,1,1,1,1,1,1,1,1,1,1,1,1,1,1,1,1,1,1,1,1,1,1,1,1,1,1,1,1,1,1,1,1,1,1,1,1,1,1,1,1,1,1,1,1,1,1,1,1,1,1,1,1,1,1,1,1,1,1,1,1,1,1,1,1,1,1,1,1,1,1,1,1,1,1,1,1,1,1,1,1,1,1,1,1,1,1,1,1,1,1,1,1,1,1,1,1,1,1,1,1,1,1,1,1,1,1,1,1,1,1,1,1,1,1,1,1,1,1,1,1,1,2,2,2,2,2,2,3,6,22,51,116,189	0.456169629602	-0.00152302972577	0.370952046908	0.456169629602
GO BP 500 medium	1	Topological Overlap > Cutoff(5)	Infomap	0.34307217598	0.123054622186	0.47866419295	164	1,1,1,1,1,1,1,1,1,1,1,1,1,1,1,1,1,1,1,1,1,1,1,1,1,1,1,1,1,1,1,1,1,1,1,1,1,1,1,1,1,1,1,1,1,1,1,1,1,1,1,1,1,1,1,1,1,1,1,1,1,1,1,1,1,1,1,1,1,1,1,1,1,1,1,1,1,1,1,1,1,1,1,1,1,1,1,1,1,1,1,1,1,1,1,1,1,1,1,1,1,1,1,1,1,1,1,1,1,1,1,1,1,1,1,1,1,1,1,1,1,1,1,1,1,1,1,1,1,1,1,1,1,1,1,1,1,1,1,1,2,2,2,2,2,2,2,2,2,3,3,3,4,5,6,9,9,10,12,12,23,38,102,142	0.453212405272	-0.00164523038849	0.365621082517	0.453212405272
GO BP 500 medium	1	Topological Overlap > Cutoff(5)	Label Propagation	0.0206170082092	0.0790213840157	0.430426716141	153	1,1,1,1,1,1,1,1,1,1,1,1,1,1,1,1,1,1,1,1,1,1,1,1,1,1,1,1,1,1,1,1,1,1,1,1,1,1,1,1,1,1,1,1,1,1,1,1,1,1,1,1,1,1,1,1,1,1,1,1,1,1,1,1,1,1,1,1,1,1,1,1,1,1,1,1,1,1,1,1,1,1,1,1,1,1,1,1,1,1,1,1,1,1,1,1,1,1,1,1,1,1,1,1,1,1,1,1,1,1,1,1,1,1,1,1,1,1,1,1,1,1,1,1,1,1,1,1,1,1,1,1,1,1,1,1,1,1,1,1,2,2,2,2,2,3,3,6,7,9,10,140,211	0.449342201418	-0.00144565303388	0.369091700537	0.449342201418
GO BP 500 medium	1	Topological Overlap > Cutoff(5)	Walkttrap	0.100829124451	0.119925139891	0.513914656772	191	1,1,1,1,1,1,1,1,1,1,1,1,1,1,1,1,1,1,1,1,1,1,1,1,1,1,1,1,1,1,1,1,1,1,1,1,1,1,1,1,1,1,1,1,1,1,1,1,1,1,1,1,1,1,1,1,1,1,1,1,1,1,1,1,1,1,1,1,1,1,1,1,1,1,1,1,1,1,1,1,1,1,1,1,1,1,1,1,1,1,1,1,1,1,1,1,1,1,1,1,1,1,1,1,1,1,1,1,1,1,1,1,1,1,1,1,1,1,1,1,1,1,1,1,1,1,1,1,1,1,1,1,1,1,1,1,1,1,1,1,1,1,1,1,1,1,1,1,1,1,1,1,1,1,1,1,1,1,1,1,1,1,1,1,1,1,1,1,1,1,1,2,2,2,2,2,2,2,2,3,3,3,4,5,6,8,9,21,51,106,133	0.449018762114	-0.00165132122781	0.362941110994	0.449018762114
GO BP 500 medium	1	None > Cutoff(5)	None	0.0172538757324	6.24175429489e-17	0.102040816327	1	539	0.0	0.0	0.0	0.0
GO BP 500 medium	1	None > Cutoff(5)	Louvain	0.0350000858307	0.12319758204	0.291280148423	54	1,1,1,1,1,1,1,1,1,1,1,1,1,1,1,1,1,1,1,1,1,1,1,1,1,1,1,1,1,1,1,1,1,1,1,1,1,1,1,1,1,1,1,1,1,1,1,1,52,53,63,63,73,187	0.42505557716	-0.00151454605672	0.42505557716	0.42505557716
GO BP 500 medium	1	None > Cutoff(5)	Greedy Modularity	0.0536470413208	0.101399718072	0.25974025974	54	1,1,1,1,1,1,1,1,1,1,1,1,1,1,1,1,1,1,1,1,1,1,1,1,1,1,1,1,1,1,1,1,1,1,1,1,1,1,1,1,1,1,1,1,1,1,1,1,2,8,75,95,150,161	0.42443103454	-0.00145446939583	0.42443103454	0.42443103454
GO BP 500 medium	1	None > Cutoff(5)	Infomap	0.721691846848	0.143468083054	0.345083487941	78	1,1,1,1,1,1,1,1,1,1,1,1,1,1,1,1,1,1,1,1,1,1,1,1,1,1,1,1,1,1,1,1,1,1,1,1,1,1,1,1,1,1,1,1,1,1,1,1,2,2,2,2,2,3,3,3,3,3,4,4,5,5,6,6,7,7,9,13,14,14,19,20,24,34,49,65,65,96	0.415005288439	-0.00170795579673	0.415005288439	0.415005288439
GO BP 500 medium	1	None > Cutoff(5)	Leading Eigenvector	0.0307738780975	-0.000153684081637	0.183673469388	49	1,1,1,1,1,1,1,1,1,1,1,1,1,1,1,1,1,1,1,1,1,1,1,1,1,1,1,1,1,1,1,1,1,1,1,1,1,1,1,1,1,1,1,1,1,1,1,1,491	0.0	-0.000316007075047	0.0	0.0
GO BP 500 medium	1	None > Cutoff(5)	Label Propagation	0.0231380462646	0.0741862919813	0.257884972171	54	1,1,1,1,1,1,1,1,1,1,1,1,1,1,1,1,1,1,1,1,1,1,1,1,1,1,1,1,1,1,1,1,1,1,1,1,1,1,1,1,1,1,1,1,1,1,1,1,2,6,16,23,168,276	0.382164418587	-0.00118520567376	0.382164418587	0.382164418587
GO BP 500 medium	1	None > Cutoff(5)	Walkttrap	0.103559970856	0.113960307855	0.30426716141	77	1,1,1,1,1,1,1,1,1,1,1,1,1,1,1,1,1,1,1,1,1,1,1,1,1,1,1,1,1,1,1,1,1,1,1,1,1,1,1,1,1,1,1,1,1,1,1,1,1,1,1,1,1,1,1,1,1,1,1,1,1,1,1,1,1,1,1,2,2,2,3,3,6,54,64,127,209	0.432864761376	-0.00143036195619	0.432864761376	0.432864761376
GO BP 500 medium	1	Log > Cutoff(5)	None	0.0176029205322	6.24175429489e-17	0.102040816327	1	539	0.0	0.0	0.0	0.0
GO BP 500 medium	1	Log > Cutoff(5)	Louvain	0.0303189754486	0.155768736166	0.311688311688	54	1,1,1,1,1,1,1,1,1,1,1,1,1,1,1,1,1,1,1,1,1,1,1,1,1,1,1,1,1,1,1,1,1,1,1,1,1,1,1,1,1,1,1,1,1,1,1,1,44,46,65,69,102,165	0.364768329426	-0.00153426450921	0.364768329426	0.364768329426
GO BP 500 medium	1	Log > Cutoff(5)	Greedy Modularity	0.0399689674377	0.109681676378	0.285714285714	55	1,1,1,1,1,1,1,1,1,1,1,1,1,1,1,1,1,1,1,1,1,1,1,1,1,1,1,1,1,1,1,1,1,1,1,1,1,1,1,1,1,1,1,1,1,1,1,1,2,8,25,46,86,115,209	0.409958654022	-0.00142905677633	0.409958654022	0.409958654022
GO BP 500 medium	1	Log > Cutoff(5)	Infomap	0.977877140045	0.162300054796	0.432282003711	86	1,1,1,1,1,1,1,1,1,1,1,1,1,1,1,1,1,1,1,1,1,1,1,1,1,1,1,1,1,1,1,1,1,1,1,1,1,1,1,1,1,1,1,1,1,1,1,1,2,2,2,2,2,2,2,3,3,3,3,3,3,3,3,4,4,4,6,7,8,8,9,10,10,11,11,12,15,17,29,29,30,32,39,44,46,68	0.319836937035	-0.00176025256203	0.319836937035	0.319836937035
GO BP 500 medium	1	Log > Cutoff(5)	Leading Eigenvector	0.166011810303	0.0467029060299	0.241187384045	51	1,1,1,1,1,1,1,1,1,1,1,1,1,1,1,1,1,1,1,1,1,1,1,1,1,1,1,1,1,1,1,1,1,1,1,1,1,1,1,1,1,1,1,1,1,1,1,1,63,88,340	0.381198052869	-0.00104388796495	0.381198052869	0.381198052869
GO BP 500 medium	1	Log > Cutoff(5)	Label Propagation	0.0242910385132	0.125588555661	0.317254174397	71	1,1,1,1,1,1,1,1,1,1,1,1,1,1,1,1,1,1,1,1,1,1,1,1,1,1,1,1,1,1,1,1,1,1,1,1,1,1,1,1,1,1,1,1,1,1,1,1,2,2,2,2,2,2,2,2,3,3,4,6,6,6,8,9,9,24,31,42,65,100,159	0.371650907134	-0.00158199314502	0.371650907134	0.371650907134
GO BP 500 medium	1	Log > Cutoff(5)	Walkttrap	0.105297088623	0.123240898279	0.352504638219	84	1,1,1,1,1,1,1,1,1,1,1,1,1,1,1,1,1,1,1,1,1,1,1,1,1,1,1,1,1,1,1,1,1,1,1,1,1,1,1,1,1,1,1,1,1,1,1,1,1,1,1,1,1,1,1,1,1,1,1,1,1,1,1,1,1,2,2,2,2,2,2,2,3,3,4,5,6,10,14,33,37,64,101,180	0.414731094837	-0.00154114869314	0.414731094837	0.414731094837
GO BP 500 medium	2	Pearson > Cutoff(5)	None	0.0189919471741	-1.56286760212e-17	0.106930693069	1	505	0.0	0.0	0.0	0.0
GO BP 500 medium	2	Pearson > Cutoff(5)	Louvain	0.0246407985687	0.0663996795814	0.277227722772	71	1,1,1,1,1,1,1,1,1,1,1,1,1,1,1,1,1,1,1,1,1,1,1,1,1,1,1,1,1,1,1,1,1,1,1,1,1,1,1,1,1,1,1,1,1,1,2,2,2,2,2,2,2,2,2,3,3,3,3,5,6,6,7,7,10,17,27,53,80,83,128	0.392195226296	-0.00172027952442	0.359976812644	0.392195226296
GO BP 500 medium	2	Pearson > Cutoff(5)	Greedy Modularity	0.0255320072174	0.0487643498581	0.275247524752	71	1,1,1,1,1,1,1,1,1,1,1,1,1,1,1,1,1,1,1,1,1,1,1,1,1,1,1,1,1,1,1,1,1,1,1,1,1,1,1,1,1,1,1,1,1,1,2,2,2,2,2,2,2,2,2,2,3,3,3,3,5,6,6,7,7,10,11,17,60,129,169	0.362881879724	-0.00159800704257	0.326989126504	0.362881879724
GO BP 500 medium	2	Pearson > Cutoff(5)	Infomap	0.414597034454	0.064479236367	0.334653465347	91	1,1,1,1,1,1,1,1,1,1,1,1,1,1,1,1,1,1,1,1,1,1,1,1,1,1,1,1,1,1,1,1,1,1,1,1,1,1,1,1,1,1,1,1,1,1,2,2,2,2,2,2,2,2,2,2,2,3,3,3,3,3,3,3,4,4,4,4,4,5,6,6,6,6,6,7,7,7,7,7,8,8,9,11,17,17,17,22,26,63,128	0.380366036513	-0.00180212646441	0.299626945068	0.380366036513
GO BP 500 medium	2	Pearson > Cutoff(5)	Leading Eigenvector	0.204427957535	0.0597866155851	0.241584158416	63	1,1,1,1,1,1,1,1,1,1,1,1,1,1,1,1,1,1,1,1,1,1,1,1,1,1,1,1,1,1,1,1,1,1,1,1,1,1,1,1,1,1,1,1,1,1,2,2,2,2,2,2,3,3,3,3,5,6,56,70,79,83,136	0.383695661585	-0.00167425229086	0.373354727223	0.383695661585
GO BP 500 medium	2	Pearson > Cutoff(5)	Label Propagation	0.0182571411133	0.0558895436232	0.322772277228	84	1,1,1,1,1,1,1,1,1,1,1,1,1,1,1,1,1,1,1,1,1,1,1,1,1,1,1,1,1,1,1,1,1,1,1,1,1,1,1,1,1,1,1,1,1,1,2,2,2,2,2,2,2,2,2,2,2,3,3,3,3,3,3,3,3,4,4,5,5,6,6,6,6,6,7,8,8,18,18,19,22,26,72,167	0.365792806482	-0.00170526387858	0.330459237957	0.365792806482
GO BP 500 medium	2	Pearson > Cutoff(5)	Walkttrap	0.0881850719452	0.0478947166153	0.291089108911	83	1,1,1,1,1,1,1,1,1,1,1,1,1,1,1,1,1,1,1,1,1,1,1,1,1,1,1,1,1,1,1,1,1,1,1,1,1,1,1,1,1,1,1,1,1,1,2,2,2,2,2,2,2,2,2,2,2,2,2,2,2,3,3,3,3,3,3,4,4,4,5,5,6,6,6,8,10,20,22,22,60,71,158	0.372864384006	-0.00170790912189	0.335269444997	0.372864384006
GO BP 500 medium	2	Spearman > Cutoff(5)	None	0.0157668590546	-1.56286760212e-17	0.106930693069	1	505	0.0	0.0	0.0	0.0
GO BP 500 medium	2	Spearman > Cutoff(5)	Louvain	0.0242509841919	0.0281873761341	0.475247524752	215	1,1,1,1,1,1,1,1,1,1,1,1,1,1,1,1,1,1,1,1,1,1,1,1,1,1,1,1,1,1,1,1,1,1,1,1,1,1,1,1,1,1,1,1,1,1,1,1,1,1,1,1,1,1,1,1,1,1,1,1,1,1,1,1,1,1,1,1,1,1,1,1,1,1,1,1,1,1,1,1,1,1,1,1,1,1,1,1,1,1,1,1,1,1,1,1,1,1,1,1,1,1,1,1,1,1,1,1,1,1,1,1,1,1,1,1,1,1,1,1,1,1,1,1,1,1,1,1,1,1,1,1,1,1,1,1,1,1,1,1,1,1,1,1,1,1,1,1,1,1,1,1,1,1,1,1,1,1,1,1,1,1,1,1,1,1,1,1,1,1,1,1,1,1,1,1,1,1,1,1,1,1,1,1,1,1,1,1,1,1,1,1,1,1,1,1,1,1,1,1,1,1,1,1,1,2,2,2,2,2,5,12,47,81,145	0.311131323217	-0.00174925271877	0.329032387125	0.311131323217
GO BP 500 medium	2	Spearman > Cutoff(5)	Greedy Modularity	0.0256588459015	0.0399945673318	0.481188118812	216	1,1,1,1,1,1,1,1,1,1,1,1,1,1,1,1,1,1,1,1,1,1,1,1,1,1,1,1,1,1,1,1,1,1,1,1,1,1,1,1,1,1,1,1,1,1,1,1,1,1,1,1,1,1,1,1,1,1,1,1,1,1,1,1,1,1,1,1,1,1,1,1,1,1,1,1,1,1,1,1,1,1,1,1,1,1,1,1,1,1,1,1,1,1,1,1,1,1,1,1,1,1,1,1,1,1,1,1,1,1,1,1,1,1,1,1,1,1,1,1,1,1,1,1,1,1,1,1,1,1,1,1,1,1,1,1,1,1,1,1,1,1,1,1,1,1,1,1,1,1,1,1,1,1,1,1,1,1,1,1,1,1,1,1,1,1,1,1,1,1,1,1,1,1,1,1,1,1,1,1,1,1,1,1,1,1,1,1,1,1,1,1,1,1,1,1,1,1,1,1,1,1,1,1,1,2,2,2,2,2,5,5,8,12,120,140	0.310315929958	-0.00171584485181	0.3068985617	0.310315929958
GO BP 500 medium	2	Spearman > Cutoff(5)	Infomap	0.229923009872	0.0281340325702	0.483168316832	220	1,1,1,1,1,1,1,1,1,1,1,1,1,1,1,1,1,1,1,1,1,1,1,1,1,1,1,1,1,1,1,1,1,1,1,1,1,1,1,1,1,1,1,1,1,1,1,1,1,1,1,1,1,1,1,1,1,1,1,1,1,1,1,1,1,1,1,1,1,1,1,1,1,1,1,1,1,1,1,1,1,1,1,1,1,1,1,1,1,1,1,1,1,1,1,1,1,1,1,1,1,1,1,1,1,1,1,1,1,1,1,1,1,1,1,1,1,1,1,1,1,1,1,1,1,1,1,1,1,1,1,1,1,1,1,1,1,1,1,1,1,1,1,1,1,1,1,1,1,1,1,1,1,1,1,1,1,1,1,1,1,1,1,1,1,1,1,1,1,1,1,1,1,1,1,1,1,1,1,1,1,1,1,1,1,1,1,1,1,1,1,1,1,1,1,1,1,1,1,1,1,1,1,1,1,2,2,2,2,2,2,3,5,6,7,7,11,34,71,144	0.308251275832	-0.00177055470752	0.303748507757	0.308251275832
GO BP 500 medium	2	Spearman > Cutoff(5)	Leading Eigenvector	0.0951089859009	0.0312303849602	0.481188118812	215	1,1,1,1,1,1,1,1,1,1,1,1,1,1,1,1,1,1,1,1,1,1,1,1,1,1,1,1,1,1,1,1,1,1,1,1,1,1,1,1,1,1,1,1,1,1,1,1,1,1,1,1,1,1,1,1,1,1,1,1,1,1,1,1,1,1,1,1,1,1,1,1,1,1,1,1,1,1,1,1,1,1,1,1,1,1,1,1,1,1,1,1,1,1,1,1,1,1,1,1,1,1,1,1,1,1,1,1,1,1,1,1,1,1,1,1,1,1,1,1,1,1,1,1,1,1,1,1,1,1,1,1,1,1,1,1,1,1,1,1,1,1,1,1,1,1,1,1,1,1,1,1,1,1,1,1,1,1,1,1,1,1,1,1,1,1,1,1,1,1,1,1,1,1,1,1,1,1,1,1,1,1,1,1,1,1,1,1,1,1,1,1,1,1,1,1,1,1,1,1,1,1,1,1,1,2,2,2,2,2,3,7,52,78,150	0.309332485161	-0.00173850058273	0.32886920464	0.309332485161
GO BP 500 medium	2	Spearman > Cutoff(5)	Label Propagation	0.0173799991608	0.0305710149778	0.485148514851	216	1,1,1,1,1,1,1,1,1,1,1,1,1,1,1,1,1,1,1,1,1,1,1,1,1,1,1,1,1,1,1,1,1,1,1,1,1,1,1,1,1,1,1,1,1,1,1,1,1,1,1,1,1,1,1,1,1,1,1,1,1,1,1,1,1,1,1,1,1,1,1,1,1,1,1,1,1,1,1,1,1,1,1,1,1,1,1,1,1,1,1,1,1,1,1,1,1,1,1,1,1,1,1,1,1,1,1,1,1,1,1,1,1,1,1,1,1,1,1,1,1,1,1,1,1,1,1,1,1,1,1,1,1,1,1,1,1,1,1,1,1,1,1,1,1,1,1,1,1,1,1,1,1,1,1,1,1,1,1,1,1,1,1,1,1,1,1,1,1,1,1,1,1,1,1,1,1,1,1,1,1,1,1,1,1,1,1,1,1,1,1,1,1,1,1,1,1,1,1,1,1,1,1,2,2,2,2,2,2,5,7,11,11,22,84,150	0.303455214272	-0.00174620290883	0.304239444576	0.303455214272
GO BP 500 medium	2	Spearman > Cutoff(5)	Walkttrap	0.0747830867767	0.0399111551976	0.479207920792	214	1,1,1,1,1,1,1,1,1,1,1,1,1,1,1,1,1,1,1,1,1,1,1,1,1,1,1,1,1,1,1,1,1,1,1,1,1,1,1,1,1,1,1,1,1,1,1,1,1,1,1,1,1,1,1,1,1,1,1,1,1,1,1,1,1,1,1,1,1,1,1,1,1,1,1,1,1,1,1,1,1,1,1,1,1,1,1,1,1,1,1,1,1,1,1,1,1,1,1,1,1,1,1,1,1,1,1,1,1,1,1,1,1,1,1,1,1,1,1,1,1,1,1,1,1,1,1,1,1,1,1,1,1,1,1,1,1,1,1,1,1,1,1,1,1,1,1,1,1,1,1,1,1,1,1,1,1,1,1,1,1,1,1,1,1,1,1,1,1,1,1,1,1,1,1,1,1,1,1,1,1,1,1,1,1,1,1,1,1,1,1,1,1,1,1,1,1,1,1,1,1,1,1,1,1,2,2,2,2,2,7,11,122,150	0.309088640447	-0.00169020155198	0.307408297947	0.309088640447
GO BP 500 medium	2	Cosine > Cutoff(5)	None	0.0155539512634	-1.56286760212e-17	0.106930693069	1	505	0.0	0.0	0.0	0.0
GO BP 500 medium	2	Cosine > Cutoff(5)	Louvain	0.0261800289154	0.0498690405063	0.368316831683	124	1,1,1,1,1,1,1,1,1,1,1,1,1,1,1,1,1,1,1,1,1,1,1,1,1,1,1,1,1,1,1,1,1,1,1,1,1,1,1,1,1,1,1,1,1,1,1,1,1,1,1,1,1,1,1,1,1,1,1,1,1,1,1,1,1,1,1,1,1,1,1,1,1,1,1,1,1,1,1,1,1,2,2,2,2,2,2,2,2,2,2,2,2,2,2,2,2,2,2,2,2,3,3,3,3,3,3,3,3,3,4,5,5,5,5,6,6,9,9,12,37,61,90,103	0.329697415536	-0.00179324155895	0.249509708682	0.329697415536
GO BP 500 medium	2	Cosine > Cutoff(5)	Greedy Modularity	0.027172088623	0.0460124061877	0.356435643564	120	1,1,1,1,1,1,1,1,1,1,1,1,1,1,1,1,1,1,1,1,1,1,1,1,1,1,1,1,1,1,1,1,1,1,1,1,1,1,1,1,1,1,1,1,1,1,1,1,1,1,1,1,1,1,1,1,1,1,1,1,1,1,1,1,1,1,1,1,1,1,1,1,1,1,1,1,1,1,1,1,1,2,2,2,2,2,2,2,2,2,2,2,2,2,2,2,2,2,2,3,3,3,3,3,3,3,3,4,5,5,5,5,6,6,9,12,37,68,96,106	0.328147704141	-0.0017734177944	0.259203267171	0.328147704141
GO BP 500 medium	2	Cosine > Cutoff(5)	Infomap	0.348878145218	0.0445413125408	0.427722772277	138	1,1,1,1,1,1,1,1,1,1,1,1,1,1,1,1,1,1,1,1,1,1,1,1,1,1,1,1,1,1,1,1,1,1,1,1,1,1,1,1,1,1,1,1,1,1,1,1,1,1,1,1,1,1,1,1,1,1,1,1,1,1,1,1,1,1,1,1,1,1,1,1,1,1,1,1,1,1,1,1,1,2,2,2,2,2,2,2,2,2,2,2,2,2,2,2,2,2,2,2,2,2,2,2,3,3,3,3,3,3,3,3,3,3,3,3,3,4,4,4,4,5,5,5,6,6,6,6,6,7,8,9,9,9,15,16,31,174	0.161030402494	-0.00172984908109	0.18411832363	0.161030402494
GO BP 500 medium	2	Cosine > Cutoff(5)	Leading Eigenvector	0.248182058334	0.0468755225257	0.362376237624	118	1,1,1,1,1,1,1,1,1,1,1,1,1,1,1,1,1,1,1,1,1,1,1,1,1,1,1,1,1,1,1,1,1,1,1,1,1,1,1,1,1,1,1,1,1,1,1,1,1,1,1,1,1,1,1,1,1,1,1,1,1,1,1,1,1,1,1,1,1,1,1,1,1,1,1,1,1,1,1,1,1,1,1,2,2,2,2,2,2,2,2,2,2,2,2,2,2,2,2,3,3,3,3,3,3,4,4,5,5,5,6,6,9,26,37,61,88,116	0.323533720791	-0.00177074143058	0.258266246586	0.323533720791
GO BP 500 medium	2	Cosine > Cutoff(5)	Label Propagation	0.0171070098877	0.0348491226032	0.40396039604	129	1,1,1,1,1,1,1,1,1,1,1,1,1,1,1,1,1,1,1,1,1,1,1,1,1,1,1,1,1,1,1,1,1,1,1,1,1,1,1,1,1,1,1,1,1,1,1,1,1,1,1,1,1,1,1,1,1,1,1,1,1,1,1,1,1,1,1,1,1,1,1,1,1,1,1,1,1,1,1,1,1,2,2,2,2,2,2,2,2,2,2,2,2,2,2,2,2,2,2,2,2,2,3,3,3,3,3,3,3,3,3,3,3,3,4,4,4,5,5,5,6,6,6,7,9,17,18,37,213	0.148998289835	-0.00161079757198	0.211135598867	0.148998289835
GO BP 500 medium	2	Cosine > Cutoff(5)	Walkttrap	0.0972950458527	0.0402515967446	0.60396039604	247	1,1,1,1,1,1,1,1,1,1,1,1,1,1,1,1,1,1,1,1,1,1,1,1,1,1,1,1,1,1,1,1,1,1,1,1,1,1,1,1,1,1,1,1,1,1,1,1,1,1,1,1,1,1,1,1,1,1,1,1,1,1,1,1,1,1,1,1,1,1,1,1,1,1,1,1,1,1,1,1,1,1,1,1,1,1,1,1,1,1,1,1,1,1,1,1,1,1,1,1,1,1,1,1,1,1,1,1,1,1,1,1,1,1,1,1,1,1,1,1,1,1,1,1,1,1,1,1,1,1,1,1,1,1,1,1,1,1,1,1,1,1,1,1,1,1,1,1,1,1,1,1,1,1,1,1,1,1,1,1,1,1,1,1,1,1,1,1,1,1,1,1,1,1,1,1,1,1,1,1,1,1,1,1,1,1,1,1,1,1,1,1,1,1,1,1,1,1,1,1,2,2,2,2,2,2,2,2,2,2,2,2,2,2,2,2,2,2,2,2,2,2,2,2,2,2,2,2,2,2,2,2,3,3,3,3,3,3,3,4,4,6,13,25,29,40,99	0.2432443126	-0.00187913416518	0.133114157485	0.2432443126
GO BP 500 medium	2	KNN(10) > Cutoff(5)	None	0.0157768726349	-1.56286760212e-17	0.106930693069	1	505	0.0	0.0	0.0	0.0
GO BP 500 medium	2	KNN(10) > Cutoff(5)	Louvain	0.0412199497223	0.0746059404591	0.154455445545	5	12,104,115,126,148	0.554492270052	-0.00150203139126	0.457045161589	0.554492270052
GO BP 500 medium	2	KNN(10) > Cutoff(5)	Greedy Modularity	0.0803740024567	0.0548271524816	0.140594059406	5	2,15,100,165,223	0.502422177311	-0.00130583213908	0.389806944743	0.502422177311
GO BP 500 medium	2	KNN(10) > Cutoff(5)	Infomap	0.607882976532	0.0866900777647	0.186138613861	10	3,5,12,21,37,40,49,59,116,163	0.526428389214	-0.00159904957964	0.434913082089	0.526428389214
GO BP 500 medium	2	KNN(10) > Cutoff(5)	Leading Eigenvector	0.210783958435	0.0645151306747	0.144554455446	6	1,10,98,110,118,168	0.54429977501	-0.00148656449803	0.457724301716	0.54429977501
GO BP 500 medium	2	KNN(10) > Cutoff(5)	Label Propagation	0.0206379890442	0.0641666698033	0.148514851485	6	9,32,48,96,118,202	0.528382300241	-0.00146011206495	0.451329336018	0.528382300241
GO BP 500 medium	2	KNN(10) > Cutoff(5)	Walkttrap	0.137104034424	0.0711870624729	0.156435643564	6	1,14,96,108,109,177	0.544175439634	-0.00148396593549	0.466882193287	0.544175439634
GO BP 500 medium	2	KNN(50) > Cutoff(5)	None	0.015007019043	-1.56286760212e-17	0.106930693069	1	505	0.0	0.0	0.0	0.0
GO BP 500 medium	2	KNN(50) > Cutoff(5)	Louvain	0.0262100696564	0.060103377838	0.285148514851	98	1,1,1,1,1,1,1,1,1,1,1,1,1,1,1,1,1,1,1,1,1,1,1,1,1,1,1,1,1,1,1,1,1,1,1,1,1,1,1,1,1,1,1,1,1,1,1,1,1,1,1,1,1,1,1,1,1,1,1,1,1,1,1,1,1,1,1,1,1,1,1,1,1,1,1,1,1,1,1,1,1,1,1,1,1,1,1,1,1,2,2,2,9,22,68,87,91,133	0.564415612076	-0.00168203241823	0.436300010262	0.564415612076
GO BP 500 medium	2	KNN(50) > Cutoff(5)	Greedy Modularity	0.0284299850464	0.0412221448175	0.273267326733	101	1,1,1,1,1,1,1,1,1,1,1,1,1,1,1,1,1,1,1,1,1,1,1,1,1,1,1,1,1,1,1,1,1,1,1,1,1,1,1,1,1,1,1,1,1,1,1,1,1,1,1,1,1,1,1,1,1,1,1,1,1,1,1,1,1,1,1,1,1,1,1,1,1,1,1,1,1,1,1,1,1,1,1,1,1,1,1,1,1,2,2,2,2,2,3,5,9,10,56,145,178	0.515567318505	-0.00154712500953	0.366055372519	0.515567318505
GO BP 500 medium	2	KNN(50) > Cutoff(5)	Infomap	0.321372032166	0.0604506177153	0.29504950495	107	1,1,1,1,1,1,1,1,1,1,1,1,1,1,1,1,1,1,1,1,1,1,1,1,1,1,1,1,1,1,1,1,1,1,1,1,1,1,1,1,1,1,1,1,1,1,1,1,1,1,1,1,1,1,1,1,1,1,1,1,1,1,1,1,1,1,1,1,1,1,1,1,1,1,1,1,1,1,1,1,1,1,1,1,1,1,1,1,1,2,2,2,2,2,3,3,4,6,8,9,10,12,25,39,71,85,131	0.560353798127	-0.00173406591013	0.412369124192	0.560353798127
GO BP 500 medium	2	KNN(50) > Cutoff(5)	Label Propagation	0.0200781822205	0.0499754042508	0.29900990099	101	1,1,1,1,1,1,1,1,1,1,1,1,1,1,1,1,1,1,1,1,1,1,1,1,1,1,1,1,1,1,1,1,1,1,1,1,1,1,1,1,1,1,1,1,1,1,1,1,1,1,1,1,1,1,1,1,1,1,1,1,1,1,1,1,1,1,1,1,1,1,1,1,1,1,1,1,1,1,1,1,1,1,1,1,1,1,1,1,1,2,2,2,3,3,5,6,22,29,40,143,159	0.529346765472	-0.00160418446371	0.386346632599	0.529346765472
GO BP 500 medium	2	KNN(50) > Cutoff(5)	Walkttrap	0.084869146347	0.0509736990196	0.29900990099	114	1,1,1,1,1,1,1,1,1,1,1,1,1,1,1,1,1,1,1,1,1,1,1,1,1,1,1,1,1,1,1,1,1,1,1,1,1,1,1,1,1,1,1,1,1,1,1,1,1,1,1,1,1,1,1,1,1,1,1,1,1,1,1,1,1,1,1,1,1,1,1,1,1,1,1,1,1,1,1,1,1,1,1,1,1,1,1,1,1,1,1,1,2,2,2,2,2,2,2,2,3,3,3,3,3,4,6,11,20,29,33,49,78,152	0.53995756017	-0.00171757204009	0.388256317684	0.53995756017
GO BP 500 medium	2	KNN(100) > Cutoff(5)	None	0.0156741142273	-1.56286760212e-17	0.106930693069	1	505	0.0	0.0	0.0	0.0
GO BP 500 medium	2	KNN(100) > Cutoff(5)	Louvain	0.0222609043121	0.0344689108168	0.350495049505	141	1,1,1,1,1,1,1,1,1,1,1,1,1,1,1,1,1,1,1,1,1,1,1,1,1,1,1,1,1,1,1,1,1,1,1,1,1,1,1,1,1,1,1,1,1,1,1,1,1,1,1,1,1,1,1,1,1,1,1,1,1,1,1,1,1,1,1,1,1,1,1,1,1,1,1,1,1,1,1,1,1,1,1,1,1,1,1,1,1,1,1,1,1,1,1,1,1,1,1,1,1,1,1,1,1,1,1,1,1,1,1,1,1,1,1,1,1,1,1,1,1,1,1,1,1,1,1,1,1,1,1,1,1,2,2,2,2,51,71,89,153	0.523225916696	-0.00167976062104	0.404226315714	0.523225916696
GO BP 500 medium	2	KNN(100) > Cutoff(5)	Greedy Modularity	0.0271761417389	0.0424349530779	0.348514851485	142	1,1,1,1,1,1,1,1,1,1,1,1,1,1,1,1,1,1,1,1,1,1,1,1,1,1,1,1,1,1,1,1,1,1,1,1,1,1,1,1,1,1,1,1,1,1,1,1,1,1,1,1,1,1,1,1,1,1,1,1,1,1,1,1,1,1,1,1,1,1,1,1,1,1,1,1,1,1,1,1,1,1,1,1,1,1,1,1,1,1,1,1,1,1,1,1,1,1,1,1,1,1,1,1,1,1,1,1,1,1,1,1,1,1,1,1,1,1,1,1,1,1,1,1,1,1,1,1,1,1,1,1,1,2,2,2,2,3,25,32,151,153	0.504482244215	-0.0016105486079	0.361487480158	0.504482244215
GO BP 500 medium	2	KNN(100) > Cutoff(5)	Infomap	0.286206960678	0.0406314505845	0.364356435644	149	1,1,1,1,1,1,1,1,1,1,1,1,1,1,1,1,1,1,1,1,1,1,1,1,1,1,1,1,1,1,1,1,1,1,1,1,1,1,1,1,1,1,1,1,1,1,1,1,1,1,1,1,1,1,1,1,1,1,1,1,1,1,1,1,1,1,1,1,1,1,1,1,1,1,1,1,1,1,1,1,1,1,1,1,1,1,1,1,1,1,1,1,1,1,1,1,1,1,1,1,1,1,1,1,1,1,1,1,1,1,1,1,1,1,1,1,1,1,1,1,1,1,1,1,1,1,1,1,1,1,1,1,1,2,2,2,2,3,3,3,7,8,8,17,24,32,39,85,135	0.518344247775	-0.00175684612308	0.366510505586	0.518344247775
GO BP 500 medium	2	KNN(100) > Cutoff(5)	Label Propagation	0.0186228752136	0.0415260004219	0.352475247525	144	1,1,1,1,1,1,1,1,1,1,1,1,1,1,1,1,1,1,1,1,1,1,1,1,1,1,1,1,1,1,1,1,1,1,1,1,1,1,1,1,1,1,1,1,1,1,1,1,1,1,1,1,1,1,1,1,1,1,1,1,1,1,1,1,1,1,1,1,1,1,1,1,1,1,1,1,1,1,1,1,1,1,1,1,1,1,1,1,1,1,1,1,1,1,1,1,1,1,1,1,1,1,1,1,1,1,1,1,1,1,1,1,1,1,1,1,1,1,1,1,1,1,1,1,1,1,1,1,1,1,1,1,1,2,2,2,2,3,6,6,10,32,152,155	0.502618554646	-0.00160692306854	0.350872749654	0.502618554646
GO BP 500 medium	2	KNN(100) > Cutoff(5)	Walkttrap	0.0823440551758	0.035592954754	0.358415841584	154	1,1,1,1,1,1,1,1,1,1,1,1,1,1,1,1,1,1,1,1,1,1,1,1,1,1,1,1,1,1,1,1,1,1,1,1,1,1,1,1,1,1,1,1,1,1,1,1,1,1,1,1,1,1,1,1,1,1,1,1,1,1,1,1,1,1,1,1,1,1,1,1,1,1,1,1,1,1,1,1,1,1,1,1,1,1,1,1,1,1,1,1,1,1,1,1,1,1,1,1,1,1,1,1,1,1,1,1,1,1,1,1,1,1,1,1,1,1,1,1,1,1,1,1,1,1,1,1,1,1,1,1,1,1,1,1,2,2,2,2,2,2,2,3,3,3,3,6,10,21,31,42,82,151	0.516417879672	-0.00172717271727	0.36392474189	0.516417879672
GO BP 500 medium	2	KNN(250) > Cutoff(5)	None	0.0187470912933	-1.56286760212e-17	0.106930693069	1	505	0.0	0.0	0.0	0.0
GO BP 500 medium	2	KNN(250) > Cutoff(5)	Louvain	0.023246049881	0.0416108873826	0.514851485149	233	1,1,1,1,1,1,1,1,1,1,1,1,1,1,1,1,1,1,1,1,1,1,1,1,1,1,1,1,1,1,1,1,1,1,1,1,1,1,1,1,1,1,1,1,1,1,1,1,1,1,1,1,1,1,1,1,1,1,1,1,1,1,1,1,1,1,1,1,1,1,1,1,1,1,1,1,1,1,1,1,1,1,1,1,1,1,1,1,1,1,1,1,1,1,1,1,1,1,1,1,1,1,1,1,1,1,1,1,1,1,1,1,1,1,1,1,1,1,1,1,1,1,1,1,1,1,1,1,1,1,1,1,1,1,1,1,1,1,1,1,1,1,1,1,1,1,1,1,1,1,1,1,1,1,1,1,1,1,1,1,1,1,1,1,1,1,1,1,1,1,1,1,1,1,1,1,1,1,1,1,1,1,1,1,1,1,1,1,1,1,1,1,1,1,1,1,1,1,1,1,1,1,1,1,1,1,1,1,1,1,1,1,1,1,1,1,1,1,1,1,1,1,1,1,1,1,1,1,5,7,13,113,139	0.235825688803	-0.00173079825663	0.293433904171	0.235825688803
GO BP 500 medium	2	KNN(250) > Cutoff(5)	Greedy Modularity	0.0241751670837	0.0427799751521	0.518811881188	232	1,1,1,1,1,1,1,1,1,1,1,1,1,1,1,1,1,1,1,1,1,1,1,1,1,1,1,1,1,1,1,1,1,1,1,1,1,1,1,1,1,1,1,1,1,1,1,1,1,1,1,1,1,1,1,1,1,1,1,1,1,1,1,1,1,1,1,1,1,1,1,1,1,1,1,1,1,1,1,1,1,1,1,1,1,1,1,1,1,1,1,1,1,1,1,1,1,1,1,1,1,1,1,1,1,1,1,1,1,1,1,1,1,1,1,1,1,1,1,1,1,1,1,1,1,1,1,1,1,1,1,1,1,1,1,1,1,1,1,1,1,1,1,1,1,1,1,1,1,1,1,1,1,1,1,1,1,1,1,1,1,1,1,1,1,1,1,1,1,1,1,1,1,1,1,1,1,1,1,1,1,1,1,1,1,1,1,1,1,1,1,1,1,1,1,1,1,1,1,1,1,1,1,1,1,1,1,1,1,1,1,1,1,1,1,1,1,1,1,1,1,1,1,1,1,1,1,1,7,13,113,144	0.234902259796	-0.00171998387958	0.293558590246	0.234902259796
GO BP 500 medium	2	KNN(250) > Cutoff(5)	Infomap	0.14498090744	0.0266095609355	0.522772277228	240	1,1,1,1,1,1,1,1,1,1,1,1,1,1,1,1,1,1,1,1,1,1,1,1,1,1,1,1,1,1,1,1,1,1,1,1,1,1,1,1,1,1,1,1,1,1,1,1,1,1,1,1,1,1,1,1,1,1,1,1,1,1,1,1,1,1,1,1,1,1,1,1,1,1,1,1,1,1,1,1,1,1,1,1,1,1,1,1,1,1,1,1,1,1,1,1,1,1,1,1,1,1,1,1,1,1,1,1,1,1,1,1,1,1,1,1,1,1,1,1,1,1,1,1,1,1,1,1,1,1,1,1,1,1,1,1,1,1,1,1,1,1,1,1,1,1,1,1,1,1,1,1,1,1,1,1,1,1,1,1,1,1,1,1,1,1,1,1,1,1,1,1,1,1,1,1,1,1,1,1,1,1,1,1,1,1,1,1,1,1,1,1,1,1,1,1,1,1,1,1,1,1,1,1,1,1,1,1,1,1,1,1,1,1,1,1,1,1,1,1,1,1,1,1,1,1,1,1,2,3,4,4,5,6,6,7,8,31,63,138	0.232513754782	-0.00179384840889	0.263926374699	0.232513754782
GO BP 500 medium	2	KNN(250) > Cutoff(5)	Leading Eigenvector	0.0516700744629	0.0424307501534	0.520792079208	231	1,1,1,1,1,1,1,1,1,1,1,1,1,1,1,1,1,1,1,1,1,1,1,1,1,1,1,1,1,1,1,1,1,1,1,1,1,1,1,1,1,1,1,1,1,1,1,1,1,1,1,1,1,1,1,1,1,1,1,1,1,1,1,1,1,1,1,1,1,1,1,1,1,1,1,1,1,1,1,1,1,1,1,1,1,1,1,1,1,1,1,1,1,1,1,1,1,1,1,1,1,1,1,1,1,1,1,1,1,1,1,1,1,1,1,1,1,1,1,1,1,1,1,1,1,1,1,1,1,1,1,1,1,1,1,1,1,1,1,1,1,1,1,1,1,1,1,1,1,1,1,1,1,1,1,1,1,1,1,1,1,1,1,1,1,1,1,1,1,1,1,1,1,1,1,1,1,1,1,1,1,1,1,1,1,1,1,1,1,1,1,1,1,1,1,1,1,1,1,1,1,1,1,1,1,1,1,1,1,1,1,1,1,1,1,1,1,1,1,1,1,1,1,1,1,1,1,1,7,126,144	0.234289847509	-0.00169712586534	0.283949782877	0.234289847509
GO BP 500 medium	2	KNN(250) > Cutoff(5)	Label Propagation	0.0183110237122	0.0300406837265	0.520792079208	234	1,1,1,1,1,1,1,1,1,1,1,1,1,1,1,1,1,1,1,1,1,1,1,1,1,1,1,1,1,1,1,1,1,1,1,1,1,1,1,1,1,1,1,1,1,1,1,1,1,1,1,1,1,1,1,1,1,1,1,1,1,1,1,1,1,1,1,1,1,1,1,1,1,1,1,1,1,1,1,1,1,1,1,1,1,1,1,1,1,1,1,1,1,1,1,1,1,1,1,1,1,1,1,1,1,1,1,1,1,1,1,1,1,1,1,1,1,1,1,1,1,1,1,1,1,1,1,1,1,1,1,1,1,1,1,1,1,1,1,1,1,1,1,1,1,1,1,1,1,1,1,1,1,1,1,1,1,1,1,1,1,1,1,1,1,1,1,1,1,1,1,1,1,1,1,1,1,1,1,1,1,1,1,1,1,1,1,1,1,1,1,1,1,1,1,1,1,1,1,1,1,1,1,1,1,1,1,1,1,1,1,1,1,1,1,1,1,1,1,1,1,1,1,1,1,1,2,4,5,7,8,39,70,144	0.233595523014	-0.00176987005631	0.285929452493	0.233595523014
GO BP 500 medium	2	KNN(250) > Cutoff(5)	Walkttrap	0.0768690109253	0.0427171203841	0.518811881188	233	1,1,1,1,1,1,1,1,1,1,1,1,1,1,1,1,1,1,1,1,1,1,1,1,1,1,1,1,1,1,1,1,1,1,1,1,1,1,1,1,1,1,1,1,1,1,1,1,1,1,1,1,1,1,1,1,1,1,1,1,1,1,1,1,1,1,1,1,1,1,1,1,1,1,1,1,1,1,1,1,1,1,1,1,1,1,1,1,1,1,1,1,1,1,1,1,1,1,1,1,1,1,1,1,1,1,1,1,1,1,1,1,1,1,1,1,1,1,1,1,1,1,1,1,1,1,1,1,1,1,1,1,1,1,1,1,1,1,1,1,1,1,1,1,1,1,1,1,1,1,1,1,1,1,1,1,1,1,1,1,1,1,1,1,1,1,1,1,1,1,1,1,1,1,1,1,1,1,1,1,1,1,1,1,1,1,1,1,1,1,1,1,1,1,1,1,1,1,1,1,1,1,1,1,1,1,1,1,1,1,1,1,1,1,1,1,1,1,1,1,1,1,1,1,1,1,1,1,5,7,8,113,144	0.234746631644	-0.00172060628977	0.290586583739	0.234746631644
GO BP 500 medium	2	KNN(500) > Cutoff(5)	None	0.0210349559784	-1.56286760212e-17	0.106930693069	1	505	0.0	0.0	0.0	0.0
GO BP 500 medium	2	KNN(500) > Cutoff(5)	Louvain	0.0800080299377	0.0233778973185	0.0930693069307	4	34,116,169,186	0.386339229003	-0.0013790742582	0.284102440633	0.386339229003
GO BP 500 medium	2	KNN(500) > Cutoff(5)	Greedy Modularity	0.243082046509	0.0259741558702	0.108910891089	3	35,233,237	0.355169774738	-0.00111521901837	0.323435296731	0.355169774738
GO BP 500 medium	2	KNN(500) > Cutoff(5)	Infomap	0.723666906357	0.0151857069412	0.10297029703	4	25,27,174,279	0.355647096002	-0.00113242866012	0.325948125035	0.355647096002
GO BP 500 medium	2	KNN(500) > Cutoff(5)	Leading Eigenvector	0.255082845688	0.0203542405564	0.0990099009901	4	91,96,158,160	0.369933910811	-0.00145460373477	0.273875047217	0.369933910811
GO BP 500 medium	2	KNN(500) > Cutoff(5)	Label Propagation	0.0242741107941	0.0204605630511	0.106930693069	2	210,295	0.352776965867	-0.000963957781917	0.344887854952	0.352776965867
GO BP 500 medium	2	KNN(500) > Cutoff(5)	Walkttrap	0.228755950928	0.0131929902544	0.10099009901	3	72,161,272	0.356946624994	-0.00116652117828	0.321947375419	0.356946624994
GO BP 500 medium	2	Topological Overlap > Cutoff(5)	None	0.0175070762634	-1.56286760212e-17	0.106930693069	1	505	0.0	0.0	0.0	0.0
GO BP 500 medium	2	Topological Overlap > Cutoff(5)	Louvain	0.02397108078	0.0815649483429	0.40198019802	147	1,1,1,1,1,1,1,1,1,1,1,1,1,1,1,1,1,1,1,1,1,1,1,1,1,1,1,1,1,1,1,1,1,1,1,1,1,1,1,1,1,1,1,1,1,1,1,1,1,1,1,1,1,1,1,1,1,1,1,1,1,1,1,1,1,1,1,1,1,1,1,1,1,1,1,1,1,1,1,1,1,1,1,1,1,1,1,1,1,1,1,1,1,1,1,1,1,1,1,1,1,1,1,1,1,1,1,1,1,1,1,1,1,1,1,1,1,1,1,1,1,1,1,1,1,1,1,1,1,1,1,1,1,1,1,2,2,2,2,2,4,5,6,62,88,93,102	0.268206901193	-0.00174393111164	0.371908597447	0.268206901193
GO BP 500 medium	2	Topological Overlap > Cutoff(5)	Greedy Modularity	0.0371110439301	0.0847720463111	0.40396039604	147	1,1,1,1,1,1,1,1,1,1,1,1,1,1,1,1,1,1,1,1,1,1,1,1,1,1,1,1,1,1,1,1,1,1,1,1,1,1,1,1,1,1,1,1,1,1,1,1,1,1,1,1,1,1,1,1,1,1,1,1,1,1,1,1,1,1,1,1,1,1,1,1,1,1,1,1,1,1,1,1,1,1,1,1,1,1,1,1,1,1,1,1,1,1,1,1,1,1,1,1,1,1,1,1,1,1,1,1,1,1,1,1,1,1,1,1,1,1,1,1,1,1,1,1,1,1,1,1,1,1,1,1,1,1,1,2,2,2,2,2,4,5,5,63,83,96,104	0.275265761446	-0.00174207944132	0.374541808491	0.275265761446
GO BP 500 medium	2	Topological Overlap > Cutoff(5)	Infomap	0.333930015564	0.0982375280088	0.447524752475	162	1,1,1,1,1,1,1,1,1,1,1,1,1,1,1,1,1,1,1,1,1,1,1,1,1,1,1,1,1,1,1,1,1,1,1,1,1,1,1,1,1,1,1,1,1,1,1,1,1,1,1,1,1,1,1,1,1,1,1,1,1,1,1,1,1,1,1,1,1,1,1,1,1,1,1,1,1,1,1,1,1,1,1,1,1,1,1,1,1,1,1,1,1,1,1,1,1,1,1,1,1,1,1,1,1,1,1,1,1,1,1,1,1,1,1,1,1,1,1,1,1,1,1,1,1,1,1,1,1,1,1,1,1,1,1,2,2,2,2,2,2,2,2,2,3,3,4,4,4,4,4,5,5,6,8,8,8,10,28,54,61,133	0.238504226562	-0.0017837342433	0.335760922806	0.238504226562
GO BP 500 medium	2	Topological Overlap > Cutoff(5)	Leading Eigenvector	0.14307308197	0.0672221351418	0.378217821782	142	1,1,1,1,1,1,1,1,1,1,1,1,1,1,1,1,1,1,1,1,1,1,1,1,1,1,1,1,1,1,1,1,1,1,1,1,1,1,1,1,1,1,1,1,1,1,1,1,1,1,1,1,1,1,1,1,1,1,1,1,1,1,1,1,1,1,1,1,1,1,1,1,1,1,1,1,1,1,1,1,1,1,1,1,1,1,1,1,1,1,1,1,1,1,1,1,1,1,1,1,1,1,1,1,1,1,1,1,1,1,1,1,1,1,1,1,1,1,1,1,1,1,1,1,1,1,1,1,1,1,1,1,1,1,1,2,2,2,5,80,124,155	0.261832116969	-0.00162645118826	0.346151424936	0.261832116969
GO BP 500 medium	2	Topological Overlap > Cutoff(5)	Label Propagation	0.0185549259186	0.0502070671172	0.39603960396	153	1,1,1,1,1,1,1,1,1,1,1,1,1,1,1,1,1,1,1,1,1,1,1,1,1,1,1,1,1,1,1,1,1,1,1,1,1,1,1,1,1,1,1,1,1,1,1,1,1,1,1,1,1,1,1,1,1,1,1,1,1,1,1,1,1,1,1,1,1,1,1,1,1,1,1,1,1,1,1,1,1,1,1,1,1,1,1,1,1,1,1,1,1,1,1,1,1,1,1,1,1,1,1,1,1,1,1,1,1,1,1,1,1,1,1,1,1,1,1,1,1,1,1,1,1,1,1,1,1,1,1,1,1,1,1,2,2,2,2,2,2,2,2,3,3,4,5,5,5,5,37,54,233	0.098341045526	-0.00152607198485	0.269751861555	0.098341045526
GO BP 500 medium	2	Topological Overlap > Cutoff(5)	Walkttrap	0.0881578922272	0.0878442488609	0.522772277228	211	1,1,1,1,1,1,1,1,1,1,1,1,1,1,1,1,1,1,1,1,1,1,1,1,1,1,1,1,1,1,1,1,1,1,1,1,1,1,1,1,1,1,1,1,1,1,1,1,1,1,1,1,1,1,1,1,1,1,1,1,1,1,1,1,1,1,1,1,1,1,1,1,1,1,1,1,1,1,1,1,1,1,1,1,1,1,1,1,1,1,1,1,1,1,1,1,1,1,1,1,1,1,1,1,1,1,1,1,1,1,1,1,1,1,1,1,1,1,1,1,1,1,1,1,1,1,1,1,1,1,1,1,1,1,1,1,1,1,1,1,1,1,1,1,1,1,1,1,1,1,1,1,1,1,1,1,1,1,1,1,1,1,1,1,1,1,1,1,1,1,1,1,1,1,1,1,1,1,1,1,1,1,2,2,2,2,2,2,2,2,2,2,2,3,3,3,3,3,4,4,5,5,5,5,5,5,5,17,22,59,145	0.209385464076	-0.0017837342433	0.267302759503	0.209385464076
GO BP 500 medium	2	None > Cutoff(5)	None	0.0149230957031	-1.56286760212e-17	0.106930693069	1	505	0.0	0.0	0.0	0.0
GO BP 500 medium	2	None > Cutoff(5)	Louvain	0.0292680263519	0.0890773610151	0.271287128713	44	1,1,1,1,1,1,1,1,1,1,1,1,1,1,1,1,1,1,1,1,1,1,1,1,1,1,1,1,1,1,1,1,1,1,1,2,6,6,32,49,49,57,117,152	0.411849932901	-0.00162640450749	0.411849932901	0.411849932901
GO BP 500 medium	2	None > Cutoff(5)	Greedy Modularity	0.036180973053	0.0783538685221	0.271287128713	44	1,1,1,1,1,1,1,1,1,1,1,1,1,1,1,1,1,1,1,1,1,1,1,1,1,1,1,1,1,1,1,1,1,1,1,2,4,6,23,38,54,66,106,171	0.407498719635	-0.00159657549913	0.407498719635	0.407498719635
GO BP 500 medium	2	None > Cutoff(5)	Infomap	0.71256685257	0.100883532792	0.30297029703	66	1,1,1,1,1,1,1,1,1,1,1,1,1,1,1,1,1,1,1,1,1,1,1,1,1,1,1,1,1,1,1,1,1,1,1,2,2,2,2,2,2,2,2,4,4,4,5,5,5,5,6,6,7,8,8,8,9,11,13,17,18,23,25,68,95,100	0.415090860996	-0.00177939293222	0.415090860996	0.415090860996
GO BP 500 medium	2	None > Cutoff(5)	Leading Eigenvector	0.171144008636	0.0455244872333	0.2	40	1,1,1,1,1,1,1,1,1,1,1,1,1,1,1,1,1,1,1,1,1,1,1,1,1,1,1,1,1,1,1,1,1,1,1,26,30,68,85,261	0.396581255619	-0.00134941641265	0.396581255619	0.396581255619
GO BP 500 medium	2	None > Cutoff(5)	Label Propagation	0.0189270973206	0.0694909316919	0.247524752475	50	1,1,1,1,1,1,1,1,1,1,1,1,1,1,1,1,1,1,1,1,1,1,1,1,1,1,1,1,1,1,1,1,1,1,1,2,2,2,2,3,4,4,5,5,6,8,9,67,153,198	0.386242614831	-0.00145955189578	0.386242614831	0.386242614831
GO BP 500 medium	2	None > Cutoff(5)	Walkttrap	0.0902609825134	0.0836938089647	0.306930693069	70	1,1,1,1,1,1,1,1,1,1,1,1,1,1,1,1,1,1,1,1,1,1,1,1,1,1,1,1,1,1,1,1,1,1,1,1,1,1,1,1,1,1,1,1,1,1,1,1,1,1,1,1,1,1,2,2,2,3,3,4,4,6,8,11,15,15,71,95,100,110	0.454322674774	-0.00169662793719	0.454322674774	0.454322674774
GO BP 500 medium	2	Log > Cutoff(5)	None	0.0149269104004	-1.56286760212e-17	0.106930693069	1	505	0.0	0.0	0.0	0.0
GO BP 500 medium	2	Log > Cutoff(5)	Louvain	0.0281801223755	0.0751780764586	0.287128712871	47	1,1,1,1,1,1,1,1,1,1,1,1,1,1,1,1,1,1,1,1,1,1,1,1,1,1,1,1,1,1,1,1,1,1,1,2,2,5,6,11,12,35,39,56,59,83,160	0.372566071511	-0.00165564222617	0.372515761212	0.372566071511
GO BP 500 medium	2	Log > Cutoff(5)	Greedy Modularity	0.0330591201782	0.0677923509683	0.269306930693	46	1,1,1,1,1,1,1,1,1,1,1,1,1,1,1,1,1,1,1,1,1,1,1,1,1,1,1,1,1,1,1,1,1,1,1,2,2,6,13,13,38,40,40,57,91,168	0.383765677816	-0.00163546057576	0.383716200281	0.383765677816
GO BP 500 medium	2	Log > Cutoff(5)	Infomap	0.78297495842	0.0891835516624	0.364356435644	76	1,1,1,1,1,1,1,1,1,1,1,1,1,1,1,1,1,1,1,1,1,1,1,1,1,1,1,1,1,1,1,1,1,1,1,2,2,2,2,2,2,2,2,2,3,4,4,4,4,4,4,5,5,6,6,6,6,7,7,7,7,8,8,8,9,9,13,16,18,19,23,25,25,34,45,103	0.317965237985	-0.00184720452243	0.317838624375	0.317965237985
GO BP 500 medium	2	Log > Cutoff(5)	Leading Eigenvector	0.359601974487	0.0672048179788	0.219801980198	43	1,1,1,1,1,1,1,1,1,1,1,1,1,1,1,1,1,1,1,1,1,1,1,1,1,1,1,1,1,1,1,1,1,1,1,2,11,33,37,59,61,84,183	0.398591803153	-0.00159228086882	0.398545285685	0.398591803153
GO BP 500 medium	2	Log > Cutoff(5)	Label Propagation	0.0222949981689	0.0596087791702	0.243564356436	57	1,1,1,1,1,1,1,1,1,1,1,1,1,1,1,1,1,1,1,1,1,1,1,1,1,1,1,1,1,1,1,1,1,1,1,2,2,2,2,2,2,3,3,3,4,5,5,5,5,6,6,6,6,9,73,139,180	0.365248110727	-0.00153694860292	0.365225160723	0.365248110727
GO BP 500 medium	2	Log > Cutoff(5)	Walkttrap	0.093003988266	0.12144034121	0.407920792079	99	1,1,1,1,1,1,1,1,1,1,1,1,1,1,1,1,1,1,1,1,1,1,1,1,1,1,1,1,1,1,1,1,1,1,1,1,1,1,1,1,1,1,1,1,1,1,1,1,1,1,1,1,1,1,1,1,1,1,1,1,1,1,1,1,2,2,2,2,2,2,3,3,3,3,3,3,3,4,4,5,5,5,5,6,6,6,7,7,7,9,13,14,20,31,32,32,46,68,76	0.305249513264	-0.00185257281032	0.305159952648	0.305249513264
