test_case	test_number	transform	cluster_alg	seconds	adjusted_rand	annotation_correspondence	n_clusters	cluster_sizes	transformed_modularity	modularity	modularity_cutoff	transformed_modularity_cutoff
GO CC 1000 medium	1	None	None	0.258101940155	-4.44024984287e-17	0.0556088207095	1	1043	0.0	0.0	0.0	0.0
GO CC 1000 medium	1	None	Louvain	1.8286678791	0.0352802153992	0.111217641419	4	70,117,162,694	-0.00049524557106	-0.00049524557106	0.392734647707	0.392734647707
GO CC 1000 medium	1	None	Greedy Modularity	6.68950200081	0.0309591351797	0.106423777565	3	68,168,807	-0.000356187234684	-0.000356187234684	0.318470331412	0.318470331412
GO CC 1000 medium	1	None	Leading Eigenvector	5.8912961483	0.0498716711133	0.111217641419	5	2,75,126,258,582	-0.00058317905202	-0.00058317905202	0.414571546341	0.414571546341
GO CC 1000 medium	1	None	Label Propagation	0.645494937897	0.0218776833948	0.113135186961	3	67,75,901	-0.000234605143921	-0.000234605143921	0.237031572258	0.237031572258
GO CC 1000 medium	1	None	Walkttrap	11.9164459705	0.044754668039	0.117929050815	4	65,74,326,578	-0.000562652182613	-0.000562652182613	0.321301924852	0.321301924852
GO CC 1000 medium	1	Pearson	None	0.302187919617	-4.44024984287e-17	0.0556088207095	1	1043	0.0	0.0	0.0	0.0
GO CC 1000 medium	1	Pearson	Louvain	2.21755099297	0.0671444360453	0.0843720038351	3	306,363,374	-0.000637444514927	-0.000637444514927	0.391728387283	0.490750357566
GO CC 1000 medium	1	Pearson	Greedy Modularity	7.44121003151	0.024200522025	0.0594439117929	2	446,597	-0.000469789006525	-0.000469789006525	0.243546767734	0.373562162066
GO CC 1000 medium	1	Pearson	Leading Eigenvector	12.4222159386	0.0709755399073	0.0930009587728	3	256,377,410	-0.000628195602306	-0.000628195602306	0.403697475528	0.487104655866
GO CC 1000 medium	1	Pearson	Label Propagation	0.463943958282	-4.44024984287e-17	0.0556088207095	1	1043	0.0	0.0	0.0	0.0
GO CC 1000 medium	1	Pearson	Walkttrap	10.1808381081	0.0294736065706	0.065196548418	2	457,586	-0.000472506161321	-0.000472506161321	0.255582610134	0.431354063853
GO CC 1000 medium	1	Spearman	None	0.22966504097	-4.44024984287e-17	0.0556088207095	1	1043	0.0	0.0	0.0	0.0
GO CC 1000 medium	1	Spearman	Louvain	1.45157003403	0.0249500949714	0.0632790028763	2	477,566	-0.000476352523303	-0.000476352523303	0.219811355475	0.490271446452
GO CC 1000 medium	1	Spearman	Greedy Modularity	4.47978496552	0.0249500949714	0.0632790028763	2	477,566	-0.000476352523303	-0.000476352523303	0.219811355475	0.490271446452
GO CC 1000 medium	1	Spearman	Leading Eigenvector	10.9250211716	0.0249338123123	0.0642377756472	2	474,569	-0.000475865552704	-0.000475865552704	0.219223450062	0.490271446452
GO CC 1000 medium	1	Spearman	Label Propagation	0.75981092453	-4.44024984287e-17	0.0556088207095	1	1043	0.0	0.0	0.0	0.0
GO CC 1000 medium	1	Spearman	Walkttrap	18.8389120102	0.0245037163941	0.0623202301055	2	458,585	-0.000472732002758	-0.000472732002758	0.214922122832	0.491322847037
GO CC 1000 medium	1	Cosine	None	0.288621902466	-4.44024984287e-17	0.0556088207095	1	1043	0.0	0.0	0.0	0.0
GO CC 1000 medium	1	Cosine	Louvain	1.73547506332	0.066005932527	0.0910834132311	3	244,371,428	-0.000624141042749	-0.000624141042749	0.398896277279	0.243480724025
GO CC 1000 medium	1	Cosine	Greedy Modularity	3.15065407753	0.0354442422908	0.0872483221477	3	81,393,569	-0.000532031259581	-0.000532031259581	0.266762456385	0.250278593634
GO CC 1000 medium	1	Cosine	Leading Eigenvector	4.0505900383	0.028831628707	0.0661553211889	2	492,551	-0.000478310992019	-0.000478310992019	0.196633265002	0.237317549184
GO CC 1000 medium	1	Cosine	Label Propagation	0.541923999786	-4.44024984287e-17	0.0556088207095	1	1043	0.0	0.0	0.0	0.0
GO CC 1000 medium	1	Cosine	Walkttrap	19.9816880226	0.0280700102865	0.0690316395014	2	427,616	-0.000464090039001	-0.000464090039001	0.180174705869	0.233251574067
GO CC 1000 medium	1	KNN(10)	None	0.265897035599	-4.44024984287e-17	0.0556088207095	1	1043	0.0	0.0	0.0	0.0
GO CC 1000 medium	1	KNN(10)	Louvain	0.725601911545	0.0836770617622	0.116011505273	5	82,158,174,275,354	0.483026588447	-0.000727759917298	0.431996288936	0.483026588447
GO CC 1000 medium	1	KNN(10)	Greedy Modularity	3.84817409515	0.0493525582252	0.0920421860019	4	80,162,292,509	0.446734527997	-0.000627115797933	0.323553473068	0.446734527997
GO CC 1000 medium	1	KNN(10)	Leading Eigenvector	1.71825289726	0.088810230924	0.111217641419	6	11,94,182,209,249,298	0.473099717062	-0.000750995119568	0.415010607694	0.473099717062
GO CC 1000 medium	1	KNN(10)	Label Propagation	0.292551994324	0.0656422443283	0.121764141898	4	79,129,286,549	0.456643967107	-0.00060145280021	0.397210522116	0.456643967107
GO CC 1000 medium	1	KNN(10)	Walkttrap	2.18798398972	0.0806883818722	0.120805369128	5	79,120,197,283,364	0.457418601314	-0.000719705494155	0.410851076176	0.457418601314
GO CC 1000 medium	1	KNN(50)	None	0.236056089401	-4.44024984287e-17	0.0556088207095	1	1043	0.0	0.0	0.0	0.0
GO CC 1000 medium	1	KNN(50)	Louvain	0.893025159836	0.0748366162667	0.105465004794	5	85,156,179,301,322	0.153257811445	-0.00073218676235	0.446258361062	0.679649118731
GO CC 1000 medium	1	KNN(50)	Greedy Modularity	6.23668003082	0.0296316264191	0.065196548418	2	487,556	0.174284732715	-0.000477746388425	0.236907462648	0.481965520918
GO CC 1000 medium	1	KNN(50)	Leading Eigenvector	2.81607890129	0.0577093361927	0.0891658676894	4	130,193,317,403	0.169785131708	-0.00067999621765	0.397579615748	0.58368485531
GO CC 1000 medium	1	KNN(50)	Label Propagation	0.513583898544	0.0323194585523	0.0901246404602	3	79,315,649	0.146351175147	-0.000495070896823	0.275422713706	0.571111485286
GO CC 1000 medium	1	KNN(50)	Walkttrap	7.82180690765	0.072534317307	0.107382550336	5	80,160,259,270,274	0.130976991856	-0.000741740913789	0.432268129282	0.659949377749
GO CC 1000 medium	1	KNN(100)	None	0.353518009186	-4.44024984287e-17	0.0556088207095	1	1043	0.0	0.0	0.0	0.0
GO CC 1000 medium	1	KNN(100)	Louvain	1.80739593506	0.0784281706263	0.0882070949185	4	154,248,294,347	0.0527031678661	-0.000702035166056	0.435901126785	0.617668647578
GO CC 1000 medium	1	KNN(100)	Greedy Modularity	9.72230482101	0.0288985143065	0.0642377756472	3	13,491,539	0.0720675566572	-0.000490568183163	0.226966428388	0.47656414305
GO CC 1000 medium	1	KNN(100)	Leading Eigenvector	6.70367598534	0.0547256729038	0.0824544582934	3	278,294,471	0.0625906359055	-0.000619553638549	0.395376752308	0.578218526477
GO CC 1000 medium	1	KNN(100)	Label Propagation	1.25409388542	0.0175777557164	0.0661553211889	2	247,796	0.0417390644416	-0.000346899505566	0.16252091797	0.478312195473
GO CC 1000 medium	1	KNN(100)	Walkttrap	8.44305920601	0.0648083722134	0.0958772770853	3	210,398,435	0.0534455075985	-0.000614112271414	0.397200709722	0.582435340567
GO CC 1000 medium	1	KNN(250)	None	0.288025856018	-4.44024984287e-17	0.0556088207095	1	1043	0.0	0.0	0.0	0.0
GO CC 1000 medium	1	KNN(250)	Louvain	1.46469211578	0.0552649235705	0.0795781399808	3	306,315,422	-5.21407498964e-05	-0.000632447773122	0.396808282927	0.570438168751
GO CC 1000 medium	1	KNN(250)	Greedy Modularity	3.89385914803	0.0273709216486	0.0632790028763	2	489,554	0.000326356524069	-0.00047798281618	0.230792902958	0.495126596583
GO CC 1000 medium	1	KNN(250)	Leading Eigenvector	8.76141190529	0.0530420720012	0.0795781399808	3	279,290,474	-1.57031782462e-05	-0.000618622042619	0.400772456826	0.569873596742
GO CC 1000 medium	1	KNN(250)	Label Propagation	1.00776100159	-4.44024984287e-17	0.0556088207095	1	1043	0.0	0.0	0.0	0.0
GO CC 1000 medium	1	KNN(250)	Walkttrap	19.7606799603	0.0423803456995	0.0680728667306	3	304,364,375	-3.64068701823e-05	-0.00063721867349	0.272376139212	0.498297572273
GO CC 1000 medium	1	KNN(500)	None	0.282459020615	-4.44024984287e-17	0.0556088207095	1	1043	0.0	0.0	0.0	0.0
GO CC 1000 medium	1	KNN(500)	Louvain	1.28572392464	0.0253906125881	0.0632790028763	2	466,577	-0.00047441169845	-0.00047441169845	0.216081569755	0.489051616739
GO CC 1000 medium	1	KNN(500)	Greedy Modularity	3.16935801506	0.0253906125881	0.0632790028763	2	466,577	-0.00047441169845	-0.00047441169845	0.216081569755	0.489051616739
GO CC 1000 medium	1	KNN(500)	Leading Eigenvector	7.6194729805	0.0240264920869	0.0613614573346	2	466,577	-0.00047441169845	-0.00047441169845	0.214076501485	0.485540356058
GO CC 1000 medium	1	KNN(500)	Label Propagation	0.767737150192	-4.44024984287e-17	0.0556088207095	1	1043	0.0	0.0	0.0	0.0
GO CC 1000 medium	1	KNN(500)	Walkttrap	22.9602439404	0.0241973407589	0.0623202301055	2	508,535	-0.000479524889746	-0.000479524889746	0.227155595465	0.482861323222
GO CC 1000 medium	1	KNN(1000)	None	0.403190135956	-4.44024984287e-17	0.0556088207095	1	1043	0.0	0.0	0.0	0.0
GO CC 1000 medium	1	KNN(1000)	Louvain	1.25122690201	0.0171829766514	0.0594439117929	2	504,539	-0.000479306105853	-0.000479306105853	0.213803658673	0.402532735829
GO CC 1000 medium	1	KNN(1000)	Greedy Modularity	5.4365439415	0.0141593677609	0.0565675934803	2	459,584	-0.000472954315423	-0.000472954315423	0.211983650281	0.403492829699
GO CC 1000 medium	1	KNN(1000)	Leading Eigenvector	7.92884683609	0.0173354400001	0.0584851390221	2	507,536	-0.000479475486931	-0.000479475486931	0.214223076987	0.402320285221
GO CC 1000 medium	1	KNN(1000)	Label Propagation	0.659203052521	-4.44024984287e-17	0.0556088207095	1	1043	0.0	0.0	0.0	0.0
GO CC 1000 medium	1	KNN(1000)	Walkttrap	12.8915598392	-4.44024984287e-17	0.0556088207095	1	1043	0.0	0.0	0.0	0.0
GO CC 1000 medium	1	Topological Overlap	None	0.286586046219	-4.44024984287e-17	0.0556088207095	1	1043	0.0	0.0	0.0	0.0
GO CC 1000 medium	1	Topological Overlap	Louvain	1.82018709183	0.0573858431747	0.103547459252	4	94,162,259,528	-0.000623625841969	-0.000623625841969	0.426905445267	0.213266969548
GO CC 1000 medium	1	Topological Overlap	Greedy Modularity	3.98208403587	0.0340794841944	0.07861936721	3	116,373,554	-0.000554324279605	-0.000554324279605	0.297014115931	0.172613976735
GO CC 1000 medium	1	Topological Overlap	Leading Eigenvector	13.1405289173	0.0413503101735	0.0910834132311	4	69,106,203,665	-0.000519098308511	-0.000519098308511	0.3334150652	0.207580896997
GO CC 1000 medium	1	Topological Overlap	Label Propagation	1.20046687126	-4.44024984287e-17	0.0556088207095	1	1043	0.0	0.0	0.0	0.0
GO CC 1000 medium	1	Topological Overlap	Walkttrap	22.2085680962	0.0269418223403	0.0824544582934	3	87,447,509	-0.000548185979909	-0.000548185979909	0.26655190632	0.157664704478
GO CC 1000 medium	1	Cutoff(0.1)	None	0.159152984619	-4.44024984287e-17	0.0556088207095	1	1043	0.0	0.0	0.0	0.0
GO CC 1000 medium	1	Cutoff(0.1)	Louvain	0.143061161041	0.0531394643809	0.946308724832	910	1,1,1,1,1,1,1,1,1,1,1,1,1,1,1,1,1,1,1,1,1,1,1,1,1,1,1,1,1,1,1,1,1,1,1,1,1,1,1,1,1,1,1,1,1,1,1,1,1,1,1,1,1,1,1,1,1,1,1,1,1,1,1,1,1,1,1,1,1,1,1,1,1,1,1,1,1,1,1,1,1,1,1,1,1,1,1,1,1,1,1,1,1,1,1,1,1,1,1,1,1,1,1,1,1,1,1,1,1,1,1,1,1,1,1,1,1,1,1,1,1,1,1,1,1,1,1,1,1,1,1,1,1,1,1,1,1,1,1,1,1,1,1,1,1,1,1,1,1,1,1,1,1,1,1,1,1,1,1,1,1,1,1,1,1,1,1,1,1,1,1,1,1,1,1,1,1,1,1,1,1,1,1,1,1,1,1,1,1,1,1,1,1,1,1,1,1,1,1,1,1,1,1,1,1,1,1,1,1,1,1,1,1,1,1,1,1,1,1,1,1,1,1,1,1,1,1,1,1,1,1,1,1,1,1,1,1,1,1,1,1,1,1,1,1,1,1,1,1,1,1,1,1,1,1,1,1,1,1,1,1,1,1,1,1,1,1,1,1,1,1,1,1,1,1,1,1,1,1,1,1,1,1,1,1,1,1,1,1,1,1,1,1,1,1,1,1,1,1,1,1,1,1,1,1,1,1,1,1,1,1,1,1,1,1,1,1,1,1,1,1,1,1,1,1,1,1,1,1,1,1,1,1,1,1,1,1,1,1,1,1,1,1,1,1,1,1,1,1,1,1,1,1,1,1,1,1,1,1,1,1,1,1,1,1,1,1,1,1,1,1,1,1,1,1,1,1,1,1,1,1,1,1,1,1,1,1,1,1,1,1,1,1,1,1,1,1,1,1,1,1,1,1,1,1,1,1,1,1,1,1,1,1,1,1,1,1,1,1,1,1,1,1,1,1,1,1,1,1,1,1,1,1,1,1,1,1,1,1,1,1,1,1,1,1,1,1,1,1,1,1,1,1,1,1,1,1,1,1,1,1,1,1,1,1,1,1,1,1,1,1,1,1,1,1,1,1,1,1,1,1,1,1,1,1,1,1,1,1,1,1,1,1,1,1,1,1,1,1,1,1,1,1,1,1,1,1,1,1,1,1,1,1,1,1,1,1,1,1,1,1,1,1,1,1,1,1,1,1,1,1,1,1,1,1,1,1,1,1,1,1,1,1,1,1,1,1,1,1,1,1,1,1,1,1,1,1,1,1,1,1,1,1,1,1,1,1,1,1,1,1,1,1,1,1,1,1,1,1,1,1,1,1,1,1,1,1,1,1,1,1,1,1,1,1,1,1,1,1,1,1,1,1,1,1,1,1,1,1,1,1,1,1,1,1,1,1,1,1,1,1,1,1,1,1,1,1,1,1,1,1,1,1,1,1,1,1,1,1,1,1,1,1,1,1,1,1,1,1,1,1,1,1,1,1,1,1,1,1,1,1,1,1,1,1,1,1,1,1,1,1,1,1,1,1,1,1,1,1,1,1,1,1,1,1,1,1,1,1,1,1,1,1,1,1,1,1,1,1,1,1,1,1,1,1,1,1,1,1,1,1,1,1,1,1,1,1,1,1,1,1,1,1,1,1,1,1,1,1,1,1,1,1,1,1,1,1,1,1,1,1,1,1,1,1,1,1,1,1,1,1,1,1,1,1,1,1,1,1,1,1,1,1,1,1,1,1,1,1,1,1,1,1,1,1,1,1,1,1,1,1,1,1,1,1,1,1,1,1,1,1,1,1,1,1,1,1,1,1,1,1,1,1,1,1,1,1,1,1,1,1,1,1,1,1,1,1,1,1,1,1,1,1,1,1,1,1,1,1,1,1,1,1,1,1,1,1,1,1,1,1,1,1,1,1,1,1,1,1,1,1,1,1,1,1,1,1,1,1,1,1,1,1,1,1,1,1,1,1,1,1,1,1,1,1,1,1,1,1,1,1,1,1,1,1,1,1,1,2,2,2,2,2,2,2,2,2,2,2,2,2,3,3,4,6,10,11,16,29,47	0.440853765679	-0.000955690388108	0.0397483389262	0.440853765679
GO CC 1000 medium	1	Cutoff(0.1)	Greedy Modularity	0.141326189041	0.0510854245812	0.946308724832	911	1,1,1,1,1,1,1,1,1,1,1,1,1,1,1,1,1,1,1,1,1,1,1,1,1,1,1,1,1,1,1,1,1,1,1,1,1,1,1,1,1,1,1,1,1,1,1,1,1,1,1,1,1,1,1,1,1,1,1,1,1,1,1,1,1,1,1,1,1,1,1,1,1,1,1,1,1,1,1,1,1,1,1,1,1,1,1,1,1,1,1,1,1,1,1,1,1,1,1,1,1,1,1,1,1,1,1,1,1,1,1,1,1,1,1,1,1,1,1,1,1,1,1,1,1,1,1,1,1,1,1,1,1,1,1,1,1,1,1,1,1,1,1,1,1,1,1,1,1,1,1,1,1,1,1,1,1,1,1,1,1,1,1,1,1,1,1,1,1,1,1,1,1,1,1,1,1,1,1,1,1,1,1,1,1,1,1,1,1,1,1,1,1,1,1,1,1,1,1,1,1,1,1,1,1,1,1,1,1,1,1,1,1,1,1,1,1,1,1,1,1,1,1,1,1,1,1,1,1,1,1,1,1,1,1,1,1,1,1,1,1,1,1,1,1,1,1,1,1,1,1,1,1,1,1,1,1,1,1,1,1,1,1,1,1,1,1,1,1,1,1,1,1,1,1,1,1,1,1,1,1,1,1,1,1,1,1,1,1,1,1,1,1,1,1,1,1,1,1,1,1,1,1,1,1,1,1,1,1,1,1,1,1,1,1,1,1,1,1,1,1,1,1,1,1,1,1,1,1,1,1,1,1,1,1,1,1,1,1,1,1,1,1,1,1,1,1,1,1,1,1,1,1,1,1,1,1,1,1,1,1,1,1,1,1,1,1,1,1,1,1,1,1,1,1,1,1,1,1,1,1,1,1,1,1,1,1,1,1,1,1,1,1,1,1,1,1,1,1,1,1,1,1,1,1,1,1,1,1,1,1,1,1,1,1,1,1,1,1,1,1,1,1,1,1,1,1,1,1,1,1,1,1,1,1,1,1,1,1,1,1,1,1,1,1,1,1,1,1,1,1,1,1,1,1,1,1,1,1,1,1,1,1,1,1,1,1,1,1,1,1,1,1,1,1,1,1,1,1,1,1,1,1,1,1,1,1,1,1,1,1,1,1,1,1,1,1,1,1,1,1,1,1,1,1,1,1,1,1,1,1,1,1,1,1,1,1,1,1,1,1,1,1,1,1,1,1,1,1,1,1,1,1,1,1,1,1,1,1,1,1,1,1,1,1,1,1,1,1,1,1,1,1,1,1,1,1,1,1,1,1,1,1,1,1,1,1,1,1,1,1,1,1,1,1,1,1,1,1,1,1,1,1,1,1,1,1,1,1,1,1,1,1,1,1,1,1,1,1,1,1,1,1,1,1,1,1,1,1,1,1,1,1,1,1,1,1,1,1,1,1,1,1,1,1,1,1,1,1,1,1,1,1,1,1,1,1,1,1,1,1,1,1,1,1,1,1,1,1,1,1,1,1,1,1,1,1,1,1,1,1,1,1,1,1,1,1,1,1,1,1,1,1,1,1,1,1,1,1,1,1,1,1,1,1,1,1,1,1,1,1,1,1,1,1,1,1,1,1,1,1,1,1,1,1,1,1,1,1,1,1,1,1,1,1,1,1,1,1,1,1,1,1,1,1,1,1,1,1,1,1,1,1,1,1,1,1,1,1,1,1,1,1,1,1,1,1,1,1,1,1,1,1,1,1,1,1,1,1,1,1,1,1,1,1,1,1,1,1,1,1,1,1,1,1,1,1,1,1,1,1,1,1,1,1,1,1,1,1,1,1,1,1,1,1,1,1,1,1,1,1,1,1,1,1,1,1,1,1,1,1,1,1,1,1,1,1,1,1,1,1,1,1,1,1,1,1,1,1,1,1,1,1,1,1,1,1,1,1,1,1,1,1,1,1,1,1,1,1,1,1,1,1,1,1,1,1,1,1,1,1,1,1,1,1,1,1,1,1,1,1,1,1,1,1,1,1,1,1,1,1,1,1,1,1,1,1,1,2,2,2,2,2,2,2,2,2,2,2,2,2,2,3,3,4,6,10,11,16,29,45	0.442543320177	-0.000955849182869	0.0373051745901	0.442543320177
GO CC 1000 medium	1	Cutoff(0.1)	Leading Eigenvector	0.151961088181	0.0523018071054	0.937679769895	909	1,1,1,1,1,1,1,1,1,1,1,1,1,1,1,1,1,1,1,1,1,1,1,1,1,1,1,1,1,1,1,1,1,1,1,1,1,1,1,1,1,1,1,1,1,1,1,1,1,1,1,1,1,1,1,1,1,1,1,1,1,1,1,1,1,1,1,1,1,1,1,1,1,1,1,1,1,1,1,1,1,1,1,1,1,1,1,1,1,1,1,1,1,1,1,1,1,1,1,1,1,1,1,1,1,1,1,1,1,1,1,1,1,1,1,1,1,1,1,1,1,1,1,1,1,1,1,1,1,1,1,1,1,1,1,1,1,1,1,1,1,1,1,1,1,1,1,1,1,1,1,1,1,1,1,1,1,1,1,1,1,1,1,1,1,1,1,1,1,1,1,1,1,1,1,1,1,1,1,1,1,1,1,1,1,1,1,1,1,1,1,1,1,1,1,1,1,1,1,1,1,1,1,1,1,1,1,1,1,1,1,1,1,1,1,1,1,1,1,1,1,1,1,1,1,1,1,1,1,1,1,1,1,1,1,1,1,1,1,1,1,1,1,1,1,1,1,1,1,1,1,1,1,1,1,1,1,1,1,1,1,1,1,1,1,1,1,1,1,1,1,1,1,1,1,1,1,1,1,1,1,1,1,1,1,1,1,1,1,1,1,1,1,1,1,1,1,1,1,1,1,1,1,1,1,1,1,1,1,1,1,1,1,1,1,1,1,1,1,1,1,1,1,1,1,1,1,1,1,1,1,1,1,1,1,1,1,1,1,1,1,1,1,1,1,1,1,1,1,1,1,1,1,1,1,1,1,1,1,1,1,1,1,1,1,1,1,1,1,1,1,1,1,1,1,1,1,1,1,1,1,1,1,1,1,1,1,1,1,1,1,1,1,1,1,1,1,1,1,1,1,1,1,1,1,1,1,1,1,1,1,1,1,1,1,1,1,1,1,1,1,1,1,1,1,1,1,1,1,1,1,1,1,1,1,1,1,1,1,1,1,1,1,1,1,1,1,1,1,1,1,1,1,1,1,1,1,1,1,1,1,1,1,1,1,1,1,1,1,1,1,1,1,1,1,1,1,1,1,1,1,1,1,1,1,1,1,1,1,1,1,1,1,1,1,1,1,1,1,1,1,1,1,1,1,1,1,1,1,1,1,1,1,1,1,1,1,1,1,1,1,1,1,1,1,1,1,1,1,1,1,1,1,1,1,1,1,1,1,1,1,1,1,1,1,1,1,1,1,1,1,1,1,1,1,1,1,1,1,1,1,1,1,1,1,1,1,1,1,1,1,1,1,1,1,1,1,1,1,1,1,1,1,1,1,1,1,1,1,1,1,1,1,1,1,1,1,1,1,1,1,1,1,1,1,1,1,1,1,1,1,1,1,1,1,1,1,1,1,1,1,1,1,1,1,1,1,1,1,1,1,1,1,1,1,1,1,1,1,1,1,1,1,1,1,1,1,1,1,1,1,1,1,1,1,1,1,1,1,1,1,1,1,1,1,1,1,1,1,1,1,1,1,1,1,1,1,1,1,1,1,1,1,1,1,1,1,1,1,1,1,1,1,1,1,1,1,1,1,1,1,1,1,1,1,1,1,1,1,1,1,1,1,1,1,1,1,1,1,1,1,1,1,1,1,1,1,1,1,1,1,1,1,1,1,1,1,1,1,1,1,1,1,1,1,1,1,1,1,1,1,1,1,1,1,1,1,1,1,1,1,1,1,1,1,1,1,1,1,1,1,1,1,1,1,1,1,1,1,1,1,1,1,1,1,1,1,1,1,1,1,1,1,1,1,1,1,1,1,1,1,1,1,1,1,1,1,1,1,1,1,1,1,1,1,1,1,1,1,1,1,1,1,1,1,1,1,1,1,1,1,1,1,1,1,1,1,1,1,1,1,1,1,1,1,1,1,1,1,1,1,1,1,1,1,1,1,1,1,1,1,1,1,1,1,1,1,1,1,1,1,1,1,1,1,1,1,1,1,1,1,1,1,1,1,1,1,1,2,2,2,2,2,2,2,2,2,2,2,2,2,3,3,4,10,11,16,35,47	0.439169279844	-0.000955383384904	0.0399485243291	0.439169279844
GO CC 1000 medium	1	Cutoff(0.1)	Label Propagation	0.121202945709	0.0453260792236	0.953020134228	916	1,1,1,1,1,1,1,1,1,1,1,1,1,1,1,1,1,1,1,1,1,1,1,1,1,1,1,1,1,1,1,1,1,1,1,1,1,1,1,1,1,1,1,1,1,1,1,1,1,1,1,1,1,1,1,1,1,1,1,1,1,1,1,1,1,1,1,1,1,1,1,1,1,1,1,1,1,1,1,1,1,1,1,1,1,1,1,1,1,1,1,1,1,1,1,1,1,1,1,1,1,1,1,1,1,1,1,1,1,1,1,1,1,1,1,1,1,1,1,1,1,1,1,1,1,1,1,1,1,1,1,1,1,1,1,1,1,1,1,1,1,1,1,1,1,1,1,1,1,1,1,1,1,1,1,1,1,1,1,1,1,1,1,1,1,1,1,1,1,1,1,1,1,1,1,1,1,1,1,1,1,1,1,1,1,1,1,1,1,1,1,1,1,1,1,1,1,1,1,1,1,1,1,1,1,1,1,1,1,1,1,1,1,1,1,1,1,1,1,1,1,1,1,1,1,1,1,1,1,1,1,1,1,1,1,1,1,1,1,1,1,1,1,1,1,1,1,1,1,1,1,1,1,1,1,1,1,1,1,1,1,1,1,1,1,1,1,1,1,1,1,1,1,1,1,1,1,1,1,1,1,1,1,1,1,1,1,1,1,1,1,1,1,1,1,1,1,1,1,1,1,1,1,1,1,1,1,1,1,1,1,1,1,1,1,1,1,1,1,1,1,1,1,1,1,1,1,1,1,1,1,1,1,1,1,1,1,1,1,1,1,1,1,1,1,1,1,1,1,1,1,1,1,1,1,1,1,1,1,1,1,1,1,1,1,1,1,1,1,1,1,1,1,1,1,1,1,1,1,1,1,1,1,1,1,1,1,1,1,1,1,1,1,1,1,1,1,1,1,1,1,1,1,1,1,1,1,1,1,1,1,1,1,1,1,1,1,1,1,1,1,1,1,1,1,1,1,1,1,1,1,1,1,1,1,1,1,1,1,1,1,1,1,1,1,1,1,1,1,1,1,1,1,1,1,1,1,1,1,1,1,1,1,1,1,1,1,1,1,1,1,1,1,1,1,1,1,1,1,1,1,1,1,1,1,1,1,1,1,1,1,1,1,1,1,1,1,1,1,1,1,1,1,1,1,1,1,1,1,1,1,1,1,1,1,1,1,1,1,1,1,1,1,1,1,1,1,1,1,1,1,1,1,1,1,1,1,1,1,1,1,1,1,1,1,1,1,1,1,1,1,1,1,1,1,1,1,1,1,1,1,1,1,1,1,1,1,1,1,1,1,1,1,1,1,1,1,1,1,1,1,1,1,1,1,1,1,1,1,1,1,1,1,1,1,1,1,1,1,1,1,1,1,1,1,1,1,1,1,1,1,1,1,1,1,1,1,1,1,1,1,1,1,1,1,1,1,1,1,1,1,1,1,1,1,1,1,1,1,1,1,1,1,1,1,1,1,1,1,1,1,1,1,1,1,1,1,1,1,1,1,1,1,1,1,1,1,1,1,1,1,1,1,1,1,1,1,1,1,1,1,1,1,1,1,1,1,1,1,1,1,1,1,1,1,1,1,1,1,1,1,1,1,1,1,1,1,1,1,1,1,1,1,1,1,1,1,1,1,1,1,1,1,1,1,1,1,1,1,1,1,1,1,1,1,1,1,1,1,1,1,1,1,1,1,1,1,1,1,1,1,1,1,1,1,1,1,1,1,1,1,1,1,1,1,1,1,1,1,1,1,1,1,1,1,1,1,1,1,1,1,1,1,1,1,1,1,1,1,1,1,1,1,1,1,1,1,1,1,1,1,1,1,1,1,1,1,1,1,1,1,1,1,1,1,1,1,1,1,1,1,1,1,1,1,1,1,1,1,1,1,1,1,1,1,1,1,1,1,1,1,1,1,1,1,1,1,1,1,1,1,1,1,1,1,1,1,1,1,1,1,1,1,1,1,1,1,1,1,1,1,1,1,1,1,1,1,1,1,1,1,1,1,1,1,1,2,2,2,2,2,2,2,2,2,2,2,2,2,2,2,2,2,2,3,3,3,4,4,5,5,6,7,10,24,47	0.42761779574	-0.000956133249052	0.0363986151417	0.42761779574
GO CC 1000 medium	1	Cutoff(0.1)	Walkttrap	0.142138957977	0.0534057415623	0.950143815916	911	1,1,1,1,1,1,1,1,1,1,1,1,1,1,1,1,1,1,1,1,1,1,1,1,1,1,1,1,1,1,1,1,1,1,1,1,1,1,1,1,1,1,1,1,1,1,1,1,1,1,1,1,1,1,1,1,1,1,1,1,1,1,1,1,1,1,1,1,1,1,1,1,1,1,1,1,1,1,1,1,1,1,1,1,1,1,1,1,1,1,1,1,1,1,1,1,1,1,1,1,1,1,1,1,1,1,1,1,1,1,1,1,1,1,1,1,1,1,1,1,1,1,1,1,1,1,1,1,1,1,1,1,1,1,1,1,1,1,1,1,1,1,1,1,1,1,1,1,1,1,1,1,1,1,1,1,1,1,1,1,1,1,1,1,1,1,1,1,1,1,1,1,1,1,1,1,1,1,1,1,1,1,1,1,1,1,1,1,1,1,1,1,1,1,1,1,1,1,1,1,1,1,1,1,1,1,1,1,1,1,1,1,1,1,1,1,1,1,1,1,1,1,1,1,1,1,1,1,1,1,1,1,1,1,1,1,1,1,1,1,1,1,1,1,1,1,1,1,1,1,1,1,1,1,1,1,1,1,1,1,1,1,1,1,1,1,1,1,1,1,1,1,1,1,1,1,1,1,1,1,1,1,1,1,1,1,1,1,1,1,1,1,1,1,1,1,1,1,1,1,1,1,1,1,1,1,1,1,1,1,1,1,1,1,1,1,1,1,1,1,1,1,1,1,1,1,1,1,1,1,1,1,1,1,1,1,1,1,1,1,1,1,1,1,1,1,1,1,1,1,1,1,1,1,1,1,1,1,1,1,1,1,1,1,1,1,1,1,1,1,1,1,1,1,1,1,1,1,1,1,1,1,1,1,1,1,1,1,1,1,1,1,1,1,1,1,1,1,1,1,1,1,1,1,1,1,1,1,1,1,1,1,1,1,1,1,1,1,1,1,1,1,1,1,1,1,1,1,1,1,1,1,1,1,1,1,1,1,1,1,1,1,1,1,1,1,1,1,1,1,1,1,1,1,1,1,1,1,1,1,1,1,1,1,1,1,1,1,1,1,1,1,1,1,1,1,1,1,1,1,1,1,1,1,1,1,1,1,1,1,1,1,1,1,1,1,1,1,1,1,1,1,1,1,1,1,1,1,1,1,1,1,1,1,1,1,1,1,1,1,1,1,1,1,1,1,1,1,1,1,1,1,1,1,1,1,1,1,1,1,1,1,1,1,1,1,1,1,1,1,1,1,1,1,1,1,1,1,1,1,1,1,1,1,1,1,1,1,1,1,1,1,1,1,1,1,1,1,1,1,1,1,1,1,1,1,1,1,1,1,1,1,1,1,1,1,1,1,1,1,1,1,1,1,1,1,1,1,1,1,1,1,1,1,1,1,1,1,1,1,1,1,1,1,1,1,1,1,1,1,1,1,1,1,1,1,1,1,1,1,1,1,1,1,1,1,1,1,1,1,1,1,1,1,1,1,1,1,1,1,1,1,1,1,1,1,1,1,1,1,1,1,1,1,1,1,1,1,1,1,1,1,1,1,1,1,1,1,1,1,1,1,1,1,1,1,1,1,1,1,1,1,1,1,1,1,1,1,1,1,1,1,1,1,1,1,1,1,1,1,1,1,1,1,1,1,1,1,1,1,1,1,1,1,1,1,1,1,1,1,1,1,1,1,1,1,1,1,1,1,1,1,1,1,1,1,1,1,1,1,1,1,1,1,1,1,1,1,1,1,1,1,1,1,1,1,1,1,1,1,1,1,1,1,1,1,1,1,1,1,1,1,1,1,1,1,1,1,1,1,1,1,1,1,1,1,1,1,1,1,1,1,1,1,1,1,1,1,1,1,1,1,1,1,1,1,1,1,1,1,1,1,1,1,1,1,1,1,1,1,1,1,1,1,1,1,1,1,1,1,1,1,1,1,1,1,1,1,1,1,1,1,1,1,1,1,1,1,1,1,1,1,1,1,1,1,1,1,1,1,1,1,1,1,1,1,1,1,2,2,2,2,2,2,2,2,2,2,2,2,2,3,3,4,5,6,10,11,11,29,47	0.439395680147	-0.000955787429351	0.039268692957	0.439395680147
GO CC 1000 medium	1	Cutoff(1)	None	0.143011808395	-4.44024984287e-17	0.0556088207095	1	1043	0.0	0.0	0.0	0.0
GO CC 1000 medium	1	Cutoff(1)	Louvain	0.153726816177	0.119233947625	0.574304889741	504	1,1,1,1,1,1,1,1,1,1,1,1,1,1,1,1,1,1,1,1,1,1,1,1,1,1,1,1,1,1,1,1,1,1,1,1,1,1,1,1,1,1,1,1,1,1,1,1,1,1,1,1,1,1,1,1,1,1,1,1,1,1,1,1,1,1,1,1,1,1,1,1,1,1,1,1,1,1,1,1,1,1,1,1,1,1,1,1,1,1,1,1,1,1,1,1,1,1,1,1,1,1,1,1,1,1,1,1,1,1,1,1,1,1,1,1,1,1,1,1,1,1,1,1,1,1,1,1,1,1,1,1,1,1,1,1,1,1,1,1,1,1,1,1,1,1,1,1,1,1,1,1,1,1,1,1,1,1,1,1,1,1,1,1,1,1,1,1,1,1,1,1,1,1,1,1,1,1,1,1,1,1,1,1,1,1,1,1,1,1,1,1,1,1,1,1,1,1,1,1,1,1,1,1,1,1,1,1,1,1,1,1,1,1,1,1,1,1,1,1,1,1,1,1,1,1,1,1,1,1,1,1,1,1,1,1,1,1,1,1,1,1,1,1,1,1,1,1,1,1,1,1,1,1,1,1,1,1,1,1,1,1,1,1,1,1,1,1,1,1,1,1,1,1,1,1,1,1,1,1,1,1,1,1,1,1,1,1,1,1,1,1,1,1,1,1,1,1,1,1,1,1,1,1,1,1,1,1,1,1,1,1,1,1,1,1,1,1,1,1,1,1,1,1,1,1,1,1,1,1,1,1,1,1,1,1,1,1,1,1,1,1,1,1,1,1,1,1,1,1,1,1,1,1,1,1,1,1,1,1,1,1,1,1,1,1,1,1,1,1,1,1,1,1,1,1,1,1,1,1,1,1,1,1,1,1,1,1,1,1,1,1,1,1,1,1,1,1,1,1,1,1,1,1,1,1,1,1,1,1,1,1,1,1,1,1,1,1,1,1,1,1,1,1,1,1,1,1,1,1,1,1,1,1,1,1,1,1,1,1,1,1,1,1,1,1,1,1,1,1,1,1,1,1,1,1,1,1,1,1,1,1,1,1,1,1,1,1,1,1,1,1,1,1,1,1,1,1,1,1,1,1,1,2,2,2,2,2,2,2,2,3,3,3,3,4,4,5,6,7,72,100,112,222	0.541219571123	-0.000891142082249	0.243835671614	0.541219571123
GO CC 1000 medium	1	Cutoff(1)	Greedy Modularity	0.167276144028	0.0875090761147	0.558964525407	505	1,1,1,1,1,1,1,1,1,1,1,1,1,1,1,1,1,1,1,1,1,1,1,1,1,1,1,1,1,1,1,1,1,1,1,1,1,1,1,1,1,1,1,1,1,1,1,1,1,1,1,1,1,1,1,1,1,1,1,1,1,1,1,1,1,1,1,1,1,1,1,1,1,1,1,1,1,1,1,1,1,1,1,1,1,1,1,1,1,1,1,1,1,1,1,1,1,1,1,1,1,1,1,1,1,1,1,1,1,1,1,1,1,1,1,1,1,1,1,1,1,1,1,1,1,1,1,1,1,1,1,1,1,1,1,1,1,1,1,1,1,1,1,1,1,1,1,1,1,1,1,1,1,1,1,1,1,1,1,1,1,1,1,1,1,1,1,1,1,1,1,1,1,1,1,1,1,1,1,1,1,1,1,1,1,1,1,1,1,1,1,1,1,1,1,1,1,1,1,1,1,1,1,1,1,1,1,1,1,1,1,1,1,1,1,1,1,1,1,1,1,1,1,1,1,1,1,1,1,1,1,1,1,1,1,1,1,1,1,1,1,1,1,1,1,1,1,1,1,1,1,1,1,1,1,1,1,1,1,1,1,1,1,1,1,1,1,1,1,1,1,1,1,1,1,1,1,1,1,1,1,1,1,1,1,1,1,1,1,1,1,1,1,1,1,1,1,1,1,1,1,1,1,1,1,1,1,1,1,1,1,1,1,1,1,1,1,1,1,1,1,1,1,1,1,1,1,1,1,1,1,1,1,1,1,1,1,1,1,1,1,1,1,1,1,1,1,1,1,1,1,1,1,1,1,1,1,1,1,1,1,1,1,1,1,1,1,1,1,1,1,1,1,1,1,1,1,1,1,1,1,1,1,1,1,1,1,1,1,1,1,1,1,1,1,1,1,1,1,1,1,1,1,1,1,1,1,1,1,1,1,1,1,1,1,1,1,1,1,1,1,1,1,1,1,1,1,1,1,1,1,1,1,1,1,1,1,1,1,1,1,1,1,1,1,1,1,1,1,1,1,1,1,1,1,1,1,1,1,1,1,1,1,1,1,1,1,1,1,1,1,1,1,1,1,1,1,1,1,1,1,1,1,2,2,2,2,2,2,2,2,3,3,3,3,4,4,4,4,5,6,7,72,186,240	0.512060580666	-0.000873145342697	0.229549513293	0.512060580666
GO CC 1000 medium	1	Cutoff(1)	Leading Eigenvector	0.377848148346	0.123288953403	0.575263662512	503	1,1,1,1,1,1,1,1,1,1,1,1,1,1,1,1,1,1,1,1,1,1,1,1,1,1,1,1,1,1,1,1,1,1,1,1,1,1,1,1,1,1,1,1,1,1,1,1,1,1,1,1,1,1,1,1,1,1,1,1,1,1,1,1,1,1,1,1,1,1,1,1,1,1,1,1,1,1,1,1,1,1,1,1,1,1,1,1,1,1,1,1,1,1,1,1,1,1,1,1,1,1,1,1,1,1,1,1,1,1,1,1,1,1,1,1,1,1,1,1,1,1,1,1,1,1,1,1,1,1,1,1,1,1,1,1,1,1,1,1,1,1,1,1,1,1,1,1,1,1,1,1,1,1,1,1,1,1,1,1,1,1,1,1,1,1,1,1,1,1,1,1,1,1,1,1,1,1,1,1,1,1,1,1,1,1,1,1,1,1,1,1,1,1,1,1,1,1,1,1,1,1,1,1,1,1,1,1,1,1,1,1,1,1,1,1,1,1,1,1,1,1,1,1,1,1,1,1,1,1,1,1,1,1,1,1,1,1,1,1,1,1,1,1,1,1,1,1,1,1,1,1,1,1,1,1,1,1,1,1,1,1,1,1,1,1,1,1,1,1,1,1,1,1,1,1,1,1,1,1,1,1,1,1,1,1,1,1,1,1,1,1,1,1,1,1,1,1,1,1,1,1,1,1,1,1,1,1,1,1,1,1,1,1,1,1,1,1,1,1,1,1,1,1,1,1,1,1,1,1,1,1,1,1,1,1,1,1,1,1,1,1,1,1,1,1,1,1,1,1,1,1,1,1,1,1,1,1,1,1,1,1,1,1,1,1,1,1,1,1,1,1,1,1,1,1,1,1,1,1,1,1,1,1,1,1,1,1,1,1,1,1,1,1,1,1,1,1,1,1,1,1,1,1,1,1,1,1,1,1,1,1,1,1,1,1,1,1,1,1,1,1,1,1,1,1,1,1,1,1,1,1,1,1,1,1,1,1,1,1,1,1,1,1,1,1,1,1,1,1,1,1,1,1,1,1,1,1,1,1,1,1,1,1,1,1,1,1,1,1,1,1,1,1,1,1,1,1,1,1,1,1,1,2,2,2,2,2,2,2,2,3,3,3,3,4,4,5,6,74,106,120,213	0.537739055066	-0.000891653754256	0.250741877051	0.537739055066
GO CC 1000 medium	1	Cutoff(1)	Label Propagation	0.151948928833	0.0708958425564	0.589645254075	531	1,1,1,1,1,1,1,1,1,1,1,1,1,1,1,1,1,1,1,1,1,1,1,1,1,1,1,1,1,1,1,1,1,1,1,1,1,1,1,1,1,1,1,1,1,1,1,1,1,1,1,1,1,1,1,1,1,1,1,1,1,1,1,1,1,1,1,1,1,1,1,1,1,1,1,1,1,1,1,1,1,1,1,1,1,1,1,1,1,1,1,1,1,1,1,1,1,1,1,1,1,1,1,1,1,1,1,1,1,1,1,1,1,1,1,1,1,1,1,1,1,1,1,1,1,1,1,1,1,1,1,1,1,1,1,1,1,1,1,1,1,1,1,1,1,1,1,1,1,1,1,1,1,1,1,1,1,1,1,1,1,1,1,1,1,1,1,1,1,1,1,1,1,1,1,1,1,1,1,1,1,1,1,1,1,1,1,1,1,1,1,1,1,1,1,1,1,1,1,1,1,1,1,1,1,1,1,1,1,1,1,1,1,1,1,1,1,1,1,1,1,1,1,1,1,1,1,1,1,1,1,1,1,1,1,1,1,1,1,1,1,1,1,1,1,1,1,1,1,1,1,1,1,1,1,1,1,1,1,1,1,1,1,1,1,1,1,1,1,1,1,1,1,1,1,1,1,1,1,1,1,1,1,1,1,1,1,1,1,1,1,1,1,1,1,1,1,1,1,1,1,1,1,1,1,1,1,1,1,1,1,1,1,1,1,1,1,1,1,1,1,1,1,1,1,1,1,1,1,1,1,1,1,1,1,1,1,1,1,1,1,1,1,1,1,1,1,1,1,1,1,1,1,1,1,1,1,1,1,1,1,1,1,1,1,1,1,1,1,1,1,1,1,1,1,1,1,1,1,1,1,1,1,1,1,1,1,1,1,1,1,1,1,1,1,1,1,1,1,1,1,1,1,1,1,1,1,1,1,1,1,1,1,1,1,1,1,1,1,1,1,1,1,1,1,1,1,1,1,1,1,1,1,1,1,1,1,1,1,1,1,1,1,1,1,1,1,1,1,1,1,1,1,1,1,1,1,1,1,1,1,1,1,1,1,1,1,1,1,1,1,1,1,1,1,1,1,1,1,1,1,2,2,2,2,2,2,2,2,2,2,2,2,2,2,2,2,2,2,2,2,3,3,3,3,3,3,3,3,3,4,4,4,4,4,4,4,5,5,6,7,8,8,8,9,9,11,15,26,73,277	0.468920932229	-0.000885305492598	0.179240882487	0.468920932229
GO CC 1000 medium	1	Cutoff(1)	Walkttrap	0.277667045593	0.132628659139	0.658676893576	571	1,1,1,1,1,1,1,1,1,1,1,1,1,1,1,1,1,1,1,1,1,1,1,1,1,1,1,1,1,1,1,1,1,1,1,1,1,1,1,1,1,1,1,1,1,1,1,1,1,1,1,1,1,1,1,1,1,1,1,1,1,1,1,1,1,1,1,1,1,1,1,1,1,1,1,1,1,1,1,1,1,1,1,1,1,1,1,1,1,1,1,1,1,1,1,1,1,1,1,1,1,1,1,1,1,1,1,1,1,1,1,1,1,1,1,1,1,1,1,1,1,1,1,1,1,1,1,1,1,1,1,1,1,1,1,1,1,1,1,1,1,1,1,1,1,1,1,1,1,1,1,1,1,1,1,1,1,1,1,1,1,1,1,1,1,1,1,1,1,1,1,1,1,1,1,1,1,1,1,1,1,1,1,1,1,1,1,1,1,1,1,1,1,1,1,1,1,1,1,1,1,1,1,1,1,1,1,1,1,1,1,1,1,1,1,1,1,1,1,1,1,1,1,1,1,1,1,1,1,1,1,1,1,1,1,1,1,1,1,1,1,1,1,1,1,1,1,1,1,1,1,1,1,1,1,1,1,1,1,1,1,1,1,1,1,1,1,1,1,1,1,1,1,1,1,1,1,1,1,1,1,1,1,1,1,1,1,1,1,1,1,1,1,1,1,1,1,1,1,1,1,1,1,1,1,1,1,1,1,1,1,1,1,1,1,1,1,1,1,1,1,1,1,1,1,1,1,1,1,1,1,1,1,1,1,1,1,1,1,1,1,1,1,1,1,1,1,1,1,1,1,1,1,1,1,1,1,1,1,1,1,1,1,1,1,1,1,1,1,1,1,1,1,1,1,1,1,1,1,1,1,1,1,1,1,1,1,1,1,1,1,1,1,1,1,1,1,1,1,1,1,1,1,1,1,1,1,1,1,1,1,1,1,1,1,1,1,1,1,1,1,1,1,1,1,1,1,1,1,1,1,1,1,1,1,1,1,1,1,1,1,1,1,1,1,1,1,1,1,1,1,1,1,1,1,1,1,1,1,1,1,1,1,1,1,1,1,1,1,1,1,1,1,1,1,1,1,1,1,1,1,1,1,1,1,1,1,1,1,1,1,1,1,1,1,1,1,1,1,1,1,1,2,2,2,2,2,2,2,2,2,2,2,2,2,2,2,2,2,2,2,2,2,2,2,2,2,2,3,3,3,3,3,3,3,3,3,3,3,3,3,4,4,4,4,4,4,4,4,4,4,4,4,5,5,5,5,6,7,8,9,9,11,13,13,14,29,31,62,72,98	0.507717783575	-0.000939918539593	0.18294466293	0.507717783575
GO CC 1000 medium	1	Cutoff(5)	None	0.161262989044	-4.44024984287e-17	0.0556088207095	1	1043	0.0	0.0	0.0	0.0
GO CC 1000 medium	1	Cutoff(5)	Louvain	0.260904788971	0.0905696366913	0.209971236817	101	1,1,1,1,1,1,1,1,1,1,1,1,1,1,1,1,1,1,1,1,1,1,1,1,1,1,1,1,1,1,1,1,1,1,1,1,1,1,1,1,1,1,1,1,1,1,1,1,1,1,1,1,1,1,1,1,1,1,1,1,1,1,1,1,1,1,1,1,1,1,1,1,1,1,1,1,1,1,1,1,1,1,1,1,1,1,1,1,1,1,1,1,1,1,1,1,77,131,186,201,352	0.4387760432	-0.000763769275878	0.4387760432	0.4387760432
GO CC 1000 medium	1	Cutoff(5)	Greedy Modularity	0.390763044357	0.0718942106645	0.194630872483	100	1,1,1,1,1,1,1,1,1,1,1,1,1,1,1,1,1,1,1,1,1,1,1,1,1,1,1,1,1,1,1,1,1,1,1,1,1,1,1,1,1,1,1,1,1,1,1,1,1,1,1,1,1,1,1,1,1,1,1,1,1,1,1,1,1,1,1,1,1,1,1,1,1,1,1,1,1,1,1,1,1,1,1,1,1,1,1,1,1,1,1,1,1,1,1,1,78,199,215,455	0.387439718284	-0.000695889808815	0.387439718284	0.387439718284
GO CC 1000 medium	1	Cutoff(5)	Leading Eigenvector	1.97683405876	0.106373607382	0.214765100671	106	1,1,1,1,1,1,1,1,1,1,1,1,1,1,1,1,1,1,1,1,1,1,1,1,1,1,1,1,1,1,1,1,1,1,1,1,1,1,1,1,1,1,1,1,1,1,1,1,1,1,1,1,1,1,1,1,1,1,1,1,1,1,1,1,1,1,1,1,1,1,1,1,1,1,1,1,1,1,1,1,1,1,1,1,1,1,1,1,1,1,1,1,1,1,1,1,1,1,1,1,2,85,132,196,228,300	0.43545961639	-0.000778708334092	0.43545961639	0.43545961639
GO CC 1000 medium	1	Cutoff(5)	Label Propagation	0.21799492836	0.0313835534303	0.189837008629	104	1,1,1,1,1,1,1,1,1,1,1,1,1,1,1,1,1,1,1,1,1,1,1,1,1,1,1,1,1,1,1,1,1,1,1,1,1,1,1,1,1,1,1,1,1,1,1,1,1,1,1,1,1,1,1,1,1,1,1,1,1,1,1,1,1,1,1,1,1,1,1,1,1,1,1,1,1,1,1,1,1,1,1,1,1,1,1,1,1,1,1,1,1,1,2,2,2,2,2,2,13,77,169,678	0.26762450315	-0.000523484572681	0.26762450315	0.26762450315
GO CC 1000 medium	1	Cutoff(5)	Walkttrap	0.83237695694	0.0933856441081	0.241610738255	153	1,1,1,1,1,1,1,1,1,1,1,1,1,1,1,1,1,1,1,1,1,1,1,1,1,1,1,1,1,1,1,1,1,1,1,1,1,1,1,1,1,1,1,1,1,1,1,1,1,1,1,1,1,1,1,1,1,1,1,1,1,1,1,1,1,1,1,1,1,1,1,1,1,1,1,1,1,1,1,1,1,1,1,1,1,1,1,1,1,1,1,1,1,1,1,1,1,1,1,1,1,1,1,1,1,1,1,1,1,1,1,1,1,1,1,1,1,1,1,1,1,1,1,1,1,1,1,1,1,1,1,1,1,1,1,1,1,1,1,2,2,3,3,5,6,6,6,28,72,160,167,213,231	0.390090163013	-0.000819878522396	0.390090163013	0.390090163013
GO CC 1000 medium	1	Cutoff(10)	None	0.228722810745	-4.44024984287e-17	0.0556088207095	1	1043	0.0	0.0	0.0	0.0
GO CC 1000 medium	1	Cutoff(10)	Louvain	0.479631185532	0.0834316216073	0.137104506232	20	1,1,1,1,1,1,1,1,1,1,1,1,1,1,1,76,123,221,275,333	0.3891594	-0.000733608857652	0.441665344276	0.441665344276
GO CC 1000 medium	1	Cutoff(10)	Greedy Modularity	1.63995909691	0.070103495185	0.124640460211	19	1,1,1,1,1,1,1,1,1,1,1,1,1,1,1,76,210,272,470	0.327173403591	-0.000655534766949	0.376243793389	0.376243793389
GO CC 1000 medium	1	Cutoff(10)	Leading Eigenvector	2.93011689186	0.094210647863	0.134228187919	21	1,1,1,1,1,1,1,1,1,1,1,1,1,1,1,1,89,139,220,269,310	0.380644965413	-0.000744332797162	0.436244311129	0.436244311129
GO CC 1000 medium	1	Cutoff(10)	Label Propagation	0.317085981369	0.0307482112283	0.113135186961	19	1,1,1,1,1,1,1,1,1,1,1,1,1,1,1,9,77,219,723	0.235013730027	-0.000450918895789	0.257870157181	0.257870157181
GO CC 1000 medium	1	Cutoff(10)	Walkttrap	2.27065396309	0.0823523731998	0.129434324065	35	1,1,1,1,1,1,1,1,1,1,1,1,1,1,1,1,1,1,1,1,1,1,1,1,1,1,1,1,2,65,70,184,210,213,271	0.362825141012	-0.000778029045393	0.411597654943	0.411597654943
GO CC 1000 medium	1	Cutoff(20)	None	0.179911851883	-4.44024984287e-17	0.0556088207095	1	1043	0.0	0.0	0.0	0.0
GO CC 1000 medium	1	Cutoff(20)	Louvain	0.471432924271	0.0513552152312	0.116970278044	4	71,118,301,553	0.273906278804	-0.00059325193301	0.423735484453	0.423735484453
GO CC 1000 medium	1	Cutoff(20)	Greedy Modularity	3.53973197937	0.0324205051682	0.0910834132311	3	75,323,645	0.217830925785	-0.000495677845687	0.311891326986	0.311891326986
GO CC 1000 medium	1	Cutoff(20)	Leading Eigenvector	1.80093407631	0.0614564554347	0.116970278044	4	83,126,300,534	0.268332246464	-0.000608649731644	0.425492340263	0.425492340263
GO CC 1000 medium	1	Cutoff(20)	Label Propagation	0.259830951691	0.024310310372	0.0997123681687	4	9,71,177,786	0.152139880991	-0.000382520699175	0.252316263981	0.252316263981
GO CC 1000 medium	1	Cutoff(20)	Walkttrap	2.35271191597	0.0776892667212	0.120805369128	5	67,107,263,277,329	0.276800583135	-0.000721432828275	0.421123154342	0.421123154342
GO CC 1000 medium	1	Log	None	0.275285005569	-4.44024984287e-17	0.0556088207095	1	1043	0.0	0.0	0.0	0.0
GO CC 1000 medium	1	Log	Louvain	1.76045703888	0.03429806553	0.12368168744	5	9,68,105,145,716	-0.000475006296609	-0.000475006296609	0.356157251782	0.356157251782
GO CC 1000 medium	1	Log	Greedy Modularity	2.96233606339	0.0297513282205	0.117929050815	4	11,69,115,848	-0.000309330429558	-0.000309330429558	0.301687965318	0.301687965318
GO CC 1000 medium	1	Log	Leading Eigenvector	5.65833902359	0.0301163235	0.11217641419	3	70,116,857	-0.000295573510118	-0.000295573510118	0.315802421622	0.315802421622
GO CC 1000 medium	1	Log	Label Propagation	0.906246185303	0.00767293789111	0.0930009587728	3	9,69,965	-0.000133901035425	-0.000133901035425	0.0858446178485	0.0858446178485
GO CC 1000 medium	1	Log	Walkttrap	22.7156789303	0.0239191532755	0.116011505273	4	9,65,94,875	-0.000272670012459	-0.000272670012459	0.257357550195	0.257357550195
GO CC 1000 medium	2	None	None	0.330223083496	-1.68568325541e-16	0.0457943925234	1	1070	0.0	0.0	0.0	0.0
GO CC 1000 medium	2	None	Louvain	2.68996882439	0.028634639449	0.100934579439	5	18,30,111,242,669	-0.000510851352739	-0.000510851352739	0.416418534865	0.416418534865
GO CC 1000 medium	2	None	Greedy Modularity	4.90262007713	0.0231352230344	0.0822429906542	4	5,32,271,762	-0.000400168935633	-0.000400168935633	0.373733365404	0.373733365404
GO CC 1000 medium	2	None	Leading Eigenvector	8.72125506401	0.029625819848	0.088785046729	6	1,39,105,127,256,542	-0.000618453448044	-0.000618453448044	0.399671398227	0.399671398227
GO CC 1000 medium	2	None	Label Propagation	1.16042590141	0.00242613780701	0.0710280373832	2	29,1041	-4.9332538387e-05	-4.9332538387e-05	0.0264234024076	0.0264234024076
GO CC 1000 medium	2	None	Walkttrap	22.282626152	0.039959867336	0.0915887850467	5	29,99,176,345,421	-0.000659381691989	-0.000659381691989	0.420170240935	0.420170240935
GO CC 1000 medium	2	Pearson	None	0.418272018433	-1.68568325541e-16	0.0457943925234	1	1070	0.0	0.0	0.0	0.0
GO CC 1000 medium	2	Pearson	Louvain	2.37036418915	0.0282294900872	0.0532710280374	2	448,622	-0.00045535817075	-0.00045535817075	0.348733836396	0.302519110135
GO CC 1000 medium	2	Pearson	Greedy Modularity	5.53711509705	0.0285197924853	0.0532710280374	2	447,623	-0.00045507219923	-0.00045507219923	0.348374273966	0.304212238924
GO CC 1000 medium	2	Pearson	Leading Eigenvector	8.60081911087	0.0279185195954	0.0532710280374	2	453,617	-0.000456739004661	-0.000456739004661	0.348728002385	0.301321372931
GO CC 1000 medium	2	Pearson	Label Propagation	0.55578494072	-1.68568325541e-16	0.0457943925234	1	1070	0.0	0.0	0.0	0.0
GO CC 1000 medium	2	Pearson	Walkttrap	18.3887109756	0.0415097182986	0.0570093457944	3	299,340,431	-0.000616177114745	-0.000616177114745	0.401205497211	0.312610693067
GO CC 1000 medium	2	Spearman	None	0.435799837112	-1.68568325541e-16	0.0457943925234	1	1070	0.0	0.0	0.0	0.0
GO CC 1000 medium	2	Spearman	Louvain	1.71417999268	0.0274254465352	0.0523364485981	2	533,537	-0.000467720311029	-0.000467720311029	0.368820146172	0.389721122206
GO CC 1000 medium	2	Spearman	Greedy Modularity	8.3771250248	0.0274254465352	0.0523364485981	2	533,537	-0.000467720311029	-0.000467720311029	0.368820146172	0.389721122206
GO CC 1000 medium	2	Spearman	Leading Eigenvector	13.1818940639	0.0276121464622	0.0523364485981	2	532,538	-0.000467712140414	-0.000467712140414	0.369025552183	0.389721122206
GO CC 1000 medium	2	Spearman	Label Propagation	0.49845790863	-1.68568325541e-16	0.0457943925234	1	1070	0.0	0.0	0.0	0.0
GO CC 1000 medium	2	Spearman	Walkttrap	13.5898070335	0.02721258382	0.0551401869159	2	508,562	-0.000466535571875	-0.000466535571875	0.371729360626	0.389687684755
GO CC 1000 medium	2	Cosine	None	0.354863166809	-1.68568325541e-16	0.0457943925234	1	1070	0.0	0.0	0.0	0.0
GO CC 1000 medium	2	Cosine	Louvain	2.54501700401	0.0258265783588	0.0542056074766	2	498,572	-0.000465489733173	-0.000465489733173	0.338458486036	0.10157897326
GO CC 1000 medium	2	Cosine	Greedy Modularity	6.36280202866	0.0264547263482	0.0551401869159	2	497,573	-0.00046536717395	-0.00046536717395	0.339282531559	0.102676648962
GO CC 1000 medium	2	Cosine	Leading Eigenvector	11.7298099995	0.026503505351	0.0523364485981	2	497,573	-0.00046536717395	-0.00046536717395	0.347261576099	0.10759966131
GO CC 1000 medium	2	Cosine	Label Propagation	0.572675943375	-1.68568325541e-16	0.0457943925234	1	1070	0.0	0.0	0.0	0.0
GO CC 1000 medium	2	Cosine	Walkttrap	11.4160051346	0.0392814770204	0.0542056074766	3	321,325,424	-0.000618072697392	-0.000618072697392	0.391097371212	0.223723848422
GO CC 1000 medium	2	KNN(10)	None	0.198529005051	-1.68568325541e-16	0.0457943925234	1	1070	0.0	0.0	0.0	0.0
GO CC 1000 medium	2	KNN(10)	Louvain	0.401841163635	0.0538381133693	0.0841121495327	6	29,39,105,193,317,387	0.434598358518	-0.000689604796347	0.426558234093	0.434598358518
GO CC 1000 medium	2	KNN(10)	Greedy Modularity	2.52528905869	0.0371851957497	0.0560747663551	3	119,417,534	0.39434066443	-0.000548815297613	0.367748689759	0.39434066443
GO CC 1000 medium	2	KNN(10)	Leading Eigenvector	1.33310508728	0.0523471618082	0.081308411215	4	47,292,353,378	0.434126390362	-0.000645424647689	0.427279718799	0.434126390362
GO CC 1000 medium	2	KNN(10)	Label Propagation	0.344465970993	0.0393981485675	0.096261682243	4	18,35,405,612	0.350897967094	-0.000494144079478	0.397614032386	0.350897967094
GO CC 1000 medium	2	KNN(10)	Walkttrap	2.86383914948	0.0486114264711	0.0934579439252	5	19,34,288,345,384	0.414894183461	-0.000648712503108	0.41868475037	0.414894183461
GO CC 1000 medium	2	KNN(50)	None	0.356784105301	-1.68568325541e-16	0.0457943925234	1	1070	0.0	0.0	0.0	0.0
GO CC 1000 medium	2	KNN(50)	Louvain	2.04500603676	0.0471279688844	0.0579439252336	3	246,365,459	0.193092256608	-0.00060501605485	0.427250546303	0.542616985113
GO CC 1000 medium	2	KNN(50)	Greedy Modularity	16.4580421448	0.0354523707009	0.0598130841121	2	520,550	0.219223376445	-0.000467359169852	0.377786933337	0.482874199914
GO CC 1000 medium	2	KNN(50)	Leading Eigenvector	3.42638111115	0.0486091067469	0.0663551401869	3	250,336,484	0.198056725552	-0.000600742823279	0.428546377806	0.497117018997
GO CC 1000 medium	2	KNN(50)	Label Propagation	0.918246030807	0.0313044494982	0.0588785046729	2	430,640	0.200656524957	-0.00044971064176	0.396057298537	0.476567836062
GO CC 1000 medium	2	KNN(50)	Walkttrap	7.11982798576	0.0387396148281	0.0542056074766	3	218,343,509	0.191936792348	-0.000588812091464	0.395920454362	0.526189229803
GO CC 1000 medium	2	KNN(100)	None	0.303676843643	-1.68568325541e-16	0.0457943925234	1	1070	0.0	0.0	0.0	0.0
GO CC 1000 medium	2	KNN(100)	Louvain	2.39033699036	0.0350722093584	0.0532710280374	4	117,218,337,398	0.0762757970163	-0.000663220246849	0.456711856201	0.539067678785
GO CC 1000 medium	2	KNN(100)	Greedy Modularity	11.1745729446	0.0311862249776	0.0560747663551	2	535,535	0.107105080203	-0.000467726847521	0.373385614405	0.489892730125
GO CC 1000 medium	2	KNN(100)	Leading Eigenvector	7.45787405968	0.0292911086089	0.0532710280374	2	504,566	0.105153549977	-0.000466156455345	0.363450234328	0.489634577352
GO CC 1000 medium	2	KNN(100)	Label Propagation	2.11821007729	0.027885737953	0.0551401869159	2	426,644	0.0983118366468	-0.000448311832496	0.389877347679	0.488835115671
GO CC 1000 medium	2	KNN(100)	Walkttrap	12.5381629467	0.0377961920831	0.0570093457944	3	307,376,387	0.0650724284444	-0.000620563100801	0.437714625701	0.510898896078
GO CC 1000 medium	2	KNN(250)	None	0.283145904541	-1.68568325541e-16	0.0457943925234	1	1070	0.0	0.0	0.0	0.0
GO CC 1000 medium	2	KNN(250)	Louvain	1.73688697815	0.0302865150709	0.0532710280374	3	41,491,538	0.00208411507068	-0.000500608669954	0.36734139096	0.472631767625
GO CC 1000 medium	2	KNN(250)	Greedy Modularity	4.74072098732	0.0281675019793	0.0532710280374	2	504,566	0.00212653807783	-0.000466156455345	0.36225659627	0.472602010973
GO CC 1000 medium	2	KNN(250)	Leading Eigenvector	8.54133701324	0.0279109813303	0.0532710280374	2	508,562	0.00212827858107	-0.000466535571875	0.361817463054	0.472158940049
GO CC 1000 medium	2	KNN(250)	Label Propagation	1.09814095497	-1.68568325541e-16	0.0457943925234	1	1070	0.0	0.0	0.0	0.0
GO CC 1000 medium	2	KNN(250)	Walkttrap	28.2825369835	0.0272439401996	0.0523364485981	2	517,553	0.00213131695957	-0.000467197391678	0.36434217407	0.471581738595
GO CC 1000 medium	2	KNN(500)	None	0.31919002533	-1.68568325541e-16	0.0457943925234	1	1070	0.0	0.0	0.0	0.0
GO CC 1000 medium	2	KNN(500)	Louvain	1.07607293129	0.0276655776009	0.0532710280374	2	518,552	-0.000467254585982	-0.000467254585982	0.363920004645	0.350906023071
GO CC 1000 medium	2	KNN(500)	Greedy Modularity	3.83635997772	0.0276655776009	0.0532710280374	2	518,552	-0.000467254585982	-0.000467254585982	0.363920004645	0.350906023071
GO CC 1000 medium	2	KNN(500)	Leading Eigenvector	16.9740810394	0.0275618146863	0.0532710280374	2	519,551	-0.00046730851204	-0.00046730851204	0.36383595583	0.350853553338
GO CC 1000 medium	2	KNN(500)	Label Propagation	0.909755945206	-1.68568325541e-16	0.0457943925234	1	1070	0.0	0.0	0.0	0.0
GO CC 1000 medium	2	KNN(500)	Walkttrap	25.572466135	0.0283847784337	0.0560747663551	2	481,589	-0.000462961744936	-0.000462961744936	0.358656693487	0.350943081941
GO CC 1000 medium	2	KNN(1000)	None	0.386452913284	-1.68568325541e-16	0.0457943925234	1	1070	0.0	0.0	0.0	0.0
GO CC 1000 medium	2	KNN(1000)	Louvain	1.49541306496	0.0273439890459	0.0551401869159	2	504,566	-0.000466156455345	-0.000466156455345	0.368793607524	0.461050838244
GO CC 1000 medium	2	KNN(1000)	Greedy Modularity	9.40699005127	0.026877692703	0.0560747663551	2	512,558	-0.000466862396469	-0.000466862396469	0.36874254162	0.4610276735
GO CC 1000 medium	2	KNN(1000)	Leading Eigenvector	13.2889790535	0.0269729496395	0.0551401869159	2	506,564	-0.000466352550102	-0.000466352550102	0.368173980014	0.461050838244
GO CC 1000 medium	2	KNN(1000)	Label Propagation	0.82729101181	-1.68568325541e-16	0.0457943925234	1	1070	0.0	0.0	0.0	0.0
GO CC 1000 medium	2	KNN(1000)	Walkttrap	13.6782529354	-1.68568325541e-16	0.0457943925234	1	1070	0.0	0.0	0.0	0.0
GO CC 1000 medium	2	Topological Overlap	None	0.319463014603	-1.68568325541e-16	0.0457943925234	1	1070	0.0	0.0	0.0	0.0
GO CC 1000 medium	2	Topological Overlap	Louvain	1.61833620071	0.0342555591834	0.092523364486	5	18,39,158,230,625	-0.000551161898201	-0.000551161898201	0.432287814551	0.227308836921
GO CC 1000 medium	2	Topological Overlap	Greedy Modularity	6.00038909912	0.0297267126557	0.0672897196262	3	26,333,711	-0.000431256491043	-0.000431256491043	0.381267545849	0.126465456313
GO CC 1000 medium	2	Topological Overlap	Leading Eigenvector	22.3142828941	0.0372136067745	0.0747663551402	4	66,196,249,559	-0.000594531521865	-0.000594531521865	0.416225994802	0.211024227218
GO CC 1000 medium	2	Topological Overlap	Label Propagation	1.02399110794	-1.68568325541e-16	0.0457943925234	1	1070	0.0	0.0	0.0	0.0
GO CC 1000 medium	2	Topological Overlap	Walkttrap	17.0447790623	0.0346619117548	0.081308411215	4	30,254,337,449	-0.000624491532424	-0.000624491532424	0.416657408937	0.11386382588
GO CC 1000 medium	2	Cutoff(0.1)	None	0.174036026001	-1.68568325541e-16	0.0457943925234	1	1070	0.0	0.0	0.0	0.0
GO CC 1000 medium	2	Cutoff(0.1)	Louvain	0.171272039413	0.0567315513083	0.944859813084	905	1,1,1,1,1,1,1,1,1,1,1,1,1,1,1,1,1,1,1,1,1,1,1,1,1,1,1,1,1,1,1,1,1,1,1,1,1,1,1,1,1,1,1,1,1,1,1,1,1,1,1,1,1,1,1,1,1,1,1,1,1,1,1,1,1,1,1,1,1,1,1,1,1,1,1,1,1,1,1,1,1,1,1,1,1,1,1,1,1,1,1,1,1,1,1,1,1,1,1,1,1,1,1,1,1,1,1,1,1,1,1,1,1,1,1,1,1,1,1,1,1,1,1,1,1,1,1,1,1,1,1,1,1,1,1,1,1,1,1,1,1,1,1,1,1,1,1,1,1,1,1,1,1,1,1,1,1,1,1,1,1,1,1,1,1,1,1,1,1,1,1,1,1,1,1,1,1,1,1,1,1,1,1,1,1,1,1,1,1,1,1,1,1,1,1,1,1,1,1,1,1,1,1,1,1,1,1,1,1,1,1,1,1,1,1,1,1,1,1,1,1,1,1,1,1,1,1,1,1,1,1,1,1,1,1,1,1,1,1,1,1,1,1,1,1,1,1,1,1,1,1,1,1,1,1,1,1,1,1,1,1,1,1,1,1,1,1,1,1,1,1,1,1,1,1,1,1,1,1,1,1,1,1,1,1,1,1,1,1,1,1,1,1,1,1,1,1,1,1,1,1,1,1,1,1,1,1,1,1,1,1,1,1,1,1,1,1,1,1,1,1,1,1,1,1,1,1,1,1,1,1,1,1,1,1,1,1,1,1,1,1,1,1,1,1,1,1,1,1,1,1,1,1,1,1,1,1,1,1,1,1,1,1,1,1,1,1,1,1,1,1,1,1,1,1,1,1,1,1,1,1,1,1,1,1,1,1,1,1,1,1,1,1,1,1,1,1,1,1,1,1,1,1,1,1,1,1,1,1,1,1,1,1,1,1,1,1,1,1,1,1,1,1,1,1,1,1,1,1,1,1,1,1,1,1,1,1,1,1,1,1,1,1,1,1,1,1,1,1,1,1,1,1,1,1,1,1,1,1,1,1,1,1,1,1,1,1,1,1,1,1,1,1,1,1,1,1,1,1,1,1,1,1,1,1,1,1,1,1,1,1,1,1,1,1,1,1,1,1,1,1,1,1,1,1,1,1,1,1,1,1,1,1,1,1,1,1,1,1,1,1,1,1,1,1,1,1,1,1,1,1,1,1,1,1,1,1,1,1,1,1,1,1,1,1,1,1,1,1,1,1,1,1,1,1,1,1,1,1,1,1,1,1,1,1,1,1,1,1,1,1,1,1,1,1,1,1,1,1,1,1,1,1,1,1,1,1,1,1,1,1,1,1,1,1,1,1,1,1,1,1,1,1,1,1,1,1,1,1,1,1,1,1,1,1,1,1,1,1,1,1,1,1,1,1,1,1,1,1,1,1,1,1,1,1,1,1,1,1,1,1,1,1,1,1,1,1,1,1,1,1,1,1,1,1,1,1,1,1,1,1,1,1,1,1,1,1,1,1,1,1,1,1,1,1,1,1,1,1,1,1,1,1,1,1,1,1,1,1,1,1,1,1,1,1,1,1,1,1,1,1,1,1,1,1,1,1,1,1,1,1,1,1,1,1,1,1,1,1,1,1,1,1,1,1,1,1,1,1,1,1,1,1,1,1,1,1,1,1,1,1,1,1,1,1,1,1,1,1,1,1,1,1,1,1,1,1,1,1,1,1,1,1,1,1,1,1,1,1,1,1,1,1,1,1,1,1,1,1,1,1,1,1,1,1,1,1,1,1,1,1,1,1,1,1,1,1,1,1,1,1,1,1,1,1,1,1,1,1,1,1,1,1,1,1,1,1,1,1,1,1,1,1,1,1,1,1,1,1,1,1,1,1,1,1,1,1,1,1,1,1,1,1,1,1,1,1,1,1,1,1,1,1,1,1,1,1,1,1,1,1,1,1,1,1,2,2,2,2,2,2,2,2,2,2,2,2,2,2,2,2,2,2,2,2,3,3,3,3,3,3,3,3,4,4,6,6,7,8,9,10,15,16,26,30	0.644705463118	-0.000932616857564	0.0260431621914	0.644705463118
GO CC 1000 medium	2	Cutoff(0.1)	Greedy Modularity	0.167229890823	0.0776416647816	0.944859813084	905	1,1,1,1,1,1,1,1,1,1,1,1,1,1,1,1,1,1,1,1,1,1,1,1,1,1,1,1,1,1,1,1,1,1,1,1,1,1,1,1,1,1,1,1,1,1,1,1,1,1,1,1,1,1,1,1,1,1,1,1,1,1,1,1,1,1,1,1,1,1,1,1,1,1,1,1,1,1,1,1,1,1,1,1,1,1,1,1,1,1,1,1,1,1,1,1,1,1,1,1,1,1,1,1,1,1,1,1,1,1,1,1,1,1,1,1,1,1,1,1,1,1,1,1,1,1,1,1,1,1,1,1,1,1,1,1,1,1,1,1,1,1,1,1,1,1,1,1,1,1,1,1,1,1,1,1,1,1,1,1,1,1,1,1,1,1,1,1,1,1,1,1,1,1,1,1,1,1,1,1,1,1,1,1,1,1,1,1,1,1,1,1,1,1,1,1,1,1,1,1,1,1,1,1,1,1,1,1,1,1,1,1,1,1,1,1,1,1,1,1,1,1,1,1,1,1,1,1,1,1,1,1,1,1,1,1,1,1,1,1,1,1,1,1,1,1,1,1,1,1,1,1,1,1,1,1,1,1,1,1,1,1,1,1,1,1,1,1,1,1,1,1,1,1,1,1,1,1,1,1,1,1,1,1,1,1,1,1,1,1,1,1,1,1,1,1,1,1,1,1,1,1,1,1,1,1,1,1,1,1,1,1,1,1,1,1,1,1,1,1,1,1,1,1,1,1,1,1,1,1,1,1,1,1,1,1,1,1,1,1,1,1,1,1,1,1,1,1,1,1,1,1,1,1,1,1,1,1,1,1,1,1,1,1,1,1,1,1,1,1,1,1,1,1,1,1,1,1,1,1,1,1,1,1,1,1,1,1,1,1,1,1,1,1,1,1,1,1,1,1,1,1,1,1,1,1,1,1,1,1,1,1,1,1,1,1,1,1,1,1,1,1,1,1,1,1,1,1,1,1,1,1,1,1,1,1,1,1,1,1,1,1,1,1,1,1,1,1,1,1,1,1,1,1,1,1,1,1,1,1,1,1,1,1,1,1,1,1,1,1,1,1,1,1,1,1,1,1,1,1,1,1,1,1,1,1,1,1,1,1,1,1,1,1,1,1,1,1,1,1,1,1,1,1,1,1,1,1,1,1,1,1,1,1,1,1,1,1,1,1,1,1,1,1,1,1,1,1,1,1,1,1,1,1,1,1,1,1,1,1,1,1,1,1,1,1,1,1,1,1,1,1,1,1,1,1,1,1,1,1,1,1,1,1,1,1,1,1,1,1,1,1,1,1,1,1,1,1,1,1,1,1,1,1,1,1,1,1,1,1,1,1,1,1,1,1,1,1,1,1,1,1,1,1,1,1,1,1,1,1,1,1,1,1,1,1,1,1,1,1,1,1,1,1,1,1,1,1,1,1,1,1,1,1,1,1,1,1,1,1,1,1,1,1,1,1,1,1,1,1,1,1,1,1,1,1,1,1,1,1,1,1,1,1,1,1,1,1,1,1,1,1,1,1,1,1,1,1,1,1,1,1,1,1,1,1,1,1,1,1,1,1,1,1,1,1,1,1,1,1,1,1,1,1,1,1,1,1,1,1,1,1,1,1,1,1,1,1,1,1,1,1,1,1,1,1,1,1,1,1,1,1,1,1,1,1,1,1,1,1,1,1,1,1,1,1,1,1,1,1,1,1,1,1,1,1,1,1,1,1,1,1,1,1,1,1,1,1,1,1,1,1,1,1,1,1,1,1,1,1,1,1,1,1,1,1,1,1,1,1,1,1,1,1,1,1,1,1,1,1,1,1,1,1,1,1,1,1,1,1,1,1,1,1,1,1,1,1,1,1,1,1,1,1,1,1,1,1,1,1,1,1,1,1,1,1,1,1,1,1,1,1,1,1,1,1,1,1,1,1,1,1,1,1,1,1,1,1,1,1,1,1,1,1,1,2,2,2,2,2,2,2,2,2,2,2,2,2,2,2,2,2,2,2,2,2,3,3,3,3,3,3,3,3,4,4,6,6,7,8,9,10,15,26,44	0.649831419095	-0.000931976281359	0.0328180491454	0.649831419095
GO CC 1000 medium	2	Cutoff(0.1)	Leading Eigenvector	0.220687150955	0.0572345210051	0.942990654206	905	1,1,1,1,1,1,1,1,1,1,1,1,1,1,1,1,1,1,1,1,1,1,1,1,1,1,1,1,1,1,1,1,1,1,1,1,1,1,1,1,1,1,1,1,1,1,1,1,1,1,1,1,1,1,1,1,1,1,1,1,1,1,1,1,1,1,1,1,1,1,1,1,1,1,1,1,1,1,1,1,1,1,1,1,1,1,1,1,1,1,1,1,1,1,1,1,1,1,1,1,1,1,1,1,1,1,1,1,1,1,1,1,1,1,1,1,1,1,1,1,1,1,1,1,1,1,1,1,1,1,1,1,1,1,1,1,1,1,1,1,1,1,1,1,1,1,1,1,1,1,1,1,1,1,1,1,1,1,1,1,1,1,1,1,1,1,1,1,1,1,1,1,1,1,1,1,1,1,1,1,1,1,1,1,1,1,1,1,1,1,1,1,1,1,1,1,1,1,1,1,1,1,1,1,1,1,1,1,1,1,1,1,1,1,1,1,1,1,1,1,1,1,1,1,1,1,1,1,1,1,1,1,1,1,1,1,1,1,1,1,1,1,1,1,1,1,1,1,1,1,1,1,1,1,1,1,1,1,1,1,1,1,1,1,1,1,1,1,1,1,1,1,1,1,1,1,1,1,1,1,1,1,1,1,1,1,1,1,1,1,1,1,1,1,1,1,1,1,1,1,1,1,1,1,1,1,1,1,1,1,1,1,1,1,1,1,1,1,1,1,1,1,1,1,1,1,1,1,1,1,1,1,1,1,1,1,1,1,1,1,1,1,1,1,1,1,1,1,1,1,1,1,1,1,1,1,1,1,1,1,1,1,1,1,1,1,1,1,1,1,1,1,1,1,1,1,1,1,1,1,1,1,1,1,1,1,1,1,1,1,1,1,1,1,1,1,1,1,1,1,1,1,1,1,1,1,1,1,1,1,1,1,1,1,1,1,1,1,1,1,1,1,1,1,1,1,1,1,1,1,1,1,1,1,1,1,1,1,1,1,1,1,1,1,1,1,1,1,1,1,1,1,1,1,1,1,1,1,1,1,1,1,1,1,1,1,1,1,1,1,1,1,1,1,1,1,1,1,1,1,1,1,1,1,1,1,1,1,1,1,1,1,1,1,1,1,1,1,1,1,1,1,1,1,1,1,1,1,1,1,1,1,1,1,1,1,1,1,1,1,1,1,1,1,1,1,1,1,1,1,1,1,1,1,1,1,1,1,1,1,1,1,1,1,1,1,1,1,1,1,1,1,1,1,1,1,1,1,1,1,1,1,1,1,1,1,1,1,1,1,1,1,1,1,1,1,1,1,1,1,1,1,1,1,1,1,1,1,1,1,1,1,1,1,1,1,1,1,1,1,1,1,1,1,1,1,1,1,1,1,1,1,1,1,1,1,1,1,1,1,1,1,1,1,1,1,1,1,1,1,1,1,1,1,1,1,1,1,1,1,1,1,1,1,1,1,1,1,1,1,1,1,1,1,1,1,1,1,1,1,1,1,1,1,1,1,1,1,1,1,1,1,1,1,1,1,1,1,1,1,1,1,1,1,1,1,1,1,1,1,1,1,1,1,1,1,1,1,1,1,1,1,1,1,1,1,1,1,1,1,1,1,1,1,1,1,1,1,1,1,1,1,1,1,1,1,1,1,1,1,1,1,1,1,1,1,1,1,1,1,1,1,1,1,1,1,1,1,1,1,1,1,1,1,1,1,1,1,1,1,1,1,1,1,1,1,1,1,1,1,1,1,1,1,1,1,1,1,1,1,1,1,1,1,1,1,1,1,1,1,1,1,1,1,1,1,1,1,1,1,1,1,1,1,1,1,1,1,1,1,1,1,1,1,1,1,1,1,1,1,1,1,1,1,1,1,1,1,1,1,1,1,1,1,1,1,1,1,1,1,1,1,1,1,1,1,1,1,1,1,1,1,1,1,1,1,1,1,1,1,1,1,1,1,1,2,2,2,2,2,2,2,2,2,2,2,2,2,2,2,2,2,2,2,2,2,3,3,3,3,3,3,3,4,4,5,6,7,8,9,10,15,17,26,31	0.636259666371	-0.000932553126768	0.0266141251397	0.636259666371
GO CC 1000 medium	2	Cutoff(0.1)	Label Propagation	0.162687063217	0.0743972624017	0.95046728972	911	1,1,1,1,1,1,1,1,1,1,1,1,1,1,1,1,1,1,1,1,1,1,1,1,1,1,1,1,1,1,1,1,1,1,1,1,1,1,1,1,1,1,1,1,1,1,1,1,1,1,1,1,1,1,1,1,1,1,1,1,1,1,1,1,1,1,1,1,1,1,1,1,1,1,1,1,1,1,1,1,1,1,1,1,1,1,1,1,1,1,1,1,1,1,1,1,1,1,1,1,1,1,1,1,1,1,1,1,1,1,1,1,1,1,1,1,1,1,1,1,1,1,1,1,1,1,1,1,1,1,1,1,1,1,1,1,1,1,1,1,1,1,1,1,1,1,1,1,1,1,1,1,1,1,1,1,1,1,1,1,1,1,1,1,1,1,1,1,1,1,1,1,1,1,1,1,1,1,1,1,1,1,1,1,1,1,1,1,1,1,1,1,1,1,1,1,1,1,1,1,1,1,1,1,1,1,1,1,1,1,1,1,1,1,1,1,1,1,1,1,1,1,1,1,1,1,1,1,1,1,1,1,1,1,1,1,1,1,1,1,1,1,1,1,1,1,1,1,1,1,1,1,1,1,1,1,1,1,1,1,1,1,1,1,1,1,1,1,1,1,1,1,1,1,1,1,1,1,1,1,1,1,1,1,1,1,1,1,1,1,1,1,1,1,1,1,1,1,1,1,1,1,1,1,1,1,1,1,1,1,1,1,1,1,1,1,1,1,1,1,1,1,1,1,1,1,1,1,1,1,1,1,1,1,1,1,1,1,1,1,1,1,1,1,1,1,1,1,1,1,1,1,1,1,1,1,1,1,1,1,1,1,1,1,1,1,1,1,1,1,1,1,1,1,1,1,1,1,1,1,1,1,1,1,1,1,1,1,1,1,1,1,1,1,1,1,1,1,1,1,1,1,1,1,1,1,1,1,1,1,1,1,1,1,1,1,1,1,1,1,1,1,1,1,1,1,1,1,1,1,1,1,1,1,1,1,1,1,1,1,1,1,1,1,1,1,1,1,1,1,1,1,1,1,1,1,1,1,1,1,1,1,1,1,1,1,1,1,1,1,1,1,1,1,1,1,1,1,1,1,1,1,1,1,1,1,1,1,1,1,1,1,1,1,1,1,1,1,1,1,1,1,1,1,1,1,1,1,1,1,1,1,1,1,1,1,1,1,1,1,1,1,1,1,1,1,1,1,1,1,1,1,1,1,1,1,1,1,1,1,1,1,1,1,1,1,1,1,1,1,1,1,1,1,1,1,1,1,1,1,1,1,1,1,1,1,1,1,1,1,1,1,1,1,1,1,1,1,1,1,1,1,1,1,1,1,1,1,1,1,1,1,1,1,1,1,1,1,1,1,1,1,1,1,1,1,1,1,1,1,1,1,1,1,1,1,1,1,1,1,1,1,1,1,1,1,1,1,1,1,1,1,1,1,1,1,1,1,1,1,1,1,1,1,1,1,1,1,1,1,1,1,1,1,1,1,1,1,1,1,1,1,1,1,1,1,1,1,1,1,1,1,1,1,1,1,1,1,1,1,1,1,1,1,1,1,1,1,1,1,1,1,1,1,1,1,1,1,1,1,1,1,1,1,1,1,1,1,1,1,1,1,1,1,1,1,1,1,1,1,1,1,1,1,1,1,1,1,1,1,1,1,1,1,1,1,1,1,1,1,1,1,1,1,1,1,1,1,1,1,1,1,1,1,1,1,1,1,1,1,1,1,1,1,1,1,1,1,1,1,1,1,1,1,1,1,1,1,1,1,1,1,1,1,1,1,1,1,1,1,1,1,1,1,1,1,1,1,1,1,1,1,1,1,1,1,1,1,1,1,1,1,1,1,1,1,1,1,1,1,1,1,1,1,1,1,1,1,1,1,1,1,1,1,1,1,1,1,1,1,1,1,1,1,1,1,1,1,1,1,1,1,1,1,1,1,1,1,1,1,1,1,1,2,2,2,2,2,2,2,2,2,2,2,2,2,2,2,2,2,2,2,2,2,2,2,2,2,3,3,3,3,3,3,3,3,3,3,3,4,4,4,4,5,5,6,6,6,9,26,45	0.63607539998	-0.000932133157164	0.0307986275662	0.63607539998
GO CC 1000 medium	2	Cutoff(0.1)	Walkttrap	0.177878856659	0.0780511008759	0.94953271028	906	1,1,1,1,1,1,1,1,1,1,1,1,1,1,1,1,1,1,1,1,1,1,1,1,1,1,1,1,1,1,1,1,1,1,1,1,1,1,1,1,1,1,1,1,1,1,1,1,1,1,1,1,1,1,1,1,1,1,1,1,1,1,1,1,1,1,1,1,1,1,1,1,1,1,1,1,1,1,1,1,1,1,1,1,1,1,1,1,1,1,1,1,1,1,1,1,1,1,1,1,1,1,1,1,1,1,1,1,1,1,1,1,1,1,1,1,1,1,1,1,1,1,1,1,1,1,1,1,1,1,1,1,1,1,1,1,1,1,1,1,1,1,1,1,1,1,1,1,1,1,1,1,1,1,1,1,1,1,1,1,1,1,1,1,1,1,1,1,1,1,1,1,1,1,1,1,1,1,1,1,1,1,1,1,1,1,1,1,1,1,1,1,1,1,1,1,1,1,1,1,1,1,1,1,1,1,1,1,1,1,1,1,1,1,1,1,1,1,1,1,1,1,1,1,1,1,1,1,1,1,1,1,1,1,1,1,1,1,1,1,1,1,1,1,1,1,1,1,1,1,1,1,1,1,1,1,1,1,1,1,1,1,1,1,1,1,1,1,1,1,1,1,1,1,1,1,1,1,1,1,1,1,1,1,1,1,1,1,1,1,1,1,1,1,1,1,1,1,1,1,1,1,1,1,1,1,1,1,1,1,1,1,1,1,1,1,1,1,1,1,1,1,1,1,1,1,1,1,1,1,1,1,1,1,1,1,1,1,1,1,1,1,1,1,1,1,1,1,1,1,1,1,1,1,1,1,1,1,1,1,1,1,1,1,1,1,1,1,1,1,1,1,1,1,1,1,1,1,1,1,1,1,1,1,1,1,1,1,1,1,1,1,1,1,1,1,1,1,1,1,1,1,1,1,1,1,1,1,1,1,1,1,1,1,1,1,1,1,1,1,1,1,1,1,1,1,1,1,1,1,1,1,1,1,1,1,1,1,1,1,1,1,1,1,1,1,1,1,1,1,1,1,1,1,1,1,1,1,1,1,1,1,1,1,1,1,1,1,1,1,1,1,1,1,1,1,1,1,1,1,1,1,1,1,1,1,1,1,1,1,1,1,1,1,1,1,1,1,1,1,1,1,1,1,1,1,1,1,1,1,1,1,1,1,1,1,1,1,1,1,1,1,1,1,1,1,1,1,1,1,1,1,1,1,1,1,1,1,1,1,1,1,1,1,1,1,1,1,1,1,1,1,1,1,1,1,1,1,1,1,1,1,1,1,1,1,1,1,1,1,1,1,1,1,1,1,1,1,1,1,1,1,1,1,1,1,1,1,1,1,1,1,1,1,1,1,1,1,1,1,1,1,1,1,1,1,1,1,1,1,1,1,1,1,1,1,1,1,1,1,1,1,1,1,1,1,1,1,1,1,1,1,1,1,1,1,1,1,1,1,1,1,1,1,1,1,1,1,1,1,1,1,1,1,1,1,1,1,1,1,1,1,1,1,1,1,1,1,1,1,1,1,1,1,1,1,1,1,1,1,1,1,1,1,1,1,1,1,1,1,1,1,1,1,1,1,1,1,1,1,1,1,1,1,1,1,1,1,1,1,1,1,1,1,1,1,1,1,1,1,1,1,1,1,1,1,1,1,1,1,1,1,1,1,1,1,1,1,1,1,1,1,1,1,1,1,1,1,1,1,1,1,1,1,1,1,1,1,1,1,1,1,1,1,1,1,1,1,1,1,1,1,1,1,1,1,1,1,1,1,1,1,1,1,1,1,1,1,1,1,1,1,1,1,1,1,1,1,1,1,1,1,1,1,1,1,1,1,1,1,1,1,1,1,1,1,1,1,1,1,1,1,1,1,1,1,1,1,1,1,1,1,1,1,1,1,1,1,1,1,1,1,1,1,1,1,1,1,1,1,1,1,1,1,1,1,1,1,1,1,1,1,1,1,1,2,2,2,2,2,2,2,2,2,2,2,2,2,2,2,2,2,2,2,2,3,3,3,3,3,3,3,3,3,4,4,4,5,5,6,7,8,9,10,26,50	0.640645511058	-0.000931670700363	0.0331508861907	0.640645511058
GO CC 1000 medium	2	Cutoff(1)	None	0.174421072006	-1.68568325541e-16	0.0457943925234	1	1070	0.0	0.0	0.0	0.0
GO CC 1000 medium	2	Cutoff(1)	Louvain	0.19361114502	0.0844016720636	0.426168224299	352	1,1,1,1,1,1,1,1,1,1,1,1,1,1,1,1,1,1,1,1,1,1,1,1,1,1,1,1,1,1,1,1,1,1,1,1,1,1,1,1,1,1,1,1,1,1,1,1,1,1,1,1,1,1,1,1,1,1,1,1,1,1,1,1,1,1,1,1,1,1,1,1,1,1,1,1,1,1,1,1,1,1,1,1,1,1,1,1,1,1,1,1,1,1,1,1,1,1,1,1,1,1,1,1,1,1,1,1,1,1,1,1,1,1,1,1,1,1,1,1,1,1,1,1,1,1,1,1,1,1,1,1,1,1,1,1,1,1,1,1,1,1,1,1,1,1,1,1,1,1,1,1,1,1,1,1,1,1,1,1,1,1,1,1,1,1,1,1,1,1,1,1,1,1,1,1,1,1,1,1,1,1,1,1,1,1,1,1,1,1,1,1,1,1,1,1,1,1,1,1,1,1,1,1,1,1,1,1,1,1,1,1,1,1,1,1,1,1,1,1,1,1,1,1,1,1,1,1,1,1,1,1,1,1,1,1,1,1,1,1,1,1,1,1,1,1,1,1,1,1,1,1,1,1,1,1,1,1,1,1,1,1,1,1,1,1,1,1,1,1,1,1,1,1,1,1,1,1,1,1,1,1,1,1,1,1,1,1,1,1,1,1,1,1,1,1,1,1,1,1,1,1,1,1,1,1,1,1,1,1,1,1,1,1,1,1,1,1,1,1,1,1,1,1,1,1,1,1,1,1,1,1,1,1,1,2,2,2,2,2,2,3,3,4,8,20,31,48,101,130,181,194	0.509534234664	-0.00085242390686	0.313630446442	0.509534234664
GO CC 1000 medium	2	Cutoff(1)	Greedy Modularity	0.21577501297	0.0860576820503	0.416822429907	350	1,1,1,1,1,1,1,1,1,1,1,1,1,1,1,1,1,1,1,1,1,1,1,1,1,1,1,1,1,1,1,1,1,1,1,1,1,1,1,1,1,1,1,1,1,1,1,1,1,1,1,1,1,1,1,1,1,1,1,1,1,1,1,1,1,1,1,1,1,1,1,1,1,1,1,1,1,1,1,1,1,1,1,1,1,1,1,1,1,1,1,1,1,1,1,1,1,1,1,1,1,1,1,1,1,1,1,1,1,1,1,1,1,1,1,1,1,1,1,1,1,1,1,1,1,1,1,1,1,1,1,1,1,1,1,1,1,1,1,1,1,1,1,1,1,1,1,1,1,1,1,1,1,1,1,1,1,1,1,1,1,1,1,1,1,1,1,1,1,1,1,1,1,1,1,1,1,1,1,1,1,1,1,1,1,1,1,1,1,1,1,1,1,1,1,1,1,1,1,1,1,1,1,1,1,1,1,1,1,1,1,1,1,1,1,1,1,1,1,1,1,1,1,1,1,1,1,1,1,1,1,1,1,1,1,1,1,1,1,1,1,1,1,1,1,1,1,1,1,1,1,1,1,1,1,1,1,1,1,1,1,1,1,1,1,1,1,1,1,1,1,1,1,1,1,1,1,1,1,1,1,1,1,1,1,1,1,1,1,1,1,1,1,1,1,1,1,1,1,1,1,1,1,1,1,1,1,1,1,1,1,1,1,1,1,1,1,1,1,1,1,1,1,1,1,1,1,1,1,1,1,1,1,1,1,2,2,2,2,2,2,3,3,4,31,44,109,158,173,198	0.501693392575	-0.000846175020616	0.316715882815	0.501693392575
GO CC 1000 medium	2	Cutoff(1)	Leading Eigenvector	0.352818012238	0.0437752276074	0.404672897196	346	1,1,1,1,1,1,1,1,1,1,1,1,1,1,1,1,1,1,1,1,1,1,1,1,1,1,1,1,1,1,1,1,1,1,1,1,1,1,1,1,1,1,1,1,1,1,1,1,1,1,1,1,1,1,1,1,1,1,1,1,1,1,1,1,1,1,1,1,1,1,1,1,1,1,1,1,1,1,1,1,1,1,1,1,1,1,1,1,1,1,1,1,1,1,1,1,1,1,1,1,1,1,1,1,1,1,1,1,1,1,1,1,1,1,1,1,1,1,1,1,1,1,1,1,1,1,1,1,1,1,1,1,1,1,1,1,1,1,1,1,1,1,1,1,1,1,1,1,1,1,1,1,1,1,1,1,1,1,1,1,1,1,1,1,1,1,1,1,1,1,1,1,1,1,1,1,1,1,1,1,1,1,1,1,1,1,1,1,1,1,1,1,1,1,1,1,1,1,1,1,1,1,1,1,1,1,1,1,1,1,1,1,1,1,1,1,1,1,1,1,1,1,1,1,1,1,1,1,1,1,1,1,1,1,1,1,1,1,1,1,1,1,1,1,1,1,1,1,1,1,1,1,1,1,1,1,1,1,1,1,1,1,1,1,1,1,1,1,1,1,1,1,1,1,1,1,1,1,1,1,1,1,1,1,1,1,1,1,1,1,1,1,1,1,1,1,1,1,1,1,1,1,1,1,1,1,1,1,1,1,1,1,1,1,1,1,1,1,1,1,1,1,1,1,1,1,1,1,1,1,1,1,1,1,1,2,2,2,2,2,3,27,34,104,108,449	0.451074342595	-0.000750528168971	0.253349382047	0.451074342595
GO CC 1000 medium	2	Cutoff(1)	Label Propagation	0.185468912125	0.0771590399917	0.443925233645	383	1,1,1,1,1,1,1,1,1,1,1,1,1,1,1,1,1,1,1,1,1,1,1,1,1,1,1,1,1,1,1,1,1,1,1,1,1,1,1,1,1,1,1,1,1,1,1,1,1,1,1,1,1,1,1,1,1,1,1,1,1,1,1,1,1,1,1,1,1,1,1,1,1,1,1,1,1,1,1,1,1,1,1,1,1,1,1,1,1,1,1,1,1,1,1,1,1,1,1,1,1,1,1,1,1,1,1,1,1,1,1,1,1,1,1,1,1,1,1,1,1,1,1,1,1,1,1,1,1,1,1,1,1,1,1,1,1,1,1,1,1,1,1,1,1,1,1,1,1,1,1,1,1,1,1,1,1,1,1,1,1,1,1,1,1,1,1,1,1,1,1,1,1,1,1,1,1,1,1,1,1,1,1,1,1,1,1,1,1,1,1,1,1,1,1,1,1,1,1,1,1,1,1,1,1,1,1,1,1,1,1,1,1,1,1,1,1,1,1,1,1,1,1,1,1,1,1,1,1,1,1,1,1,1,1,1,1,1,1,1,1,1,1,1,1,1,1,1,1,1,1,1,1,1,1,1,1,1,1,1,1,1,1,1,1,1,1,1,1,1,1,1,1,1,1,1,1,1,1,1,1,1,1,1,1,1,1,1,1,1,1,1,1,1,1,1,1,1,1,1,1,1,1,1,1,1,1,1,1,1,1,1,1,1,1,1,1,1,1,1,1,1,1,1,1,1,1,1,1,1,1,1,1,2,2,2,2,2,2,2,2,2,2,2,2,2,2,2,2,2,2,2,2,2,3,3,3,3,3,3,3,3,4,4,5,6,6,6,8,9,9,9,10,10,10,13,14,18,18,24,31,111,346	0.334285677237	-0.000824459160448	0.220182722667	0.334285677237
GO CC 1000 medium	2	Cutoff(1)	Walkttrap	0.344319105148	0.112472385075	0.545794392523	481	1,1,1,1,1,1,1,1,1,1,1,1,1,1,1,1,1,1,1,1,1,1,1,1,1,1,1,1,1,1,1,1,1,1,1,1,1,1,1,1,1,1,1,1,1,1,1,1,1,1,1,1,1,1,1,1,1,1,1,1,1,1,1,1,1,1,1,1,1,1,1,1,1,1,1,1,1,1,1,1,1,1,1,1,1,1,1,1,1,1,1,1,1,1,1,1,1,1,1,1,1,1,1,1,1,1,1,1,1,1,1,1,1,1,1,1,1,1,1,1,1,1,1,1,1,1,1,1,1,1,1,1,1,1,1,1,1,1,1,1,1,1,1,1,1,1,1,1,1,1,1,1,1,1,1,1,1,1,1,1,1,1,1,1,1,1,1,1,1,1,1,1,1,1,1,1,1,1,1,1,1,1,1,1,1,1,1,1,1,1,1,1,1,1,1,1,1,1,1,1,1,1,1,1,1,1,1,1,1,1,1,1,1,1,1,1,1,1,1,1,1,1,1,1,1,1,1,1,1,1,1,1,1,1,1,1,1,1,1,1,1,1,1,1,1,1,1,1,1,1,1,1,1,1,1,1,1,1,1,1,1,1,1,1,1,1,1,1,1,1,1,1,1,1,1,1,1,1,1,1,1,1,1,1,1,1,1,1,1,1,1,1,1,1,1,1,1,1,1,1,1,1,1,1,1,1,1,1,1,1,1,1,1,1,1,1,1,1,1,1,1,1,1,1,1,1,1,1,1,1,1,1,1,1,1,1,1,1,1,1,1,1,1,1,1,1,1,1,1,1,1,1,1,1,1,1,1,1,1,1,1,1,1,1,1,1,1,1,1,1,1,1,1,1,1,1,1,1,1,1,1,1,1,1,1,1,1,1,1,1,1,1,1,1,1,1,1,1,1,1,1,1,1,1,1,1,1,1,1,1,1,2,2,2,2,2,2,2,2,2,2,2,2,2,2,2,2,2,2,2,2,2,2,2,2,2,2,2,2,3,3,3,3,3,3,3,3,3,3,3,3,3,3,3,4,4,4,4,4,4,5,5,5,6,6,6,6,7,7,9,14,16,16,18,18,18,28,31,41,117,155	0.443229473122	-0.00089952586739	0.210868410907	0.443229473122
GO CC 1000 medium	2	Cutoff(5)	None	0.256951093674	-1.68568325541e-16	0.0457943925234	1	1070	0.0	0.0	0.0	0.0
GO CC 1000 medium	2	Cutoff(5)	Louvain	0.392544031143	0.059374716292	0.170093457944	85	1,1,1,1,1,1,1,1,1,1,1,1,1,1,1,1,1,1,1,1,1,1,1,1,1,1,1,1,1,1,1,1,1,1,1,1,1,1,1,1,1,1,1,1,1,1,1,1,1,1,1,1,1,1,1,1,1,1,1,1,1,1,1,1,1,1,1,1,1,1,1,1,1,1,1,1,1,1,2,26,34,120,238,281,291	0.460592679432	-0.000742136947512	0.460592679432	0.460592679432
GO CC 1000 medium	2	Cutoff(5)	Greedy Modularity	0.662045001984	0.0442869141142	0.167289719626	83	1,1,1,1,1,1,1,1,1,1,1,1,1,1,1,1,1,1,1,1,1,1,1,1,1,1,1,1,1,1,1,1,1,1,1,1,1,1,1,1,1,1,1,1,1,1,1,1,1,1,1,1,1,1,1,1,1,1,1,1,1,1,1,1,1,1,1,1,1,1,1,1,1,1,1,1,1,1,2,35,177,191,587	0.396063157569	-0.000597446797246	0.396063157569	0.396063157569
GO CC 1000 medium	2	Cutoff(5)	Leading Eigenvector	0.778460979462	0.0281670836084	0.157009345794	82	1,1,1,1,1,1,1,1,1,1,1,1,1,1,1,1,1,1,1,1,1,1,1,1,1,1,1,1,1,1,1,1,1,1,1,1,1,1,1,1,1,1,1,1,1,1,1,1,1,1,1,1,1,1,1,1,1,1,1,1,1,1,1,1,1,1,1,1,1,1,1,1,1,1,1,1,1,1,44,127,156,665	0.355510194058	-0.00053942072465	0.355510194058	0.355510194058
GO CC 1000 medium	2	Cutoff(5)	Label Propagation	0.260407924652	0.0242185516225	0.154205607477	83	1,1,1,1,1,1,1,1,1,1,1,1,1,1,1,1,1,1,1,1,1,1,1,1,1,1,1,1,1,1,1,1,1,1,1,1,1,1,1,1,1,1,1,1,1,1,1,1,1,1,1,1,1,1,1,1,1,1,1,1,1,1,1,1,1,1,1,1,1,1,1,1,1,1,1,1,1,1,2,16,33,263,678	0.325313560765	-0.000502182330375	0.325313560765	0.325313560765
GO CC 1000 medium	2	Cutoff(5)	Walkttrap	1.18883609772	0.0749983526081	0.21308411215	130	1,1,1,1,1,1,1,1,1,1,1,1,1,1,1,1,1,1,1,1,1,1,1,1,1,1,1,1,1,1,1,1,1,1,1,1,1,1,1,1,1,1,1,1,1,1,1,1,1,1,1,1,1,1,1,1,1,1,1,1,1,1,1,1,1,1,1,1,1,1,1,1,1,1,1,1,1,1,1,1,1,1,1,1,1,1,1,1,1,1,1,1,1,1,1,1,1,1,1,1,1,1,1,1,1,1,1,1,1,1,1,1,1,1,2,2,2,2,2,3,5,8,20,32,62,104,117,182,199,214	0.414212742873	-0.000814098820809	0.414212742873	0.414212742873
GO CC 1000 medium	2	Cutoff(10)	None	0.23740196228	-1.68568325541e-16	0.0457943925234	1	1070	0.0	0.0	0.0	0.0
GO CC 1000 medium	2	Cutoff(10)	Louvain	0.444662094116	0.0547419740281	0.108411214953	14	1,1,1,1,1,1,1,2,27,34,117,243,291,349	0.408283634124	-0.000705764638412	0.459834313524	0.459834313524
GO CC 1000 medium	2	Cutoff(10)	Greedy Modularity	2.07860589027	0.0401513226356	0.103738317757	12	1,1,1,1,1,1,1,2,36,185,191,649	0.338603725875	-0.000532467531406	0.399392082131	0.399392082131
GO CC 1000 medium	2	Cutoff(10)	Leading Eigenvector	1.28364396095	0.0286941005699	0.0990654205607	13	1,1,1,1,1,1,1,2,4,48,130,165,714	0.297908609901	-0.000480961609467	0.363116007128	0.363116007128
GO CC 1000 medium	2	Cutoff(10)	Label Propagation	0.315097093582	0.0244214931044	0.085046728972	11	1,1,1,1,1,1,1,2,33,320,708	0.330132735796	-0.00044132432267	0.331968825471	0.331968825471
GO CC 1000 medium	2	Cutoff(10)	Walkttrap	1.44516801834	0.0640861286613	0.118691588785	26	1,1,1,1,1,1,1,1,1,1,1,1,1,1,1,2,2,6,21,31,62,112,145,217,218,239	0.360979566461	-0.000779715239365	0.420669000673	0.420669000673
GO CC 1000 medium	2	Cutoff(20)	None	0.1792948246	-1.68568325541e-16	0.0457943925234	1	1070	0.0	0.0	0.0	0.0
GO CC 1000 medium	2	Cutoff(20)	Louvain	0.602291822433	0.0457333342468	0.0971962616822	6	22,33,107,197,259,452	0.312974112845	-0.000671366349862	0.446906603253	0.446906603253
GO CC 1000 medium	2	Cutoff(20)	Greedy Modularity	3.20015621185	0.0438757621808	0.0897196261682	4	34,202,404,430	0.289154909428	-0.000616737618924	0.414823432019	0.414823432019
GO CC 1000 medium	2	Cutoff(20)	Leading Eigenvector	1.40568304062	0.0262366456491	0.0897196261682	4	48,123,165,734	0.210785299728	-0.000458768585391	0.358388729913	0.358388729913
GO CC 1000 medium	2	Cutoff(20)	Label Propagation	0.27811384201	0.023196705919	0.0785046728972	3	30,324,716	0.270638450944	-0.000430075020135	0.332089400933	0.332089400933
GO CC 1000 medium	2	Cutoff(20)	Walkttrap	2.7643840313	0.0561518375089	0.0943925233645	6	29,91,182,196,217,355	0.263418045269	-0.000728103099433	0.401263365597	0.401263365597
GO CC 1000 medium	2	Log	None	0.327797889709	-1.68568325541e-16	0.0457943925234	1	1070	0.0	0.0	0.0	0.0
GO CC 1000 medium	2	Log	Louvain	2.00315999985	0.0264449917595	0.108411214953	7	3,6,20,31,88,220,702	-0.00048578063811	-0.00048578063811	0.392410487499	0.392410487499
GO CC 1000 medium	2	Log	Greedy Modularity	6.30101203918	0.0255537029891	0.0971962616822	5	33,36,98,237,666	-0.00051735189392	-0.00051735189392	0.385973558826	0.385973558826
GO CC 1000 medium	2	Log	Leading Eigenvector	15.3475019932	0.0173056731261	0.0971962616822	4	38,75,104,853	-0.00032633925978	-0.00032633925978	0.226743547183	0.226743547183
GO CC 1000 medium	2	Log	Label Propagation	1.54702496529	0.010162340167	0.0943925233645	4	3,29,77,961	-0.000175341394843	-0.000175341394843	0.135641124548	0.135641124548
GO CC 1000 medium	2	Log	Walkttrap	20.597743988	0.0347734517502	0.0971962616822	6	16,29,113,149,288,475	-0.000653864892837	-0.000653864892837	0.411803173022	0.411803173022
