test_case	test_number	transform	cluster_alg	seconds	adjusted_rand	annotation_correspondence	n_clusters	cluster_sizes	transformed_modularity	modularity	modularity_cutoff	transformed_modularity_cutoff
GO CC 100 medium	1	Pearson > Cutoff(5)	None	0.00098705291748	-2.21368703241e-16	0.496503496503	1	143	0.0	0.0	0.0	0.0
GO CC 100 medium	1	Pearson > Cutoff(5)	Louvain	0.00191712379456	0.0426346631928	0.664335664336	43	1,1,1,1,1,1,1,1,1,1,1,1,1,1,1,1,1,1,1,1,1,1,1,1,1,1,1,1,1,2,2,2,2,2,2,2,4,6,7,15,16,21,31	0.338991165161	-0.00633937125614	0.230768203735	0.338991165161
GO CC 100 medium	1	Pearson > Cutoff(5)	Greedy Modularity	0.00174999237061	0.0388785560067	0.678321678322	44	1,1,1,1,1,1,1,1,1,1,1,1,1,1,1,1,1,1,1,1,1,1,1,1,1,1,1,1,1,2,2,2,2,2,2,2,2,4,6,7,8,21,24,28	0.314086914062	-0.00634419259456	0.216844558716	0.314086914062
GO CC 100 medium	1	Pearson > Cutoff(5)	Infomap	0.0415830612183	0.037661585804	0.678321678322	48	1,1,1,1,1,1,1,1,1,1,1,1,1,1,1,1,1,1,1,1,1,1,1,1,1,1,1,1,1,2,2,2,2,2,2,2,2,3,3,4,4,4,4,4,6,7,12,47	0.275588989258	-0.00614789524471	0.183771133423	0.275588989258
GO CC 100 medium	1	Pearson > Cutoff(5)	Leading Eigenvector	0.0310289859772	0.0359111665676	0.678321678322	44	1,1,1,1,1,1,1,1,1,1,1,1,1,1,1,1,1,1,1,1,1,1,1,1,1,1,1,1,1,2,2,2,2,2,2,2,2,4,6,7,11,18,21,31	0.334323883057	-0.00635039145824	0.244688034058	0.334323883057
GO CC 100 medium	1	Pearson > Cutoff(5)	Label Propagation	0.001296043396	0.0540195962458	0.678321678322	48	1,1,1,1,1,1,1,1,1,1,1,1,1,1,1,1,1,1,1,1,1,1,1,1,1,1,1,1,1,2,2,2,2,2,2,2,2,2,2,3,3,3,4,4,4,6,14,53	0.248790740967	-0.00594539903119	0.191396713257	0.248790740967
GO CC 100 medium	1	Pearson > Cutoff(5)	Walkttrap	0.0039279460907	0.0329346076531	0.678321678322	49	1,1,1,1,1,1,1,1,1,1,1,1,1,1,1,1,1,1,1,1,1,1,1,1,1,1,1,1,1,2,2,2,2,2,2,2,2,2,2,3,4,4,4,4,5,6,7,9,48	0.265270233154	-0.00613411999209	0.177698135376	0.265270233154
GO CC 100 medium	1	Spearman > Cutoff(5)	None	0.000946044921875	-2.21368703241e-16	0.496503496503	1	143	0.0	0.0	0.0	0.0
GO CC 100 medium	1	Spearman > Cutoff(5)	Louvain	0.00189590454102	0.0231985216045	0.846153846154	92	1,1,1,1,1,1,1,1,1,1,1,1,1,1,1,1,1,1,1,1,1,1,1,1,1,1,1,1,1,1,1,1,1,1,1,1,1,1,1,1,1,1,1,1,1,1,1,1,1,1,1,1,1,1,1,1,1,1,1,1,1,1,1,1,1,1,1,1,1,1,1,1,1,1,1,1,1,1,1,1,1,1,1,1,1,1,1,1,1,14,19,21	0.212024793388	-0.00666791103115	0.202875137329	0.212024793388
GO CC 100 medium	1	Spearman > Cutoff(5)	Greedy Modularity	0.00167202949524	0.0224131058193	0.846153846154	92	1,1,1,1,1,1,1,1,1,1,1,1,1,1,1,1,1,1,1,1,1,1,1,1,1,1,1,1,1,1,1,1,1,1,1,1,1,1,1,1,1,1,1,1,1,1,1,1,1,1,1,1,1,1,1,1,1,1,1,1,1,1,1,1,1,1,1,1,1,1,1,1,1,1,1,1,1,1,1,1,1,1,1,1,1,1,1,1,1,14,17,23	0.204411157025	-0.00666240093011	0.205795288086	0.204411157025
GO CC 100 medium	1	Spearman > Cutoff(5)	Infomap	0.0167319774628	0.0465393486969	0.86013986014	91	1,1,1,1,1,1,1,1,1,1,1,1,1,1,1,1,1,1,1,1,1,1,1,1,1,1,1,1,1,1,1,1,1,1,1,1,1,1,1,1,1,1,1,1,1,1,1,1,1,1,1,1,1,1,1,1,1,1,1,1,1,1,1,1,1,1,1,1,1,1,1,1,1,1,1,1,1,1,1,1,1,1,1,1,1,1,1,1,1,14,40	0.150247933884	-0.00639309474137	0.264083862305	0.150247933884
GO CC 100 medium	1	Spearman > Cutoff(5)	Leading Eigenvector	0.011225938797	0.0226076905923	0.846153846154	92	1,1,1,1,1,1,1,1,1,1,1,1,1,1,1,1,1,1,1,1,1,1,1,1,1,1,1,1,1,1,1,1,1,1,1,1,1,1,1,1,1,1,1,1,1,1,1,1,1,1,1,1,1,1,1,1,1,1,1,1,1,1,1,1,1,1,1,1,1,1,1,1,1,1,1,1,1,1,1,1,1,1,1,1,1,1,1,1,1,14,18,22	0.20948088843	-0.00666584474326	0.202789306641	0.20948088843
GO CC 100 medium	1	Spearman > Cutoff(5)	Label Propagation	0.00116300582886	0.0465393486969	0.846153846154	90	1,1,1,1,1,1,1,1,1,1,1,1,1,1,1,1,1,1,1,1,1,1,1,1,1,1,1,1,1,1,1,1,1,1,1,1,1,1,1,1,1,1,1,1,1,1,1,1,1,1,1,1,1,1,1,1,1,1,1,1,1,1,1,1,1,1,1,1,1,1,1,1,1,1,1,1,1,1,1,1,1,1,1,1,1,1,1,2,14,40	0.150247933884	-0.00639309474137	0.264083862305	0.150247933884
GO CC 100 medium	1	Spearman > Cutoff(5)	Walkttrap	0.00306105613708	0.0465393486969	0.86013986014	91	1,1,1,1,1,1,1,1,1,1,1,1,1,1,1,1,1,1,1,1,1,1,1,1,1,1,1,1,1,1,1,1,1,1,1,1,1,1,1,1,1,1,1,1,1,1,1,1,1,1,1,1,1,1,1,1,1,1,1,1,1,1,1,1,1,1,1,1,1,1,1,1,1,1,1,1,1,1,1,1,1,1,1,1,1,1,1,1,1,14,40	0.150247933884	-0.00639309474137	0.264083862305	0.150247933884
GO CC 100 medium	1	Cosine > Cutoff(5)	None	0.000959873199463	-2.21368703241e-16	0.496503496503	1	143	0.0	0.0	0.0	0.0
GO CC 100 medium	1	Cosine > Cutoff(5)	Louvain	0.00183415412903	0.015958149609	0.748251748252	65	1,1,1,1,1,1,1,1,1,1,1,1,1,1,1,1,1,1,1,1,1,1,1,1,1,1,1,1,1,1,1,1,1,1,1,1,1,1,1,1,1,1,1,1,1,1,1,1,1,1,1,1,1,1,2,2,2,2,3,3,4,5,6,27,33	0.40997505188	-0.00635934537244	0.0908851623535	0.40997505188
GO CC 100 medium	1	Cosine > Cutoff(5)	Greedy Modularity	0.00185585021973	0.0225580828712	0.748251748252	64	1,1,1,1,1,1,1,1,1,1,1,1,1,1,1,1,1,1,1,1,1,1,1,1,1,1,1,1,1,1,1,1,1,1,1,1,1,1,1,1,1,1,1,1,1,1,1,1,1,1,1,1,1,1,2,2,2,2,3,3,4,6,30,35	0.404993057251	-0.00626222984147	0.0936698913574	0.404993057251
GO CC 100 medium	1	Cosine > Cutoff(5)	Infomap	0.0247368812561	0.0200810004252	0.748251748252	66	1,1,1,1,1,1,1,1,1,1,1,1,1,1,1,1,1,1,1,1,1,1,1,1,1,1,1,1,1,1,1,1,1,1,1,1,1,1,1,1,1,1,1,1,1,1,1,1,1,1,1,1,1,1,2,2,2,2,2,3,3,4,4,6,29,30	0.404447555542	-0.00638758464032	0.0938529968262	0.404447555542
GO CC 100 medium	1	Cosine > Cutoff(5)	Leading Eigenvector	0.0141789913177	0.0150544883559	0.734265734266	64	1,1,1,1,1,1,1,1,1,1,1,1,1,1,1,1,1,1,1,1,1,1,1,1,1,1,1,1,1,1,1,1,1,1,1,1,1,1,1,1,1,1,1,1,1,1,1,1,1,1,1,1,1,1,2,2,2,2,3,3,4,6,30,35	0.400476455688	-0.00626222984147	0.0942611694336	0.400476455688
GO CC 100 medium	1	Cosine > Cutoff(5)	Label Propagation	0.00124382972717	0.010126865095	0.72027972028	64	1,1,1,1,1,1,1,1,1,1,1,1,1,1,1,1,1,1,1,1,1,1,1,1,1,1,1,1,1,1,1,1,1,1,1,1,1,1,1,1,1,1,1,1,1,1,1,1,1,1,1,1,2,2,2,2,2,3,3,3,3,4,27,38	0.397977828979	-0.006251898402	0.0862426757812	0.397977828979
GO CC 100 medium	1	Cosine > Cutoff(5)	Walkttrap	0.00406885147095	0.0199432018613	0.734265734266	67	1,1,1,1,1,1,1,1,1,1,1,1,1,1,1,1,1,1,1,1,1,1,1,1,1,1,1,1,1,1,1,1,1,1,1,1,1,1,1,1,1,1,1,1,1,1,1,1,1,1,1,1,1,1,2,2,2,2,2,2,2,3,3,3,3,31,32	0.390245437622	-0.00631801961458	0.0849838256836	0.390245437622
GO CC 100 medium	1	KNN(10) > Cutoff(5)	None	0.00102090835571	-2.21368703241e-16	0.496503496503	1	143	0.0	0.0	0.0	0.0
GO CC 100 medium	1	KNN(10) > Cutoff(5)	Louvain	0.00284194946289	0.0883198742812	0.566433566434	13	1,1,1,1,1,1,1,1,10,11,23,34,57	0.426776952954	-0.00526421278908	0.414009094238	0.426776952954
GO CC 100 medium	1	KNN(10) > Cutoff(5)	Greedy Modularity	0.00218510627747	0.0815699450913	0.566433566434	13	1,1,1,1,1,1,1,1,10,11,23,38,53	0.427192034523	-0.00531655874904	0.429962158203	0.427192034523
GO CC 100 medium	1	KNN(10) > Cutoff(5)	Infomap	0.0615050792694	0.100630992847	0.58041958042	16	1,1,1,1,1,1,1,1,3,6,6,6,11,12,24,67	0.402250846265	-0.00516365344495	0.383270263672	0.402250846265
GO CC 100 medium	1	KNN(10) > Cutoff(5)	Leading Eigenvector	0.0292880535126	0.0914716093078	0.58041958042	11	1,1,1,1,1,1,1,1,33,39,63	0.411980215127	-0.00477381379578	0.408769607544	0.411980215127
GO CC 100 medium	1	KNN(10) > Cutoff(5)	Label Propagation	0.0015389919281	0.108404489162	0.566433566434	13	1,1,1,1,1,1,1,1,5,6,19,36,69	0.408117196134	-0.00480825192733	0.397691726685	0.408117196134
GO CC 100 medium	1	KNN(10) > Cutoff(5)	Walkttrap	0.00591206550598	0.0965891758622	0.58041958042	13	1,1,1,1,1,1,1,1,3,6,21,36,69	0.408827742171	-0.00478621152314	0.408800125122	0.408827742171
GO CC 100 medium	1	KNN(50) > Cutoff(5)	None	0.00100302696228	-2.21368703241e-16	0.496503496503	1	143	0.0	0.0	0.0	0.0
GO CC 100 medium	1	KNN(50) > Cutoff(5)	Louvain	0.00213098526001	0.0328296582811	0.734265734266	66	1,1,1,1,1,1,1,1,1,1,1,1,1,1,1,1,1,1,1,1,1,1,1,1,1,1,1,1,1,1,1,1,1,1,1,1,1,1,1,1,1,1,1,1,1,1,1,1,1,1,1,1,1,1,1,1,1,1,1,1,2,2,2,14,28,35	0.254920143513	-0.00625809726568	0.273801803589	0.254920143513
GO CC 100 medium	1	KNN(50) > Cutoff(5)	Greedy Modularity	0.00182604789734	0.0591726259221	0.734265734266	65	1,1,1,1,1,1,1,1,1,1,1,1,1,1,1,1,1,1,1,1,1,1,1,1,1,1,1,1,1,1,1,1,1,1,1,1,1,1,1,1,1,1,1,1,1,1,1,1,1,1,1,1,1,1,1,1,1,1,1,1,2,2,2,28,49	0.25269190155	-0.00592060357647	0.332239151001	0.25269190155
GO CC 100 medium	1	KNN(50) > Cutoff(5)	Infomap	0.0201189517975	0.0507981302197	0.72027972028	67	1,1,1,1,1,1,1,1,1,1,1,1,1,1,1,1,1,1,1,1,1,1,1,1,1,1,1,1,1,1,1,1,1,1,1,1,1,1,1,1,1,1,1,1,1,1,1,1,1,1,1,1,1,1,1,1,1,1,1,1,2,2,2,2,2,26,47	0.253638775733	-0.0060211629206	0.327711105347	0.253638775733
GO CC 100 medium	1	KNN(50) > Cutoff(5)	Leading Eigenvector	0.0172991752625	0.0331919406522	0.734265734266	65	1,1,1,1,1,1,1,1,1,1,1,1,1,1,1,1,1,1,1,1,1,1,1,1,1,1,1,1,1,1,1,1,1,1,1,1,1,1,1,1,1,1,1,1,1,1,1,1,1,1,1,1,1,1,1,1,1,1,1,1,2,2,23,28,28	0.251649310737	-0.00629666797302	0.257257461548	0.251649310737
GO CC 100 medium	1	KNN(50) > Cutoff(5)	Label Propagation	0.00130605697632	0.0592281950503	0.734265734266	64	1,1,1,1,1,1,1,1,1,1,1,1,1,1,1,1,1,1,1,1,1,1,1,1,1,1,1,1,1,1,1,1,1,1,1,1,1,1,1,1,1,1,1,1,1,1,1,1,1,1,1,1,1,1,1,1,1,1,1,1,2,2,28,51	0.2506787647	-0.00585310483863	0.332239151001	0.2506787647
GO CC 100 medium	1	KNN(50) > Cutoff(5)	Walkttrap	0.00438690185547	0.0591431375963	0.72027972028	66	1,1,1,1,1,1,1,1,1,1,1,1,1,1,1,1,1,1,1,1,1,1,1,1,1,1,1,1,1,1,1,1,1,1,1,1,1,1,1,1,1,1,1,1,1,1,1,1,1,1,1,1,1,1,1,1,1,1,1,1,2,2,2,2,26,49	0.251865445062	-0.00595641923328	0.32851600647	0.251865445062
GO CC 100 medium	1	KNN(100) > Cutoff(5)	None	0.000979900360107	-2.21368703241e-16	0.496503496503	1	143	0.0	0.0	0.0	0.0
GO CC 100 medium	1	KNN(100) > Cutoff(5)	Louvain	0.00219297409058	0.0163554590002	0.776223776224	77	1,1,1,1,1,1,1,1,1,1,1,1,1,1,1,1,1,1,1,1,1,1,1,1,1,1,1,1,1,1,1,1,1,1,1,1,1,1,1,1,1,1,1,1,1,1,1,1,1,1,1,1,1,1,1,1,1,1,1,1,1,1,1,1,1,1,1,1,1,1,1,1,1,14,16,20,20	0.134870258353	-0.00658594827806	0.15993309021	0.134870258353
GO CC 100 medium	1	KNN(100) > Cutoff(5)	Greedy Modularity	0.00189805030823	0.0145997763862	0.762237762238	77	1,1,1,1,1,1,1,1,1,1,1,1,1,1,1,1,1,1,1,1,1,1,1,1,1,1,1,1,1,1,1,1,1,1,1,1,1,1,1,1,1,1,1,1,1,1,1,1,1,1,1,1,1,1,1,1,1,1,1,1,1,1,1,1,1,1,1,1,1,1,1,1,1,9,19,20,22	0.127843292442	-0.00656046406071	0.16731262207	0.127843292442
GO CC 100 medium	1	KNN(100) > Cutoff(5)	Infomap	0.0194149017334	0.0397448497029	0.776223776224	75	1,1,1,1,1,1,1,1,1,1,1,1,1,1,1,1,1,1,1,1,1,1,1,1,1,1,1,1,1,1,1,1,1,1,1,1,1,1,1,1,1,1,1,1,1,1,1,1,1,1,1,1,1,1,1,1,1,1,1,1,1,1,1,1,1,1,1,1,1,1,1,1,1,20,50	0.0997229916898	-0.00601840787008	0.255249023438	0.0997229916898
GO CC 100 medium	1	KNN(100) > Cutoff(5)	Leading Eigenvector	0.0153200626373	0.021410877273	0.776223776224	76	1,1,1,1,1,1,1,1,1,1,1,1,1,1,1,1,1,1,1,1,1,1,1,1,1,1,1,1,1,1,1,1,1,1,1,1,1,1,1,1,1,1,1,1,1,1,1,1,1,1,1,1,1,1,1,1,1,1,1,1,1,1,1,1,1,1,1,1,1,1,1,1,1,20,25,25	0.131906834756	-0.00644888451448	0.182970046997	0.131906834756
GO CC 100 medium	1	KNN(100) > Cutoff(5)	Label Propagation	0.00122690200806	0.0397078034949	0.776223776224	75	1,1,1,1,1,1,1,1,1,1,1,1,1,1,1,1,1,1,1,1,1,1,1,1,1,1,1,1,1,1,1,1,1,1,1,1,1,1,1,1,1,1,1,1,1,1,1,1,1,1,1,1,1,1,1,1,1,1,1,1,1,1,1,1,1,1,1,1,1,1,1,2,4,16,50	0.0944948838261	-0.00606248867846	0.249320983887	0.0944948838261
GO CC 100 medium	1	KNN(100) > Cutoff(5)	Walkttrap	0.00429892539978	0.0397448497029	0.776223776224	75	1,1,1,1,1,1,1,1,1,1,1,1,1,1,1,1,1,1,1,1,1,1,1,1,1,1,1,1,1,1,1,1,1,1,1,1,1,1,1,1,1,1,1,1,1,1,1,1,1,1,1,1,1,1,1,1,1,1,1,1,1,1,1,1,1,1,1,1,1,1,1,1,1,20,50	0.0997229916898	-0.00601840787008	0.255249023438	0.0997229916898
GO CC 100 medium	1	Topological Overlap > Cutoff(5)	None	0.000970840454102	-2.21368703241e-16	0.496503496503	1	143	0.0	0.0	0.0	0.0
GO CC 100 medium	1	Topological Overlap > Cutoff(5)	Louvain	0.00180792808533	0.115414500581	0.706293706294	40	1,1,1,1,1,1,1,1,1,1,1,1,1,1,1,1,1,1,1,1,1,1,1,1,1,1,1,1,1,1,1,1,1,1,1,1,9,18,28,52	0.449426651001	-0.00568917933244	0.41720199585	0.449426651001
GO CC 100 medium	1	Topological Overlap > Cutoff(5)	Greedy Modularity	0.00186204910278	0.106024722728	0.706293706294	41	1,1,1,1,1,1,1,1,1,1,1,1,1,1,1,1,1,1,1,1,1,1,1,1,1,1,1,1,1,1,1,1,1,1,1,1,7,9,14,29,48	0.43815612793	-0.00583450824759	0.400033950806	0.43815612793
GO CC 100 medium	1	Topological Overlap > Cutoff(5)	Infomap	0.0536799430847	0.103674420286	0.706293706294	42	1,1,1,1,1,1,1,1,1,1,1,1,1,1,1,1,1,1,1,1,1,1,1,1,1,1,1,1,1,1,1,1,1,1,1,1,2,7,9,11,28,50	0.448999404907	-0.00581109031813	0.4147605896	0.448999404907
GO CC 100 medium	1	Topological Overlap > Cutoff(5)	Leading Eigenvector	0.0564780235291	0.0977419930113	0.692307692308	42	1,1,1,1,1,1,1,1,1,1,1,1,1,1,1,1,1,1,1,1,1,1,1,1,1,1,1,1,1,1,1,1,1,1,1,1,1,6,9,14,28,49	0.425275802612	-0.00582486557075	0.389324188232	0.425275802612
GO CC 100 medium	1	Topological Overlap > Cutoff(5)	Label Propagation	0.00125002861023	0.104962298333	0.692307692308	42	1,1,1,1,1,1,1,1,1,1,1,1,1,1,1,1,1,1,1,1,1,1,1,1,1,1,1,1,1,1,1,1,1,1,1,1,2,6,7,8,31,53	0.436717987061	-0.00567884789297	0.40233039856	0.436717987061
GO CC 100 medium	1	Topological Overlap > Cutoff(5)	Walkttrap	0.00403690338135	0.100640923677	0.692307692308	41	1,1,1,1,1,1,1,1,1,1,1,1,1,1,1,1,1,1,1,1,1,1,1,1,1,1,1,1,1,1,1,1,1,1,1,1,6,7,9,32,53	0.445430755615	-0.00565267491299	0.407817840576	0.445430755615
GO CC 100 medium	1	None > Cutoff(5)	None	0.000963926315308	-2.21368703241e-16	0.496503496503	1	143	0.0	0.0	0.0	0.0
GO CC 100 medium	1	None > Cutoff(5)	Louvain	0.00258803367615	0.063272377382	0.692307692308	33	1,1,1,1,1,1,1,1,1,1,1,1,1,1,1,1,1,1,1,1,1,1,1,1,1,1,1,2,10,17,23,25,39	0.429113388062	-0.00597639334958	0.429113388062	0.429113388062
GO CC 100 medium	1	None > Cutoff(5)	Greedy Modularity	0.00202989578247	0.0892636639198	0.692307692308	34	1,1,1,1,1,1,1,1,1,1,1,1,1,1,1,1,1,1,1,1,1,1,1,1,1,1,1,2,2,8,10,21,25,48	0.426721572876	-0.00581315660603	0.426721572876	0.426721572876
GO CC 100 medium	1	None > Cutoff(5)	Infomap	0.0704090595245	0.0835444576028	0.65034965035	37	1,1,1,1,1,1,1,1,1,1,1,1,1,1,1,1,1,1,1,1,1,1,1,1,1,1,1,2,2,2,2,2,8,9,13,25,51	0.427659988403	-0.00580695774235	0.427659988403	0.427659988403
GO CC 100 medium	1	None > Cutoff(5)	Leading Eigenvector	0.0433790683746	0.102306421411	0.65034965035	32	1,1,1,1,1,1,1,1,1,1,1,1,1,1,1,1,1,1,1,1,1,1,1,1,1,1,1,2,10,12,29,63	0.395938873291	-0.00529107453169	0.395938873291	0.395938873291
GO CC 100 medium	1	None > Cutoff(5)	Label Propagation	0.00144290924072	0.129066179505	0.664335664336	32	1,1,1,1,1,1,1,1,1,1,1,1,1,1,1,1,1,1,1,1,1,1,1,1,1,1,1,6,8,11,31,60	0.411745071411	-0.00538612377478	0.411745071411	0.411745071411
GO CC 100 medium	1	None > Cutoff(5)	Walkttrap	0.00418400764465	0.089335012342	0.65034965035	35	1,1,1,1,1,1,1,1,1,1,1,1,1,1,1,1,1,1,1,1,1,1,1,1,1,1,1,2,2,2,8,9,12,30,51	0.434757232666	-0.00572361746399	0.434757232666	0.434757232666
GO CC 100 medium	1	Log > Cutoff(5)	None	0.000975131988525	-2.21368703241e-16	0.496503496503	1	143	0.0	0.0	0.0	0.0
GO CC 100 medium	1	Log > Cutoff(5)	Louvain	0.00241494178772	0.100030954266	0.678321678322	32	1,1,1,1,1,1,1,1,1,1,1,1,1,1,1,1,1,1,1,1,1,1,1,1,1,1,1,9,9,20,26,52	0.365488052368	-0.00567540407982	0.365488052368	0.365488052368
GO CC 100 medium	1	Log > Cutoff(5)	Greedy Modularity	0.0020489692688	0.0654174507306	0.65034965035	33	1,1,1,1,1,1,1,1,1,1,1,1,1,1,1,1,1,1,1,1,1,1,1,1,1,1,1,11,11,14,14,24,42	0.356718063354	-0.00600876519324	0.356718063354	0.356718063354
GO CC 100 medium	1	Log > Cutoff(5)	Infomap	0.0714950561523	0.0835444576028	0.65034965035	37	1,1,1,1,1,1,1,1,1,1,1,1,1,1,1,1,1,1,1,1,1,1,1,1,1,1,1,2,2,2,2,2,8,9,13,25,51	0.427659988403	-0.00580695774235	0.427659988403	0.427659988403
GO CC 100 medium	1	Log > Cutoff(5)	Leading Eigenvector	0.0810830593109	0.0536898033165	0.664335664336	34	1,1,1,1,1,1,1,1,1,1,1,1,1,1,1,1,1,1,1,1,1,1,1,1,1,1,1,1,2,12,14,14,27,46	0.340473175049	-0.00586688009125	0.340473175049	0.340473175049
GO CC 100 medium	1	Log > Cutoff(5)	Label Propagation	0.00133919715881	0.0852762633157	0.664335664336	34	1,1,1,1,1,1,1,1,1,1,1,1,1,1,1,1,1,1,1,1,1,1,1,1,1,1,1,6,6,8,8,11,31,46	0.36301612854	-0.00586274751546	0.36301612854	0.36301612854
GO CC 100 medium	1	Log > Cutoff(5)	Walkttrap	0.00413703918457	0.089335012342	0.65034965035	35	1,1,1,1,1,1,1,1,1,1,1,1,1,1,1,1,1,1,1,1,1,1,1,1,1,1,1,2,2,2,8,9,12,30,51	0.434757232666	-0.00572361746399	0.434757232666	0.434757232666
GO CC 100 medium	2	Pearson > Cutoff(5)	None	0.000820875167847	0.0	0.488372093023	1	129	0.0	0.0	0.0	0.0
GO CC 100 medium	2	Pearson > Cutoff(5)	Louvain	0.00160193443298	0.073530745168	0.736434108527	28	1,1,1,1,1,1,1,1,1,1,1,1,1,1,1,1,1,2,2,2,2,3,6,13,14,14,23,31	0.5955638367	-0.00681299200769	0.385786334961	0.5955638367
GO CC 100 medium	2	Pearson > Cutoff(5)	Greedy Modularity	0.00138187408447	0.0756452859132	0.736434108527	28	1,1,1,1,1,1,1,1,1,1,1,1,1,1,1,1,1,2,2,2,2,3,7,14,14,16,20,30	0.572658420027	-0.00685524457665	0.387603586196	0.572658420027
GO CC 100 medium	2	Pearson > Cutoff(5)	Infomap	0.0199041366577	0.110758381424	0.720930232558	35	1,1,1,1,1,1,1,1,1,1,1,1,1,1,1,1,1,2,2,2,2,3,3,3,3,4,4,5,5,6,6,6,7,13,36	0.52517410532	-0.00698012439156	0.352374215735	0.52517410532
GO CC 100 medium	2	Pearson > Cutoff(5)	Leading Eigenvector	0.0463130474091	0.0942065681569	0.751937984496	30	1,1,1,1,1,1,1,1,1,1,1,1,1,1,1,1,1,1,2,2,2,2,2,3,7,14,16,18,20,23	0.576925509952	-0.00696697914789	0.386464928776	0.576925509952
GO CC 100 medium	2	Pearson > Cutoff(5)	Label Propagation	0.00102591514587	0.116907484142	0.751937984496	38	1,1,1,1,1,1,1,1,1,1,1,1,1,1,1,1,1,2,2,2,2,2,2,2,2,2,2,3,3,3,3,4,4,6,7,8,14,37	0.513727147778	-0.00694913917433	0.347043228726	0.513727147778
GO CC 100 medium	2	Pearson > Cutoff(5)	Walkttrap	0.00293397903442	0.0665235929774	0.782945736434	46	1,1,1,1,1,1,1,1,1,1,1,1,1,1,1,1,1,1,1,1,1,2,2,2,2,2,2,2,2,2,2,2,2,2,3,3,3,3,3,3,3,5,6,13,14,23	0.546607318462	-0.00730030496965	0.306807791177	0.546607318462
GO CC 100 medium	2	Spearman > Cutoff(5)	None	0.000797986984253	0.0	0.488372093023	1	129	0.0	0.0	0.0	0.0
GO CC 100 medium	2	Spearman > Cutoff(5)	Louvain	0.00163793563843	0.137969493441	0.984496124031	80	1,1,1,1,1,1,1,1,1,1,1,1,1,1,1,1,1,1,1,1,1,1,1,1,1,1,1,1,1,1,1,1,1,1,1,1,1,1,1,1,1,1,1,1,1,1,1,1,1,1,1,1,1,1,1,1,1,1,1,1,1,1,1,1,1,1,1,1,1,1,1,1,1,1,1,1,1,2,21,29	0.20207580062	-0.00717260831681	0.25500462939	0.20207580062
GO CC 100 medium	2	Spearman > Cutoff(5)	Greedy Modularity	0.00136685371399	0.137969493441	0.984496124031	80	1,1,1,1,1,1,1,1,1,1,1,1,1,1,1,1,1,1,1,1,1,1,1,1,1,1,1,1,1,1,1,1,1,1,1,1,1,1,1,1,1,1,1,1,1,1,1,1,1,1,1,1,1,1,1,1,1,1,1,1,1,1,1,1,1,1,1,1,1,1,1,1,1,1,1,1,1,2,21,29	0.20207580062	-0.00717260831681	0.25500462939	0.20207580062
GO CC 100 medium	2	Spearman > Cutoff(5)	Infomap	0.0269219875336	0.108013364115	0.984496124031	82	1,1,1,1,1,1,1,1,1,1,1,1,1,1,1,1,1,1,1,1,1,1,1,1,1,1,1,1,1,1,1,1,1,1,1,1,1,1,1,1,1,1,1,1,1,1,1,1,1,1,1,1,1,1,1,1,1,1,1,1,1,1,1,1,1,1,1,1,1,1,1,1,1,1,1,1,1,2,2,7,12,29	0.199908800362	-0.00728715972598	0.240693775915	0.199908800362
GO CC 100 medium	2	Spearman > Cutoff(5)	Leading Eigenvector	0.00536704063416	0.137969493441	0.984496124031	80	1,1,1,1,1,1,1,1,1,1,1,1,1,1,1,1,1,1,1,1,1,1,1,1,1,1,1,1,1,1,1,1,1,1,1,1,1,1,1,1,1,1,1,1,1,1,1,1,1,1,1,1,1,1,1,1,1,1,1,1,1,1,1,1,1,1,1,1,1,1,1,1,1,1,1,1,1,2,21,29	0.20207580062	-0.00717260831681	0.25500462939	0.20207580062
GO CC 100 medium	2	Spearman > Cutoff(5)	Label Propagation	0.00103497505188	0.10064498562	0.984496124031	83	1,1,1,1,1,1,1,1,1,1,1,1,1,1,1,1,1,1,1,1,1,1,1,1,1,1,1,1,1,1,1,1,1,1,1,1,1,1,1,1,1,1,1,1,1,1,1,1,1,1,1,1,1,1,1,1,1,1,1,1,1,1,1,1,1,1,1,1,1,1,1,1,1,1,1,1,1,2,2,4,6,9,29	0.192846881457	-0.00731532810528	0.227587714001	0.192846881457
GO CC 100 medium	2	Spearman > Cutoff(5)	Walkttrap	0.00248599052429	0.115872046526	0.984496124031	81	1,1,1,1,1,1,1,1,1,1,1,1,1,1,1,1,1,1,1,1,1,1,1,1,1,1,1,1,1,1,1,1,1,1,1,1,1,1,1,1,1,1,1,1,1,1,1,1,1,1,1,1,1,1,1,1,1,1,1,1,1,1,1,1,1,1,1,1,1,1,1,1,1,1,1,1,1,2,6,15,29	0.202043517562	-0.00725711345472	0.250217092513	0.202043517562
GO CC 100 medium	2	Cosine > Cutoff(5)	None	0.000830173492432	0.0	0.488372093023	1	129	0.0	0.0	0.0	0.0
GO CC 100 medium	2	Cosine > Cutoff(5)	Louvain	0.00163817405701	0.0503952718533	0.751937984496	40	1,1,1,1,1,1,1,1,1,1,1,1,1,1,1,1,1,1,1,1,1,1,2,2,2,2,2,2,2,2,2,2,2,3,3,3,9,13,21,33	0.56302871372	-0.00693317709272	0.259708779739	0.56302871372
GO CC 100 medium	2	Cosine > Cutoff(5)	Greedy Modularity	0.00156807899475	0.050470623354	0.751937984496	39	1,1,1,1,1,1,1,1,1,1,1,1,1,1,1,1,1,1,1,1,1,1,2,2,2,2,2,2,2,2,2,2,3,3,3,9,13,23,33	0.562545646936	-0.0068937413617	0.260766926028	0.562545646936
GO CC 100 medium	2	Cosine > Cutoff(5)	Infomap	0.0184118747711	0.063637704007	0.782945736434	43	1,1,1,1,1,1,1,1,1,1,1,1,1,1,1,1,1,1,1,1,1,1,2,2,2,2,2,2,2,2,2,2,2,2,3,3,3,3,4,8,13,23,23	0.558028397426	-0.00714913466739	0.247407829132	0.558028397426
GO CC 100 medium	2	Cosine > Cutoff(5)	Label Propagation	0.00114703178406	0.0550316574683	0.767441860465	40	1,1,1,1,1,1,1,1,1,1,1,1,1,1,1,1,1,1,1,1,1,1,2,2,2,2,2,2,2,2,2,2,2,3,3,3,8,13,23,32	0.563802195654	-0.00693036025479	0.257287695024	0.563802195654
GO CC 100 medium	2	Cosine > Cutoff(5)	Walkttrap	0.00323915481567	0.0572050800228	0.751937984496	43	1,1,1,1,1,1,1,1,1,1,1,1,1,1,1,1,1,1,1,1,1,1,2,2,2,2,2,2,2,2,2,2,2,3,3,3,3,3,6,8,13,20,23	0.550785271064	-0.00719795985818	0.250030191674	0.550785271064
GO CC 100 medium	2	KNN(10) > Cutoff(5)	None	0.000861167907715	0.0	0.488372093023	1	129	0.0	0.0	0.0	0.0
GO CC 100 medium	2	KNN(10) > Cutoff(5)	Louvain	0.00205683708191	0.107087862319	0.674418604651	9	1,1,1,5,14,22,22,28,35	0.665454596328	-0.00630971696412	0.498961981494	0.665454596328
GO CC 100 medium	2	KNN(10) > Cutoff(5)	Greedy Modularity	0.00167417526245	0.160369709745	0.658914728682	8	1,1,1,2,22,25,37,40	0.655890305727	-0.00589470284238	0.512528107011	0.655890305727
GO CC 100 medium	2	KNN(10) > Cutoff(5)	Infomap	0.0519499778748	0.0988972379949	0.68992248062	14	1,1,1,2,3,3,6,7,9,13,14,21,22,26	0.650367945382	-0.00679984676402	0.476464871268	0.650367945382
GO CC 100 medium	2	KNN(10) > Cutoff(5)	Leading Eigenvector	0.0443828105927	0.123870251659	0.674418604651	11	1,1,1,2,3,3,17,22,25,25,29	0.62516883771	-0.00645619253651	0.485007677311	0.62516883771
GO CC 100 medium	2	KNN(10) > Cutoff(5)	Label Propagation	0.00131392478943	0.171571909508	0.68992248062	10	1,1,1,2,3,3,23,25,26,44	0.643692019668	-0.00603272790097	0.501641851986	0.643692019668
GO CC 100 medium	2	KNN(10) > Cutoff(5)	Edge Betweenness	0.466713190079	0.141143193783	0.705426356589	18	1,1,1,1,1,2,2,2,2,3,3,3,7,8,12,22,22,36	0.617911677846	-0.00660642389279	0.461409289834	0.617911677846
GO CC 100 medium	2	KNN(10) > Cutoff(5)	Walkttrap	0.0040979385376	0.102587931298	0.68992248062	14	1,1,1,2,3,3,5,7,8,14,14,22,22,26	0.651543132153	-0.0067801288985	0.466527497427	0.651543132153
GO CC 100 medium	2	KNN(50) > Cutoff(5)	None	0.000870943069458	0.0	0.488372093023	1	129	0.0	0.0	0.0	0.0
GO CC 100 medium	2	KNN(50) > Cutoff(5)	Louvain	0.00159406661987	0.136221119773	0.906976744186	66	1,1,1,1,1,1,1,1,1,1,1,1,1,1,1,1,1,1,1,1,1,1,1,1,1,1,1,1,1,1,1,1,1,1,1,1,1,1,1,1,1,1,1,1,1,1,1,1,1,1,1,1,1,1,1,1,1,1,1,2,2,2,3,9,19,33	0.248112713229	-0.00705617901568	0.3099160959	0.248112713229
GO CC 100 medium	2	KNN(50) > Cutoff(5)	Greedy Modularity	0.00155711174011	0.136221119773	0.906976744186	66	1,1,1,1,1,1,1,1,1,1,1,1,1,1,1,1,1,1,1,1,1,1,1,1,1,1,1,1,1,1,1,1,1,1,1,1,1,1,1,1,1,1,1,1,1,1,1,1,1,1,1,1,1,1,1,1,1,1,1,2,2,2,3,9,19,33	0.248112713229	-0.00705617901568	0.3099160959	0.248112713229
GO CC 100 medium	2	KNN(50) > Cutoff(5)	Infomap	0.0151579380035	0.109463607906	0.906976744186	69	1,1,1,1,1,1,1,1,1,1,1,1,1,1,1,1,1,1,1,1,1,1,1,1,1,1,1,1,1,1,1,1,1,1,1,1,1,1,1,1,1,1,1,1,1,1,1,1,1,1,1,1,1,1,1,1,1,1,1,2,2,2,2,3,3,3,9,11,33	0.241696423373	-0.00715852412716	0.275845510642	0.241696423373
GO CC 100 medium	2	KNN(50) > Cutoff(5)	Leading Eigenvector	0.0112769603729	0.136221119773	0.906976744186	66	1,1,1,1,1,1,1,1,1,1,1,1,1,1,1,1,1,1,1,1,1,1,1,1,1,1,1,1,1,1,1,1,1,1,1,1,1,1,1,1,1,1,1,1,1,1,1,1,1,1,1,1,1,1,1,1,1,1,1,2,2,2,3,9,19,33	0.248112713229	-0.00705617901568	0.3099160959	0.248112713229
GO CC 100 medium	2	KNN(50) > Cutoff(5)	Label Propagation	0.00103211402893	0.117565669721	0.906976744186	68	1,1,1,1,1,1,1,1,1,1,1,1,1,1,1,1,1,1,1,1,1,1,1,1,1,1,1,1,1,1,1,1,1,1,1,1,1,1,1,1,1,1,1,1,1,1,1,1,1,1,1,1,1,1,1,1,1,1,1,2,2,2,2,3,3,9,14,33	0.245141085602	-0.00712753890992	0.297566263536	0.245141085602
GO CC 100 medium	2	KNN(50) > Cutoff(5)	Walkttrap	0.00286102294922	0.17817629455	0.906976744186	65	1,1,1,1,1,1,1,1,1,1,1,1,1,1,1,1,1,1,1,1,1,1,1,1,1,1,1,1,1,1,1,1,1,1,1,1,1,1,1,1,1,1,1,1,1,1,1,1,1,1,1,1,1,1,1,1,1,1,1,2,2,2,3,28,33	0.245143511421	-0.00689561925365	0.300082236369	0.245143511421
GO CC 100 medium	2	KNN(100) > Cutoff(5)	None	0.000860214233398	0.0	0.488372093023	1	129	0.0	0.0	0.0	0.0
GO CC 100 medium	2	KNN(100) > Cutoff(5)	Louvain	0.00184679031372	0.157429524739	0.813953488372	56	1,1,1,1,1,1,1,1,1,1,1,1,1,1,1,1,1,1,1,1,1,1,1,1,1,1,1,1,1,1,1,1,1,1,1,1,1,1,1,1,1,1,1,1,1,1,1,1,1,1,1,2,2,4,34,36	0.415288279773	-0.00662614175831	0.303469454652	0.415288279773
GO CC 100 medium	2	KNN(100) > Cutoff(5)	Greedy Modularity	0.00171518325806	0.157544061701	0.813953488372	55	1,1,1,1,1,1,1,1,1,1,1,1,1,1,1,1,1,1,1,1,1,1,1,1,1,1,1,1,1,1,1,1,1,1,1,1,1,1,1,1,1,1,1,1,1,1,1,1,1,1,1,2,4,34,38	0.415071676118	-0.00655853764798	0.298638786812	0.415071676118
GO CC 100 medium	2	KNN(100) > Cutoff(5)	Infomap	0.0179858207703	0.14599532226	0.813953488372	55	1,1,1,1,1,1,1,1,1,1,1,1,1,1,1,1,1,1,1,1,1,1,1,1,1,1,1,1,1,1,1,1,1,1,1,1,1,1,1,1,1,1,1,1,1,1,1,1,1,1,1,2,2,32,42	0.412695599664	-0.00647591040202	0.311514816923	0.412695599664
GO CC 100 medium	2	KNN(100) > Cutoff(5)	Leading Eigenvector	0.010852098465	0.15778575972	0.813953488372	54	1,1,1,1,1,1,1,1,1,1,1,1,1,1,1,1,1,1,1,1,1,1,1,1,1,1,1,1,1,1,1,1,1,1,1,1,1,1,1,1,1,1,1,1,1,1,1,1,1,1,1,2,34,42	0.414244643982	-0.0064158178595	0.311270408134	0.414244643982
GO CC 100 medium	2	KNN(100) > Cutoff(5)	Label Propagation	0.00107884407043	0.15778575972	0.813953488372	54	1,1,1,1,1,1,1,1,1,1,1,1,1,1,1,1,1,1,1,1,1,1,1,1,1,1,1,1,1,1,1,1,1,1,1,1,1,1,1,1,1,1,1,1,1,1,1,1,1,1,1,2,34,42	0.414244643982	-0.0064158178595	0.311270408134	0.414244643982
GO CC 100 medium	2	KNN(100) > Cutoff(5)	Walkttrap	0.00348901748657	0.15778575972	0.813953488372	54	1,1,1,1,1,1,1,1,1,1,1,1,1,1,1,1,1,1,1,1,1,1,1,1,1,1,1,1,1,1,1,1,1,1,1,1,1,1,1,1,1,1,1,1,1,1,1,1,1,1,1,2,34,42	0.414244643982	-0.0064158178595	0.311270408134	0.414244643982
GO CC 100 medium	2	Topological Overlap > Cutoff(5)	None	0.000847101211548	0.0	0.488372093023	1	129	0.0	0.0	0.0	0.0
GO CC 100 medium	2	Topological Overlap > Cutoff(5)	Louvain	0.00163292884827	0.102213589594	0.767441860465	37	1,1,1,1,1,1,1,1,1,1,1,1,1,1,1,1,1,1,1,1,1,1,1,1,1,1,1,1,1,2,2,2,4,5,20,20,45	0.449789808441	-0.00644774202271	0.40968376378	0.449789808441
GO CC 100 medium	2	Topological Overlap > Cutoff(5)	Greedy Modularity	0.00156497955322	0.102841401826	0.782945736434	38	1,1,1,1,1,1,1,1,1,1,1,1,1,1,1,1,1,1,1,1,1,1,1,1,1,1,1,1,1,2,2,2,4,5,18,20,21,26	0.489139623553	-0.0069097034433	0.437931669053	0.489139623553
GO CC 100 medium	2	Topological Overlap > Cutoff(5)	Infomap	0.0456349849701	0.094907949949	0.829457364341	43	1,1,1,1,1,1,1,1,1,1,1,1,1,1,1,1,1,1,1,1,1,1,1,1,1,1,1,1,1,2,2,2,2,2,2,3,4,4,5,15,16,16,25	0.494062304114	-0.00711721050418	0.416136155824	0.494062304114
GO CC 100 medium	2	Topological Overlap > Cutoff(5)	Label Propagation	0.00106310844421	0.102289496507	0.798449612403	40	1,1,1,1,1,1,1,1,1,1,1,1,1,1,1,1,1,1,1,1,1,1,1,1,1,1,1,1,1,2,2,2,2,3,4,5,14,16,20,30	0.475231325731	-0.00694538339042	0.412792068503	0.475231325731
GO CC 100 medium	2	Topological Overlap > Cutoff(5)	Walkttrap	0.00337505340576	0.102143598214	0.829457364341	43	1,1,1,1,1,1,1,1,1,1,1,1,1,1,1,1,1,1,1,1,1,1,1,1,1,1,1,1,1,2,2,2,2,2,2,2,3,4,4,14,15,16,30	0.484884035218	-0.00702613274443	0.403682809148	0.484884035218
GO CC 100 medium	2	None > Cutoff(5)	None	0.000830888748169	0.0	0.488372093023	1	129	0.0	0.0	0.0	0.0
GO CC 100 medium	2	None > Cutoff(5)	Louvain	0.00177001953125	0.125480626894	0.674418604651	19	1,1,1,1,1,1,1,1,1,1,1,1,1,1,2,14,16,37,46	0.534990712466	-0.00595573433087	0.534990712466	0.534990712466
GO CC 100 medium	2	None > Cutoff(5)	Greedy Modularity	0.0016758441925	0.125480626894	0.674418604651	19	1,1,1,1,1,1,1,1,1,1,1,1,1,1,2,14,16,37,46	0.534990712466	-0.00595573433087	0.534990712466	0.534990712466
GO CC 100 medium	2	None > Cutoff(5)	Infomap	0.0618760585785	0.067447549407	0.720930232558	29	1,1,1,1,1,1,1,1,1,1,1,1,1,1,2,2,2,3,3,5,6,7,7,8,8,14,14,15,19	0.495847925976	-0.00719795985818	0.495847925976	0.495847925976
GO CC 100 medium	2	None > Cutoff(5)	Label Propagation	0.00129318237305	0.122793857851	0.720930232558	27	1,1,1,1,1,1,1,1,1,1,1,1,1,1,2,2,2,3,4,6,6,6,8,13,13,19,31	0.468994588502	-0.00692848236284	0.468994588502	0.468994588502
GO CC 100 medium	2	None > Cutoff(5)	Walkttrap	0.00344395637512	0.0811153789501	0.705426356589	24	1,1,1,1,1,1,1,1,1,1,1,1,1,1,2,2,2,3,6,8,14,19,27,32	0.539223297621	-0.00666463854336	0.539223297621	0.539223297621
GO CC 100 medium	2	Log > Cutoff(5)	None	0.000838041305542	0.0	0.488372093023	1	129	0.0	0.0	0.0	0.0
GO CC 100 medium	2	Log > Cutoff(5)	Louvain	0.00199294090271	0.10171199529	0.674418604651	21	1,1,1,1,1,1,1,1,1,1,1,1,1,1,2,7,7,16,17,20,46	0.444269045195	-0.00632098431585	0.444269045195	0.444269045195
GO CC 100 medium	2	Log > Cutoff(5)	Greedy Modularity	0.00177001953125	0.131098423815	0.705426356589	20	1,1,1,1,1,1,1,1,1,1,1,1,1,1,2,7,7,31,34,34	0.459574786214	-0.00622145604231	0.459574786214	0.459574786214
GO CC 100 medium	2	Log > Cutoff(5)	Infomap	0.073343038559	0.0629941505432	0.720930232558	30	1,1,1,1,1,1,1,1,1,1,1,1,1,1,2,2,2,3,3,3,5,6,7,7,8,8,12,14,14,19	0.491856874213	-0.00723176191335	0.491856874213	0.491856874213
GO CC 100 medium	2	Log > Cutoff(5)	Leading Eigenvector	0.15080499649	0.0979770494342	0.68992248062	25	1,1,1,1,1,1,1,1,1,1,1,1,1,1,1,1,1,2,6,6,7,12,21,22,36	0.413577052027	-0.00663553121808	0.413577052027	0.413577052027
GO CC 100 medium	2	Log > Cutoff(5)	Label Propagation	0.00126600265503	0.0706483848478	0.736434108527	27	1,1,1,1,1,1,1,1,1,1,1,1,1,1,2,2,2,3,4,4,6,7,8,12,17,17,31	0.399099425496	-0.00692097079502	0.399099425496	0.399099425496
GO CC 100 medium	2	Log > Cutoff(5)	Walkttrap	0.00364303588867	0.0788534122207	0.705426356589	25	1,1,1,1,1,1,1,1,1,1,1,1,1,1,2,2,2,3,6,8,12,14,15,19,32	0.527094870866	-0.00683364881918	0.527094870866	0.527094870866
