test_case	test_number	transform	cluster_alg	seconds	adjusted_rand	annotation_correspondence	n_clusters	cluster_sizes	transformed_modularity	modularity	modularity_cutoff	transformed_modularity_cutoff
GO CC 100 medium	1	None	None	0.00200796127319	-2.21368703241e-16	0.496503496503	1	143	0.0	0.0	0.0	0.0
GO CC 100 medium	1	None	Louvain	0.0264730453491	0.091367959256	0.566433566434	3	40,48,55	-0.00465603538587	-0.00465603538587	0.433515548706	0.433515548706
GO CC 100 medium	1	None	Greedy Modularity	0.00720810890198	0.104755032	0.566433566434	3	44,47,52	-0.00468358589111	-0.00468358589111	0.413475036621	0.413475036621
GO CC 100 medium	1	None	Infomap	0.148751974106	-2.21368703241e-16	0.496503496503	1	143	0.0	0.0	0.0	0.0
GO CC 100 medium	1	None	Leading Eigenvector	0.0684969425201	0.0917721734096	0.552447552448	3	40,46,57	-0.00464363765851	-0.00464363765851	0.384550094604	0.384550094604
GO CC 100 medium	1	None	Label Propagation	0.00524711608887	-2.21368703241e-16	0.496503496503	1	143	0.0	0.0	0.0	0.0
GO CC 100 medium	1	None	Walkttrap	0.0355589389801	0.139129989161	0.58041958042	3	15,54,74	-0.00407471972527	-0.00407471972527	0.376611709595	0.376611709595
GO CC 100 medium	1	Pearson	None	0.00192713737488	-2.21368703241e-16	0.496503496503	1	143	0.0	0.0	0.0	0.0
GO CC 100 medium	1	Pearson	Louvain	0.0157279968262	0.152947743946	0.566433566434	2	68,75	-0.00351268941833	-0.00351268941833	0.395444869995	0.195646286011
GO CC 100 medium	1	Pearson	Greedy Modularity	0.00746607780457	0.152947743946	0.566433566434	2	68,75	-0.00351268941833	-0.00351268941833	0.395444869995	0.195646286011
GO CC 100 medium	1	Pearson	Infomap	0.0945348739624	-2.21368703241e-16	0.496503496503	1	143	0.0	0.0	0.0	0.0
GO CC 100 medium	1	Pearson	Leading Eigenvector	0.0498991012573	0.131278965303	0.552447552448	2	68,75	-0.00351268941833	-0.00351268941833	0.392637252808	0.195190429688
GO CC 100 medium	1	Pearson	Label Propagation	0.00348210334778	-2.21368703241e-16	0.496503496503	1	143	0.0	0.0	0.0	0.0
GO CC 100 medium	1	Pearson	Walkttrap	0.0330369472504	0.164538924657	0.566433566434	2	53,90	-0.00328539775009	-0.00328539775009	0.384643554688	0.173881530762
GO CC 100 medium	1	Spearman	None	0.00187706947327	-2.21368703241e-16	0.496503496503	1	143	0.0	0.0	0.0	0.0
GO CC 100 medium	1	Spearman	Louvain	0.0129768848419	0.131288370269	0.552447552448	2	66,77	-0.00350029169097	-0.00350029169097	0.386106491089	0.150247933884
GO CC 100 medium	1	Spearman	Greedy Modularity	0.00707912445068	0.131288370269	0.552447552448	2	66,77	-0.00350029169097	-0.00350029169097	0.386106491089	0.150247933884
GO CC 100 medium	1	Spearman	Infomap	0.0950911045074	-2.21368703241e-16	0.496503496503	1	143	0.0	0.0	0.0	0.0
GO CC 100 medium	1	Spearman	Leading Eigenvector	0.0496499538422	0.121051402329	0.552447552448	2	65,78	-0.0034920265394	-0.0034920265394	0.386106491089	0.150247933884
GO CC 100 medium	1	Spearman	Label Propagation	0.00411605834961	-2.21368703241e-16	0.496503496503	1	143	0.0	0.0	0.0	0.0
GO CC 100 medium	1	Spearman	Walkttrap	0.034276008606	0.101725227998	0.538461538462	2	70,73	-0.00351957704464	-0.00351957704464	0.386772155762	0.150247933884
GO CC 100 medium	1	Cosine	None	0.00191378593445	-2.21368703241e-16	0.496503496503	1	143	0.0	0.0	0.0	0.0
GO CC 100 medium	1	Cosine	Louvain	0.0129990577698	0.131278965303	0.552447552448	2	68,75	-0.00351268941833	-0.00351268941833	0.397535324097	0.101621627808
GO CC 100 medium	1	Cosine	Greedy Modularity	0.00679898262024	0.131278965303	0.552447552448	2	68,75	-0.00351268941833	-0.00351268941833	0.397535324097	0.101621627808
GO CC 100 medium	1	Cosine	Infomap	0.0877020359039	-2.21368703241e-16	0.496503496503	1	143	0.0	0.0	0.0	0.0
GO CC 100 medium	1	Cosine	Leading Eigenvector	0.0532600879669	0.12103977197	0.538461538462	2	67,76	-0.00350717931728	-0.00350717931728	0.397535324097	0.0883312225342
GO CC 100 medium	1	Cosine	Label Propagation	0.00348401069641	-2.21368703241e-16	0.496503496503	1	143	0.0	0.0	0.0	0.0
GO CC 100 medium	1	Cosine	Walkttrap	0.0341229438782	0.119158519919	0.566433566434	3	31,42,70	-0.00441634599027	-0.00441634599027	0.386735916138	0.126699447632
GO CC 100 medium	1	KNN(10)	None	0.00153112411499	-2.21368703241e-16	0.496503496503	1	143	0.0	0.0	0.0	0.0
GO CC 100 medium	1	KNN(10)	Louvain	0.00748586654663	0.104470643524	0.552447552448	3	35,44,64	0.213893652296	-0.00454307831438	0.432909011841	0.405837314606
GO CC 100 medium	1	KNN(10)	Greedy Modularity	0.0135099887848	0.115206319254	0.538461538462	3	3,69,71	0.234741565134	-0.00366352843453	0.397773742676	0.378611132978
GO CC 100 medium	1	KNN(10)	Infomap	0.0806860923767	0.153135187696	0.566433566434	2	52,91	0.213418545704	-0.00325922477011	0.38868522644	0.34994596783
GO CC 100 medium	1	KNN(10)	Leading Eigenvector	0.0339109897614	0.121032370672	0.552447552448	2	69,74	0.237189076317	-0.00351682199412	0.391082763672	0.37542543305
GO CC 100 medium	1	KNN(10)	Label Propagation	0.00372385978699	0.0480852497469	0.524475524476	2	20,123	0.0510060659352	-0.00169435607237	0.205291748047	0.237487999951
GO CC 100 medium	1	KNN(10)	Walkttrap	0.0205850601196	0.111195720329	0.552447552448	2	66,77	0.240122482436	-0.00350029169097	0.38597869873	0.369246749635
GO CC 100 medium	1	KNN(50)	None	0.00187301635742	-2.21368703241e-16	0.496503496503	1	143	0.0	0.0	0.0	0.0
GO CC 100 medium	1	KNN(50)	Louvain	0.012934923172	0.131288370269	0.552447552448	2	66,77	-0.00291628108749	-0.00350029169097	0.38597869873	0.249851279001
GO CC 100 medium	1	KNN(50)	Greedy Modularity	0.00698208808899	0.131288370269	0.552447552448	2	66,77	-0.00291628108749	-0.00350029169097	0.38597869873	0.249851279001
GO CC 100 medium	1	KNN(50)	Infomap	0.0961709022522	-2.21368703241e-16	0.496503496503	1	143	0.0	0.0	0.0	0.0
GO CC 100 medium	1	KNN(50)	Leading Eigenvector	0.0498049259186	0.131288370269	0.552447552448	2	66,77	-0.00291628108749	-0.00350029169097	0.38597869873	0.249851279001
GO CC 100 medium	1	KNN(50)	Label Propagation	0.00472211837769	-2.21368703241e-16	0.496503496503	1	143	0.0	0.0	0.0	0.0
GO CC 100 medium	1	KNN(50)	Walkttrap	0.034392118454	0.121111663806	0.552447552448	2	59,84	-0.002843993956	-0.00341350759946	0.386259078979	0.249851279001
GO CC 100 medium	1	KNN(100)	None	0.00190401077271	-2.21368703241e-16	0.496503496503	1	143	0.0	0.0	0.0	0.0
GO CC 100 medium	1	KNN(100)	Louvain	0.0132999420166	0.111250243866	0.538461538462	2	60,83	-0.00343003790261	-0.00343003790261	0.370649337769	0.0997229916898
GO CC 100 medium	1	KNN(100)	Greedy Modularity	0.00702095031738	0.111250243866	0.538461538462	2	60,83	-0.00343003790261	-0.00343003790261	0.370649337769	0.0997229916898
GO CC 100 medium	1	KNN(100)	Infomap	0.0919930934906	-2.21368703241e-16	0.496503496503	1	143	0.0	0.0	0.0	0.0
GO CC 100 medium	1	KNN(100)	Leading Eigenvector	0.0473749637604	0.111250243866	0.538461538462	2	60,83	-0.00343003790261	-0.00343003790261	0.370649337769	0.0997229916898
GO CC 100 medium	1	KNN(100)	Label Propagation	0.00348114967346	-2.21368703241e-16	0.496503496503	1	143	0.0	0.0	0.0	0.0
GO CC 100 medium	1	KNN(100)	Walkttrap	0.0330300331116	0.126623723735	0.552447552448	3	21,47,75	-0.00419249813518	-0.00419249813518	0.373908996582	0.0997229916898
GO CC 100 medium	1	Topological Overlap	None	0.00189018249512	-2.21368703241e-16	0.496503496503	1	143	0.0	0.0	0.0	0.0
GO CC 100 medium	1	Topological Overlap	Louvain	0.0194551944733	0.13111584954	0.552447552448	3	22,48,73	-0.00424691038303	-0.00424691038303	0.405828475952	0.437429428101
GO CC 100 medium	1	Topological Overlap	Greedy Modularity	0.00702786445618	0.128909310115	0.566433566434	3	23,49,71	-0.00429719005509	-0.00429719005509	0.380773544312	0.415199279785
GO CC 100 medium	1	Topological Overlap	Infomap	0.107575178146	-2.21368703241e-16	0.496503496503	1	143	0.0	0.0	0.0	0.0
GO CC 100 medium	1	Topological Overlap	Leading Eigenvector	0.0957741737366	0.143561129915	0.58041958042	3	28,52,63	-0.00447420205127	-0.00447420205127	0.406824111938	0.41411781311
GO CC 100 medium	1	Topological Overlap	Label Propagation	0.00517416000366	-2.21368703241e-16	0.496503496503	1	143	0.0	0.0	0.0	0.0
GO CC 100 medium	1	Topological Overlap	Walkttrap	0.0339879989624	0.121296625494	0.552447552448	2	49,94	-0.0031724406786	-0.0031724406786	0.372550964355	0.391843795776
GO CC 100 medium	1	Cutoff(0.1)	None	0.000962972640991	-2.21368703241e-16	0.496503496503	1	143	0.0	0.0	0.0	0.0
GO CC 100 medium	1	Cutoff(0.1)	Louvain	0.00111198425293	0.0033704439602	0.986013986014	132	1,1,1,1,1,1,1,1,1,1,1,1,1,1,1,1,1,1,1,1,1,1,1,1,1,1,1,1,1,1,1,1,1,1,1,1,1,1,1,1,1,1,1,1,1,1,1,1,1,1,1,1,1,1,1,1,1,1,1,1,1,1,1,1,1,1,1,1,1,1,1,1,1,1,1,1,1,1,1,1,1,1,1,1,1,1,1,1,1,1,1,1,1,1,1,1,1,1,1,1,1,1,1,1,1,1,1,1,1,1,1,1,1,1,1,1,1,1,1,1,1,1,1,1,1,1,2,2,2,3,3,5	0.776859504132	-0.00697992050302	0.00551986694336	0.776859504132
GO CC 100 medium	1	Cutoff(0.1)	Greedy Modularity	0.00141310691833	0.0033704439602	0.986013986014	132	1,1,1,1,1,1,1,1,1,1,1,1,1,1,1,1,1,1,1,1,1,1,1,1,1,1,1,1,1,1,1,1,1,1,1,1,1,1,1,1,1,1,1,1,1,1,1,1,1,1,1,1,1,1,1,1,1,1,1,1,1,1,1,1,1,1,1,1,1,1,1,1,1,1,1,1,1,1,1,1,1,1,1,1,1,1,1,1,1,1,1,1,1,1,1,1,1,1,1,1,1,1,1,1,1,1,1,1,1,1,1,1,1,1,1,1,1,1,1,1,1,1,1,1,1,1,2,2,2,3,3,5	0.776859504132	-0.00697992050302	0.00551986694336	0.776859504132
GO CC 100 medium	1	Cutoff(0.1)	Infomap	0.00733613967896	0.0033704439602	0.986013986014	132	1,1,1,1,1,1,1,1,1,1,1,1,1,1,1,1,1,1,1,1,1,1,1,1,1,1,1,1,1,1,1,1,1,1,1,1,1,1,1,1,1,1,1,1,1,1,1,1,1,1,1,1,1,1,1,1,1,1,1,1,1,1,1,1,1,1,1,1,1,1,1,1,1,1,1,1,1,1,1,1,1,1,1,1,1,1,1,1,1,1,1,1,1,1,1,1,1,1,1,1,1,1,1,1,1,1,1,1,1,1,1,1,1,1,1,1,1,1,1,1,1,1,1,1,1,1,2,2,2,3,3,5	0.776859504132	-0.00697992050302	0.00551986694336	0.776859504132
GO CC 100 medium	1	Cutoff(0.1)	Leading Eigenvector	0.00287699699402	0.0033704439602	0.986013986014	132	1,1,1,1,1,1,1,1,1,1,1,1,1,1,1,1,1,1,1,1,1,1,1,1,1,1,1,1,1,1,1,1,1,1,1,1,1,1,1,1,1,1,1,1,1,1,1,1,1,1,1,1,1,1,1,1,1,1,1,1,1,1,1,1,1,1,1,1,1,1,1,1,1,1,1,1,1,1,1,1,1,1,1,1,1,1,1,1,1,1,1,1,1,1,1,1,1,1,1,1,1,1,1,1,1,1,1,1,1,1,1,1,1,1,1,1,1,1,1,1,1,1,1,1,1,1,2,2,2,3,3,5	0.776859504132	-0.00697992050302	0.00551986694336	0.776859504132
GO CC 100 medium	1	Cutoff(0.1)	Label Propagation	0.000974178314209	0.0033704439602	0.986013986014	131	1,1,1,1,1,1,1,1,1,1,1,1,1,1,1,1,1,1,1,1,1,1,1,1,1,1,1,1,1,1,1,1,1,1,1,1,1,1,1,1,1,1,1,1,1,1,1,1,1,1,1,1,1,1,1,1,1,1,1,1,1,1,1,1,1,1,1,1,1,1,1,1,1,1,1,1,1,1,1,1,1,1,1,1,1,1,1,1,1,1,1,1,1,1,1,1,1,1,1,1,1,1,1,1,1,1,1,1,1,1,1,1,1,1,1,1,1,1,1,1,1,1,1,1,2,2,2,2,3,3,5	0.776859504132	-0.00697992050302	0.00551986694336	0.776859504132
GO CC 100 medium	1	Cutoff(0.1)	Walkttrap	0.00149893760681	0.0033704439602	0.986013986014	132	1,1,1,1,1,1,1,1,1,1,1,1,1,1,1,1,1,1,1,1,1,1,1,1,1,1,1,1,1,1,1,1,1,1,1,1,1,1,1,1,1,1,1,1,1,1,1,1,1,1,1,1,1,1,1,1,1,1,1,1,1,1,1,1,1,1,1,1,1,1,1,1,1,1,1,1,1,1,1,1,1,1,1,1,1,1,1,1,1,1,1,1,1,1,1,1,1,1,1,1,1,1,1,1,1,1,1,1,1,1,1,1,1,1,1,1,1,1,1,1,1,1,1,1,1,1,2,2,2,3,3,5	0.776859504132	-0.00697992050302	0.00551986694336	0.776859504132
GO CC 100 medium	1	Cutoff(1)	None	0.000900030136108	-2.21368703241e-16	0.496503496503	1	143	0.0	0.0	0.0	0.0
GO CC 100 medium	1	Cutoff(1)	Louvain	0.0013599395752	0.0237493162021	0.832167832168	82	1,1,1,1,1,1,1,1,1,1,1,1,1,1,1,1,1,1,1,1,1,1,1,1,1,1,1,1,1,1,1,1,1,1,1,1,1,1,1,1,1,1,1,1,1,1,1,1,1,1,1,1,1,1,1,1,1,1,1,1,1,1,1,1,1,1,1,1,1,1,1,1,1,1,2,5,5,5,6,10,16,20	0.635215383165	-0.00671681317796	0.190933227539	0.635215383165
GO CC 100 medium	1	Cutoff(1)	Greedy Modularity	0.00144195556641	0.0237351841641	0.832167832168	82	1,1,1,1,1,1,1,1,1,1,1,1,1,1,1,1,1,1,1,1,1,1,1,1,1,1,1,1,1,1,1,1,1,1,1,1,1,1,1,1,1,1,1,1,1,1,1,1,1,1,1,1,1,1,1,1,1,1,1,1,1,1,1,1,1,1,1,1,1,1,1,1,1,1,2,5,5,6,8,10,13,20	0.631916297483	-0.0067333434811	0.198385238647	0.631916297483
GO CC 100 medium	1	Cutoff(1)	Infomap	0.014997959137	0.0205791984741	0.832167832168	83	1,1,1,1,1,1,1,1,1,1,1,1,1,1,1,1,1,1,1,1,1,1,1,1,1,1,1,1,1,1,1,1,1,1,1,1,1,1,1,1,1,1,1,1,1,1,1,1,1,1,1,1,1,1,1,1,1,1,1,1,1,1,1,1,1,1,1,1,1,1,1,1,1,1,2,2,5,5,5,6,8,16,20	0.629748326892	-0.00672783338005	0.189775466919	0.629748326892
GO CC 100 medium	1	Cutoff(1)	Leading Eigenvector	0.0558881759644	0.0231502102783	0.832167832168	83	1,1,1,1,1,1,1,1,1,1,1,1,1,1,1,1,1,1,1,1,1,1,1,1,1,1,1,1,1,1,1,1,1,1,1,1,1,1,1,1,1,1,1,1,1,1,1,1,1,1,1,1,1,1,1,1,1,1,1,1,1,1,1,1,1,1,1,1,1,1,1,1,1,1,1,2,4,5,6,6,11,13,21	0.61608068621	-0.0067243895669	0.186298370361	0.61608068621
GO CC 100 medium	1	Cutoff(1)	Label Propagation	0.00110292434692	0.0207383498696	0.818181818182	84	1,1,1,1,1,1,1,1,1,1,1,1,1,1,1,1,1,1,1,1,1,1,1,1,1,1,1,1,1,1,1,1,1,1,1,1,1,1,1,1,1,1,1,1,1,1,1,1,1,1,1,1,1,1,1,1,1,1,1,1,1,1,1,1,1,1,1,1,1,1,1,1,1,1,2,2,3,5,5,5,6,10,15,16	0.599255349232	-0.00677260295107	0.161005020142	0.599255349232
GO CC 100 medium	1	Cutoff(1)	Walkttrap	0.00203204154968	0.0193856568219	0.832167832168	85	1,1,1,1,1,1,1,1,1,1,1,1,1,1,1,1,1,1,1,1,1,1,1,1,1,1,1,1,1,1,1,1,1,1,1,1,1,1,1,1,1,1,1,1,1,1,1,1,1,1,1,1,1,1,1,1,1,1,1,1,1,1,1,1,1,1,1,1,1,1,1,1,1,1,2,2,2,2,3,4,5,5,8,16,20	0.612310302573	-0.00673747605689	0.180583953857	0.612310302573
GO CC 100 medium	1	Cutoff(5)	None	0.000971794128418	-2.21368703241e-16	0.496503496503	1	143	0.0	0.0	0.0	0.0
GO CC 100 medium	1	Cutoff(5)	Louvain	0.00250291824341	0.063272377382	0.692307692308	33	1,1,1,1,1,1,1,1,1,1,1,1,1,1,1,1,1,1,1,1,1,1,1,1,1,1,1,2,10,17,23,25,39	0.429113388062	-0.00597639334958	0.429113388062	0.429113388062
GO CC 100 medium	1	Cutoff(5)	Greedy Modularity	0.00194787979126	0.0892636639198	0.692307692308	34	1,1,1,1,1,1,1,1,1,1,1,1,1,1,1,1,1,1,1,1,1,1,1,1,1,1,1,2,2,8,10,21,25,48	0.426721572876	-0.00581315660603	0.426721572876	0.426721572876
GO CC 100 medium	1	Cutoff(5)	Infomap	0.0650429725647	0.0821721706586	0.65034965035	36	1,1,1,1,1,1,1,1,1,1,1,1,1,1,1,1,1,1,1,1,1,1,1,1,1,1,1,2,2,2,2,8,12,12,25,51	0.434789657593	-0.00579524877762	0.434789657593	0.434789657593
GO CC 100 medium	1	Cutoff(5)	Leading Eigenvector	0.0410840511322	0.102306421411	0.65034965035	32	1,1,1,1,1,1,1,1,1,1,1,1,1,1,1,1,1,1,1,1,1,1,1,1,1,1,1,2,10,12,29,63	0.395938873291	-0.00529107453169	0.395938873291	0.395938873291
GO CC 100 medium	1	Cutoff(5)	Label Propagation	0.00133800506592	0.129065130117	0.664335664336	32	1,1,1,1,1,1,1,1,1,1,1,1,1,1,1,1,1,1,1,1,1,1,1,1,1,1,1,6,9,10,31,60	0.409791946411	-0.00538750130004	0.409791946411	0.409791946411
GO CC 100 medium	1	Cutoff(5)	Walkttrap	0.00415110588074	0.089335012342	0.65034965035	35	1,1,1,1,1,1,1,1,1,1,1,1,1,1,1,1,1,1,1,1,1,1,1,1,1,1,1,2,2,2,8,9,12,30,51	0.434757232666	-0.00572361746399	0.434757232666	0.434757232666
GO CC 100 medium	1	Cutoff(10)	None	0.0010290145874	-2.21368703241e-16	0.496503496503	1	143	0.0	0.0	0.0	0.0
GO CC 100 medium	1	Cutoff(10)	Louvain	0.00292086601257	0.102611256218	0.608391608392	19	1,1,1,1,1,1,1,1,1,1,1,1,1,2,14,14,26,27,47	0.359557164684	-0.00565680748878	0.427040100098	0.427040100098
GO CC 100 medium	1	Cutoff(10)	Greedy Modularity	0.00269603729248	0.112951699819	0.608391608392	17	1,1,1,1,1,1,1,1,1,1,1,1,1,2,30,43,55	0.376140078297	-0.00504794132293	0.426126480103	0.426126480103
GO CC 100 medium	1	Cutoff(10)	Infomap	0.105478048325	0.123108792356	0.608391608392	21	1,1,1,1,1,1,1,1,1,1,1,1,1,2,2,2,9,11,17,30,57	0.363477744047	-0.00543571468421	0.429275512695	0.429275512695
GO CC 100 medium	1	Cutoff(10)	Leading Eigenvector	0.0603411197662	0.0905422507591	0.636363636364	19	1,1,1,1,1,1,1,1,1,1,1,1,1,2,16,16,18,36,42	0.3389872617	-0.00569468943349	0.390632629395	0.390632629395
GO CC 100 medium	1	Cutoff(10)	Label Propagation	0.00165605545044	0.129676852827	0.608391608392	17	1,1,1,1,1,1,1,1,1,1,1,1,1,7,9,32,82	0.299629059491	-0.00432474056034	0.357015609741	0.357015609741
GO CC 100 medium	1	Cutoff(10)	Walkttrap	0.0058798789978	0.110383821257	0.65034965035	28	1,1,1,1,1,1,1,1,1,1,1,1,1,1,1,1,1,1,1,1,1,1,2,6,11,17,32,53	0.359888259188	-0.0055596919578	0.426261901855	0.426261901855
GO CC 100 medium	1	Cutoff(20)	None	0.00115084648132	-2.21368703241e-16	0.496503496503	1	143	0.0	0.0	0.0	0.0
GO CC 100 medium	1	Cutoff(20)	Louvain	0.0046010017395	0.092183906818	0.552447552448	4	15,32,33,63	0.295230898907	-0.00487024056412	0.428220748901	0.428220748901
GO CC 100 medium	1	Cutoff(20)	Greedy Modularity	0.00446391105652	0.0866706932212	0.538461538462	3	39,44,60	0.319667864252	-0.00461195457748	0.413551330566	0.413551330566
GO CC 100 medium	1	Cutoff(20)	Infomap	0.128071069717	0.131205785415	0.552447552448	4	14,16,28,85	0.270288197703	-0.00412844321049	0.397596359253	0.397596359253
GO CC 100 medium	1	Cutoff(20)	Leading Eigenvector	0.0586302280426	0.111163036688	0.58041958042	4	21,28,40,54	0.280619914993	-0.00506516038871	0.379007339478	0.379007339478
GO CC 100 medium	1	Cutoff(20)	Label Propagation	0.00202512741089	0.0919492587556	0.538461538462	3	6,33,104	0.21232548825	-0.00292999623247	0.307748794556	0.307748794556
GO CC 100 medium	1	Cutoff(20)	Walkttrap	0.00977301597595	0.156553365473	0.58041958042	4	1,23,43,76	0.316294737597	-0.00423382389304	0.409055709839	0.409055709839
GO CC 100 medium	1	Log	None	0.00184798240662	-2.21368703241e-16	0.496503496503	1	143	0.0	0.0	0.0	0.0
GO CC 100 medium	1	Log	Louvain	0.020024061203	0.0610634292804	0.552447552448	4	5,39,48,51	-0.00482064965469	-0.00482064965469	0.375667572021	0.375667572021
GO CC 100 medium	1	Log	Greedy Modularity	0.00693392753601	0.0972694013892	0.566433566434	3	42,48,53	-0.00467394321428	-0.00467394321428	0.416343688965	0.416343688965
GO CC 100 medium	1	Log	Infomap	0.161145925522	-2.21368703241e-16	0.496503496503	1	143	0.0	0.0	0.0	0.0
GO CC 100 medium	1	Log	Leading Eigenvector	0.0603928565979	0.117895699764	0.566433566434	3	27,32,84	-0.00400859851269	-0.00400859851269	0.375617980957	0.375617980957
GO CC 100 medium	1	Log	Label Propagation	0.00686812400818	-2.21368703241e-16	0.496503496503	1	143	0.0	0.0	0.0	0.0
GO CC 100 medium	1	Log	Walkttrap	0.0340628623962	0.139129989161	0.58041958042	3	15,54,74	-0.00407471972527	-0.00407471972527	0.376611709595	0.376611709595
GO CC 100 medium	2	None	None	0.00160789489746	0.0	0.488372093023	1	129	0.0	0.0	0.0	0.0
GO CC 100 medium	2	None	Louvain	0.0203061103821	0.204644286617	0.643410852713	4	2,13,54,60	-0.00467219518058	-0.00467219518058	0.511760375872	0.511760375872
GO CC 100 medium	2	None	Greedy Modularity	0.00543308258057	0.178686934023	0.627906976744	4	2,13,44,70	-0.00452196382429	-0.00452196382429	0.500534823939	0.500534823939
GO CC 100 medium	2	None	Infomap	0.309620141983	0.0823124064398	0.596899224806	5	2,3,8,13,103	-0.00271637071089	-0.00271637071089	0.324008419164	0.324008419164
GO CC 100 medium	2	None	Leading Eigenvector	0.0544528961182	0.140433096315	0.596899224806	3	13,38,78	-0.00419896640827	-0.00419896640827	0.471625577236	0.471625577236
GO CC 100 medium	2	None	Label Propagation	0.00527501106262	0.0290706369741	0.53488372093	3	2,13,114	-0.00163001021573	-0.00163001021573	0.253791211635	0.253791211635
GO CC 100 medium	2	None	Walkttrap	0.0253639221191	0.244606832849	0.643410852713	3	13,54,62	-0.00455952166336	-0.00455952166336	0.509678588065	0.509678588065
GO CC 100 medium	2	Pearson	None	0.00161910057068	0.0	0.488372093023	1	129	0.0	0.0	0.0	0.0
GO CC 100 medium	2	Pearson	Louvain	0.0132079124451	0.185792308618	0.627906976744	3	16,48,65	-0.00462712577369	-0.00462712577369	0.512496477638	0.511720120307
GO CC 100 medium	2	Pearson	Greedy Modularity	0.00526905059814	0.232702229766	0.612403100775	2	53,76	-0.00378207439457	-0.00378207439457	0.402046707957	0.431470650817
GO CC 100 medium	2	Pearson	Infomap	0.0736970901489	0.0	0.488372093023	1	129	0.0	0.0	0.0	0.0
GO CC 100 medium	2	Pearson	Leading Eigenvector	0.0314769744873	0.248237069969	0.612403100775	2	52,77	-0.00375953969112	-0.00375953969112	0.394596552973	0.43756361817
GO CC 100 medium	2	Pearson	Label Propagation	0.00288105010986	0.0	0.488372093023	1	129	0.0	0.0	0.0	0.0
GO CC 100 medium	2	Pearson	Walkttrap	0.0256071090698	0.332811249958	0.643410852713	2	63,66	-0.00390413737155	-0.00390413737155	0.41091443392	0.417125292572
GO CC 100 medium	2	Spearman	None	0.00158596038818	0.0	0.488372093023	1	129	0.0	0.0	0.0	0.0
GO CC 100 medium	2	Spearman	Louvain	0.0122039318085	0.297454234054	0.627906976744	2	61,68	-0.00389474791178	-0.00389474791178	0.362392100708	0.201446280992
GO CC 100 medium	2	Spearman	Greedy Modularity	0.0055878162384	0.297454234054	0.627906976744	2	61,68	-0.00389474791178	-0.00389474791178	0.362392100708	0.201446280992
GO CC 100 medium	2	Spearman	Infomap	0.0751421451569	0.0	0.488372093023	1	129	0.0	0.0	0.0	0.0
GO CC 100 medium	2	Spearman	Leading Eigenvector	0.0375142097473	0.297441040261	0.643410852713	2	63,66	-0.00390413737155	-0.00390413737155	0.363151205654	0.201446280992
GO CC 100 medium	2	Spearman	Label Propagation	0.0033130645752	0.0	0.488372093023	1	129	0.0	0.0	0.0	0.0
GO CC 100 medium	2	Spearman	Walkttrap	0.0257179737091	0.332833802817	0.658914728682	2	60,69	-0.00388723634397	-0.00388723634397	0.359355680923	0.201446280992
GO CC 100 medium	2	Cosine	None	0.00162601470947	0.0	0.488372093023	1	129	0.0	0.0	0.0	0.0
GO CC 100 medium	2	Cosine	Louvain	0.0128509998322	0.18225116531	0.627906976744	3	18,48,63	-0.00471538669551	-0.00471538669551	0.509678588065	0.392877065254
GO CC 100 medium	2	Cosine	Greedy Modularity	0.00532603263855	0.314907042254	0.643410852713	2	60,69	-0.00388723634397	-0.00388723634397	0.415540948536	0.282016113728
GO CC 100 medium	2	Cosine	Infomap	0.116175889969	0.0	0.488372093023	1	129	0.0	0.0	0.0	0.0
GO CC 100 medium	2	Cosine	Leading Eigenvector	0.0325620174408	0.314907042254	0.643410852713	2	60,69	-0.00388723634397	-0.00388723634397	0.413114113026	0.281625059664
GO CC 100 medium	2	Cosine	Label Propagation	0.00288796424866	0.0	0.488372093023	1	129	0.0	0.0	0.0	0.0
GO CC 100 medium	2	Cosine	Walkttrap	0.0262999534607	0.148201782514	0.627906976744	3	19,41,69	-0.0046186752599	-0.0046186752599	0.51360925648	0.494579875668
GO CC 100 medium	2	KNN(10)	None	0.00123405456543	0.0	0.488372093023	1	129	0.0	0.0	0.0	0.0
GO CC 100 medium	2	KNN(10)	Louvain	0.00632882118225	0.180560938988	0.612403100775	3	22,47,60	0.267103853956	-0.00485810648399	0.501334184451	0.58383762073
GO CC 100 medium	2	KNN(10)	Greedy Modularity	0.00891304016113	0.254943889325	0.627906976744	3	15,51,63	0.264526356502	-0.00462243104381	0.404456291082	0.490517107616
GO CC 100 medium	2	KNN(10)	Infomap	0.118947982788	0.180514680978	0.627906976744	3	22,50,57	0.270705284527	-0.00488627486329	0.510848874857	0.599542389394
GO CC 100 medium	2	KNN(10)	Leading Eigenvector	0.0383780002594	0.179508737535	0.658914728682	4	26,27,36,40	0.231793253594	-0.00579329667688	0.482580841801	0.590218477904
GO CC 100 medium	2	KNN(10)	Label Propagation	0.00298190116882	0.0236988257103	0.53488372093	2	13,116	0.0310047441457	-0.00141593053302	0.251122842733	0.185556140605
GO CC 100 medium	2	KNN(10)	Walkttrap	0.0142018795013	0.18054243641	0.627906976744	3	22,48,59	0.266235095482	-0.00486937383571	0.515170597335	0.597868638538
GO CC 100 medium	2	KNN(50)	None	0.00159883499146	0.0	0.488372093023	1	129	0.0	0.0	0.0	0.0
GO CC 100 medium	2	KNN(50)	Louvain	0.0107128620148	0.297331739444	0.643410852713	3	8,56,65	-0.00426761161215	-0.00432666306111	0.374373882189	0.234506297425
GO CC 100 medium	2	KNN(50)	Greedy Modularity	0.0055890083313	0.314935345394	0.658914728682	2	58,71	-0.00380709376803	-0.00386657953248	0.34781671066	0.235828368492
GO CC 100 medium	2	KNN(50)	Infomap	0.0763909816742	0.0	0.488372093023	1	129	0.0	0.0	0.0	0.0
GO CC 100 medium	2	KNN(50)	Leading Eigenvector	0.039724111557	0.297477981634	0.643410852713	2	59,70	-0.00381818775472	-0.0038778468842	0.378479949853	0.228211298492
GO CC 100 medium	2	KNN(50)	Label Propagation	0.00290203094482	0.0	0.488372093023	1	129	0.0	0.0	0.0	0.0
GO CC 100 medium	2	KNN(50)	Walkttrap	0.0251338481903	0.280482720543	0.627906976744	2	63,66	-0.00384407372365	-0.00390413737155	0.361848650576	0.228800772381
GO CC 100 medium	2	KNN(100)	None	0.00159811973572	0.0	0.488372093023	1	129	0.0	0.0	0.0	0.0
GO CC 100 medium	2	KNN(100)	Louvain	0.0101420879364	0.280480018029	0.627906976744	2	64,65	-0.00390601526351	-0.00390601526351	0.356120858709	0.410626378387
GO CC 100 medium	2	KNN(100)	Greedy Modularity	0.00551795959473	0.264022745882	0.627906976744	2	61,68	-0.00389474791178	-0.00389474791178	0.367947368724	0.410626378387
GO CC 100 medium	2	KNN(100)	Infomap	0.0721879005432	0.0	0.488372093023	1	129	0.0	0.0	0.0	0.0
GO CC 100 medium	2	KNN(100)	Leading Eigenvector	0.0336768627167	0.280480018029	0.627906976744	2	64,65	-0.00390601526351	-0.00390601526351	0.356120858709	0.410626378387
GO CC 100 medium	2	KNN(100)	Label Propagation	0.00287413597107	0.0	0.488372093023	1	129	0.0	0.0	0.0	0.0
GO CC 100 medium	2	KNN(100)	Walkttrap	0.0255742073059	0.332816261836	0.658914728682	2	62,67	-0.00390038158765	-0.00390038158765	0.354007441529	0.411678218862
GO CC 100 medium	2	Topological Overlap	None	0.00157618522644	0.0	0.488372093023	1	129	0.0	0.0	0.0	0.0
GO CC 100 medium	2	Topological Overlap	Louvain	0.0171148777008	0.253981751482	0.674418604651	4	2,16,51,60	-0.00477923502193	-0.00477923502193	0.507829707457	0.367217017753
GO CC 100 medium	2	Topological Overlap	Greedy Modularity	0.00539207458496	0.252071215188	0.674418604651	4	2,17,46,64	-0.00475857821044	-0.00475857821044	0.521976663274	0.374943210899
GO CC 100 medium	2	Topological Overlap	Infomap	0.135668992996	0.0	0.488372093023	1	129	0.0	0.0	0.0	0.0
GO CC 100 medium	2	Topological Overlap	Leading Eigenvector	0.0695848464966	0.192970510452	0.627906976744	3	20,42,67	-0.00468909620816	-0.00468909620816	0.484559115298	0.391505500635
GO CC 100 medium	2	Topological Overlap	Label Propagation	0.00334191322327	0.0	0.488372093023	1	129	0.0	0.0	0.0	0.0
GO CC 100 medium	2	Topological Overlap	Walkttrap	0.0248630046844	0.163980433705	0.643410852713	3	13,34,82	-0.00403371191635	-0.00403371191635	0.469014716285	0.280520907015
GO CC 100 medium	2	Cutoff(0.1)	None	0.00081205368042	0.0	0.488372093023	1	129	0.0	0.0	0.0	0.0
GO CC 100 medium	2	Cutoff(0.1)	Louvain	0.000965118408203	0.00270630872737	1.0	121	1,1,1,1,1,1,1,1,1,1,1,1,1,1,1,1,1,1,1,1,1,1,1,1,1,1,1,1,1,1,1,1,1,1,1,1,1,1,1,1,1,1,1,1,1,1,1,1,1,1,1,1,1,1,1,1,1,1,1,1,1,1,1,1,1,1,1,1,1,1,1,1,1,1,1,1,1,1,1,1,1,1,1,1,1,1,1,1,1,1,1,1,1,1,1,1,1,1,1,1,1,1,1,1,1,1,1,1,1,1,1,1,1,1,1,2,2,2,2,2,4	0.740740740741	-0.00774160957875	0.00847954729741	0.740740740741
GO CC 100 medium	2	Cutoff(0.1)	Greedy Modularity	0.00130081176758	0.00270630872737	1.0	121	1,1,1,1,1,1,1,1,1,1,1,1,1,1,1,1,1,1,1,1,1,1,1,1,1,1,1,1,1,1,1,1,1,1,1,1,1,1,1,1,1,1,1,1,1,1,1,1,1,1,1,1,1,1,1,1,1,1,1,1,1,1,1,1,1,1,1,1,1,1,1,1,1,1,1,1,1,1,1,1,1,1,1,1,1,1,1,1,1,1,1,1,1,1,1,1,1,1,1,1,1,1,1,1,1,1,1,1,1,1,1,1,1,1,1,2,2,2,2,2,4	0.740740740741	-0.00774160957875	0.00847954729741	0.740740740741
GO CC 100 medium	2	Cutoff(0.1)	Infomap	0.00643992424011	0.00270630872737	1.0	121	1,1,1,1,1,1,1,1,1,1,1,1,1,1,1,1,1,1,1,1,1,1,1,1,1,1,1,1,1,1,1,1,1,1,1,1,1,1,1,1,1,1,1,1,1,1,1,1,1,1,1,1,1,1,1,1,1,1,1,1,1,1,1,1,1,1,1,1,1,1,1,1,1,1,1,1,1,1,1,1,1,1,1,1,1,1,1,1,1,1,1,1,1,1,1,1,1,1,1,1,1,1,1,1,1,1,1,1,1,1,1,1,1,1,1,2,2,2,2,2,4	0.740740740741	-0.00774160957875	0.00847954729741	0.740740740741
GO CC 100 medium	2	Cutoff(0.1)	Leading Eigenvector	0.00113201141357	0.00270630872737	1.0	121	1,1,1,1,1,1,1,1,1,1,1,1,1,1,1,1,1,1,1,1,1,1,1,1,1,1,1,1,1,1,1,1,1,1,1,1,1,1,1,1,1,1,1,1,1,1,1,1,1,1,1,1,1,1,1,1,1,1,1,1,1,1,1,1,1,1,1,1,1,1,1,1,1,1,1,1,1,1,1,1,1,1,1,1,1,1,1,1,1,1,1,1,1,1,1,1,1,1,1,1,1,1,1,1,1,1,1,1,1,1,1,1,1,1,1,2,2,2,2,2,4	0.740740740741	-0.00774160957875	0.00847954729741	0.740740740741
GO CC 100 medium	2	Cutoff(0.1)	Label Propagation	0.000827074050903	0.00270630872737	0.984496124031	120	1,1,1,1,1,1,1,1,1,1,1,1,1,1,1,1,1,1,1,1,1,1,1,1,1,1,1,1,1,1,1,1,1,1,1,1,1,1,1,1,1,1,1,1,1,1,1,1,1,1,1,1,1,1,1,1,1,1,1,1,1,1,1,1,1,1,1,1,1,1,1,1,1,1,1,1,1,1,1,1,1,1,1,1,1,1,1,1,1,1,1,1,1,1,1,1,1,1,1,1,1,1,1,1,1,1,1,1,1,1,1,1,1,2,2,2,2,2,2,4	0.740740740741	-0.00774160957875	0.00847954729741	0.740740740741
GO CC 100 medium	2	Cutoff(0.1)	Walkttrap	0.00130200386047	0.00270630872737	1.0	121	1,1,1,1,1,1,1,1,1,1,1,1,1,1,1,1,1,1,1,1,1,1,1,1,1,1,1,1,1,1,1,1,1,1,1,1,1,1,1,1,1,1,1,1,1,1,1,1,1,1,1,1,1,1,1,1,1,1,1,1,1,1,1,1,1,1,1,1,1,1,1,1,1,1,1,1,1,1,1,1,1,1,1,1,1,1,1,1,1,1,1,1,1,1,1,1,1,1,1,1,1,1,1,1,1,1,1,1,1,1,1,1,1,1,1,2,2,2,2,2,4	0.740740740741	-0.00774160957875	0.00847954729741	0.740740740741
GO CC 100 medium	2	Cutoff(1)	None	0.000774145126343	0.0	0.488372093023	1	129	0.0	0.0	0.0	0.0
GO CC 100 medium	2	Cutoff(1)	Louvain	0.0011899471283	0.025051220495	0.906976744186	86	1,1,1,1,1,1,1,1,1,1,1,1,1,1,1,1,1,1,1,1,1,1,1,1,1,1,1,1,1,1,1,1,1,1,1,1,1,1,1,1,1,1,1,1,1,1,1,1,1,1,1,1,1,1,1,1,1,1,1,1,1,1,1,1,1,1,1,1,1,1,1,1,1,1,1,1,1,2,2,2,2,2,8,9,12,13	0.605087868481	-0.00755194249144	0.246867254398	0.605087868481
GO CC 100 medium	2	Cutoff(1)	Greedy Modularity	0.00125503540039	0.025051220495	0.906976744186	86	1,1,1,1,1,1,1,1,1,1,1,1,1,1,1,1,1,1,1,1,1,1,1,1,1,1,1,1,1,1,1,1,1,1,1,1,1,1,1,1,1,1,1,1,1,1,1,1,1,1,1,1,1,1,1,1,1,1,1,1,1,1,1,1,1,1,1,1,1,1,1,1,1,1,1,1,1,2,2,2,2,2,8,9,12,13	0.605087868481	-0.00755194249144	0.246867254398	0.605087868481
GO CC 100 medium	2	Cutoff(1)	Infomap	0.0112330913544	0.0261811604622	0.922480620155	88	1,1,1,1,1,1,1,1,1,1,1,1,1,1,1,1,1,1,1,1,1,1,1,1,1,1,1,1,1,1,1,1,1,1,1,1,1,1,1,1,1,1,1,1,1,1,1,1,1,1,1,1,1,1,1,1,1,1,1,1,1,1,1,1,1,1,1,1,1,1,1,1,1,1,1,1,1,2,2,2,2,2,2,5,7,7,8,13	0.585317460317	-0.0075979508443	0.211660887118	0.585317460317
GO CC 100 medium	2	Cutoff(1)	Leading Eigenvector	0.0209238529205	0.025051220495	0.906976744186	86	1,1,1,1,1,1,1,1,1,1,1,1,1,1,1,1,1,1,1,1,1,1,1,1,1,1,1,1,1,1,1,1,1,1,1,1,1,1,1,1,1,1,1,1,1,1,1,1,1,1,1,1,1,1,1,1,1,1,1,1,1,1,1,1,1,1,1,1,1,1,1,1,1,1,1,1,1,2,2,2,2,2,8,9,12,13	0.605087868481	-0.00755194249144	0.246867254398	0.605087868481
GO CC 100 medium	2	Cutoff(1)	Label Propagation	0.000913143157959	0.0246946281805	0.922480620155	89	1,1,1,1,1,1,1,1,1,1,1,1,1,1,1,1,1,1,1,1,1,1,1,1,1,1,1,1,1,1,1,1,1,1,1,1,1,1,1,1,1,1,1,1,1,1,1,1,1,1,1,1,1,1,1,1,1,1,1,1,1,1,1,1,1,1,1,1,1,1,1,1,1,1,1,1,1,2,2,2,2,2,2,3,4,5,7,8,13	0.56533446712	-0.00760921819602	0.201827027587	0.56533446712
GO CC 100 medium	2	Cutoff(1)	Walkttrap	0.00158596038818	0.022584910979	0.906976744186	87	1,1,1,1,1,1,1,1,1,1,1,1,1,1,1,1,1,1,1,1,1,1,1,1,1,1,1,1,1,1,1,1,1,1,1,1,1,1,1,1,1,1,1,1,1,1,1,1,1,1,1,1,1,1,1,1,1,1,1,1,1,1,1,1,1,1,1,1,1,1,1,1,1,1,1,1,1,2,2,2,2,2,2,7,8,12,13	0.596371882086	-0.00756508773511	0.222981327168	0.596371882086
GO CC 100 medium	2	Cutoff(5)	None	0.000817060470581	0.0	0.488372093023	1	129	0.0	0.0	0.0	0.0
GO CC 100 medium	2	Cutoff(5)	Louvain	0.00175309181213	0.125480626894	0.674418604651	19	1,1,1,1,1,1,1,1,1,1,1,1,1,1,2,14,16,37,46	0.534990712466	-0.00595573433087	0.534990712466	0.534990712466
GO CC 100 medium	2	Cutoff(5)	Greedy Modularity	0.00157999992371	0.125480626894	0.674418604651	19	1,1,1,1,1,1,1,1,1,1,1,1,1,1,2,14,16,37,46	0.534990712466	-0.00595573433087	0.534990712466	0.534990712466
GO CC 100 medium	2	Cutoff(5)	Infomap	0.056480884552	0.067447549407	0.720930232558	29	1,1,1,1,1,1,1,1,1,1,1,1,1,1,2,2,2,3,3,5,6,7,7,8,8,14,14,15,19	0.495847925976	-0.00719795985818	0.495847925976	0.495847925976
GO CC 100 medium	2	Cutoff(5)	Label Propagation	0.00110912322998	0.179423389822	0.736434108527	24	1,1,1,1,1,1,1,1,1,1,1,1,1,1,2,2,2,3,4,6,8,19,30,39	0.495131951992	-0.00643553572502	0.495131951992	0.495131951992
GO CC 100 medium	2	Cutoff(5)	Walkttrap	0.00331282615662	0.0811153789501	0.705426356589	24	1,1,1,1,1,1,1,1,1,1,1,1,1,1,2,2,2,3,6,8,14,19,27,32	0.539223297621	-0.00666463854336	0.539223297621	0.539223297621
GO CC 100 medium	2	Cutoff(10)	None	0.000864028930664	0.0	0.488372093023	1	129	0.0	0.0	0.0	0.0
GO CC 100 medium	2	Cutoff(10)	Louvain	0.0025839805603	0.191537653715	0.658914728682	9	1,1,1,1,1,2,14,52,56	0.458137396615	-0.00497453578511	0.527468672544	0.527468672544
GO CC 100 medium	2	Cutoff(10)	Greedy Modularity	0.00216794013977	0.17962046438	0.674418604651	10	1,1,1,1,1,2,15,32,32,43	0.487328664959	-0.00587310708491	0.524228099535	0.524228099535
GO CC 100 medium	2	Cutoff(10)	Infomap	0.130451202393	0.150607663469	0.68992248062	16	1,1,1,1,1,2,3,3,4,5,7,9,14,15,19,43	0.431901211865	-0.00648436091581	0.506880826274	0.506880826274
GO CC 100 medium	2	Cutoff(10)	Leading Eigenvector	0.0275418758392	0.166473857961	0.627906976744	8	1,1,1,1,1,15,40,69	0.402768310205	-0.00471820353344	0.467226219025	0.467226219025
GO CC 100 medium	2	Cutoff(10)	Label Propagation	0.00140905380249	0.17662680599	0.705426356589	14	1,1,1,1,1,2,2,3,4,4,7,29,29,44	0.442370465593	-0.00606559101016	0.505647280737	0.505647280737
GO CC 100 medium	2	Cutoff(10)	Walkttrap	0.00474715232849	0.190686491736	0.68992248062	13	1,1,1,1,1,1,1,2,3,15,21,39,42	0.477226905168	-0.00594822276306	0.525153977537	0.525153977537
GO CC 100 medium	2	Cutoff(20)	None	0.000936985015869	0.0	0.488372093023	1	129	0.0	0.0	0.0	0.0
GO CC 100 medium	2	Cutoff(20)	Louvain	0.00494313240051	0.218514136971	0.658914728682	4	2,13,51,63	0.361235289343	-0.0046468436392	0.509143764125	0.509143764125
GO CC 100 medium	2	Cutoff(20)	Greedy Modularity	0.00362610816956	0.189838045619	0.658914728682	5	2,13,26,39,49	0.366042258475	-0.00557264437233	0.512151429935	0.512151429935
GO CC 100 medium	2	Cutoff(20)	Infomap	0.131175994873	0.184104726417	0.68992248062	8	2,3,3,10,13,19,30,49	0.353560767975	-0.00595667327685	0.520705737568	0.520705737568
GO CC 100 medium	2	Cutoff(20)	Leading Eigenvector	0.0739710330963	0.206703668454	0.658914728682	5	5,15,21,42,46	0.357131906681	-0.00566653897001	0.517459413764	0.517459413764
GO CC 100 medium	2	Cutoff(20)	Label Propagation	0.00183892250061	0.161663705275	0.658914728682	7	2,2,2,15,15,44,49	0.336994471949	-0.00555949912866	0.489372530752	0.489372530752
GO CC 100 medium	2	Cutoff(20)	Walkttrap	0.00738906860352	0.222887173332	0.68992248062	5	2,13,31,32,51	0.361527473419	-0.00557827804819	0.508373157589	0.508373157589
GO CC 100 medium	2	Log	None	0.00152611732483	0.0	0.488372093023	1	129	0.0	0.0	0.0	0.0
GO CC 100 medium	2	Log	Louvain	0.0133121013641	0.142723663572	0.643410852713	5	2,2,13,18,94	-0.00342903070729	-0.00342903070729	0.401224344266	0.401224344266
GO CC 100 medium	2	Log	Greedy Modularity	0.0055251121521	0.135854102384	0.627906976744	5	2,3,13,24,87	-0.00390319842558	-0.00390319842558	0.424940623041	0.424940623041
GO CC 100 medium	2	Log	Infomap	0.322060823441	0.0568981087674	0.596899224806	7	2,2,3,3,3,13,103	-0.00273608857641	-0.00273608857641	0.278778416116	0.278778416116
GO CC 100 medium	2	Log	Leading Eigenvector	0.0538649559021	0.0295637246927	0.550387596899	3	5,11,113	-0.00174925635479	-0.00174925635479	0.231325730782	0.231325730782
GO CC 100 medium	2	Log	Label Propagation	0.00530409812927	0.0277874495973	0.565891472868	7	2,2,2,3,6,6,108	-0.00229290607536	-0.00229290607536	0.142260292485	0.142260292485
GO CC 100 medium	2	Log	Walkttrap	0.0261130332947	0.124328383208	0.674418604651	4	13,18,29,69	-0.00495106213569	-0.00495106213569	0.458637406621	0.458637406621
