test_case	test_number	transform	cluster_alg	seconds	adjusted_rand	annotation_correspondence	n_clusters	cluster_sizes	transformed_modularity	modularity	modularity_cutoff	transformed_modularity_cutoff
GO CC 1000 large	1	None	None	0.262605905533	-6.38159612834e-17	0.127560521415	1	1074	0.0	0.0	0.0	0.0
GO CC 1000 large	1	None	Louvain	2.49306917191	0.0910877147493	0.228119180633	4	64,70,244,696	-0.000485204675095	-0.000485204675095	0.426266489798	0.426266489798
GO CC 1000 large	1	None	Greedy Modularity	5.42009091377	0.0711134967867	0.219739292365	3	69,238,767	-0.000407037443098	-0.000407037443098	0.411917170274	0.411917170274
GO CC 1000 large	1	None	Leading Eigenvector	7.50961208344	0.0637867814049	0.223463687151	4	1,75,188,810	-0.00036875936666	-0.00036875936666	0.389088289539	0.389088289539
GO CC 1000 large	1	None	Label Propagation	0.827355146408	0.0114558038005	0.179702048417	2	65,1009	-0.000105980565822	-0.000105980565822	0.122147951708	0.122147951708
GO CC 1000 large	1	None	Walkttrap	11.3387999535	0.0610147842374	0.221601489758	3	64,196,814	-0.000362264956443	-0.000362264956443	0.375968079221	0.375968079221
GO CC 1000 large	1	Pearson	None	0.265124082565	-6.38159612834e-17	0.127560521415	1	1074	0.0	0.0	0.0	0.0
GO CC 1000 large	1	Pearson	Louvain	2.29265618324	0.0806810745573	0.16852886406	2	465,609	-0.000457606259548	-0.000457606259548	0.300100469043	0.367095086322
GO CC 1000 large	1	Pearson	Greedy Modularity	5.56649899483	0.0790569743375	0.16573556797	2	482,592	-0.000461095045727	-0.000461095045727	0.302930160747	0.365223249085
GO CC 1000 large	1	Pearson	Leading Eigenvector	15.5318830013	0.0789974837227	0.16573556797	2	483,591	-0.00046127118176	-0.00046127118176	0.302978319503	0.360842244184
GO CC 1000 large	1	Pearson	Label Propagation	0.766031980515	-6.38159612834e-17	0.127560521415	1	1074	0.0	0.0	0.0	0.0
GO CC 1000 large	1	Pearson	Walkttrap	15.7916328907	0.0701463116442	0.163873370577	2	437,637	-0.000449823955591	-0.000449823955591	0.289112737676	0.371224325462
GO CC 1000 large	1	Spearman	None	0.261697769165	-6.38159612834e-17	0.127560521415	1	1074	0.0	0.0	0.0	0.0
GO CC 1000 large	1	Spearman	Louvain	1.19220399857	0.0811530870718	0.163873370577	2	526,548	-0.000465787697449	-0.000465787697449	0.330871793704	0.385417921937
GO CC 1000 large	1	Spearman	Greedy Modularity	4.71466493607	0.0811530870718	0.163873370577	2	526,548	-0.000465787697449	-0.000465787697449	0.330871793704	0.385417921937
GO CC 1000 large	1	Spearman	Leading Eigenvector	12.5540370941	0.0799122656029	0.163873370577	2	525,549	-0.00046575053113	-0.00046575053113	0.330615414396	0.385417921937
GO CC 1000 large	1	Spearman	Label Propagation	0.729838132858	-6.38159612834e-17	0.127560521415	1	1074	0.0	0.0	0.0	0.0
GO CC 1000 large	1	Spearman	Walkttrap	20.2334618568	0.0768746134751	0.163873370577	2	434,640	-0.000448839856108	-0.000448839856108	0.330111011634	0.378052663911
GO CC 1000 large	1	Cosine	None	0.335512876511	-6.38159612834e-17	0.127560521415	1	1074	0.0	0.0	0.0	0.0
GO CC 1000 large	1	Cosine	Louvain	1.42254710197	0.0884039815869	0.167597765363	2	533,541	-0.000465957369774	-0.000465957369774	0.288435927833	0.161401307599
GO CC 1000 large	1	Cosine	Greedy Modularity	3.82276391983	0.0950301890918	0.173184357542	2	507,567	-0.000464528890393	-0.000464528890393	0.308951226961	0.158126591595
GO CC 1000 large	1	Cosine	Leading Eigenvector	7.35006999969	0.0886389150762	0.167597765363	2	519,555	-0.000465459664288	-0.000465459664288	0.299123726266	0.161193477271
GO CC 1000 large	1	Cosine	Label Propagation	0.536107063293	-6.38159612834e-17	0.127560521415	1	1074	0.0	0.0	0.0	0.0
GO CC 1000 large	1	Cosine	Walkttrap	17.14270401	0.0919948878913	0.172253258845	2	498,576	-0.000463525399787	-0.000463525399787	0.28283978665	0.158033446988
GO CC 1000 large	1	KNN(10)	None	0.18887591362	-6.38159612834e-17	0.127560521415	1	1074	0.0	0.0	0.0	0.0
GO CC 1000 large	1	KNN(10)	Louvain	0.52115893364	0.149106941483	0.304469273743	7	36,75,79,83,213,271,317	0.468116589857	-0.000738580397294	0.461994478079	0.468116589857
GO CC 1000 large	1	KNN(10)	Greedy Modularity	2.0555729866	0.102391561133	0.25791433892	5	31,73,78,370,522	0.444244543067	-0.000591201400186	0.421521089761	0.444244543067
GO CC 1000 large	1	KNN(10)	Leading Eigenvector	1.40890407562	0.134100815267	0.254189944134	7	12,18,58,89,251,255,391	0.44838545686	-0.000695507865739	0.474428092878	0.44838545686
GO CC 1000 large	1	KNN(10)	Label Propagation	0.305838108063	0.114344799937	0.256983240223	4	52,76,407,539	0.439634045414	-0.000556546231861	0.420030408675	0.439634045414
GO CC 1000 large	1	KNN(10)	Walkttrap	2.24106407166	0.145570639216	0.30260707635	7	21,71,76,80,188,299,339	0.458966523834	-0.000724058062231	0.449359933132	0.458966523834
GO CC 1000 large	1	KNN(50)	None	0.216252088547	-6.38159612834e-17	0.127560521415	1	1074	0.0	0.0	0.0	0.0
GO CC 1000 large	1	KNN(50)	Louvain	0.977463960648	0.156141605596	0.276536312849	6	56,86,154,181,267,330	0.153555031721	-0.000732239500133	0.486667235773	0.682789360958
GO CC 1000 large	1	KNN(50)	Greedy Modularity	8.52837204933	0.0976078097157	0.173184357542	3	5,519,550	0.206920149551	-0.000469903463267	0.334672431337	0.492366931785
GO CC 1000 large	1	KNN(50)	Leading Eigenvector	3.42524409294	0.108867105296	0.206703910615	4	114,254,288,418	0.167893780691	-0.000661153259817	0.434987439443	0.625966583738
GO CC 1000 large	1	KNN(50)	Label Propagation	0.362515926361	0.10725332437	0.22905027933	3	76,348,650	0.183953912397	-0.000488087488687	0.4496427497	0.546148923197
GO CC 1000 large	1	KNN(50)	Walkttrap	6.7058069706	0.127848907481	0.230912476723	4	68,209,307,490	0.187147645291	-0.000622796002961	0.460012217527	0.562532574453
GO CC 1000 large	1	KNN(100)	None	0.364875078201	-6.38159612834e-17	0.127560521415	1	1074	0.0	0.0	0.0	0.0
GO CC 1000 large	1	KNN(100)	Louvain	2.85152196884	0.0954426855147	0.175977653631	4	34,261,340,439	0.0658342781842	-0.000626881066167	0.347612508248	0.631013241323
GO CC 1000 large	1	KNN(100)	Greedy Modularity	13.6076500416	0.096746234517	0.172253258845	3	8,482,584	0.0912563613674	-0.00046864465621	0.336407852337	0.492817359233
GO CC 1000 large	1	KNN(100)	Leading Eigenvector	7.17683291435	0.0871869232205	0.169459962756	3	275,321,478	0.0693954111211	-0.000603004130274	0.33828668716	0.61804212064
GO CC 1000 large	1	KNN(100)	Label Propagation	0.684705018997	0.0782429637796	0.167597765363	2	385,689	0.08099869519	-0.000428648849476	0.365015082045	0.481485859186
GO CC 1000 large	1	KNN(100)	Walkttrap	9.49946498871	0.094067597275	0.172253258845	2	487,587	0.0926649094349	-0.000461943407351	0.341262331851	0.486921697529
GO CC 1000 large	1	KNN(250)	None	0.322877168655	-6.38159612834e-17	0.127560521415	1	1074	0.0	0.0	0.0	0.0
GO CC 1000 large	1	KNN(250)	Louvain	2.47902202606	0.0993364673177	0.175046554935	3	49,499,526	7.47655803287e-05	-0.000505298726113	0.341953409841	0.465319660367
GO CC 1000 large	1	KNN(250)	Greedy Modularity	6.27260303497	0.0895304576547	0.16852886406	2	529,545	0.000118126000637	-0.000465879805282	0.335540130112	0.462574944212
GO CC 1000 large	1	KNN(250)	Leading Eigenvector	13.3496990204	0.0861933850098	0.16852886406	2	520,554	0.000118033278752	-0.000465516221729	0.333854739622	0.455666623184
GO CC 1000 large	1	KNN(250)	Label Propagation	0.970810174942	-6.38159612834e-17	0.127560521415	1	1074	0.0	0.0	0.0	0.0
GO CC 1000 large	1	KNN(250)	Walkttrap	16.9844350815	0.0724386007044	0.174115456238	3	223,379,472	-0.000361652306681	-0.000595729227364	0.409586608791	0.505888056384
GO CC 1000 large	1	KNN(500)	None	0.329902172089	-6.38159612834e-17	0.127560521415	1	1074	0.0	0.0	0.0	0.0
GO CC 1000 large	1	KNN(500)	Louvain	1.38673114777	0.0846746017061	0.16852886406	2	534,540	-0.000465968681262	-0.000465968681262	0.329081655891	0.362649042381
GO CC 1000 large	1	KNN(500)	Greedy Modularity	6.62358808517	0.0846746017061	0.16852886406	2	534,540	-0.000465968681262	-0.000465968681262	0.329081655891	0.362649042381
GO CC 1000 large	1	KNN(500)	Leading Eigenvector	15.3939881325	0.0843859831985	0.167597765363	2	537,537	-0.000465983224604	-0.000465983224604	0.328869786829	0.362329720912
GO CC 1000 large	1	KNN(500)	Label Propagation	0.783674001694	-6.38159612834e-17	0.127560521415	1	1074	0.0	0.0	0.0	0.0
GO CC 1000 large	1	KNN(500)	Walkttrap	14.6616959572	0.0832907054663	0.166666666667	2	506,568	-0.000464430318852	-0.000464430318852	0.329654079775	0.360636431458
GO CC 1000 large	1	KNN(1000)	None	0.358683824539	-6.38159612834e-17	0.127560521415	1	1074	0.0	0.0	0.0	0.0
GO CC 1000 large	1	KNN(1000)	Louvain	1.50018000603	0.0671779302525	0.157355679702	2	488,586	-0.000462103384114	-0.000462103384114	0.318369775374	0.485487127852
GO CC 1000 large	1	KNN(1000)	Greedy Modularity	8.42056584358	0.0644445777702	0.155493482309	2	518,556	-0.000465399874993	-0.000465399874993	0.324707043096	0.485691811508
GO CC 1000 large	1	KNN(1000)	Leading Eigenvector	8.54585289955	0.0674493457745	0.158286778399	2	492,582	-0.000462710972629	-0.000462710972629	0.318121680971	0.485487127852
GO CC 1000 large	1	KNN(1000)	Label Propagation	0.498106956482	-6.38159612834e-17	0.127560521415	1	1074	0.0	0.0	0.0	0.0
GO CC 1000 large	1	KNN(1000)	Walkttrap	11.6984291077	-6.38159612834e-17	0.127560521415	1	1074	0.0	0.0	0.0	0.0
GO CC 1000 large	1	Topological Overlap	None	0.35124707222	-6.38159612834e-17	0.127560521415	1	1074	0.0	0.0	0.0	0.0
GO CC 1000 large	1	Topological Overlap	Louvain	1.96046113968	0.103337479969	0.221601489758	3	94,309,671	-0.000483903853939	-0.000483903853939	0.451813382868	0.251039607705
GO CC 1000 large	1	Topological Overlap	Greedy Modularity	9.86385416985	0.108701276497	0.216014897579	3	101,328,645	-0.000500667479614	-0.000500667479614	0.452973035718	0.261542455954
GO CC 1000 large	1	Topological Overlap	Leading Eigenvector	18.6772620678	0.108295991889	0.211359404097	4	34,105,299,636	-0.000523073922027	-0.000523073922027	0.441138812384	0.269568492104
GO CC 1000 large	1	Topological Overlap	Label Propagation	1.24752211571	0.0906600195151	0.222532588454	3	80,298,696	-0.000463654673939	-0.000463654673939	0.445820932316	0.226454354701
GO CC 1000 large	1	Topological Overlap	Walkttrap	12.0805308819	0.093053113254	0.220670391061	3	75,313,686	-0.000468041915476	-0.000468041915476	0.425330753064	0.221351823475
GO CC 1000 large	1	Cutoff(0.1)	None	0.156023025513	-6.38159612834e-17	0.127560521415	1	1074	0.0	0.0	0.0	0.0
GO CC 1000 large	1	Cutoff(0.1)	Louvain	0.2336602211	0.0331229108109	0.960893854749	930	1,1,1,1,1,1,1,1,1,1,1,1,1,1,1,1,1,1,1,1,1,1,1,1,1,1,1,1,1,1,1,1,1,1,1,1,1,1,1,1,1,1,1,1,1,1,1,1,1,1,1,1,1,1,1,1,1,1,1,1,1,1,1,1,1,1,1,1,1,1,1,1,1,1,1,1,1,1,1,1,1,1,1,1,1,1,1,1,1,1,1,1,1,1,1,1,1,1,1,1,1,1,1,1,1,1,1,1,1,1,1,1,1,1,1,1,1,1,1,1,1,1,1,1,1,1,1,1,1,1,1,1,1,1,1,1,1,1,1,1,1,1,1,1,1,1,1,1,1,1,1,1,1,1,1,1,1,1,1,1,1,1,1,1,1,1,1,1,1,1,1,1,1,1,1,1,1,1,1,1,1,1,1,1,1,1,1,1,1,1,1,1,1,1,1,1,1,1,1,1,1,1,1,1,1,1,1,1,1,1,1,1,1,1,1,1,1,1,1,1,1,1,1,1,1,1,1,1,1,1,1,1,1,1,1,1,1,1,1,1,1,1,1,1,1,1,1,1,1,1,1,1,1,1,1,1,1,1,1,1,1,1,1,1,1,1,1,1,1,1,1,1,1,1,1,1,1,1,1,1,1,1,1,1,1,1,1,1,1,1,1,1,1,1,1,1,1,1,1,1,1,1,1,1,1,1,1,1,1,1,1,1,1,1,1,1,1,1,1,1,1,1,1,1,1,1,1,1,1,1,1,1,1,1,1,1,1,1,1,1,1,1,1,1,1,1,1,1,1,1,1,1,1,1,1,1,1,1,1,1,1,1,1,1,1,1,1,1,1,1,1,1,1,1,1,1,1,1,1,1,1,1,1,1,1,1,1,1,1,1,1,1,1,1,1,1,1,1,1,1,1,1,1,1,1,1,1,1,1,1,1,1,1,1,1,1,1,1,1,1,1,1,1,1,1,1,1,1,1,1,1,1,1,1,1,1,1,1,1,1,1,1,1,1,1,1,1,1,1,1,1,1,1,1,1,1,1,1,1,1,1,1,1,1,1,1,1,1,1,1,1,1,1,1,1,1,1,1,1,1,1,1,1,1,1,1,1,1,1,1,1,1,1,1,1,1,1,1,1,1,1,1,1,1,1,1,1,1,1,1,1,1,1,1,1,1,1,1,1,1,1,1,1,1,1,1,1,1,1,1,1,1,1,1,1,1,1,1,1,1,1,1,1,1,1,1,1,1,1,1,1,1,1,1,1,1,1,1,1,1,1,1,1,1,1,1,1,1,1,1,1,1,1,1,1,1,1,1,1,1,1,1,1,1,1,1,1,1,1,1,1,1,1,1,1,1,1,1,1,1,1,1,1,1,1,1,1,1,1,1,1,1,1,1,1,1,1,1,1,1,1,1,1,1,1,1,1,1,1,1,1,1,1,1,1,1,1,1,1,1,1,1,1,1,1,1,1,1,1,1,1,1,1,1,1,1,1,1,1,1,1,1,1,1,1,1,1,1,1,1,1,1,1,1,1,1,1,1,1,1,1,1,1,1,1,1,1,1,1,1,1,1,1,1,1,1,1,1,1,1,1,1,1,1,1,1,1,1,1,1,1,1,1,1,1,1,1,1,1,1,1,1,1,1,1,1,1,1,1,1,1,1,1,1,1,1,1,1,1,1,1,1,1,1,1,1,1,1,1,1,1,1,1,1,1,1,1,1,1,1,1,1,1,1,1,1,1,1,1,1,1,1,1,1,1,1,1,1,1,1,1,1,1,1,1,1,1,1,1,1,1,1,1,1,1,1,1,1,1,1,1,1,1,1,1,1,1,1,1,1,1,1,1,1,1,1,1,1,1,1,1,1,1,1,1,1,1,1,1,1,1,1,1,1,1,1,1,1,1,1,1,1,1,1,1,1,1,1,1,1,1,1,1,1,1,1,1,1,1,1,1,1,1,1,1,1,1,1,1,1,1,1,1,1,1,1,1,1,1,1,1,1,1,1,1,1,1,1,1,1,1,1,1,1,1,1,1,1,1,1,1,1,1,2,2,2,2,2,2,2,2,2,2,2,2,2,2,2,3,3,3,4,4,5,6,9,13,18,22,51	0.379731113841	-0.000928135086525	0.0449150950769	0.379731113841
GO CC 1000 large	1	Cutoff(0.1)	Greedy Modularity	0.201079130173	0.0300905756892	0.967411545624	933	1,1,1,1,1,1,1,1,1,1,1,1,1,1,1,1,1,1,1,1,1,1,1,1,1,1,1,1,1,1,1,1,1,1,1,1,1,1,1,1,1,1,1,1,1,1,1,1,1,1,1,1,1,1,1,1,1,1,1,1,1,1,1,1,1,1,1,1,1,1,1,1,1,1,1,1,1,1,1,1,1,1,1,1,1,1,1,1,1,1,1,1,1,1,1,1,1,1,1,1,1,1,1,1,1,1,1,1,1,1,1,1,1,1,1,1,1,1,1,1,1,1,1,1,1,1,1,1,1,1,1,1,1,1,1,1,1,1,1,1,1,1,1,1,1,1,1,1,1,1,1,1,1,1,1,1,1,1,1,1,1,1,1,1,1,1,1,1,1,1,1,1,1,1,1,1,1,1,1,1,1,1,1,1,1,1,1,1,1,1,1,1,1,1,1,1,1,1,1,1,1,1,1,1,1,1,1,1,1,1,1,1,1,1,1,1,1,1,1,1,1,1,1,1,1,1,1,1,1,1,1,1,1,1,1,1,1,1,1,1,1,1,1,1,1,1,1,1,1,1,1,1,1,1,1,1,1,1,1,1,1,1,1,1,1,1,1,1,1,1,1,1,1,1,1,1,1,1,1,1,1,1,1,1,1,1,1,1,1,1,1,1,1,1,1,1,1,1,1,1,1,1,1,1,1,1,1,1,1,1,1,1,1,1,1,1,1,1,1,1,1,1,1,1,1,1,1,1,1,1,1,1,1,1,1,1,1,1,1,1,1,1,1,1,1,1,1,1,1,1,1,1,1,1,1,1,1,1,1,1,1,1,1,1,1,1,1,1,1,1,1,1,1,1,1,1,1,1,1,1,1,1,1,1,1,1,1,1,1,1,1,1,1,1,1,1,1,1,1,1,1,1,1,1,1,1,1,1,1,1,1,1,1,1,1,1,1,1,1,1,1,1,1,1,1,1,1,1,1,1,1,1,1,1,1,1,1,1,1,1,1,1,1,1,1,1,1,1,1,1,1,1,1,1,1,1,1,1,1,1,1,1,1,1,1,1,1,1,1,1,1,1,1,1,1,1,1,1,1,1,1,1,1,1,1,1,1,1,1,1,1,1,1,1,1,1,1,1,1,1,1,1,1,1,1,1,1,1,1,1,1,1,1,1,1,1,1,1,1,1,1,1,1,1,1,1,1,1,1,1,1,1,1,1,1,1,1,1,1,1,1,1,1,1,1,1,1,1,1,1,1,1,1,1,1,1,1,1,1,1,1,1,1,1,1,1,1,1,1,1,1,1,1,1,1,1,1,1,1,1,1,1,1,1,1,1,1,1,1,1,1,1,1,1,1,1,1,1,1,1,1,1,1,1,1,1,1,1,1,1,1,1,1,1,1,1,1,1,1,1,1,1,1,1,1,1,1,1,1,1,1,1,1,1,1,1,1,1,1,1,1,1,1,1,1,1,1,1,1,1,1,1,1,1,1,1,1,1,1,1,1,1,1,1,1,1,1,1,1,1,1,1,1,1,1,1,1,1,1,1,1,1,1,1,1,1,1,1,1,1,1,1,1,1,1,1,1,1,1,1,1,1,1,1,1,1,1,1,1,1,1,1,1,1,1,1,1,1,1,1,1,1,1,1,1,1,1,1,1,1,1,1,1,1,1,1,1,1,1,1,1,1,1,1,1,1,1,1,1,1,1,1,1,1,1,1,1,1,1,1,1,1,1,1,1,1,1,1,1,1,1,1,1,1,1,1,1,1,1,1,1,1,1,1,1,1,1,1,1,1,1,1,1,1,1,1,1,1,1,1,1,1,1,1,1,1,1,1,1,1,1,1,1,1,1,1,1,1,1,1,1,1,1,1,1,1,1,1,1,1,1,1,1,1,1,1,1,1,1,1,1,1,1,1,1,1,1,1,1,1,1,1,1,1,1,1,1,1,1,1,1,1,1,1,1,1,1,1,1,1,1,1,1,1,1,1,1,1,1,1,1,1,1,1,1,1,1,1,1,1,1,1,1,1,1,1,1,1,1,1,1,1,1,2,2,2,2,2,2,2,2,2,2,2,2,2,2,2,2,2,2,3,3,3,4,4,5,6,6,9,23,24,45	0.385652796843	-0.000928458271905	0.0382274778956	0.385652796843
GO CC 1000 large	1	Cutoff(0.1)	Leading Eigenvector	0.245694875717	0.0326746339059	0.959031657356	930	1,1,1,1,1,1,1,1,1,1,1,1,1,1,1,1,1,1,1,1,1,1,1,1,1,1,1,1,1,1,1,1,1,1,1,1,1,1,1,1,1,1,1,1,1,1,1,1,1,1,1,1,1,1,1,1,1,1,1,1,1,1,1,1,1,1,1,1,1,1,1,1,1,1,1,1,1,1,1,1,1,1,1,1,1,1,1,1,1,1,1,1,1,1,1,1,1,1,1,1,1,1,1,1,1,1,1,1,1,1,1,1,1,1,1,1,1,1,1,1,1,1,1,1,1,1,1,1,1,1,1,1,1,1,1,1,1,1,1,1,1,1,1,1,1,1,1,1,1,1,1,1,1,1,1,1,1,1,1,1,1,1,1,1,1,1,1,1,1,1,1,1,1,1,1,1,1,1,1,1,1,1,1,1,1,1,1,1,1,1,1,1,1,1,1,1,1,1,1,1,1,1,1,1,1,1,1,1,1,1,1,1,1,1,1,1,1,1,1,1,1,1,1,1,1,1,1,1,1,1,1,1,1,1,1,1,1,1,1,1,1,1,1,1,1,1,1,1,1,1,1,1,1,1,1,1,1,1,1,1,1,1,1,1,1,1,1,1,1,1,1,1,1,1,1,1,1,1,1,1,1,1,1,1,1,1,1,1,1,1,1,1,1,1,1,1,1,1,1,1,1,1,1,1,1,1,1,1,1,1,1,1,1,1,1,1,1,1,1,1,1,1,1,1,1,1,1,1,1,1,1,1,1,1,1,1,1,1,1,1,1,1,1,1,1,1,1,1,1,1,1,1,1,1,1,1,1,1,1,1,1,1,1,1,1,1,1,1,1,1,1,1,1,1,1,1,1,1,1,1,1,1,1,1,1,1,1,1,1,1,1,1,1,1,1,1,1,1,1,1,1,1,1,1,1,1,1,1,1,1,1,1,1,1,1,1,1,1,1,1,1,1,1,1,1,1,1,1,1,1,1,1,1,1,1,1,1,1,1,1,1,1,1,1,1,1,1,1,1,1,1,1,1,1,1,1,1,1,1,1,1,1,1,1,1,1,1,1,1,1,1,1,1,1,1,1,1,1,1,1,1,1,1,1,1,1,1,1,1,1,1,1,1,1,1,1,1,1,1,1,1,1,1,1,1,1,1,1,1,1,1,1,1,1,1,1,1,1,1,1,1,1,1,1,1,1,1,1,1,1,1,1,1,1,1,1,1,1,1,1,1,1,1,1,1,1,1,1,1,1,1,1,1,1,1,1,1,1,1,1,1,1,1,1,1,1,1,1,1,1,1,1,1,1,1,1,1,1,1,1,1,1,1,1,1,1,1,1,1,1,1,1,1,1,1,1,1,1,1,1,1,1,1,1,1,1,1,1,1,1,1,1,1,1,1,1,1,1,1,1,1,1,1,1,1,1,1,1,1,1,1,1,1,1,1,1,1,1,1,1,1,1,1,1,1,1,1,1,1,1,1,1,1,1,1,1,1,1,1,1,1,1,1,1,1,1,1,1,1,1,1,1,1,1,1,1,1,1,1,1,1,1,1,1,1,1,1,1,1,1,1,1,1,1,1,1,1,1,1,1,1,1,1,1,1,1,1,1,1,1,1,1,1,1,1,1,1,1,1,1,1,1,1,1,1,1,1,1,1,1,1,1,1,1,1,1,1,1,1,1,1,1,1,1,1,1,1,1,1,1,1,1,1,1,1,1,1,1,1,1,1,1,1,1,1,1,1,1,1,1,1,1,1,1,1,1,1,1,1,1,1,1,1,1,1,1,1,1,1,1,1,1,1,1,1,1,1,1,1,1,1,1,1,1,1,1,1,1,1,1,1,1,1,1,1,1,1,1,1,1,1,1,1,1,1,1,1,1,1,1,1,1,1,1,1,1,1,1,1,1,1,1,1,1,1,1,1,1,1,1,1,1,1,1,1,1,1,1,1,1,1,1,1,1,1,1,1,1,1,1,1,1,1,1,1,1,1,1,1,1,1,1,1,1,1,1,1,1,1,1,1,1,1,1,1,1,1,1,1,1,1,1,1,2,2,2,2,2,2,2,2,2,2,2,2,2,2,2,3,3,3,4,4,5,6,8,9,22,23,51	0.380638214154	-0.00092805429018	0.0452234614295	0.380638214154
GO CC 1000 large	1	Cutoff(0.1)	Label Propagation	0.205818891525	0.0296382066456	0.97113594041	937	1,1,1,1,1,1,1,1,1,1,1,1,1,1,1,1,1,1,1,1,1,1,1,1,1,1,1,1,1,1,1,1,1,1,1,1,1,1,1,1,1,1,1,1,1,1,1,1,1,1,1,1,1,1,1,1,1,1,1,1,1,1,1,1,1,1,1,1,1,1,1,1,1,1,1,1,1,1,1,1,1,1,1,1,1,1,1,1,1,1,1,1,1,1,1,1,1,1,1,1,1,1,1,1,1,1,1,1,1,1,1,1,1,1,1,1,1,1,1,1,1,1,1,1,1,1,1,1,1,1,1,1,1,1,1,1,1,1,1,1,1,1,1,1,1,1,1,1,1,1,1,1,1,1,1,1,1,1,1,1,1,1,1,1,1,1,1,1,1,1,1,1,1,1,1,1,1,1,1,1,1,1,1,1,1,1,1,1,1,1,1,1,1,1,1,1,1,1,1,1,1,1,1,1,1,1,1,1,1,1,1,1,1,1,1,1,1,1,1,1,1,1,1,1,1,1,1,1,1,1,1,1,1,1,1,1,1,1,1,1,1,1,1,1,1,1,1,1,1,1,1,1,1,1,1,1,1,1,1,1,1,1,1,1,1,1,1,1,1,1,1,1,1,1,1,1,1,1,1,1,1,1,1,1,1,1,1,1,1,1,1,1,1,1,1,1,1,1,1,1,1,1,1,1,1,1,1,1,1,1,1,1,1,1,1,1,1,1,1,1,1,1,1,1,1,1,1,1,1,1,1,1,1,1,1,1,1,1,1,1,1,1,1,1,1,1,1,1,1,1,1,1,1,1,1,1,1,1,1,1,1,1,1,1,1,1,1,1,1,1,1,1,1,1,1,1,1,1,1,1,1,1,1,1,1,1,1,1,1,1,1,1,1,1,1,1,1,1,1,1,1,1,1,1,1,1,1,1,1,1,1,1,1,1,1,1,1,1,1,1,1,1,1,1,1,1,1,1,1,1,1,1,1,1,1,1,1,1,1,1,1,1,1,1,1,1,1,1,1,1,1,1,1,1,1,1,1,1,1,1,1,1,1,1,1,1,1,1,1,1,1,1,1,1,1,1,1,1,1,1,1,1,1,1,1,1,1,1,1,1,1,1,1,1,1,1,1,1,1,1,1,1,1,1,1,1,1,1,1,1,1,1,1,1,1,1,1,1,1,1,1,1,1,1,1,1,1,1,1,1,1,1,1,1,1,1,1,1,1,1,1,1,1,1,1,1,1,1,1,1,1,1,1,1,1,1,1,1,1,1,1,1,1,1,1,1,1,1,1,1,1,1,1,1,1,1,1,1,1,1,1,1,1,1,1,1,1,1,1,1,1,1,1,1,1,1,1,1,1,1,1,1,1,1,1,1,1,1,1,1,1,1,1,1,1,1,1,1,1,1,1,1,1,1,1,1,1,1,1,1,1,1,1,1,1,1,1,1,1,1,1,1,1,1,1,1,1,1,1,1,1,1,1,1,1,1,1,1,1,1,1,1,1,1,1,1,1,1,1,1,1,1,1,1,1,1,1,1,1,1,1,1,1,1,1,1,1,1,1,1,1,1,1,1,1,1,1,1,1,1,1,1,1,1,1,1,1,1,1,1,1,1,1,1,1,1,1,1,1,1,1,1,1,1,1,1,1,1,1,1,1,1,1,1,1,1,1,1,1,1,1,1,1,1,1,1,1,1,1,1,1,1,1,1,1,1,1,1,1,1,1,1,1,1,1,1,1,1,1,1,1,1,1,1,1,1,1,1,1,1,1,1,1,1,1,1,1,1,1,1,1,1,1,1,1,1,1,1,1,1,1,1,1,1,1,1,1,1,1,1,1,1,1,1,1,1,1,1,1,1,1,1,1,1,1,1,1,1,1,1,1,1,1,1,1,1,1,1,1,1,1,1,1,1,1,1,1,1,1,1,1,1,1,1,1,1,1,1,1,1,1,1,1,1,1,1,1,1,1,1,1,1,1,1,1,1,1,1,1,1,1,1,1,1,1,1,1,1,1,1,1,1,1,1,1,1,1,1,1,1,1,2,2,2,2,2,2,2,2,2,2,2,2,2,2,2,2,2,2,2,2,3,3,3,3,4,4,4,4,4,5,5,6,7,11,18,49	0.367264491829	-0.000928673190183	0.0386151632426	0.367264491829
GO CC 1000 large	1	Cutoff(0.1)	Walkttrap	0.268462896347	0.0334003608259	0.959962756052	930	1,1,1,1,1,1,1,1,1,1,1,1,1,1,1,1,1,1,1,1,1,1,1,1,1,1,1,1,1,1,1,1,1,1,1,1,1,1,1,1,1,1,1,1,1,1,1,1,1,1,1,1,1,1,1,1,1,1,1,1,1,1,1,1,1,1,1,1,1,1,1,1,1,1,1,1,1,1,1,1,1,1,1,1,1,1,1,1,1,1,1,1,1,1,1,1,1,1,1,1,1,1,1,1,1,1,1,1,1,1,1,1,1,1,1,1,1,1,1,1,1,1,1,1,1,1,1,1,1,1,1,1,1,1,1,1,1,1,1,1,1,1,1,1,1,1,1,1,1,1,1,1,1,1,1,1,1,1,1,1,1,1,1,1,1,1,1,1,1,1,1,1,1,1,1,1,1,1,1,1,1,1,1,1,1,1,1,1,1,1,1,1,1,1,1,1,1,1,1,1,1,1,1,1,1,1,1,1,1,1,1,1,1,1,1,1,1,1,1,1,1,1,1,1,1,1,1,1,1,1,1,1,1,1,1,1,1,1,1,1,1,1,1,1,1,1,1,1,1,1,1,1,1,1,1,1,1,1,1,1,1,1,1,1,1,1,1,1,1,1,1,1,1,1,1,1,1,1,1,1,1,1,1,1,1,1,1,1,1,1,1,1,1,1,1,1,1,1,1,1,1,1,1,1,1,1,1,1,1,1,1,1,1,1,1,1,1,1,1,1,1,1,1,1,1,1,1,1,1,1,1,1,1,1,1,1,1,1,1,1,1,1,1,1,1,1,1,1,1,1,1,1,1,1,1,1,1,1,1,1,1,1,1,1,1,1,1,1,1,1,1,1,1,1,1,1,1,1,1,1,1,1,1,1,1,1,1,1,1,1,1,1,1,1,1,1,1,1,1,1,1,1,1,1,1,1,1,1,1,1,1,1,1,1,1,1,1,1,1,1,1,1,1,1,1,1,1,1,1,1,1,1,1,1,1,1,1,1,1,1,1,1,1,1,1,1,1,1,1,1,1,1,1,1,1,1,1,1,1,1,1,1,1,1,1,1,1,1,1,1,1,1,1,1,1,1,1,1,1,1,1,1,1,1,1,1,1,1,1,1,1,1,1,1,1,1,1,1,1,1,1,1,1,1,1,1,1,1,1,1,1,1,1,1,1,1,1,1,1,1,1,1,1,1,1,1,1,1,1,1,1,1,1,1,1,1,1,1,1,1,1,1,1,1,1,1,1,1,1,1,1,1,1,1,1,1,1,1,1,1,1,1,1,1,1,1,1,1,1,1,1,1,1,1,1,1,1,1,1,1,1,1,1,1,1,1,1,1,1,1,1,1,1,1,1,1,1,1,1,1,1,1,1,1,1,1,1,1,1,1,1,1,1,1,1,1,1,1,1,1,1,1,1,1,1,1,1,1,1,1,1,1,1,1,1,1,1,1,1,1,1,1,1,1,1,1,1,1,1,1,1,1,1,1,1,1,1,1,1,1,1,1,1,1,1,1,1,1,1,1,1,1,1,1,1,1,1,1,1,1,1,1,1,1,1,1,1,1,1,1,1,1,1,1,1,1,1,1,1,1,1,1,1,1,1,1,1,1,1,1,1,1,1,1,1,1,1,1,1,1,1,1,1,1,1,1,1,1,1,1,1,1,1,1,1,1,1,1,1,1,1,1,1,1,1,1,1,1,1,1,1,1,1,1,1,1,1,1,1,1,1,1,1,1,1,1,1,1,1,1,1,1,1,1,1,1,1,1,1,1,1,1,1,1,1,1,1,1,1,1,1,1,1,1,1,1,1,1,1,1,1,1,1,1,1,1,1,1,1,1,1,1,1,1,1,1,1,1,1,1,1,1,1,1,1,1,1,1,1,1,1,1,1,1,1,1,1,1,1,1,1,1,1,1,1,1,1,1,1,1,1,1,1,1,1,1,1,1,1,1,1,1,1,1,1,1,1,1,1,1,1,1,1,1,1,1,1,1,1,1,1,1,1,1,1,1,1,1,1,1,1,1,1,1,1,1,1,1,1,1,1,1,1,2,2,2,2,2,2,2,2,2,2,2,2,2,2,2,3,3,3,4,4,5,6,8,9,21,24,51	0.380668250588	-0.000928051058326	0.045281325291	0.380668250588
GO CC 1000 large	1	Cutoff(1)	None	0.204092979431	-6.38159612834e-17	0.127560521415	1	1074	0.0	0.0	0.0	0.0
GO CC 1000 large	1	Cutoff(1)	Louvain	0.225358963013	0.131667319493	0.669459962756	490	1,1,1,1,1,1,1,1,1,1,1,1,1,1,1,1,1,1,1,1,1,1,1,1,1,1,1,1,1,1,1,1,1,1,1,1,1,1,1,1,1,1,1,1,1,1,1,1,1,1,1,1,1,1,1,1,1,1,1,1,1,1,1,1,1,1,1,1,1,1,1,1,1,1,1,1,1,1,1,1,1,1,1,1,1,1,1,1,1,1,1,1,1,1,1,1,1,1,1,1,1,1,1,1,1,1,1,1,1,1,1,1,1,1,1,1,1,1,1,1,1,1,1,1,1,1,1,1,1,1,1,1,1,1,1,1,1,1,1,1,1,1,1,1,1,1,1,1,1,1,1,1,1,1,1,1,1,1,1,1,1,1,1,1,1,1,1,1,1,1,1,1,1,1,1,1,1,1,1,1,1,1,1,1,1,1,1,1,1,1,1,1,1,1,1,1,1,1,1,1,1,1,1,1,1,1,1,1,1,1,1,1,1,1,1,1,1,1,1,1,1,1,1,1,1,1,1,1,1,1,1,1,1,1,1,1,1,1,1,1,1,1,1,1,1,1,1,1,1,1,1,1,1,1,1,1,1,1,1,1,1,1,1,1,1,1,1,1,1,1,1,1,1,1,1,1,1,1,1,1,1,1,1,1,1,1,1,1,1,1,1,1,1,1,1,1,1,1,1,1,1,1,1,1,1,1,1,1,1,1,1,1,1,1,1,1,1,1,1,1,1,1,1,1,1,1,1,1,1,1,1,1,1,1,1,1,1,1,1,1,1,1,1,1,1,1,1,1,1,1,1,1,1,1,1,1,1,1,1,1,1,1,1,1,1,1,1,1,1,1,1,1,1,1,1,1,1,1,1,1,1,1,1,1,1,1,1,1,1,1,1,1,1,1,1,1,1,1,1,1,1,1,1,1,1,1,1,1,1,1,1,1,1,1,1,1,1,1,1,1,1,1,1,1,1,1,1,1,1,1,1,1,1,1,1,1,1,1,1,1,1,1,1,1,1,1,1,1,1,1,1,1,1,1,1,1,1,1,1,1,1,1,1,1,1,1,1,1,1,1,1,2,2,2,2,2,2,2,2,2,3,4,10,21,25,69,73,82,118,180	0.569008209962	-0.000879581330921	0.282935383238	0.569008209962
GO CC 1000 large	1	Cutoff(1)	Greedy Modularity	0.232806921005	0.137714690939	0.653631284916	492	1,1,1,1,1,1,1,1,1,1,1,1,1,1,1,1,1,1,1,1,1,1,1,1,1,1,1,1,1,1,1,1,1,1,1,1,1,1,1,1,1,1,1,1,1,1,1,1,1,1,1,1,1,1,1,1,1,1,1,1,1,1,1,1,1,1,1,1,1,1,1,1,1,1,1,1,1,1,1,1,1,1,1,1,1,1,1,1,1,1,1,1,1,1,1,1,1,1,1,1,1,1,1,1,1,1,1,1,1,1,1,1,1,1,1,1,1,1,1,1,1,1,1,1,1,1,1,1,1,1,1,1,1,1,1,1,1,1,1,1,1,1,1,1,1,1,1,1,1,1,1,1,1,1,1,1,1,1,1,1,1,1,1,1,1,1,1,1,1,1,1,1,1,1,1,1,1,1,1,1,1,1,1,1,1,1,1,1,1,1,1,1,1,1,1,1,1,1,1,1,1,1,1,1,1,1,1,1,1,1,1,1,1,1,1,1,1,1,1,1,1,1,1,1,1,1,1,1,1,1,1,1,1,1,1,1,1,1,1,1,1,1,1,1,1,1,1,1,1,1,1,1,1,1,1,1,1,1,1,1,1,1,1,1,1,1,1,1,1,1,1,1,1,1,1,1,1,1,1,1,1,1,1,1,1,1,1,1,1,1,1,1,1,1,1,1,1,1,1,1,1,1,1,1,1,1,1,1,1,1,1,1,1,1,1,1,1,1,1,1,1,1,1,1,1,1,1,1,1,1,1,1,1,1,1,1,1,1,1,1,1,1,1,1,1,1,1,1,1,1,1,1,1,1,1,1,1,1,1,1,1,1,1,1,1,1,1,1,1,1,1,1,1,1,1,1,1,1,1,1,1,1,1,1,1,1,1,1,1,1,1,1,1,1,1,1,1,1,1,1,1,1,1,1,1,1,1,1,1,1,1,1,1,1,1,1,1,1,1,1,1,1,1,1,1,1,1,1,1,1,1,1,1,1,1,1,1,1,1,1,1,1,1,1,1,1,1,1,1,1,1,1,1,1,1,1,1,1,1,1,1,1,1,1,1,1,1,1,1,1,1,2,2,2,2,2,2,2,2,2,2,2,3,4,4,10,21,25,70,82,137,225	0.544502955591	-0.000865115553301	0.307837749275	0.544502955591
GO CC 1000 large	1	Cutoff(1)	Label Propagation	0.210955858231	0.133019189098	0.716945996276	522	1,1,1,1,1,1,1,1,1,1,1,1,1,1,1,1,1,1,1,1,1,1,1,1,1,1,1,1,1,1,1,1,1,1,1,1,1,1,1,1,1,1,1,1,1,1,1,1,1,1,1,1,1,1,1,1,1,1,1,1,1,1,1,1,1,1,1,1,1,1,1,1,1,1,1,1,1,1,1,1,1,1,1,1,1,1,1,1,1,1,1,1,1,1,1,1,1,1,1,1,1,1,1,1,1,1,1,1,1,1,1,1,1,1,1,1,1,1,1,1,1,1,1,1,1,1,1,1,1,1,1,1,1,1,1,1,1,1,1,1,1,1,1,1,1,1,1,1,1,1,1,1,1,1,1,1,1,1,1,1,1,1,1,1,1,1,1,1,1,1,1,1,1,1,1,1,1,1,1,1,1,1,1,1,1,1,1,1,1,1,1,1,1,1,1,1,1,1,1,1,1,1,1,1,1,1,1,1,1,1,1,1,1,1,1,1,1,1,1,1,1,1,1,1,1,1,1,1,1,1,1,1,1,1,1,1,1,1,1,1,1,1,1,1,1,1,1,1,1,1,1,1,1,1,1,1,1,1,1,1,1,1,1,1,1,1,1,1,1,1,1,1,1,1,1,1,1,1,1,1,1,1,1,1,1,1,1,1,1,1,1,1,1,1,1,1,1,1,1,1,1,1,1,1,1,1,1,1,1,1,1,1,1,1,1,1,1,1,1,1,1,1,1,1,1,1,1,1,1,1,1,1,1,1,1,1,1,1,1,1,1,1,1,1,1,1,1,1,1,1,1,1,1,1,1,1,1,1,1,1,1,1,1,1,1,1,1,1,1,1,1,1,1,1,1,1,1,1,1,1,1,1,1,1,1,1,1,1,1,1,1,1,1,1,1,1,1,1,1,1,1,1,1,1,1,1,1,1,1,1,1,1,1,1,1,1,1,1,1,1,1,1,1,1,1,1,1,1,1,1,1,1,1,1,1,1,1,1,1,1,1,1,1,1,1,1,1,1,1,1,1,1,1,1,1,1,1,1,1,1,1,1,1,1,1,1,1,1,1,2,2,2,2,2,2,2,2,2,2,2,2,2,2,2,2,2,2,2,2,2,2,2,2,3,3,3,3,3,3,3,4,4,4,4,4,5,5,5,6,7,7,8,8,10,11,12,12,23,53,74,87,183	0.555252230971	-0.000890417736721	0.240745222321	0.555252230971
GO CC 1000 large	1	Cutoff(1)	Walkttrap	0.395159959793	0.11727674757	0.723463687151	563	1,1,1,1,1,1,1,1,1,1,1,1,1,1,1,1,1,1,1,1,1,1,1,1,1,1,1,1,1,1,1,1,1,1,1,1,1,1,1,1,1,1,1,1,1,1,1,1,1,1,1,1,1,1,1,1,1,1,1,1,1,1,1,1,1,1,1,1,1,1,1,1,1,1,1,1,1,1,1,1,1,1,1,1,1,1,1,1,1,1,1,1,1,1,1,1,1,1,1,1,1,1,1,1,1,1,1,1,1,1,1,1,1,1,1,1,1,1,1,1,1,1,1,1,1,1,1,1,1,1,1,1,1,1,1,1,1,1,1,1,1,1,1,1,1,1,1,1,1,1,1,1,1,1,1,1,1,1,1,1,1,1,1,1,1,1,1,1,1,1,1,1,1,1,1,1,1,1,1,1,1,1,1,1,1,1,1,1,1,1,1,1,1,1,1,1,1,1,1,1,1,1,1,1,1,1,1,1,1,1,1,1,1,1,1,1,1,1,1,1,1,1,1,1,1,1,1,1,1,1,1,1,1,1,1,1,1,1,1,1,1,1,1,1,1,1,1,1,1,1,1,1,1,1,1,1,1,1,1,1,1,1,1,1,1,1,1,1,1,1,1,1,1,1,1,1,1,1,1,1,1,1,1,1,1,1,1,1,1,1,1,1,1,1,1,1,1,1,1,1,1,1,1,1,1,1,1,1,1,1,1,1,1,1,1,1,1,1,1,1,1,1,1,1,1,1,1,1,1,1,1,1,1,1,1,1,1,1,1,1,1,1,1,1,1,1,1,1,1,1,1,1,1,1,1,1,1,1,1,1,1,1,1,1,1,1,1,1,1,1,1,1,1,1,1,1,1,1,1,1,1,1,1,1,1,1,1,1,1,1,1,1,1,1,1,1,1,1,1,1,1,1,1,1,1,1,1,1,1,1,1,1,1,1,1,1,1,1,1,1,1,1,1,1,1,1,1,1,1,1,1,1,1,1,1,1,1,1,1,1,1,1,1,1,1,1,1,1,1,1,1,1,1,1,1,1,1,1,1,1,1,1,1,1,1,1,1,1,1,1,1,1,1,1,1,1,1,1,1,1,1,1,1,1,1,1,1,1,1,1,1,1,1,1,1,1,1,1,1,1,1,2,2,2,2,2,2,2,2,2,2,2,2,2,2,2,2,2,2,2,2,2,2,2,2,2,2,2,2,2,2,3,3,3,3,3,3,3,3,3,3,3,4,4,4,4,4,5,5,6,6,6,7,7,9,10,11,14,22,25,71,74,182	0.519611134703	-0.000894554509589	0.234162098726	0.519611134703
GO CC 1000 large	1	Cutoff(5)	None	0.212864875793	-6.38159612834e-17	0.127560521415	1	1074	0.0	0.0	0.0	0.0
GO CC 1000 large	1	Cutoff(5)	Louvain	0.390469074249	0.133364160146	0.405959031657	143	1,1,1,1,1,1,1,1,1,1,1,1,1,1,1,1,1,1,1,1,1,1,1,1,1,1,1,1,1,1,1,1,1,1,1,1,1,1,1,1,1,1,1,1,1,1,1,1,1,1,1,1,1,1,1,1,1,1,1,1,1,1,1,1,1,1,1,1,1,1,1,1,1,1,1,1,1,1,1,1,1,1,1,1,1,1,1,1,1,1,1,1,1,1,1,1,1,1,1,1,1,1,1,1,1,1,1,1,1,1,1,1,1,1,1,1,1,1,1,1,1,1,1,1,1,1,1,1,1,1,1,1,1,1,2,2,14,52,74,93,227,230,246	0.473588578052	-0.000784826609282	0.473588578052	0.473588578052
GO CC 1000 large	1	Cutoff(5)	Greedy Modularity	0.388900995255	0.13687616518	0.380819366853	141	1,1,1,1,1,1,1,1,1,1,1,1,1,1,1,1,1,1,1,1,1,1,1,1,1,1,1,1,1,1,1,1,1,1,1,1,1,1,1,1,1,1,1,1,1,1,1,1,1,1,1,1,1,1,1,1,1,1,1,1,1,1,1,1,1,1,1,1,1,1,1,1,1,1,1,1,1,1,1,1,1,1,1,1,1,1,1,1,1,1,1,1,1,1,1,1,1,1,1,1,1,1,1,1,1,1,1,1,1,1,1,1,1,1,1,1,1,1,1,1,1,1,1,1,1,1,1,1,1,1,1,1,1,1,2,2,54,73,230,280,299	0.479825012121	-0.000746871718224	0.479825012121	0.479825012121
GO CC 1000 large	1	Cutoff(5)	Leading Eigenvector	0.688971996307	0.0426644247951	0.319366852886	138	1,1,1,1,1,1,1,1,1,1,1,1,1,1,1,1,1,1,1,1,1,1,1,1,1,1,1,1,1,1,1,1,1,1,1,1,1,1,1,1,1,1,1,1,1,1,1,1,1,1,1,1,1,1,1,1,1,1,1,1,1,1,1,1,1,1,1,1,1,1,1,1,1,1,1,1,1,1,1,1,1,1,1,1,1,1,1,1,1,1,1,1,1,1,1,1,1,1,1,1,1,1,1,1,1,1,1,1,1,1,1,1,1,1,1,1,1,1,1,1,1,1,1,1,1,1,1,1,1,1,1,1,1,1,2,83,156,699	0.325712633025	-0.000511854541551	0.325712633025	0.325712633025
GO CC 1000 large	1	Cutoff(5)	Label Propagation	0.208071947098	0.097062042002	0.398510242086	147	1,1,1,1,1,1,1,1,1,1,1,1,1,1,1,1,1,1,1,1,1,1,1,1,1,1,1,1,1,1,1,1,1,1,1,1,1,1,1,1,1,1,1,1,1,1,1,1,1,1,1,1,1,1,1,1,1,1,1,1,1,1,1,1,1,1,1,1,1,1,1,1,1,1,1,1,1,1,1,1,1,1,1,1,1,1,1,1,1,1,1,1,1,1,1,1,1,1,1,1,1,1,1,1,1,1,1,1,1,1,1,1,1,1,1,1,1,1,1,1,1,1,1,1,1,1,1,1,1,1,1,1,2,2,2,2,2,3,4,7,14,20,39,52,78,227,488	0.425704746281	-0.000688929427324	0.425704746281	0.425704746281
GO CC 1000 large	1	Cutoff(5)	Walkttrap	0.76432299614	0.148246814535	0.449720670391	192	1,1,1,1,1,1,1,1,1,1,1,1,1,1,1,1,1,1,1,1,1,1,1,1,1,1,1,1,1,1,1,1,1,1,1,1,1,1,1,1,1,1,1,1,1,1,1,1,1,1,1,1,1,1,1,1,1,1,1,1,1,1,1,1,1,1,1,1,1,1,1,1,1,1,1,1,1,1,1,1,1,1,1,1,1,1,1,1,1,1,1,1,1,1,1,1,1,1,1,1,1,1,1,1,1,1,1,1,1,1,1,1,1,1,1,1,1,1,1,1,1,1,1,1,1,1,1,1,1,1,1,1,1,1,1,1,1,1,1,1,1,1,1,1,1,1,1,1,1,1,1,1,1,1,1,1,1,1,1,1,1,1,1,1,1,1,1,2,2,2,2,2,2,2,2,3,3,3,3,3,4,7,8,16,33,36,37,75,104,112,185,259	0.460218544679	-0.000823154779454	0.460218544679	0.460218544679
GO CC 1000 large	1	Cutoff(10)	None	0.151304006577	-6.38159612834e-17	0.127560521415	1	1074	0.0	0.0	0.0	0.0
GO CC 1000 large	1	Cutoff(10)	Louvain	0.398084163666	0.151791119378	0.268156424581	6	1,72,83,219,219,480	0.390319220922	-0.00065855484936	0.465802932829	0.465802932829
GO CC 1000 large	1	Cutoff(10)	Greedy Modularity	0.886043787003	0.136687634761	0.239292364991	5	1,74,282,294,423	0.404298120286	-0.000648883526856	0.473530276466	0.473530276466
GO CC 1000 large	1	Cutoff(10)	Leading Eigenvector	2.48386502266	0.153157627888	0.255121042831	6	1,81,150,173,207,462	0.404683338247	-0.000677228500631	0.481180202927	0.481180202927
GO CC 1000 large	1	Cutoff(10)	Label Propagation	0.206442117691	0.120455374686	0.283054003724	7	1,2,44,53,75,419,480	0.361179045397	-0.000595582178016	0.413705548168	0.413705548168
GO CC 1000 large	1	Cutoff(10)	Walkttrap	1.26414394379	0.137503849948	0.284916201117	8	1,4,21,46,69,95,404,434	0.400823072222	-0.000634690840881	0.449891593286	0.449891593286
GO CC 1000 large	1	Cutoff(20)	None	0.187137126923	-6.38159612834e-17	0.127560521415	1	1074	0.0	0.0	0.0	0.0
GO CC 1000 large	1	Cutoff(20)	Louvain	0.637055873871	0.124970611635	0.235567970205	4	71,115,288,600	0.259107628427	-0.000559325626131	0.462971053101	0.462971053101
GO CC 1000 large	1	Cutoff(20)	Greedy Modularity	3.18697118759	0.0855767525914	0.222532588454	3	75,266,733	0.229716976639	-0.000436143518444	0.436196768054	0.436196768054
GO CC 1000 large	1	Cutoff(20)	Leading Eigenvector	2.49692511559	0.107720873675	0.233705772812	4	81,187,194,612	0.243231571847	-0.000565385352011	0.453961562193	0.453961562193
GO CC 1000 large	1	Cutoff(20)	Label Propagation	0.399784088135	0.0652007758746	0.170391061453	2	291,783	0.211895575368	-0.000368193792244	0.373246099103	0.373246099103
GO CC 1000 large	1	Cutoff(20)	Walkttrap	2.99013996124	0.153063262836	0.274674115456	5	37,66,230,236,505	0.2531286366	-0.000633548380562	0.463540133321	0.463540133321
GO CC 1000 large	1	Log	None	0.426305055618	-6.38159612834e-17	0.127560521415	1	1074	0.0	0.0	0.0	0.0
GO CC 1000 large	1	Log	Louvain	2.79535794258	0.0657774045002	0.243016759777	4	66,70,163,775	-0.000417738111038	-0.000417738111038	0.365731020764	0.365731020764
GO CC 1000 large	1	Log	Greedy Modularity	7.2581551075	0.0673012711161	0.221601489758	3	68,217,789	-0.000387210020019	-0.000387210020019	0.399275868851	0.399275868851
GO CC 1000 large	1	Log	Leading Eigenvector	8.80012607574	0.0559546253213	0.223463687151	4	70,75,126,803	-0.000389653301494	-0.000389653301494	0.347112401564	0.347112401564
GO CC 1000 large	1	Log	Label Propagation	1.45056605339	0.0114558038005	0.179702048417	2	65,1009	-0.000105980565822	-0.000105980565822	0.122147951708	0.122147951708
GO CC 1000 large	1	Log	Walkttrap	12.7794320583	0.0812271321732	0.217877094972	3	64,288,722	-0.000440462891052	-0.000440462891052	0.41688465616	0.41688465616
GO CC 1000 large	2	None	None	0.387151956558	6.29666498229e-17	0.116007194245	1	1112	0.0	0.0	0.0	0.0
GO CC 1000 large	2	None	Louvain	3.69288301468	0.0587816561692	0.208633093525	7	22,41,110,119,123,158,539	-0.00063874199645	-0.00063874199645	0.461895739231	0.461895739231
GO CC 1000 large	2	None	Greedy Modularity	7.74502587318	0.05137566634	0.159172661871	4	2,201,316,593	-0.00054202488853	-0.00054202488853	0.446473944276	0.446473944276
GO CC 1000 large	2	None	Leading Eigenvector	17.8255791664	0.0654589275407	0.179856115108	4	150,187,232,543	-0.000604456083774	-0.000604456083774	0.454463728812	0.454463728812
GO CC 1000 large	2	None	Label Propagation	0.797032117844	0.00941302191599	0.151079136691	2	72,1040	-0.000109011470476	-0.000109011470476	0.112189720431	0.112189720431
GO CC 1000 large	2	None	Walkttrap	18.2595460415	0.0490178661527	0.182553956835	5	56,99,139,390,428	-0.000632553324428	-0.000632553324428	0.371136891234	0.371136891234
GO CC 1000 large	2	Pearson	None	0.35530090332	6.29666498229e-17	0.116007194245	1	1112	0.0	0.0	0.0	0.0
GO CC 1000 large	2	Pearson	Louvain	2.4402050972	0.0586459156069	0.152877697842	3	158,438,516	-0.000548463960831	-0.000548463960831	0.420469112401	0.388283342914
GO CC 1000 large	2	Pearson	Greedy Modularity	7.5331029892	0.0243708348816	0.125899280576	3	6,460,646	-0.000442270949314	-0.000442270949314	0.323065188025	0.345010330788
GO CC 1000 large	2	Pearson	Leading Eigenvector	8.90922307968	0.0247370001111	0.125	2	494,618	-0.000444448849419	-0.000444448849419	0.327658628977	0.326828951344
GO CC 1000 large	2	Pearson	Label Propagation	0.859127998352	6.29666498229e-17	0.116007194245	1	1112	0.0	0.0	0.0	0.0
GO CC 1000 large	2	Pearson	Walkttrap	13.2561368942	0.016118336885	0.121402877698	2	357,755	-0.000392393251799	-0.000392393251799	0.273825442295	0.37314926333
GO CC 1000 large	2	Spearman	None	0.377247095108	6.29666498229e-17	0.116007194245	1	1112	0.0	0.0	0.0	0.0
GO CC 1000 large	2	Spearman	Louvain	1.53488588333	0.0420863124845	0.130395683453	2	515,597	-0.000447597778514	-0.000447597778514	0.358844611293	0.314367800566
GO CC 1000 large	2	Spearman	Greedy Modularity	8.34528207779	0.0420863124845	0.130395683453	2	515,597	-0.000447597778514	-0.000447597778514	0.358844611293	0.314367800566
GO CC 1000 large	2	Spearman	Leading Eigenvector	17.719930172	0.0411183481002	0.131294964029	2	515,597	-0.000447597778514	-0.000447597778514	0.358243292056	0.314619587072
GO CC 1000 large	2	Spearman	Label Propagation	0.750831127167	6.29666498229e-17	0.116007194245	1	1112	0.0	0.0	0.0	0.0
GO CC 1000 large	2	Spearman	Walkttrap	14.331895113	0.032925583787	0.128597122302	2	486,626	-0.000442911508169	-0.000442911508169	0.346925384276	0.320547765894
GO CC 1000 large	2	Cosine	None	0.362327814102	6.29666498229e-17	0.116007194245	1	1112	0.0	0.0	0.0	0.0
GO CC 1000 large	2	Cosine	Louvain	3.68697094917	0.0517755554423	0.151079136691	3	140,466,506	-0.00054138287386	-0.00054138287386	0.404903493508	0.100408218524
GO CC 1000 large	2	Cosine	Greedy Modularity	8.1176469326	0.0267023705695	0.124100719424	2	555,557	-0.000450043548685	-0.000450043548685	0.315290669574	0.0901975836783
GO CC 1000 large	2	Cosine	Leading Eigenvector	10.6482179165	0.0264032128499	0.125	2	549,563	-0.000449973669537	-0.000449973669537	0.310417758207	0.0976792145018
GO CC 1000 large	2	Cosine	Label Propagation	1.02630090714	6.29666498229e-17	0.116007194245	1	1112	0.0	0.0	0.0	0.0
GO CC 1000 large	2	Cosine	Walkttrap	14.1457059383	0.0258577620377	0.125	2	544,568	-0.000449835367057	-0.000449835367057	0.305582112109	0.0981265771752
GO CC 1000 large	2	KNN(10)	None	0.2316801548	6.29666498229e-17	0.116007194245	1	1112	0.0	0.0	0.0	0.0
GO CC 1000 large	2	KNN(10)	Louvain	0.355838060379	0.135880687037	0.23381294964	7	60,64,117,146,203,207,315	0.444036099721	-0.000735594495219	0.482893252177	0.444036099721
GO CC 1000 large	2	KNN(10)	Greedy Modularity	3.55988311768	0.0941324608678	0.166366906475	3	245,345,522	0.39868431419	-0.000571414893417	0.408730796183	0.39868431419
GO CC 1000 large	2	KNN(10)	Leading Eigenvector	1.23947191238	0.0960302099007	0.192446043165	4	49,332,349,382	0.436950960088	-0.000623230281467	0.481816196616	0.436950960088
GO CC 1000 large	2	KNN(10)	Label Propagation	0.509694814682	0.0369251894006	0.193345323741	3	40,156,916	0.160271820481	-0.000270455594806	0.262275897809	0.160271820481
GO CC 1000 large	2	KNN(10)	Walkttrap	2.50080299377	0.109199196269	0.236510791367	7	32,34,66,107,278,290,305	0.411977937744	-0.000701812294733	0.455714593389	0.411977937744
GO CC 1000 large	2	KNN(50)	None	0.26100897789	6.29666498229e-17	0.116007194245	1	1112	0.0	0.0	0.0	0.0
GO CC 1000 large	2	KNN(50)	Louvain	1.94827103615	0.0891796785532	0.196942446043	5	46,94,268,311,393	0.139167543961	-0.000657008114506	0.50084041925	0.633501678846
GO CC 1000 large	2	KNN(50)	Greedy Modularity	15.4420800209	0.0604972135302	0.154676258993	3	136,481,495	0.160541423464	-0.000539861546581	0.425392071096	0.529700962863
GO CC 1000 large	2	KNN(50)	Leading Eigenvector	4.78432297707	0.0810499134116	0.160071942446	4	181,224,299,408	0.141803059214	-0.000653473394283	0.445893165486	0.532949735643
GO CC 1000 large	2	KNN(50)	Label Propagation	0.790751934052	6.29666498229e-17	0.116007194245	1	1112	0.0	0.0	0.0	0.0
GO CC 1000 large	2	KNN(50)	Walkttrap	8.53966498375	0.06601360378	0.151079136691	3	283,335,494	0.159455367696	-0.000582467445285	0.469656786581	0.551542890472
GO CC 1000 large	2	KNN(100)	None	0.359386920929	6.29666498229e-17	0.116007194245	1	1112	0.0	0.0	0.0	0.0
GO CC 1000 large	2	KNN(100)	Louvain	3.01818990707	0.0696617266635	0.151978417266	3	327,335,450	0.053661917676	-0.000593164778152	0.484736120066	0.580437828533
GO CC 1000 large	2	KNN(100)	Greedy Modularity	12.8178050518	0.0256511304234	0.123201438849	3	5,501,606	0.0578062042985	-0.000450052283578	0.344117774588	0.470945911524
GO CC 1000 large	2	KNN(100)	Leading Eigenvector	10.5192420483	0.0750181712058	0.159172661871	4	163,227,306,416	0.0483662833064	-0.000649114682443	0.447209426222	0.541472968151
GO CC 1000 large	2	KNN(100)	Label Propagation	0.794903039932	6.29666498229e-17	0.116007194245	1	1112	0.0	0.0	0.0	0.0
GO CC 1000 large	2	KNN(100)	Walkttrap	14.1036319733	0.0590053819722	0.148381294964	3	286,411,415	0.0442873534179	-0.000592227232919	0.469136107696	0.568137773008
GO CC 1000 large	2	KNN(250)	None	0.386918067932	6.29666498229e-17	0.116007194245	1	1112	0.0	0.0	0.0	0.0
GO CC 1000 large	2	KNN(250)	Louvain	1.59544992447	0.0594552566669	0.144784172662	3	183,445,484	-8.823796559e-05	-0.000561052398134	0.437928625401	0.519505336165
GO CC 1000 large	2	KNN(250)	Greedy Modularity	7.03264188766	0.0409809006345	0.134892086331	3	3,553,556	6.40094068311e-05	-0.000452460202544	0.355223447125	0.465320690539
GO CC 1000 large	2	KNN(250)	Leading Eigenvector	7.5746178627	0.0436452860456	0.133992805755	2	544,568	6.6410969078e-05	-0.000449835367057	0.357848408499	0.463913114451
GO CC 1000 large	2	KNN(250)	Label Propagation	0.868613958359	6.29666498229e-17	0.116007194245	1	1112	0.0	0.0	0.0	0.0
GO CC 1000 large	2	KNN(250)	Walkttrap	21.7183520794	0.0528915974885	0.140287769784	2	491,621	6.55267896282e-05	-0.000443894183684	0.366883451188	0.460049305776
GO CC 1000 large	2	KNN(500)	None	0.491571903229	6.29666498229e-17	0.116007194245	1	1112	0.0	0.0	0.0	0.0
GO CC 1000 large	2	KNN(500)	Louvain	1.34590601921	0.0415594948108	0.13309352518	2	544,568	-0.000449835367057	-0.000449835367057	0.353308051471	0.374328849703
GO CC 1000 large	2	KNN(500)	Greedy Modularity	6.5576851368	0.0415594948108	0.13309352518	2	544,568	-0.000449835367057	-0.000449835367057	0.353308051471	0.374328849703
GO CC 1000 large	2	KNN(500)	Leading Eigenvector	11.7212369442	0.042550052768	0.132194244604	2	540,572	-0.000449672315713	-0.000449672315713	0.35470899525	0.374170662693
GO CC 1000 large	2	KNN(500)	Label Propagation	0.787832975388	6.29666498229e-17	0.116007194245	1	1112	0.0	0.0	0.0	0.0
GO CC 1000 large	2	KNN(500)	Walkttrap	25.4438610077	0.0483314074322	0.134892086331	3	314,360,438	-0.000594339621323	-0.000594339621323	0.39171982879	0.381613765064
GO CC 1000 large	2	KNN(1000)	None	0.387656927109	6.29666498229e-17	0.116007194245	1	1112	0.0	0.0	0.0	0.0
GO CC 1000 large	2	KNN(1000)	Louvain	1.32428407669	0.0436606873697	0.134892086331	2	493,619	-0.000444266872472	-0.000444266872472	0.35340640652	0.0946619479083
GO CC 1000 large	2	KNN(1000)	Greedy Modularity	6.33297896385	0.0424418027129	0.135791366906	2	507,605	-0.000446549591298	-0.000446549591298	0.354225684701	0.0949413071921
GO CC 1000 large	2	KNN(1000)	Leading Eigenvector	18.2620370388	0.0417288054725	0.133992805755	2	492,620	-0.000444081983893	-0.000444081983893	0.351804306051	0.0946005398208
GO CC 1000 large	2	KNN(1000)	Label Propagation	0.913022041321	6.29666498229e-17	0.116007194245	1	1112	0.0	0.0	0.0	0.0
GO CC 1000 large	2	KNN(1000)	Walkttrap	14.117016077	0.023100938647	0.124100719424	4	202,225,304,381	-0.000660603978984	-0.000660603978984	0.20911755219	0.0600265388751
GO CC 1000 large	2	Topological Overlap	None	0.376329898834	6.29666498229e-17	0.116007194245	1	1112	0.0	0.0	0.0	0.0
GO CC 1000 large	2	Topological Overlap	Louvain	1.70868706703	0.0540394499384	0.162769784173	4	55,196,271,590	-0.000563081805049	-0.000563081805049	0.451255314624	0.384878948479
GO CC 1000 large	2	Topological Overlap	Greedy Modularity	9.59484195709	0.0519601135546	0.168165467626	4	2,20,295,795	-0.000376393838597	-0.000376393838597	0.360649923021	0.385993124385
GO CC 1000 large	2	Topological Overlap	Leading Eigenvector	16.7346971035	0.0665456634743	0.160071942446	3	229,236,647	-0.000516667492793	-0.000516667492793	0.408591795012	0.378207074821
GO CC 1000 large	2	Topological Overlap	Label Propagation	0.704874038696	6.29666498229e-17	0.116007194245	1	1112	0.0	0.0	0.0	0.0
GO CC 1000 large	2	Topological Overlap	Walkttrap	14.8188970089	0.0479236727355	0.153776978417	2	279,833	-0.000338341731021	-0.000338341731021	0.346959418844	0.378923525201
GO CC 1000 large	2	Cutoff(0.1)	None	0.198086977005	6.29666498229e-17	0.116007194245	1	1112	0.0	0.0	0.0	0.0
GO CC 1000 large	2	Cutoff(0.1)	Louvain	0.192995071411	0.0346206318325	0.915467625899	875	1,1,1,1,1,1,1,1,1,1,1,1,1,1,1,1,1,1,1,1,1,1,1,1,1,1,1,1,1,1,1,1,1,1,1,1,1,1,1,1,1,1,1,1,1,1,1,1,1,1,1,1,1,1,1,1,1,1,1,1,1,1,1,1,1,1,1,1,1,1,1,1,1,1,1,1,1,1,1,1,1,1,1,1,1,1,1,1,1,1,1,1,1,1,1,1,1,1,1,1,1,1,1,1,1,1,1,1,1,1,1,1,1,1,1,1,1,1,1,1,1,1,1,1,1,1,1,1,1,1,1,1,1,1,1,1,1,1,1,1,1,1,1,1,1,1,1,1,1,1,1,1,1,1,1,1,1,1,1,1,1,1,1,1,1,1,1,1,1,1,1,1,1,1,1,1,1,1,1,1,1,1,1,1,1,1,1,1,1,1,1,1,1,1,1,1,1,1,1,1,1,1,1,1,1,1,1,1,1,1,1,1,1,1,1,1,1,1,1,1,1,1,1,1,1,1,1,1,1,1,1,1,1,1,1,1,1,1,1,1,1,1,1,1,1,1,1,1,1,1,1,1,1,1,1,1,1,1,1,1,1,1,1,1,1,1,1,1,1,1,1,1,1,1,1,1,1,1,1,1,1,1,1,1,1,1,1,1,1,1,1,1,1,1,1,1,1,1,1,1,1,1,1,1,1,1,1,1,1,1,1,1,1,1,1,1,1,1,1,1,1,1,1,1,1,1,1,1,1,1,1,1,1,1,1,1,1,1,1,1,1,1,1,1,1,1,1,1,1,1,1,1,1,1,1,1,1,1,1,1,1,1,1,1,1,1,1,1,1,1,1,1,1,1,1,1,1,1,1,1,1,1,1,1,1,1,1,1,1,1,1,1,1,1,1,1,1,1,1,1,1,1,1,1,1,1,1,1,1,1,1,1,1,1,1,1,1,1,1,1,1,1,1,1,1,1,1,1,1,1,1,1,1,1,1,1,1,1,1,1,1,1,1,1,1,1,1,1,1,1,1,1,1,1,1,1,1,1,1,1,1,1,1,1,1,1,1,1,1,1,1,1,1,1,1,1,1,1,1,1,1,1,1,1,1,1,1,1,1,1,1,1,1,1,1,1,1,1,1,1,1,1,1,1,1,1,1,1,1,1,1,1,1,1,1,1,1,1,1,1,1,1,1,1,1,1,1,1,1,1,1,1,1,1,1,1,1,1,1,1,1,1,1,1,1,1,1,1,1,1,1,1,1,1,1,1,1,1,1,1,1,1,1,1,1,1,1,1,1,1,1,1,1,1,1,1,1,1,1,1,1,1,1,1,1,1,1,1,1,1,1,1,1,1,1,1,1,1,1,1,1,1,1,1,1,1,1,1,1,1,1,1,1,1,1,1,1,1,1,1,1,1,1,1,1,1,1,1,1,1,1,1,1,1,1,1,1,1,1,1,1,1,1,1,1,1,1,1,1,1,1,1,1,1,1,1,1,1,1,1,1,1,1,1,1,1,1,1,1,1,1,1,1,1,1,1,1,1,1,1,1,1,1,1,1,1,1,1,1,1,1,1,1,1,1,1,1,1,1,1,1,1,1,1,1,1,1,1,1,1,1,1,1,1,1,1,1,1,1,1,1,1,1,1,1,1,1,1,1,1,1,1,1,1,1,1,1,1,1,1,1,1,1,1,1,1,1,1,1,1,1,1,1,1,1,1,1,1,1,1,1,1,1,1,1,1,1,1,1,1,1,1,1,1,1,1,1,1,1,1,1,1,1,1,1,1,1,1,1,1,1,1,1,1,1,1,1,1,1,1,1,1,1,1,1,1,1,1,1,1,1,1,1,1,1,1,1,1,1,1,1,1,1,1,1,1,1,1,1,2,2,2,2,2,2,2,2,2,2,2,2,2,2,2,2,2,2,2,2,2,2,3,3,3,3,3,3,3,4,4,4,4,4,6,6,6,9,10,12,16,16,23,25,28,41	0.622244957081	-0.000895996255596	0.0410760328918	0.622244957081
GO CC 1000 large	2	Cutoff(0.1)	Greedy Modularity	0.190164089203	0.0362418779217	0.903776978417	876	1,1,1,1,1,1,1,1,1,1,1,1,1,1,1,1,1,1,1,1,1,1,1,1,1,1,1,1,1,1,1,1,1,1,1,1,1,1,1,1,1,1,1,1,1,1,1,1,1,1,1,1,1,1,1,1,1,1,1,1,1,1,1,1,1,1,1,1,1,1,1,1,1,1,1,1,1,1,1,1,1,1,1,1,1,1,1,1,1,1,1,1,1,1,1,1,1,1,1,1,1,1,1,1,1,1,1,1,1,1,1,1,1,1,1,1,1,1,1,1,1,1,1,1,1,1,1,1,1,1,1,1,1,1,1,1,1,1,1,1,1,1,1,1,1,1,1,1,1,1,1,1,1,1,1,1,1,1,1,1,1,1,1,1,1,1,1,1,1,1,1,1,1,1,1,1,1,1,1,1,1,1,1,1,1,1,1,1,1,1,1,1,1,1,1,1,1,1,1,1,1,1,1,1,1,1,1,1,1,1,1,1,1,1,1,1,1,1,1,1,1,1,1,1,1,1,1,1,1,1,1,1,1,1,1,1,1,1,1,1,1,1,1,1,1,1,1,1,1,1,1,1,1,1,1,1,1,1,1,1,1,1,1,1,1,1,1,1,1,1,1,1,1,1,1,1,1,1,1,1,1,1,1,1,1,1,1,1,1,1,1,1,1,1,1,1,1,1,1,1,1,1,1,1,1,1,1,1,1,1,1,1,1,1,1,1,1,1,1,1,1,1,1,1,1,1,1,1,1,1,1,1,1,1,1,1,1,1,1,1,1,1,1,1,1,1,1,1,1,1,1,1,1,1,1,1,1,1,1,1,1,1,1,1,1,1,1,1,1,1,1,1,1,1,1,1,1,1,1,1,1,1,1,1,1,1,1,1,1,1,1,1,1,1,1,1,1,1,1,1,1,1,1,1,1,1,1,1,1,1,1,1,1,1,1,1,1,1,1,1,1,1,1,1,1,1,1,1,1,1,1,1,1,1,1,1,1,1,1,1,1,1,1,1,1,1,1,1,1,1,1,1,1,1,1,1,1,1,1,1,1,1,1,1,1,1,1,1,1,1,1,1,1,1,1,1,1,1,1,1,1,1,1,1,1,1,1,1,1,1,1,1,1,1,1,1,1,1,1,1,1,1,1,1,1,1,1,1,1,1,1,1,1,1,1,1,1,1,1,1,1,1,1,1,1,1,1,1,1,1,1,1,1,1,1,1,1,1,1,1,1,1,1,1,1,1,1,1,1,1,1,1,1,1,1,1,1,1,1,1,1,1,1,1,1,1,1,1,1,1,1,1,1,1,1,1,1,1,1,1,1,1,1,1,1,1,1,1,1,1,1,1,1,1,1,1,1,1,1,1,1,1,1,1,1,1,1,1,1,1,1,1,1,1,1,1,1,1,1,1,1,1,1,1,1,1,1,1,1,1,1,1,1,1,1,1,1,1,1,1,1,1,1,1,1,1,1,1,1,1,1,1,1,1,1,1,1,1,1,1,1,1,1,1,1,1,1,1,1,1,1,1,1,1,1,1,1,1,1,1,1,1,1,1,1,1,1,1,1,1,1,1,1,1,1,1,1,1,1,1,1,1,1,1,1,1,1,1,1,1,1,1,1,1,1,1,1,1,1,1,1,1,1,1,1,1,1,1,1,1,1,1,1,1,1,1,1,1,1,1,1,1,1,1,1,1,1,1,1,1,1,1,1,1,1,1,1,1,1,1,1,1,1,1,1,1,1,1,1,1,1,1,1,1,1,1,1,1,1,1,1,1,1,1,1,1,1,1,1,1,1,1,1,1,1,1,1,1,1,1,1,1,1,1,1,1,1,1,1,1,1,1,1,1,1,1,1,1,1,1,1,1,1,1,1,1,1,1,1,2,2,2,2,2,2,2,2,2,2,2,2,2,2,2,2,2,2,2,2,2,2,2,2,3,3,3,3,3,3,3,4,4,4,4,4,6,6,6,9,10,12,16,22,23,27,57	0.592437643706	-0.000895178087241	0.0523708297917	0.592437643706
GO CC 1000 large	2	Cutoff(0.1)	Leading Eigenvector	0.334411859512	0.0289251934472	0.908273381295	881	1,1,1,1,1,1,1,1,1,1,1,1,1,1,1,1,1,1,1,1,1,1,1,1,1,1,1,1,1,1,1,1,1,1,1,1,1,1,1,1,1,1,1,1,1,1,1,1,1,1,1,1,1,1,1,1,1,1,1,1,1,1,1,1,1,1,1,1,1,1,1,1,1,1,1,1,1,1,1,1,1,1,1,1,1,1,1,1,1,1,1,1,1,1,1,1,1,1,1,1,1,1,1,1,1,1,1,1,1,1,1,1,1,1,1,1,1,1,1,1,1,1,1,1,1,1,1,1,1,1,1,1,1,1,1,1,1,1,1,1,1,1,1,1,1,1,1,1,1,1,1,1,1,1,1,1,1,1,1,1,1,1,1,1,1,1,1,1,1,1,1,1,1,1,1,1,1,1,1,1,1,1,1,1,1,1,1,1,1,1,1,1,1,1,1,1,1,1,1,1,1,1,1,1,1,1,1,1,1,1,1,1,1,1,1,1,1,1,1,1,1,1,1,1,1,1,1,1,1,1,1,1,1,1,1,1,1,1,1,1,1,1,1,1,1,1,1,1,1,1,1,1,1,1,1,1,1,1,1,1,1,1,1,1,1,1,1,1,1,1,1,1,1,1,1,1,1,1,1,1,1,1,1,1,1,1,1,1,1,1,1,1,1,1,1,1,1,1,1,1,1,1,1,1,1,1,1,1,1,1,1,1,1,1,1,1,1,1,1,1,1,1,1,1,1,1,1,1,1,1,1,1,1,1,1,1,1,1,1,1,1,1,1,1,1,1,1,1,1,1,1,1,1,1,1,1,1,1,1,1,1,1,1,1,1,1,1,1,1,1,1,1,1,1,1,1,1,1,1,1,1,1,1,1,1,1,1,1,1,1,1,1,1,1,1,1,1,1,1,1,1,1,1,1,1,1,1,1,1,1,1,1,1,1,1,1,1,1,1,1,1,1,1,1,1,1,1,1,1,1,1,1,1,1,1,1,1,1,1,1,1,1,1,1,1,1,1,1,1,1,1,1,1,1,1,1,1,1,1,1,1,1,1,1,1,1,1,1,1,1,1,1,1,1,1,1,1,1,1,1,1,1,1,1,1,1,1,1,1,1,1,1,1,1,1,1,1,1,1,1,1,1,1,1,1,1,1,1,1,1,1,1,1,1,1,1,1,1,1,1,1,1,1,1,1,1,1,1,1,1,1,1,1,1,1,1,1,1,1,1,1,1,1,1,1,1,1,1,1,1,1,1,1,1,1,1,1,1,1,1,1,1,1,1,1,1,1,1,1,1,1,1,1,1,1,1,1,1,1,1,1,1,1,1,1,1,1,1,1,1,1,1,1,1,1,1,1,1,1,1,1,1,1,1,1,1,1,1,1,1,1,1,1,1,1,1,1,1,1,1,1,1,1,1,1,1,1,1,1,1,1,1,1,1,1,1,1,1,1,1,1,1,1,1,1,1,1,1,1,1,1,1,1,1,1,1,1,1,1,1,1,1,1,1,1,1,1,1,1,1,1,1,1,1,1,1,1,1,1,1,1,1,1,1,1,1,1,1,1,1,1,1,1,1,1,1,1,1,1,1,1,1,1,1,1,1,1,1,1,1,1,1,1,1,1,1,1,1,1,1,1,1,1,1,1,1,1,1,1,1,1,1,1,1,1,1,1,1,1,1,1,1,1,1,1,1,1,1,1,1,1,1,1,1,1,1,1,1,1,1,1,1,1,1,1,1,1,1,1,1,1,1,1,1,1,1,1,1,1,1,1,1,1,1,1,1,1,1,1,1,1,1,1,1,1,1,1,1,1,1,1,1,1,1,1,1,1,1,1,1,1,1,1,1,1,1,1,1,1,1,1,1,1,1,1,1,1,1,1,1,1,1,1,2,2,2,2,2,2,2,2,2,2,2,2,2,2,2,2,2,2,2,2,2,2,2,2,3,3,3,3,3,3,3,4,4,4,4,4,4,6,6,9,10,11,12,16,23,25,27,41	0.59723980259	-0.000896140381338	0.0426285176646	0.59723980259
GO CC 1000 large	2	Cutoff(0.1)	Label Propagation	0.217872858047	0.0504025928226	0.915467625899	885	1,1,1,1,1,1,1,1,1,1,1,1,1,1,1,1,1,1,1,1,1,1,1,1,1,1,1,1,1,1,1,1,1,1,1,1,1,1,1,1,1,1,1,1,1,1,1,1,1,1,1,1,1,1,1,1,1,1,1,1,1,1,1,1,1,1,1,1,1,1,1,1,1,1,1,1,1,1,1,1,1,1,1,1,1,1,1,1,1,1,1,1,1,1,1,1,1,1,1,1,1,1,1,1,1,1,1,1,1,1,1,1,1,1,1,1,1,1,1,1,1,1,1,1,1,1,1,1,1,1,1,1,1,1,1,1,1,1,1,1,1,1,1,1,1,1,1,1,1,1,1,1,1,1,1,1,1,1,1,1,1,1,1,1,1,1,1,1,1,1,1,1,1,1,1,1,1,1,1,1,1,1,1,1,1,1,1,1,1,1,1,1,1,1,1,1,1,1,1,1,1,1,1,1,1,1,1,1,1,1,1,1,1,1,1,1,1,1,1,1,1,1,1,1,1,1,1,1,1,1,1,1,1,1,1,1,1,1,1,1,1,1,1,1,1,1,1,1,1,1,1,1,1,1,1,1,1,1,1,1,1,1,1,1,1,1,1,1,1,1,1,1,1,1,1,1,1,1,1,1,1,1,1,1,1,1,1,1,1,1,1,1,1,1,1,1,1,1,1,1,1,1,1,1,1,1,1,1,1,1,1,1,1,1,1,1,1,1,1,1,1,1,1,1,1,1,1,1,1,1,1,1,1,1,1,1,1,1,1,1,1,1,1,1,1,1,1,1,1,1,1,1,1,1,1,1,1,1,1,1,1,1,1,1,1,1,1,1,1,1,1,1,1,1,1,1,1,1,1,1,1,1,1,1,1,1,1,1,1,1,1,1,1,1,1,1,1,1,1,1,1,1,1,1,1,1,1,1,1,1,1,1,1,1,1,1,1,1,1,1,1,1,1,1,1,1,1,1,1,1,1,1,1,1,1,1,1,1,1,1,1,1,1,1,1,1,1,1,1,1,1,1,1,1,1,1,1,1,1,1,1,1,1,1,1,1,1,1,1,1,1,1,1,1,1,1,1,1,1,1,1,1,1,1,1,1,1,1,1,1,1,1,1,1,1,1,1,1,1,1,1,1,1,1,1,1,1,1,1,1,1,1,1,1,1,1,1,1,1,1,1,1,1,1,1,1,1,1,1,1,1,1,1,1,1,1,1,1,1,1,1,1,1,1,1,1,1,1,1,1,1,1,1,1,1,1,1,1,1,1,1,1,1,1,1,1,1,1,1,1,1,1,1,1,1,1,1,1,1,1,1,1,1,1,1,1,1,1,1,1,1,1,1,1,1,1,1,1,1,1,1,1,1,1,1,1,1,1,1,1,1,1,1,1,1,1,1,1,1,1,1,1,1,1,1,1,1,1,1,1,1,1,1,1,1,1,1,1,1,1,1,1,1,1,1,1,1,1,1,1,1,1,1,1,1,1,1,1,1,1,1,1,1,1,1,1,1,1,1,1,1,1,1,1,1,1,1,1,1,1,1,1,1,1,1,1,1,1,1,1,1,1,1,1,1,1,1,1,1,1,1,1,1,1,1,1,1,1,1,1,1,1,1,1,1,1,1,1,1,1,1,1,1,1,1,1,1,1,1,1,1,1,1,1,1,1,1,1,1,1,1,1,1,1,1,1,1,1,1,1,1,1,1,1,1,1,1,1,1,1,1,1,1,1,1,1,1,1,1,1,1,1,1,1,1,1,1,1,1,1,1,1,1,1,1,1,1,1,1,1,1,1,1,1,1,1,1,1,1,1,1,1,1,1,1,1,1,1,1,1,1,1,1,1,1,1,1,1,1,1,1,1,1,1,1,1,1,2,2,2,2,2,2,2,2,2,2,2,2,2,2,2,2,2,2,2,2,2,2,2,2,2,2,2,2,3,3,3,3,3,3,3,3,3,3,3,3,3,4,4,4,4,4,4,5,6,6,6,7,8,9,9,10,16,84	0.527536727381	-0.000893560676134	0.0671406852877	0.527536727381
GO CC 1000 large	2	Cutoff(0.1)	Walkttrap	0.237437009811	0.043656953982	0.924460431655	894	1,1,1,1,1,1,1,1,1,1,1,1,1,1,1,1,1,1,1,1,1,1,1,1,1,1,1,1,1,1,1,1,1,1,1,1,1,1,1,1,1,1,1,1,1,1,1,1,1,1,1,1,1,1,1,1,1,1,1,1,1,1,1,1,1,1,1,1,1,1,1,1,1,1,1,1,1,1,1,1,1,1,1,1,1,1,1,1,1,1,1,1,1,1,1,1,1,1,1,1,1,1,1,1,1,1,1,1,1,1,1,1,1,1,1,1,1,1,1,1,1,1,1,1,1,1,1,1,1,1,1,1,1,1,1,1,1,1,1,1,1,1,1,1,1,1,1,1,1,1,1,1,1,1,1,1,1,1,1,1,1,1,1,1,1,1,1,1,1,1,1,1,1,1,1,1,1,1,1,1,1,1,1,1,1,1,1,1,1,1,1,1,1,1,1,1,1,1,1,1,1,1,1,1,1,1,1,1,1,1,1,1,1,1,1,1,1,1,1,1,1,1,1,1,1,1,1,1,1,1,1,1,1,1,1,1,1,1,1,1,1,1,1,1,1,1,1,1,1,1,1,1,1,1,1,1,1,1,1,1,1,1,1,1,1,1,1,1,1,1,1,1,1,1,1,1,1,1,1,1,1,1,1,1,1,1,1,1,1,1,1,1,1,1,1,1,1,1,1,1,1,1,1,1,1,1,1,1,1,1,1,1,1,1,1,1,1,1,1,1,1,1,1,1,1,1,1,1,1,1,1,1,1,1,1,1,1,1,1,1,1,1,1,1,1,1,1,1,1,1,1,1,1,1,1,1,1,1,1,1,1,1,1,1,1,1,1,1,1,1,1,1,1,1,1,1,1,1,1,1,1,1,1,1,1,1,1,1,1,1,1,1,1,1,1,1,1,1,1,1,1,1,1,1,1,1,1,1,1,1,1,1,1,1,1,1,1,1,1,1,1,1,1,1,1,1,1,1,1,1,1,1,1,1,1,1,1,1,1,1,1,1,1,1,1,1,1,1,1,1,1,1,1,1,1,1,1,1,1,1,1,1,1,1,1,1,1,1,1,1,1,1,1,1,1,1,1,1,1,1,1,1,1,1,1,1,1,1,1,1,1,1,1,1,1,1,1,1,1,1,1,1,1,1,1,1,1,1,1,1,1,1,1,1,1,1,1,1,1,1,1,1,1,1,1,1,1,1,1,1,1,1,1,1,1,1,1,1,1,1,1,1,1,1,1,1,1,1,1,1,1,1,1,1,1,1,1,1,1,1,1,1,1,1,1,1,1,1,1,1,1,1,1,1,1,1,1,1,1,1,1,1,1,1,1,1,1,1,1,1,1,1,1,1,1,1,1,1,1,1,1,1,1,1,1,1,1,1,1,1,1,1,1,1,1,1,1,1,1,1,1,1,1,1,1,1,1,1,1,1,1,1,1,1,1,1,1,1,1,1,1,1,1,1,1,1,1,1,1,1,1,1,1,1,1,1,1,1,1,1,1,1,1,1,1,1,1,1,1,1,1,1,1,1,1,1,1,1,1,1,1,1,1,1,1,1,1,1,1,1,1,1,1,1,1,1,1,1,1,1,1,1,1,1,1,1,1,1,1,1,1,1,1,1,1,1,1,1,1,1,1,1,1,1,1,1,1,1,1,1,1,1,1,1,1,1,1,1,1,1,1,1,1,1,1,1,1,1,1,1,1,1,1,1,1,1,1,1,1,1,1,1,1,1,1,1,1,1,1,1,1,1,1,1,1,1,1,1,1,1,1,1,1,1,1,1,1,1,1,1,1,1,1,1,1,1,1,1,1,1,1,1,1,1,1,1,1,1,1,1,1,1,1,1,1,1,1,1,1,1,1,1,1,1,1,1,1,1,1,2,2,2,2,2,2,2,2,2,2,2,2,2,2,2,2,2,2,2,2,2,2,2,2,2,2,2,2,2,2,2,3,3,3,3,3,3,3,3,3,3,3,3,4,4,4,4,4,4,4,4,4,4,4,4,4,4,5,6,7,8,9,10,12,72	0.538397697052	-0.000895017947527	0.0583791680036	0.538397697052
GO CC 1000 large	2	Cutoff(1)	None	0.20946598053	6.29666498229e-17	0.116007194245	1	1112	0.0	0.0	0.0	0.0
GO CC 1000 large	2	Cutoff(1)	Louvain	0.203664064407	0.115217698071	0.482014388489	323	1,1,1,1,1,1,1,1,1,1,1,1,1,1,1,1,1,1,1,1,1,1,1,1,1,1,1,1,1,1,1,1,1,1,1,1,1,1,1,1,1,1,1,1,1,1,1,1,1,1,1,1,1,1,1,1,1,1,1,1,1,1,1,1,1,1,1,1,1,1,1,1,1,1,1,1,1,1,1,1,1,1,1,1,1,1,1,1,1,1,1,1,1,1,1,1,1,1,1,1,1,1,1,1,1,1,1,1,1,1,1,1,1,1,1,1,1,1,1,1,1,1,1,1,1,1,1,1,1,1,1,1,1,1,1,1,1,1,1,1,1,1,1,1,1,1,1,1,1,1,1,1,1,1,1,1,1,1,1,1,1,1,1,1,1,1,1,1,1,1,1,1,1,1,1,1,1,1,1,1,1,1,1,1,1,1,1,1,1,1,1,1,1,1,1,1,1,1,1,1,1,1,1,1,1,1,1,1,1,1,1,1,1,1,1,1,1,1,1,1,1,1,1,1,1,1,1,1,1,1,1,1,1,1,1,1,1,1,1,1,1,1,1,1,1,1,1,1,1,1,1,1,1,1,1,1,1,1,1,1,1,1,1,1,1,1,1,1,1,1,1,1,1,1,1,1,1,1,1,1,1,1,1,1,1,1,1,1,1,1,1,1,1,1,1,1,1,1,1,1,1,1,1,1,1,1,1,1,1,1,1,2,2,3,29,60,68,69,71,89,114,143,151	0.586863965145	-0.000839410159897	0.340674761915	0.586863965145
GO CC 1000 large	2	Cutoff(1)	Greedy Modularity	0.305212020874	0.110781365209	0.470323741007	324	1,1,1,1,1,1,1,1,1,1,1,1,1,1,1,1,1,1,1,1,1,1,1,1,1,1,1,1,1,1,1,1,1,1,1,1,1,1,1,1,1,1,1,1,1,1,1,1,1,1,1,1,1,1,1,1,1,1,1,1,1,1,1,1,1,1,1,1,1,1,1,1,1,1,1,1,1,1,1,1,1,1,1,1,1,1,1,1,1,1,1,1,1,1,1,1,1,1,1,1,1,1,1,1,1,1,1,1,1,1,1,1,1,1,1,1,1,1,1,1,1,1,1,1,1,1,1,1,1,1,1,1,1,1,1,1,1,1,1,1,1,1,1,1,1,1,1,1,1,1,1,1,1,1,1,1,1,1,1,1,1,1,1,1,1,1,1,1,1,1,1,1,1,1,1,1,1,1,1,1,1,1,1,1,1,1,1,1,1,1,1,1,1,1,1,1,1,1,1,1,1,1,1,1,1,1,1,1,1,1,1,1,1,1,1,1,1,1,1,1,1,1,1,1,1,1,1,1,1,1,1,1,1,1,1,1,1,1,1,1,1,1,1,1,1,1,1,1,1,1,1,1,1,1,1,1,1,1,1,1,1,1,1,1,1,1,1,1,1,1,1,1,1,1,1,1,1,1,1,1,1,1,1,1,1,1,1,1,1,1,1,1,1,1,1,1,1,1,1,1,1,1,1,1,1,1,1,1,1,1,1,2,2,2,3,4,9,29,73,91,117,132,161,176	0.597057470478	-0.000825195576594	0.381839955311	0.597057470478
GO CC 1000 large	2	Cutoff(1)	Leading Eigenvector	0.890865087509	0.120968624033	0.490107913669	339	1,1,1,1,1,1,1,1,1,1,1,1,1,1,1,1,1,1,1,1,1,1,1,1,1,1,1,1,1,1,1,1,1,1,1,1,1,1,1,1,1,1,1,1,1,1,1,1,1,1,1,1,1,1,1,1,1,1,1,1,1,1,1,1,1,1,1,1,1,1,1,1,1,1,1,1,1,1,1,1,1,1,1,1,1,1,1,1,1,1,1,1,1,1,1,1,1,1,1,1,1,1,1,1,1,1,1,1,1,1,1,1,1,1,1,1,1,1,1,1,1,1,1,1,1,1,1,1,1,1,1,1,1,1,1,1,1,1,1,1,1,1,1,1,1,1,1,1,1,1,1,1,1,1,1,1,1,1,1,1,1,1,1,1,1,1,1,1,1,1,1,1,1,1,1,1,1,1,1,1,1,1,1,1,1,1,1,1,1,1,1,1,1,1,1,1,1,1,1,1,1,1,1,1,1,1,1,1,1,1,1,1,1,1,1,1,1,1,1,1,1,1,1,1,1,1,1,1,1,1,1,1,1,1,1,1,1,1,1,1,1,1,1,1,1,1,1,1,1,1,1,1,1,1,1,1,1,1,1,1,1,1,1,1,1,1,1,1,1,1,1,1,1,1,1,1,1,1,1,1,1,1,1,1,1,1,1,1,1,1,1,1,1,1,1,1,1,1,1,1,1,1,1,1,1,1,1,1,1,1,1,1,1,1,1,1,1,1,1,1,1,1,1,1,2,2,2,3,3,3,4,11,34,80,81,106,129,136,192	0.573493004314	-0.000828861320219	0.360273332808	0.573493004314
GO CC 1000 large	2	Cutoff(1)	Label Propagation	0.225594997406	0.122150666999	0.502697841727	351	1,1,1,1,1,1,1,1,1,1,1,1,1,1,1,1,1,1,1,1,1,1,1,1,1,1,1,1,1,1,1,1,1,1,1,1,1,1,1,1,1,1,1,1,1,1,1,1,1,1,1,1,1,1,1,1,1,1,1,1,1,1,1,1,1,1,1,1,1,1,1,1,1,1,1,1,1,1,1,1,1,1,1,1,1,1,1,1,1,1,1,1,1,1,1,1,1,1,1,1,1,1,1,1,1,1,1,1,1,1,1,1,1,1,1,1,1,1,1,1,1,1,1,1,1,1,1,1,1,1,1,1,1,1,1,1,1,1,1,1,1,1,1,1,1,1,1,1,1,1,1,1,1,1,1,1,1,1,1,1,1,1,1,1,1,1,1,1,1,1,1,1,1,1,1,1,1,1,1,1,1,1,1,1,1,1,1,1,1,1,1,1,1,1,1,1,1,1,1,1,1,1,1,1,1,1,1,1,1,1,1,1,1,1,1,1,1,1,1,1,1,1,1,1,1,1,1,1,1,1,1,1,1,1,1,1,1,1,1,1,1,1,1,1,1,1,1,1,1,1,1,1,1,1,1,1,1,1,1,1,1,1,1,1,1,1,1,1,1,1,1,1,1,1,1,1,1,1,1,1,1,1,1,1,1,1,1,1,1,1,1,1,1,1,1,1,1,1,1,1,1,1,1,1,1,1,1,1,1,1,1,2,2,2,2,2,2,2,2,2,2,2,2,2,3,3,3,3,3,4,4,4,4,4,5,5,5,6,6,8,8,10,12,17,24,26,27,54,80,204,243	0.524143691798	-0.000817648628638	0.331633051689	0.524143691798
GO CC 1000 large	2	Cutoff(1)	Walkttrap	0.405709981918	0.139978089252	0.560251798561	396	1,1,1,1,1,1,1,1,1,1,1,1,1,1,1,1,1,1,1,1,1,1,1,1,1,1,1,1,1,1,1,1,1,1,1,1,1,1,1,1,1,1,1,1,1,1,1,1,1,1,1,1,1,1,1,1,1,1,1,1,1,1,1,1,1,1,1,1,1,1,1,1,1,1,1,1,1,1,1,1,1,1,1,1,1,1,1,1,1,1,1,1,1,1,1,1,1,1,1,1,1,1,1,1,1,1,1,1,1,1,1,1,1,1,1,1,1,1,1,1,1,1,1,1,1,1,1,1,1,1,1,1,1,1,1,1,1,1,1,1,1,1,1,1,1,1,1,1,1,1,1,1,1,1,1,1,1,1,1,1,1,1,1,1,1,1,1,1,1,1,1,1,1,1,1,1,1,1,1,1,1,1,1,1,1,1,1,1,1,1,1,1,1,1,1,1,1,1,1,1,1,1,1,1,1,1,1,1,1,1,1,1,1,1,1,1,1,1,1,1,1,1,1,1,1,1,1,1,1,1,1,1,1,1,1,1,1,1,1,1,1,1,1,1,1,1,1,1,1,1,1,1,1,1,1,1,1,1,1,1,1,1,1,1,1,1,1,1,1,1,1,1,1,1,1,1,1,1,1,1,1,1,1,1,1,1,1,1,1,1,1,1,1,1,1,1,1,1,1,1,1,1,1,1,1,1,1,1,1,1,1,1,1,1,1,1,1,1,1,1,1,1,1,1,1,1,1,1,1,1,1,1,1,1,1,1,1,1,2,2,2,2,2,2,2,2,2,2,2,2,2,2,2,2,2,2,2,2,2,2,2,2,2,2,3,3,3,3,3,3,3,3,3,3,3,4,4,5,5,5,5,7,7,10,11,11,16,23,27,27,33,56,62,63,144,164	0.55499012817	-0.000854212892693	0.29513057015	0.55499012817
GO CC 1000 large	2	Cutoff(5)	None	0.242254972458	6.29666498229e-17	0.116007194245	1	1112	0.0	0.0	0.0	0.0
GO CC 1000 large	2	Cutoff(5)	Louvain	0.257380008698	0.107250552205	0.297661870504	84	1,1,1,1,1,1,1,1,1,1,1,1,1,1,1,1,1,1,1,1,1,1,1,1,1,1,1,1,1,1,1,1,1,1,1,1,1,1,1,1,1,1,1,1,1,1,1,1,1,1,1,1,1,1,1,1,1,1,1,1,1,1,1,1,1,1,1,1,1,1,1,1,1,2,2,3,5,53,64,88,141,175,231,275	0.484483441175	-0.000758689553547	0.484483441175	0.484483441175
GO CC 1000 large	2	Cutoff(5)	Greedy Modularity	0.451400995255	0.125748708359	0.289568345324	82	1,1,1,1,1,1,1,1,1,1,1,1,1,1,1,1,1,1,1,1,1,1,1,1,1,1,1,1,1,1,1,1,1,1,1,1,1,1,1,1,1,1,1,1,1,1,1,1,1,1,1,1,1,1,1,1,1,1,1,1,1,1,1,1,1,1,1,1,1,1,1,1,1,2,2,53,89,113,137,149,232,262	0.482597316443	-0.000763958150124	0.482597316443	0.482597316443
GO CC 1000 large	2	Cutoff(5)	Leading Eigenvector	1.86778712273	0.133587690053	0.295863309353	83	1,1,1,1,1,1,1,1,1,1,1,1,1,1,1,1,1,1,1,1,1,1,1,1,1,1,1,1,1,1,1,1,1,1,1,1,1,1,1,1,1,1,1,1,1,1,1,1,1,1,1,1,1,1,1,1,1,1,1,1,1,1,1,1,1,1,1,1,1,1,1,1,1,1,1,2,58,63,82,147,157,247,281	0.467793076364	-0.000754243492772	0.467793076364	0.467793076364
GO CC 1000 large	2	Cutoff(5)	Label Propagation	0.276148080826	0.0997584586682	0.270683453237	84	1,1,1,1,1,1,1,1,1,1,1,1,1,1,1,1,1,1,1,1,1,1,1,1,1,1,1,1,1,1,1,1,1,1,1,1,1,1,1,1,1,1,1,1,1,1,1,1,1,1,1,1,1,1,1,1,1,1,1,1,1,1,1,1,1,1,1,1,1,1,1,1,1,2,2,3,5,9,10,33,43,266,316,350	0.479267597991	-0.000684377447372	0.479267597991	0.479267597991
GO CC 1000 large	2	Cutoff(5)	Walkttrap	0.838670969009	0.12600910339	0.33273381295	120	1,1,1,1,1,1,1,1,1,1,1,1,1,1,1,1,1,1,1,1,1,1,1,1,1,1,1,1,1,1,1,1,1,1,1,1,1,1,1,1,1,1,1,1,1,1,1,1,1,1,1,1,1,1,1,1,1,1,1,1,1,1,1,1,1,1,1,1,1,1,1,1,1,1,1,1,1,1,1,1,1,1,1,1,1,1,1,1,1,1,1,1,1,1,1,1,1,1,1,1,1,1,1,1,1,1,1,1,2,2,2,2,4,5,53,57,127,231,252,267	0.47731165562	-0.000746861051977	0.47731165562	0.47731165562
GO CC 1000 large	2	Cutoff(10)	None	0.186275005341	6.29666498229e-17	0.116007194245	1	1112	0.0	0.0	0.0	0.0
GO CC 1000 large	2	Cutoff(10)	Louvain	0.358319997787	0.0935306743599	0.232014388489	12	1,1,1,1,1,56,59,95,129,201,201,366	0.393011028585	-0.000720263301368	0.487841225118	0.487841225118
GO CC 1000 large	2	Cutoff(10)	Greedy Modularity	0.862026929855	0.0969499354898	0.214928057554	11	1,1,1,1,1,77,80,127,163,322,338	0.375771486457	-0.000701400298924	0.468558830618	0.468558830618
GO CC 1000 large	2	Cutoff(10)	Leading Eigenvector	2.20530104637	0.139265316184	0.23381294964	12	1,1,1,1,1,2,67,126,160,173,259,320	0.367997939831	-0.000721473084113	0.464425357561	0.464425357561
GO CC 1000 large	2	Cutoff(10)	Label Propagation	0.244326114655	0.0925732150148	0.200539568345	10	1,1,1,1,1,9,37,328,333,400	0.409562862833	-0.000623537458554	0.482991748487	0.482991748487
GO CC 1000 large	2	Cutoff(10)	Walkttrap	1.42523884773	0.0991710292655	0.229316546763	16	1,1,1,1,1,1,1,1,1,1,37,49,112,281,307,316	0.380409266208	-0.000689440773952	0.476133874435	0.476133874435
GO CC 1000 large	2	Cutoff(20)	None	0.18896484375	6.29666498229e-17	0.116007194245	1	1112	0.0	0.0	0.0	0.0
GO CC 1000 large	2	Cutoff(20)	Louvain	0.483061075211	0.0744185410835	0.219424460432	7	38,45,125,127,153,166,458	0.259269486443	-0.00068466424304	0.487856660275	0.487856660275
GO CC 1000 large	2	Cutoff(20)	Greedy Modularity	2.91648292542	0.0713046145075	0.169964028777	4	157,166,314,475	0.257943541078	-0.000626086591631	0.467196073969	0.467196073969
GO CC 1000 large	2	Cutoff(20)	Leading Eigenvector	2.83103203773	0.0914036893299	0.189748201439	4	159,216,280,457	0.253539307542	-0.000638635721913	0.459532584325	0.459532584325
GO CC 1000 large	2	Cutoff(20)	Label Propagation	0.52114200592	0.0439524479901	0.163669064748	4	9,9,284,810	0.190826681956	-0.000363681656971	0.350726077498	0.350726077498
GO CC 1000 large	2	Cutoff(20)	Walkttrap	3.78363919258	0.070868492183	0.202338129496	6	35,42,143,145,365,382	0.244486438826	-0.000664530313598	0.458674816611	0.458674816611
GO CC 1000 large	2	Log	None	0.380603075027	6.29666498229e-17	0.116007194245	1	1112	0.0	0.0	0.0	0.0
GO CC 1000 large	2	Log	Louvain	3.75645709038	0.0455029221443	0.206834532374	8	14,20,36,79,104,115,148,596	-0.000602161718423	-0.000602161718423	0.423727335343	0.423727335343
GO CC 1000 large	2	Log	Greedy Modularity	6.16229701042	0.0630664217371	0.212230215827	6	25,43,123,170,220,531	-0.000625767768019	-0.000625767768019	0.446173284135	0.446173284135
GO CC 1000 large	2	Log	Leading Eigenvector	18.6720609665	0.0604612313797	0.190647482014	5	90,113,166,193,550	-0.000617535130926	-0.000617535130926	0.42254177432	0.42254177432
GO CC 1000 large	2	Log	Label Propagation	0.872658967972	0.00318515661345	0.146582733813	3	9,51,1052	-9.25592986294e-05	-9.25592986294e-05	0.0622152581817	0.0622152581817
GO CC 1000 large	2	Log	Walkttrap	25.8075020313	0.0371657887968	0.19154676259	6	9,10,13,85,195,800	-0.000401036428885	-0.000401036428885	0.314988219075	0.314988219075
