test_case	test_number	transform	cluster_alg	seconds	adjusted_rand	annotation_correspondence	n_clusters	cluster_sizes	transformed_modularity	modularity	modularity_cutoff	transformed_modularity_cutoff
GO CC 500 medium	1	Pearson > Cutoff(5)	None	0.0220141410828	-4.75559854712e-17	0.119318181818	1	528	0.0	0.0	0.0	0.0
GO CC 500 medium	1	Pearson > Cutoff(5)	Louvain	0.030415058136	0.191279883403	0.331439393939	45	1,1,1,1,1,1,1,1,1,1,1,1,1,1,1,1,1,1,1,1,1,1,1,1,1,1,1,1,1,1,1,2,2,2,2,2,2,13,24,38,52,69,86,98,105	0.681642806123	-0.00164069810142	0.316038638642	0.681642806123
GO CC 500 medium	1	Pearson > Cutoff(5)	Greedy Modularity	0.0410821437836	0.14807427861	0.323863636364	47	1,1,1,1,1,1,1,1,1,1,1,1,1,1,1,1,1,1,1,1,1,1,1,1,1,1,1,1,1,1,1,2,2,2,2,2,2,2,3,4,10,18,38,54,89,99,168	0.644000461087	-0.00155166955479	0.309691174927	0.644000461087
GO CC 500 medium	1	Pearson > Cutoff(5)	Infomap	0.507066965103	0.197663353001	0.397727272727	62	1,1,1,1,1,1,1,1,1,1,1,1,1,1,1,1,1,1,1,1,1,1,1,1,1,1,1,1,1,1,1,2,2,2,2,2,2,2,2,2,3,3,4,4,4,5,6,6,7,9,9,9,10,11,11,23,30,31,38,80,83,93	0.673550706142	-0.00171623623679	0.297772221182	0.673550706142
GO CC 500 medium	1	Pearson > Cutoff(5)	Label Propagation	0.0210540294647	0.156052922567	0.352272727273	57	1,1,1,1,1,1,1,1,1,1,1,1,1,1,1,1,1,1,1,1,1,1,1,1,1,1,1,1,1,1,1,2,2,2,2,2,2,2,2,2,2,2,3,3,3,4,4,8,9,9,10,13,29,38,89,98,155	0.663276236134	-0.00159489059998	0.289683816068	0.663276236134
GO CC 500 medium	1	Pearson > Cutoff(5)	Walkttrap	0.0948719978333	0.186816725905	0.380681818182	67	1,1,1,1,1,1,1,1,1,1,1,1,1,1,1,1,1,1,1,1,1,1,1,1,1,1,1,1,1,1,1,1,1,1,2,2,2,2,2,2,2,2,2,2,2,2,2,2,3,3,3,4,4,5,5,7,8,9,9,10,11,20,38,46,85,89,107	0.675362117622	-0.00168483121277	0.304529763755	0.675362117622
GO CC 500 medium	1	Spearman > Cutoff(5)	None	0.0183041095734	-4.75559854712e-17	0.119318181818	1	528	0.0	0.0	0.0	0.0
GO CC 500 medium	1	Spearman > Cutoff(5)	Louvain	0.0299210548401	0.113978434116	0.458333333333	164	1,1,1,1,1,1,1,1,1,1,1,1,1,1,1,1,1,1,1,1,1,1,1,1,1,1,1,1,1,1,1,1,1,1,1,1,1,1,1,1,1,1,1,1,1,1,1,1,1,1,1,1,1,1,1,1,1,1,1,1,1,1,1,1,1,1,1,1,1,1,1,1,1,1,1,1,1,1,1,1,1,1,1,1,1,1,1,1,1,1,1,1,1,1,1,1,1,1,1,1,1,1,1,1,1,1,1,1,1,1,1,1,1,1,1,1,1,1,1,1,1,1,1,1,1,1,1,1,1,1,1,1,1,1,1,1,1,1,1,1,1,1,1,1,1,1,1,1,1,1,1,2,2,2,2,2,2,4,9,15,47,80,83,127	0.557336324246	-0.0016788823634	0.288038333995	0.557336324246
GO CC 500 medium	1	Spearman > Cutoff(5)	Greedy Modularity	0.0308940410614	0.117501313083	0.482954545455	168	1,1,1,1,1,1,1,1,1,1,1,1,1,1,1,1,1,1,1,1,1,1,1,1,1,1,1,1,1,1,1,1,1,1,1,1,1,1,1,1,1,1,1,1,1,1,1,1,1,1,1,1,1,1,1,1,1,1,1,1,1,1,1,1,1,1,1,1,1,1,1,1,1,1,1,1,1,1,1,1,1,1,1,1,1,1,1,1,1,1,1,1,1,1,1,1,1,1,1,1,1,1,1,1,1,1,1,1,1,1,1,1,1,1,1,1,1,1,1,1,1,1,1,1,1,1,1,1,1,1,1,1,1,1,1,1,1,1,1,1,1,1,1,1,1,1,1,1,1,1,1,2,2,2,2,2,2,2,2,2,3,4,9,15,31,39,80,178	0.482264870636	-0.00161789644766	0.212798610153	0.482264870636
GO CC 500 medium	1	Spearman > Cutoff(5)	Infomap	0.3113758564	0.12871822429	0.5	171	1,1,1,1,1,1,1,1,1,1,1,1,1,1,1,1,1,1,1,1,1,1,1,1,1,1,1,1,1,1,1,1,1,1,1,1,1,1,1,1,1,1,1,1,1,1,1,1,1,1,1,1,1,1,1,1,1,1,1,1,1,1,1,1,1,1,1,1,1,1,1,1,1,1,1,1,1,1,1,1,1,1,1,1,1,1,1,1,1,1,1,1,1,1,1,1,1,1,1,1,1,1,1,1,1,1,1,1,1,1,1,1,1,1,1,1,1,1,1,1,1,1,1,1,1,1,1,1,1,1,1,1,1,1,1,1,1,1,1,1,1,1,1,1,1,1,1,1,1,1,1,2,2,2,2,2,2,2,2,3,4,5,6,9,9,11,30,30,63,80,111	0.544363345732	-0.0017270857401	0.275199008252	0.544363345732
GO CC 500 medium	1	Spearman > Cutoff(5)	Label Propagation	0.0202040672302	0.0839364192877	0.464015151515	168	1,1,1,1,1,1,1,1,1,1,1,1,1,1,1,1,1,1,1,1,1,1,1,1,1,1,1,1,1,1,1,1,1,1,1,1,1,1,1,1,1,1,1,1,1,1,1,1,1,1,1,1,1,1,1,1,1,1,1,1,1,1,1,1,1,1,1,1,1,1,1,1,1,1,1,1,1,1,1,1,1,1,1,1,1,1,1,1,1,1,1,1,1,1,1,1,1,1,1,1,1,1,1,1,1,1,1,1,1,1,1,1,1,1,1,1,1,1,1,1,1,1,1,1,1,1,1,1,1,1,1,1,1,1,1,1,1,1,1,1,1,1,1,1,1,1,1,1,1,1,1,2,2,2,2,2,2,2,2,3,4,4,5,8,10,29,81,217	0.4663088212	-0.0015238311178	0.186691302549	0.4663088212
GO CC 500 medium	1	Spearman > Cutoff(5)	Walkttrap	0.0908749103546	0.123448648493	0.50946969697	185	1,1,1,1,1,1,1,1,1,1,1,1,1,1,1,1,1,1,1,1,1,1,1,1,1,1,1,1,1,1,1,1,1,1,1,1,1,1,1,1,1,1,1,1,1,1,1,1,1,1,1,1,1,1,1,1,1,1,1,1,1,1,1,1,1,1,1,1,1,1,1,1,1,1,1,1,1,1,1,1,1,1,1,1,1,1,1,1,1,1,1,1,1,1,1,1,1,1,1,1,1,1,1,1,1,1,1,1,1,1,1,1,1,1,1,1,1,1,1,1,1,1,1,1,1,1,1,1,1,1,1,1,1,1,1,1,1,1,1,1,1,1,1,1,1,1,1,1,1,1,1,1,1,1,1,1,1,2,2,2,2,2,2,2,2,2,2,2,2,2,2,2,2,3,3,3,3,3,5,6,9,28,79,80,117	0.553108079717	-0.00171020570985	0.271450353946	0.553108079717
GO CC 500 medium	1	Cosine > Cutoff(5)	None	0.0183069705963	-4.75559854712e-17	0.119318181818	1	528	0.0	0.0	0.0	0.0
GO CC 500 medium	1	Cosine > Cutoff(5)	Louvain	0.0291509628296	0.167956758917	0.399621212121	70	1,1,1,1,1,1,1,1,1,1,1,1,1,1,1,1,1,1,1,1,1,1,1,1,1,1,1,1,1,1,1,1,1,1,1,1,1,1,1,1,1,1,1,1,1,1,1,2,2,2,2,2,2,2,2,2,2,3,5,7,7,9,10,11,30,36,69,73,88,113	0.609202320253	-0.00167074183268	0.280737687033	0.609202320253
GO CC 500 medium	1	Cosine > Cutoff(5)	Greedy Modularity	0.0350811481476	0.126710539846	0.363636363636	71	1,1,1,1,1,1,1,1,1,1,1,1,1,1,1,1,1,1,1,1,1,1,1,1,1,1,1,1,1,1,1,1,1,1,1,1,1,1,1,1,1,1,1,1,1,1,1,2,2,2,2,2,2,2,2,2,2,2,2,3,5,7,7,8,9,9,28,36,54,145,146	0.565329419587	-0.00157225230135	0.222354145353	0.565329419587
GO CC 500 medium	1	Cosine > Cutoff(5)	Infomap	0.403668165207	0.16466641301	0.475378787879	84	1,1,1,1,1,1,1,1,1,1,1,1,1,1,1,1,1,1,1,1,1,1,1,1,1,1,1,1,1,1,1,1,1,1,1,1,1,1,1,1,1,1,1,1,1,1,1,2,2,2,2,2,2,2,2,2,2,2,2,3,3,3,3,3,3,5,6,7,7,7,8,8,10,11,11,11,16,20,30,34,36,48,56,108	0.584457657227	-0.00174738261518	0.225770786461	0.584457657227
GO CC 500 medium	1	Cosine > Cutoff(5)	Leading Eigenvector	0.311274051666	0.157050499103	0.412878787879	77	1,1,1,1,1,1,1,1,1,1,1,1,1,1,1,1,1,1,1,1,1,1,1,1,1,1,1,1,1,1,1,1,1,1,1,1,1,1,1,1,1,1,1,1,1,1,1,1,1,1,1,2,2,2,2,2,2,2,2,2,2,2,2,2,3,4,7,7,8,9,9,26,36,55,68,84,135	0.583591051216	-0.00165689748529	0.266271652028	0.583591051216
GO CC 500 medium	1	Cosine > Cutoff(5)	Label Propagation	0.0223591327667	0.121066537039	0.418560606061	77	1,1,1,1,1,1,1,1,1,1,1,1,1,1,1,1,1,1,1,1,1,1,1,1,1,1,1,1,1,1,1,1,1,1,1,1,1,1,1,1,1,1,1,1,1,1,1,2,2,2,2,2,2,2,2,2,2,2,2,2,3,3,3,3,5,5,6,6,7,7,9,9,10,36,53,79,211	0.485572766252	-0.00151988336879	0.252893760717	0.485572766252
GO CC 500 medium	1	Cosine > Cutoff(5)	Walkttrap	0.0972089767456	0.143385777371	0.454545454545	92	1,1,1,1,1,1,1,1,1,1,1,1,1,1,1,1,1,1,1,1,1,1,1,1,1,1,1,1,1,1,1,1,1,1,1,1,1,1,1,1,1,1,1,1,1,1,1,1,1,1,1,1,2,2,2,2,2,2,2,2,2,2,2,2,2,2,2,2,2,3,3,3,3,3,3,3,5,5,5,6,6,7,8,8,9,9,33,34,36,46,74,130	0.565017218701	-0.00170217408255	0.234009456391	0.565017218701
GO CC 500 medium	1	KNN(10) > Cutoff(5)	None	0.0182800292969	-4.75559854712e-17	0.119318181818	1	528	0.0	0.0	0.0	0.0
GO CC 500 medium	1	KNN(10) > Cutoff(5)	Louvain	0.0400490760803	0.20649220218	0.282196969697	7	40,55,65,66,94,102,106	0.620056528181	-0.00160021325468	0.326007700557	0.620056528181
GO CC 500 medium	1	KNN(10) > Cutoff(5)	Greedy Modularity	0.080708026886	0.181092487649	0.25946969697	5	38,39,125,157,169	0.557154113371	-0.00140882910527	0.313250896957	0.557154113371
GO CC 500 medium	1	KNN(10) > Cutoff(5)	Infomap	0.613014221191	0.189831908441	0.297348484848	11	4,18,19,39,40,45,47,51,63,94,108	0.598476062124	-0.00165844935904	0.307782050147	0.598476062124
GO CC 500 medium	1	KNN(10) > Cutoff(5)	Leading Eigenvector	0.268431186676	0.185953955944	0.25946969697	8	18,42,49,52,52,97,97,121	0.568503844911	-0.00160243216188	0.294592257451	0.568503844911
GO CC 500 medium	1	KNN(10) > Cutoff(5)	Label Propagation	0.027095079422	0.195423774962	0.284090909091	9	12,18,24,39,48,51,100,110,126	0.603678942451	-0.00158820665252	0.324110936603	0.603678942451
GO CC 500 medium	1	KNN(10) > Cutoff(5)	Spinglass	29.4920501709	0.203135821437	0.285984848485	9	1,18,35,40,65,67,96,97,109	0.619857237669	-0.0016091433352	0.327206391812	0.619857237669
GO CC 500 medium	1	KNN(10) > Cutoff(5)	Walkttrap	0.142163038254	0.199977232516	0.291666666667	8	18,39,42,62,64,91,96,116	0.614055028852	-0.00160824488197	0.327493181477	0.614055028852
GO CC 500 medium	1	KNN(50) > Cutoff(5)	None	0.0180778503418	-4.75559854712e-17	0.119318181818	1	528	0.0	0.0	0.0	0.0
GO CC 500 medium	1	KNN(50) > Cutoff(5)	Louvain	0.0270819664001	0.168206015681	0.388257575758	94	1,1,1,1,1,1,1,1,1,1,1,1,1,1,1,1,1,1,1,1,1,1,1,1,1,1,1,1,1,1,1,1,1,1,1,1,1,1,1,1,1,1,1,1,1,1,1,1,1,1,1,1,1,1,1,1,1,1,1,1,1,1,1,1,1,1,1,1,1,1,1,1,1,1,1,1,1,1,1,1,1,1,1,1,1,2,4,31,35,39,72,74,83,103	0.679780701886	-0.00167993055882	0.333769938391	0.679780701886
GO CC 500 medium	1	KNN(50) > Cutoff(5)	Greedy Modularity	0.0332028865814	0.136683532429	0.357954545455	95	1,1,1,1,1,1,1,1,1,1,1,1,1,1,1,1,1,1,1,1,1,1,1,1,1,1,1,1,1,1,1,1,1,1,1,1,1,1,1,1,1,1,1,1,1,1,1,1,1,1,1,1,1,1,1,1,1,1,1,1,1,1,1,1,1,1,1,1,1,1,1,1,1,1,1,1,1,1,1,1,1,1,1,1,1,2,2,4,6,8,31,39,83,133,135	0.657335993722	-0.00158787994226	0.309524844126	0.657335993722
GO CC 500 medium	1	KNN(50) > Cutoff(5)	Infomap	0.239946842194	0.179841597986	0.399621212121	105	1,1,1,1,1,1,1,1,1,1,1,1,1,1,1,1,1,1,1,1,1,1,1,1,1,1,1,1,1,1,1,1,1,1,1,1,1,1,1,1,1,1,1,1,1,1,1,1,1,1,1,1,1,1,1,1,1,1,1,1,1,1,1,1,1,1,1,1,1,1,1,1,1,1,1,1,1,1,1,1,1,1,1,1,1,2,2,2,2,2,3,4,6,6,6,10,12,13,18,25,37,50,74,82,87	0.672883103795	-0.00172575167319	0.31165108098	0.672883103795
GO CC 500 medium	1	KNN(50) > Cutoff(5)	Leading Eigenvector	0.378003120422	0.177069060309	0.405303030303	101	1,1,1,1,1,1,1,1,1,1,1,1,1,1,1,1,1,1,1,1,1,1,1,1,1,1,1,1,1,1,1,1,1,1,1,1,1,1,1,1,1,1,1,1,1,1,1,1,1,1,1,1,1,1,1,1,1,1,1,1,1,1,1,1,1,1,1,1,1,1,1,1,1,1,1,1,1,1,1,1,1,1,1,1,1,1,2,2,2,2,4,5,6,26,30,31,37,37,73,82,103	0.647192493104	-0.00170616267035	0.31287007857	0.647192493104
GO CC 500 medium	1	KNN(50) > Cutoff(5)	Label Propagation	0.020632982254	0.16800179651	0.388257575758	98	1,1,1,1,1,1,1,1,1,1,1,1,1,1,1,1,1,1,1,1,1,1,1,1,1,1,1,1,1,1,1,1,1,1,1,1,1,1,1,1,1,1,1,1,1,1,1,1,1,1,1,1,1,1,1,1,1,1,1,1,1,1,1,1,1,1,1,1,1,1,1,1,1,1,1,1,1,1,1,1,1,1,1,1,1,2,3,3,4,4,6,22,25,37,37,83,97,120	0.664112098875	-0.00166121278334	0.317955132573	0.664112098875
GO CC 500 medium	1	KNN(50) > Cutoff(5)	Walkttrap	0.0957951545715	0.172681919323	0.422348484848	114	1,1,1,1,1,1,1,1,1,1,1,1,1,1,1,1,1,1,1,1,1,1,1,1,1,1,1,1,1,1,1,1,1,1,1,1,1,1,1,1,1,1,1,1,1,1,1,1,1,1,1,1,1,1,1,1,1,1,1,1,1,1,1,1,1,1,1,1,1,1,1,1,1,1,1,1,1,1,1,1,1,1,1,1,1,1,1,1,1,1,1,1,1,2,2,2,2,2,2,2,4,4,4,4,4,5,12,15,17,37,54,72,79,110	0.667050478995	-0.00170222853426	0.315709610155	0.667050478995
GO CC 500 medium	1	KNN(100) > Cutoff(5)	None	0.0183229446411	-4.75559854712e-17	0.119318181818	1	528	0.0	0.0	0.0	0.0
GO CC 500 medium	1	KNN(100) > Cutoff(5)	Louvain	0.0284209251404	0.122134146654	0.386363636364	116	1,1,1,1,1,1,1,1,1,1,1,1,1,1,1,1,1,1,1,1,1,1,1,1,1,1,1,1,1,1,1,1,1,1,1,1,1,1,1,1,1,1,1,1,1,1,1,1,1,1,1,1,1,1,1,1,1,1,1,1,1,1,1,1,1,1,1,1,1,1,1,1,1,1,1,1,1,1,1,1,1,1,1,1,1,1,1,1,1,1,1,1,1,1,1,1,1,1,1,1,1,1,1,2,2,3,4,4,4,8,14,30,44,81,87,142	0.600930391027	-0.00164189603905	0.308503413893	0.600930391027
GO CC 500 medium	1	KNN(100) > Cutoff(5)	Greedy Modularity	0.0348229408264	0.139906708992	0.375	115	1,1,1,1,1,1,1,1,1,1,1,1,1,1,1,1,1,1,1,1,1,1,1,1,1,1,1,1,1,1,1,1,1,1,1,1,1,1,1,1,1,1,1,1,1,1,1,1,1,1,1,1,1,1,1,1,1,1,1,1,1,1,1,1,1,1,1,1,1,1,1,1,1,1,1,1,1,1,1,1,1,1,1,1,1,1,1,1,1,1,1,1,1,1,1,1,1,1,1,1,1,1,1,2,2,3,4,4,5,8,14,30,81,127,145	0.541770277113	-0.00159088839926	0.236647941887	0.541770277113
GO CC 500 medium	1	KNN(100) > Cutoff(5)	Infomap	0.378010034561	0.15628030579	0.439393939394	124	1,1,1,1,1,1,1,1,1,1,1,1,1,1,1,1,1,1,1,1,1,1,1,1,1,1,1,1,1,1,1,1,1,1,1,1,1,1,1,1,1,1,1,1,1,1,1,1,1,1,1,1,1,1,1,1,1,1,1,1,1,1,1,1,1,1,1,1,1,1,1,1,1,1,1,1,1,1,1,1,1,1,1,1,1,1,1,1,1,1,1,1,1,1,1,1,1,1,1,1,1,1,1,2,2,2,2,2,2,4,4,4,5,7,8,11,12,12,22,35,38,75,78,98	0.600726905616	-0.00172609199638	0.293418390767	0.600726905616
GO CC 500 medium	1	KNN(100) > Cutoff(5)	Leading Eigenvector	0.721401929855	0.134627800076	0.416666666667	126	1,1,1,1,1,1,1,1,1,1,1,1,1,1,1,1,1,1,1,1,1,1,1,1,1,1,1,1,1,1,1,1,1,1,1,1,1,1,1,1,1,1,1,1,1,1,1,1,1,1,1,1,1,1,1,1,1,1,1,1,1,1,1,1,1,1,1,1,1,1,1,1,1,1,1,1,1,1,1,1,1,1,1,1,1,1,1,1,1,1,1,1,1,1,1,1,1,1,1,1,1,1,1,1,1,1,1,1,2,2,2,2,2,2,2,3,4,4,4,8,14,35,42,78,81,133	0.597283720939	-0.00166763808518	0.301913210747	0.597283720939
GO CC 500 medium	1	KNN(100) > Cutoff(5)	Label Propagation	0.0215449333191	0.126302558212	0.405303030303	119	1,1,1,1,1,1,1,1,1,1,1,1,1,1,1,1,1,1,1,1,1,1,1,1,1,1,1,1,1,1,1,1,1,1,1,1,1,1,1,1,1,1,1,1,1,1,1,1,1,1,1,1,1,1,1,1,1,1,1,1,1,1,1,1,1,1,1,1,1,1,1,1,1,1,1,1,1,1,1,1,1,1,1,1,1,1,1,1,1,1,1,1,1,1,1,1,1,1,1,1,1,1,1,2,2,2,3,4,4,4,4,5,5,14,22,33,81,94,146	0.597610843314	-0.0016339869281	0.307345942541	0.597610843314
GO CC 500 medium	1	KNN(100) > Cutoff(5)	Walkttrap	0.100704193115	0.151025202008	0.462121212121	152	1,1,1,1,1,1,1,1,1,1,1,1,1,1,1,1,1,1,1,1,1,1,1,1,1,1,1,1,1,1,1,1,1,1,1,1,1,1,1,1,1,1,1,1,1,1,1,1,1,1,1,1,1,1,1,1,1,1,1,1,1,1,1,1,1,1,1,1,1,1,1,1,1,1,1,1,1,1,1,1,1,1,1,1,1,1,1,1,1,1,1,1,1,1,1,1,1,1,1,1,1,1,1,1,1,1,1,1,1,1,1,1,1,1,1,1,1,1,1,1,1,1,1,2,2,2,2,2,2,2,2,2,2,2,2,2,2,2,2,2,3,3,4,4,9,10,13,32,34,79,81,99	0.595306343066	-0.00172482599411	0.283809532141	0.595306343066
GO CC 500 medium	1	KNN(250) > Cutoff(5)	None	0.019385099411	-4.75559854712e-17	0.119318181818	1	528	0.0	0.0	0.0	0.0
GO CC 500 medium	1	KNN(250) > Cutoff(5)	Louvain	0.0403950214386	0.103289125793	0.409090909091	145	1,1,1,1,1,1,1,1,1,1,1,1,1,1,1,1,1,1,1,1,1,1,1,1,1,1,1,1,1,1,1,1,1,1,1,1,1,1,1,1,1,1,1,1,1,1,1,1,1,1,1,1,1,1,1,1,1,1,1,1,1,1,1,1,1,1,1,1,1,1,1,1,1,1,1,1,1,1,1,1,1,1,1,1,1,1,1,1,1,1,1,1,1,1,1,1,1,1,1,1,1,1,1,1,1,1,1,1,1,1,1,1,1,1,1,1,1,1,1,1,1,1,1,1,1,1,1,1,1,1,1,1,1,1,2,2,2,2,3,9,25,49,84,85,131	0.557182495811	-0.00166129446091	0.279327389982	0.557182495811
GO CC 500 medium	1	KNN(250) > Cutoff(5)	Greedy Modularity	0.033360004425	0.0899265555141	0.426136363636	147	1,1,1,1,1,1,1,1,1,1,1,1,1,1,1,1,1,1,1,1,1,1,1,1,1,1,1,1,1,1,1,1,1,1,1,1,1,1,1,1,1,1,1,1,1,1,1,1,1,1,1,1,1,1,1,1,1,1,1,1,1,1,1,1,1,1,1,1,1,1,1,1,1,1,1,1,1,1,1,1,1,1,1,1,1,1,1,1,1,1,1,1,1,1,1,1,1,1,1,1,1,1,1,1,1,1,1,1,1,1,1,1,1,1,1,1,1,1,1,1,1,1,1,1,1,1,1,1,1,1,1,1,1,1,2,2,2,2,2,3,5,7,23,27,36,87,196	0.48067190513	-0.00156554112803	0.184009734278	0.48067190513
GO CC 500 medium	1	KNN(250) > Cutoff(5)	Infomap	0.386952877045	0.117426159588	0.460227272727	152	1,1,1,1,1,1,1,1,1,1,1,1,1,1,1,1,1,1,1,1,1,1,1,1,1,1,1,1,1,1,1,1,1,1,1,1,1,1,1,1,1,1,1,1,1,1,1,1,1,1,1,1,1,1,1,1,1,1,1,1,1,1,1,1,1,1,1,1,1,1,1,1,1,1,1,1,1,1,1,1,1,1,1,1,1,1,1,1,1,1,1,1,1,1,1,1,1,1,1,1,1,1,1,1,1,1,1,1,1,1,1,1,1,1,1,1,1,1,1,1,1,1,1,1,1,1,1,1,1,1,1,1,1,1,2,2,2,2,2,2,3,3,5,9,10,12,16,25,29,56,85,129	0.539809056939	-0.00169844414039	0.271499498774	0.539809056939
GO CC 500 medium	1	KNN(250) > Cutoff(5)	Leading Eigenvector	0.15597319603	0.1072776673	0.420454545455	146	1,1,1,1,1,1,1,1,1,1,1,1,1,1,1,1,1,1,1,1,1,1,1,1,1,1,1,1,1,1,1,1,1,1,1,1,1,1,1,1,1,1,1,1,1,1,1,1,1,1,1,1,1,1,1,1,1,1,1,1,1,1,1,1,1,1,1,1,1,1,1,1,1,1,1,1,1,1,1,1,1,1,1,1,1,1,1,1,1,1,1,1,1,1,1,1,1,1,1,1,1,1,1,1,1,1,1,1,1,1,1,1,1,1,1,1,1,1,1,1,1,1,1,1,1,1,1,1,1,1,1,1,1,1,2,2,2,2,3,5,9,27,45,81,85,131	0.556452648471	-0.00166634485706	0.281493055913	0.556452648471
GO CC 500 medium	1	KNN(250) > Cutoff(5)	Label Propagation	0.0215859413147	0.0825111587573	0.439393939394	149	1,1,1,1,1,1,1,1,1,1,1,1,1,1,1,1,1,1,1,1,1,1,1,1,1,1,1,1,1,1,1,1,1,1,1,1,1,1,1,1,1,1,1,1,1,1,1,1,1,1,1,1,1,1,1,1,1,1,1,1,1,1,1,1,1,1,1,1,1,1,1,1,1,1,1,1,1,1,1,1,1,1,1,1,1,1,1,1,1,1,1,1,1,1,1,1,1,1,1,1,1,1,1,1,1,1,1,1,1,1,1,1,1,1,1,1,1,1,1,1,1,1,1,1,1,1,1,1,1,1,1,1,1,1,2,2,2,2,2,2,3,5,7,9,12,15,28,87,216	0.485045335764	-0.00151841317261	0.188680623455	0.485045335764
GO CC 500 medium	1	KNN(250) > Cutoff(5)	Walkttrap	0.0979340076447	0.119154204814	0.498106060606	177	1,1,1,1,1,1,1,1,1,1,1,1,1,1,1,1,1,1,1,1,1,1,1,1,1,1,1,1,1,1,1,1,1,1,1,1,1,1,1,1,1,1,1,1,1,1,1,1,1,1,1,1,1,1,1,1,1,1,1,1,1,1,1,1,1,1,1,1,1,1,1,1,1,1,1,1,1,1,1,1,1,1,1,1,1,1,1,1,1,1,1,1,1,1,1,1,1,1,1,1,1,1,1,1,1,1,1,1,1,1,1,1,1,1,1,1,1,1,1,1,1,1,1,1,1,1,1,1,1,1,1,1,1,1,1,1,1,1,1,1,1,1,1,1,1,1,1,1,1,1,1,1,1,1,1,2,2,2,2,2,2,3,3,3,3,4,5,5,5,5,7,12,20,27,67,85,107	0.541215072153	-0.00172862400092	0.247034925248	0.541215072153
GO CC 500 medium	1	KNN(500) > Cutoff(5)	None	0.0202269554138	-4.75559854712e-17	0.119318181818	1	528	0.0	0.0	0.0	0.0
GO CC 500 medium	1	KNN(500) > Cutoff(5)	Louvain	0.0478320121765	0.0591005892372	0.481060606061	192	1,1,1,1,1,1,1,1,1,1,1,1,1,1,1,1,1,1,1,1,1,1,1,1,1,1,1,1,1,1,1,1,1,1,1,1,1,1,1,1,1,1,1,1,1,1,1,1,1,1,1,1,1,1,1,1,1,1,1,1,1,1,1,1,1,1,1,1,1,1,1,1,1,1,1,1,1,1,1,1,1,1,1,1,1,1,1,1,1,1,1,1,1,1,1,1,1,1,1,1,1,1,1,1,1,1,1,1,1,1,1,1,1,1,1,1,1,1,1,1,1,1,1,1,1,1,1,1,1,1,1,1,1,1,1,1,1,1,1,1,1,1,1,1,1,1,1,1,1,1,1,1,1,1,1,1,1,1,1,1,1,1,1,1,1,1,1,1,1,1,1,1,1,1,1,1,1,1,2,2,2,2,2,2,2,6,6,14,15,80,100,115	0.155458417437	-0.00169113399825	0.167814995194	0.155458417437
GO CC 500 medium	1	KNN(500) > Cutoff(5)	Greedy Modularity	0.044508934021	0.0656292029422	0.484848484848	191	1,1,1,1,1,1,1,1,1,1,1,1,1,1,1,1,1,1,1,1,1,1,1,1,1,1,1,1,1,1,1,1,1,1,1,1,1,1,1,1,1,1,1,1,1,1,1,1,1,1,1,1,1,1,1,1,1,1,1,1,1,1,1,1,1,1,1,1,1,1,1,1,1,1,1,1,1,1,1,1,1,1,1,1,1,1,1,1,1,1,1,1,1,1,1,1,1,1,1,1,1,1,1,1,1,1,1,1,1,1,1,1,1,1,1,1,1,1,1,1,1,1,1,1,1,1,1,1,1,1,1,1,1,1,1,1,1,1,1,1,1,1,1,1,1,1,1,1,1,1,1,1,1,1,1,1,1,1,1,1,1,1,1,1,1,1,1,1,1,1,1,1,1,1,1,1,1,1,2,2,2,2,2,2,2,6,6,14,80,114,116	0.150820468784	-0.0016707009939	0.171088545087	0.150820468784
GO CC 500 medium	1	KNN(500) > Cutoff(5)	Infomap	0.495543956757	0.0570613530243	0.477272727273	199	1,1,1,1,1,1,1,1,1,1,1,1,1,1,1,1,1,1,1,1,1,1,1,1,1,1,1,1,1,1,1,1,1,1,1,1,1,1,1,1,1,1,1,1,1,1,1,1,1,1,1,1,1,1,1,1,1,1,1,1,1,1,1,1,1,1,1,1,1,1,1,1,1,1,1,1,1,1,1,1,1,1,1,1,1,1,1,1,1,1,1,1,1,1,1,1,1,1,1,1,1,1,1,1,1,1,1,1,1,1,1,1,1,1,1,1,1,1,1,1,1,1,1,1,1,1,1,1,1,1,1,1,1,1,1,1,1,1,1,1,1,1,1,1,1,1,1,1,1,1,1,1,1,1,1,1,1,1,1,1,1,1,1,1,1,1,1,1,1,1,1,1,1,1,1,1,1,1,2,2,2,2,2,2,2,2,2,2,2,2,3,4,6,6,8,11,13,63,212	0.0835762302053	-0.00156000066649	0.102710746404	0.0835762302053
GO CC 500 medium	1	KNN(500) > Cutoff(5)	Leading Eigenvector	0.12366604805	0.0556203874162	0.450757575758	188	1,1,1,1,1,1,1,1,1,1,1,1,1,1,1,1,1,1,1,1,1,1,1,1,1,1,1,1,1,1,1,1,1,1,1,1,1,1,1,1,1,1,1,1,1,1,1,1,1,1,1,1,1,1,1,1,1,1,1,1,1,1,1,1,1,1,1,1,1,1,1,1,1,1,1,1,1,1,1,1,1,1,1,1,1,1,1,1,1,1,1,1,1,1,1,1,1,1,1,1,1,1,1,1,1,1,1,1,1,1,1,1,1,1,1,1,1,1,1,1,1,1,1,1,1,1,1,1,1,1,1,1,1,1,1,1,1,1,1,1,1,1,1,1,1,1,1,1,1,1,1,1,1,1,1,1,1,1,1,1,1,1,1,1,1,1,1,1,1,1,1,1,1,1,1,1,1,1,2,2,2,2,2,2,6,80,119,133	0.147786772657	-0.00163556602771	0.166695059169	0.147786772657
GO CC 500 medium	1	KNN(500) > Cutoff(5)	Label Propagation	0.0219900608063	0.0523668860718	0.473484848485	194	1,1,1,1,1,1,1,1,1,1,1,1,1,1,1,1,1,1,1,1,1,1,1,1,1,1,1,1,1,1,1,1,1,1,1,1,1,1,1,1,1,1,1,1,1,1,1,1,1,1,1,1,1,1,1,1,1,1,1,1,1,1,1,1,1,1,1,1,1,1,1,1,1,1,1,1,1,1,1,1,1,1,1,1,1,1,1,1,1,1,1,1,1,1,1,1,1,1,1,1,1,1,1,1,1,1,1,1,1,1,1,1,1,1,1,1,1,1,1,1,1,1,1,1,1,1,1,1,1,1,1,1,1,1,1,1,1,1,1,1,1,1,1,1,1,1,1,1,1,1,1,1,1,1,1,1,1,1,1,1,1,1,1,1,1,1,1,1,1,1,1,1,1,1,1,1,1,1,2,2,2,2,2,2,2,2,3,3,3,5,6,9,70,235	0.0745461202381	-0.00148571492047	0.0927524500369	0.0745461202381
GO CC 500 medium	1	KNN(500) > Cutoff(5)	Walkttrap	0.145350933075	0.0512943918478	0.477272727273	197	1,1,1,1,1,1,1,1,1,1,1,1,1,1,1,1,1,1,1,1,1,1,1,1,1,1,1,1,1,1,1,1,1,1,1,1,1,1,1,1,1,1,1,1,1,1,1,1,1,1,1,1,1,1,1,1,1,1,1,1,1,1,1,1,1,1,1,1,1,1,1,1,1,1,1,1,1,1,1,1,1,1,1,1,1,1,1,1,1,1,1,1,1,1,1,1,1,1,1,1,1,1,1,1,1,1,1,1,1,1,1,1,1,1,1,1,1,1,1,1,1,1,1,1,1,1,1,1,1,1,1,1,1,1,1,1,1,1,1,1,1,1,1,1,1,1,1,1,1,1,1,1,1,1,1,1,1,1,1,1,1,1,1,1,1,1,1,1,1,1,1,1,1,1,1,1,1,1,2,2,2,2,2,2,2,2,2,2,2,3,3,3,4,6,9,67,233	0.0745517367755	-0.00149486280783	0.0917144392138	0.0745517367755
GO CC 500 medium	1	Topological Overlap > Cutoff(5)	None	0.0184121131897	-4.75559854712e-17	0.119318181818	1	528	0.0	0.0	0.0	0.0
GO CC 500 medium	1	Topological Overlap > Cutoff(5)	Louvain	0.0335819721222	0.154709573944	0.621212121212	226	1,1,1,1,1,1,1,1,1,1,1,1,1,1,1,1,1,1,1,1,1,1,1,1,1,1,1,1,1,1,1,1,1,1,1,1,1,1,1,1,1,1,1,1,1,1,1,1,1,1,1,1,1,1,1,1,1,1,1,1,1,1,1,1,1,1,1,1,1,1,1,1,1,1,1,1,1,1,1,1,1,1,1,1,1,1,1,1,1,1,1,1,1,1,1,1,1,1,1,1,1,1,1,1,1,1,1,1,1,1,1,1,1,1,1,1,1,1,1,1,1,1,1,1,1,1,1,1,1,1,1,1,1,1,1,1,1,1,1,1,1,1,1,1,1,1,1,1,1,1,1,1,1,1,1,1,1,1,1,1,1,1,1,1,1,1,1,1,1,1,1,1,1,1,1,1,1,1,1,1,1,1,1,1,1,1,1,1,1,1,1,1,1,1,1,1,1,1,1,1,1,1,1,1,1,1,1,1,1,1,1,1,1,1,2,2,2,2,2,4,7,11,13,38,82,149	0.292451693978	-0.0016868187002	0.2661581918	0.292451693978
GO CC 500 medium	1	Topological Overlap > Cutoff(5)	Greedy Modularity	0.0405161380768	0.12300035538	0.590909090909	226	1,1,1,1,1,1,1,1,1,1,1,1,1,1,1,1,1,1,1,1,1,1,1,1,1,1,1,1,1,1,1,1,1,1,1,1,1,1,1,1,1,1,1,1,1,1,1,1,1,1,1,1,1,1,1,1,1,1,1,1,1,1,1,1,1,1,1,1,1,1,1,1,1,1,1,1,1,1,1,1,1,1,1,1,1,1,1,1,1,1,1,1,1,1,1,1,1,1,1,1,1,1,1,1,1,1,1,1,1,1,1,1,1,1,1,1,1,1,1,1,1,1,1,1,1,1,1,1,1,1,1,1,1,1,1,1,1,1,1,1,1,1,1,1,1,1,1,1,1,1,1,1,1,1,1,1,1,1,1,1,1,1,1,1,1,1,1,1,1,1,1,1,1,1,1,1,1,1,1,1,1,1,1,1,1,1,1,1,1,1,1,1,1,1,1,1,1,1,1,1,1,1,1,1,1,1,1,1,1,1,1,1,1,1,2,2,2,2,2,2,4,7,21,38,89,143	0.281325047498	-0.00168954128572	0.289433553104	0.281325047498
GO CC 500 medium	1	Topological Overlap > Cutoff(5)	Infomap	0.279922962189	0.108019076557	0.611742424242	232	1,1,1,1,1,1,1,1,1,1,1,1,1,1,1,1,1,1,1,1,1,1,1,1,1,1,1,1,1,1,1,1,1,1,1,1,1,1,1,1,1,1,1,1,1,1,1,1,1,1,1,1,1,1,1,1,1,1,1,1,1,1,1,1,1,1,1,1,1,1,1,1,1,1,1,1,1,1,1,1,1,1,1,1,1,1,1,1,1,1,1,1,1,1,1,1,1,1,1,1,1,1,1,1,1,1,1,1,1,1,1,1,1,1,1,1,1,1,1,1,1,1,1,1,1,1,1,1,1,1,1,1,1,1,1,1,1,1,1,1,1,1,1,1,1,1,1,1,1,1,1,1,1,1,1,1,1,1,1,1,1,1,1,1,1,1,1,1,1,1,1,1,1,1,1,1,1,1,1,1,1,1,1,1,1,1,1,1,1,1,1,1,1,1,1,1,1,1,1,1,1,1,1,1,1,1,1,1,1,1,1,1,1,1,2,2,2,2,2,2,2,2,3,4,5,6,6,7,8,9,36,214	0.17058860581	-0.00157317798043	0.18686470403	0.17058860581
GO CC 500 medium	1	Topological Overlap > Cutoff(5)	Label Propagation	0.0205230712891	0.0853417360612	0.585227272727	225	1,1,1,1,1,1,1,1,1,1,1,1,1,1,1,1,1,1,1,1,1,1,1,1,1,1,1,1,1,1,1,1,1,1,1,1,1,1,1,1,1,1,1,1,1,1,1,1,1,1,1,1,1,1,1,1,1,1,1,1,1,1,1,1,1,1,1,1,1,1,1,1,1,1,1,1,1,1,1,1,1,1,1,1,1,1,1,1,1,1,1,1,1,1,1,1,1,1,1,1,1,1,1,1,1,1,1,1,1,1,1,1,1,1,1,1,1,1,1,1,1,1,1,1,1,1,1,1,1,1,1,1,1,1,1,1,1,1,1,1,1,1,1,1,1,1,1,1,1,1,1,1,1,1,1,1,1,1,1,1,1,1,1,1,1,1,1,1,1,1,1,1,1,1,1,1,1,1,1,1,1,1,1,1,1,1,1,1,1,1,1,1,1,1,1,1,1,1,1,1,1,1,1,1,1,1,1,1,1,1,1,1,1,1,2,2,2,2,2,4,5,7,7,35,246	0.154412752749	-0.00147475651373	0.164917457272	0.154412752749
GO CC 500 medium	1	Topological Overlap > Cutoff(5)	Walkttrap	0.0967907905579	0.139346973007	0.649621212121	244	1,1,1,1,1,1,1,1,1,1,1,1,1,1,1,1,1,1,1,1,1,1,1,1,1,1,1,1,1,1,1,1,1,1,1,1,1,1,1,1,1,1,1,1,1,1,1,1,1,1,1,1,1,1,1,1,1,1,1,1,1,1,1,1,1,1,1,1,1,1,1,1,1,1,1,1,1,1,1,1,1,1,1,1,1,1,1,1,1,1,1,1,1,1,1,1,1,1,1,1,1,1,1,1,1,1,1,1,1,1,1,1,1,1,1,1,1,1,1,1,1,1,1,1,1,1,1,1,1,1,1,1,1,1,1,1,1,1,1,1,1,1,1,1,1,1,1,1,1,1,1,1,1,1,1,1,1,1,1,1,1,1,1,1,1,1,1,1,1,1,1,1,1,1,1,1,1,1,1,1,1,1,1,1,1,1,1,1,1,1,1,1,1,1,1,1,1,1,1,1,1,1,1,1,1,1,1,1,1,1,1,1,1,1,1,1,1,1,1,1,1,1,1,1,1,1,1,1,2,2,2,2,2,2,2,4,4,5,5,7,7,34,63,157	0.263971334413	-0.00169190993513	0.246585479067	0.263971334413
GO CC 500 medium	1	None > Cutoff(5)	None	0.0171129703522	-4.75559854712e-17	0.119318181818	1	528	0.0	0.0	0.0	0.0
GO CC 500 medium	1	None > Cutoff(5)	Louvain	0.0353600978851	0.161201491993	0.386363636364	85	1,1,1,1,1,1,1,1,1,1,1,1,1,1,1,1,1,1,1,1,1,1,1,1,1,1,1,1,1,1,1,1,1,1,1,1,1,1,1,1,1,1,1,1,1,1,1,1,1,1,1,1,1,1,1,1,1,1,1,1,1,1,1,1,1,1,1,1,1,1,1,1,1,1,1,1,1,2,3,38,42,79,92,95,100	0.344469637244	-0.00164550346487	0.344469637244	0.344469637244
GO CC 500 medium	1	None > Cutoff(5)	Greedy Modularity	0.0381150245667	0.178253688191	0.388257575758	84	1,1,1,1,1,1,1,1,1,1,1,1,1,1,1,1,1,1,1,1,1,1,1,1,1,1,1,1,1,1,1,1,1,1,1,1,1,1,1,1,1,1,1,1,1,1,1,1,1,1,1,1,1,1,1,1,1,1,1,1,1,1,1,1,1,1,1,1,1,1,1,1,1,1,1,1,1,2,3,38,83,91,98,136	0.339263897952	-0.00159257640228	0.339263897952	0.339263897952
GO CC 500 medium	1	None > Cutoff(5)	Infomap	0.600996017456	0.195760329385	0.496212121212	114	1,1,1,1,1,1,1,1,1,1,1,1,1,1,1,1,1,1,1,1,1,1,1,1,1,1,1,1,1,1,1,1,1,1,1,1,1,1,1,1,1,1,1,1,1,1,1,1,1,1,1,1,1,1,1,1,1,1,1,1,1,1,1,1,1,1,1,1,1,1,1,1,1,1,1,1,1,2,2,2,2,2,2,2,2,2,3,3,3,3,3,3,4,4,4,4,5,6,6,7,7,8,10,10,11,11,12,14,24,30,36,39,71,92	0.305951299791	-0.00176773394197	0.305951299791	0.305951299791
GO CC 500 medium	1	None > Cutoff(5)	Leading Eigenvector	0.513417959213	0.221120109374	0.439393939394	97	1,1,1,1,1,1,1,1,1,1,1,1,1,1,1,1,1,1,1,1,1,1,1,1,1,1,1,1,1,1,1,1,1,1,1,1,1,1,1,1,1,1,1,1,1,1,1,1,1,1,1,1,1,1,1,1,1,1,1,1,1,1,1,1,1,1,1,1,1,1,1,1,1,1,1,1,1,1,1,1,1,1,1,2,2,2,4,7,10,16,23,32,37,44,77,78,111	0.314431906366	-0.00169532677996	0.314431906366	0.314431906366
GO CC 500 medium	1	None > Cutoff(5)	Label Propagation	0.0220220088959	0.047181152716	0.367424242424	93	1,1,1,1,1,1,1,1,1,1,1,1,1,1,1,1,1,1,1,1,1,1,1,1,1,1,1,1,1,1,1,1,1,1,1,1,1,1,1,1,1,1,1,1,1,1,1,1,1,1,1,1,1,1,1,1,1,1,1,1,1,1,1,1,1,1,1,1,1,1,1,1,1,1,1,1,1,2,2,2,2,2,3,3,4,4,5,5,8,11,35,37,326	0.171037743228	-0.00115391342265	0.171037743228	0.171037743228
GO CC 500 medium	1	None > Cutoff(5)	Walkttrap	0.100126028061	0.168797596831	0.517045454545	154	1,1,1,1,1,1,1,1,1,1,1,1,1,1,1,1,1,1,1,1,1,1,1,1,1,1,1,1,1,1,1,1,1,1,1,1,1,1,1,1,1,1,1,1,1,1,1,1,1,1,1,1,1,1,1,1,1,1,1,1,1,1,1,1,1,1,1,1,1,1,1,1,1,1,1,1,1,1,1,1,1,1,1,1,1,1,1,1,1,1,1,1,1,1,1,1,1,1,1,1,1,1,1,1,1,1,1,1,1,1,1,1,1,1,1,1,1,1,1,1,1,2,2,2,2,2,2,2,2,2,2,2,2,3,3,3,3,4,4,4,4,4,5,6,7,9,10,11,15,20,36,60,66,106	0.319179543812	-0.00174908423113	0.319179543812	0.319179543812
GO CC 500 medium	1	Log > Cutoff(5)	None	0.017863035202	-4.75559854712e-17	0.119318181818	1	528	0.0	0.0	0.0	0.0
GO CC 500 medium	1	Log > Cutoff(5)	Louvain	0.0387899875641	0.156814488911	0.399621212121	85	1,1,1,1,1,1,1,1,1,1,1,1,1,1,1,1,1,1,1,1,1,1,1,1,1,1,1,1,1,1,1,1,1,1,1,1,1,1,1,1,1,1,1,1,1,1,1,1,1,1,1,1,1,1,1,1,1,1,1,1,1,1,1,1,1,1,1,1,1,1,1,1,1,1,1,1,1,2,33,38,41,53,81,101,102	0.315498189618	-0.00166427569206	0.315498189618	0.315498189618
GO CC 500 medium	1	Log > Cutoff(5)	Greedy Modularity	0.0353939533234	0.176725483046	0.405303030303	85	1,1,1,1,1,1,1,1,1,1,1,1,1,1,1,1,1,1,1,1,1,1,1,1,1,1,1,1,1,1,1,1,1,1,1,1,1,1,1,1,1,1,1,1,1,1,1,1,1,1,1,1,1,1,1,1,1,1,1,1,1,1,1,1,1,1,1,1,1,1,1,1,1,1,1,1,1,2,2,36,38,61,64,110,138	0.310391028161	-0.00161311831006	0.310391028161	0.310391028161
GO CC 500 medium	1	Log > Cutoff(5)	Infomap	0.657008886337	0.203679257431	0.503787878788	115	1,1,1,1,1,1,1,1,1,1,1,1,1,1,1,1,1,1,1,1,1,1,1,1,1,1,1,1,1,1,1,1,1,1,1,1,1,1,1,1,1,1,1,1,1,1,1,1,1,1,1,1,1,1,1,1,1,1,1,1,1,1,1,1,1,1,1,1,1,1,1,1,1,1,1,1,1,2,2,2,2,2,2,2,2,2,2,3,3,3,3,3,3,3,4,4,4,5,6,6,7,7,8,8,8,11,12,12,15,26,36,39,40,71,81	0.306873411155	-0.00177539802022	0.306873411155	0.306873411155
GO CC 500 medium	1	Log > Cutoff(5)	Leading Eigenvector	0.335211038589	0.14537294791	0.395833333333	84	1,1,1,1,1,1,1,1,1,1,1,1,1,1,1,1,1,1,1,1,1,1,1,1,1,1,1,1,1,1,1,1,1,1,1,1,1,1,1,1,1,1,1,1,1,1,1,1,1,1,1,1,1,1,1,1,1,1,1,1,1,1,1,1,1,1,1,1,1,1,1,1,1,1,1,1,1,2,2,37,49,72,75,214	0.279752783501	-0.00148601440487	0.279752783501	0.279752783501
GO CC 500 medium	1	Log > Cutoff(5)	Label Propagation	0.0240120887756	0.0959420281814	0.426136363636	102	1,1,1,1,1,1,1,1,1,1,1,1,1,1,1,1,1,1,1,1,1,1,1,1,1,1,1,1,1,1,1,1,1,1,1,1,1,1,1,1,1,1,1,1,1,1,1,1,1,1,1,1,1,1,1,1,1,1,1,1,1,1,1,1,1,1,1,1,1,1,1,1,1,1,1,1,1,2,2,2,2,2,2,2,3,3,3,4,4,4,4,5,5,7,8,9,11,22,38,38,63,206	0.269983388533	-0.00155490943156	0.269983388533	0.269983388533
GO CC 500 medium	1	Log > Cutoff(5)	Walkttrap	0.101206064224	0.181803410503	0.554924242424	169	1,1,1,1,1,1,1,1,1,1,1,1,1,1,1,1,1,1,1,1,1,1,1,1,1,1,1,1,1,1,1,1,1,1,1,1,1,1,1,1,1,1,1,1,1,1,1,1,1,1,1,1,1,1,1,1,1,1,1,1,1,1,1,1,1,1,1,1,1,1,1,1,1,1,1,1,1,1,1,1,1,1,1,1,1,1,1,1,1,1,1,1,1,1,1,1,1,1,1,1,1,1,1,1,1,1,1,1,1,1,1,1,1,1,1,1,1,1,1,1,1,1,1,1,1,1,1,1,1,1,2,2,2,2,2,2,2,2,2,2,2,3,3,3,3,3,3,3,3,3,3,4,4,5,5,5,5,7,7,8,8,8,10,10,14,16,37,80,113	0.281705340988	-0.00174863500452	0.281705340988	0.281705340988
GO CC 500 medium	2	Pearson > Cutoff(5)	None	0.0204041004181	1.58909286642e-16	0.120315581854	1	507	0.0	0.0	0.0	0.0
GO CC 500 medium	2	Pearson > Cutoff(5)	Louvain	0.0281200408936	0.166203652492	0.376725838264	74	1,1,1,1,1,1,1,1,1,1,1,1,1,1,1,1,1,1,1,1,1,1,1,1,1,1,1,1,1,1,1,1,1,1,1,1,1,1,1,1,1,1,1,1,1,1,1,1,1,1,1,1,1,1,1,1,2,2,2,2,2,3,3,3,3,3,6,7,29,37,43,60,110,134	0.635232290916	-0.00168473438347	0.315037581771	0.635232290916
GO CC 500 medium	2	Pearson > Cutoff(5)	Greedy Modularity	0.0290369987488	0.155741520879	0.355029585799	73	1,1,1,1,1,1,1,1,1,1,1,1,1,1,1,1,1,1,1,1,1,1,1,1,1,1,1,1,1,1,1,1,1,1,1,1,1,1,1,1,1,1,1,1,1,1,1,1,1,1,1,1,1,1,1,1,2,2,2,2,2,3,3,3,3,3,9,10,19,43,82,119,144	0.629185033606	-0.00163697430722	0.292029158534	0.629185033606
GO CC 500 medium	2	Pearson > Cutoff(5)	Infomap	0.430695056915	0.175924029724	0.431952662722	89	1,1,1,1,1,1,1,1,1,1,1,1,1,1,1,1,1,1,1,1,1,1,1,1,1,1,1,1,1,1,1,1,1,1,1,1,1,1,1,1,1,1,1,1,1,1,1,1,1,1,1,1,1,1,1,1,2,2,2,2,2,2,2,2,3,3,3,3,3,3,3,4,4,4,5,5,5,6,7,9,10,11,12,20,24,34,43,105,106	0.631998706542	-0.001768337582	0.281789371793	0.631998706542
GO CC 500 medium	2	Pearson > Cutoff(5)	Leading Eigenvector	0.31666302681	0.185452694123	0.404339250493	82	1,1,1,1,1,1,1,1,1,1,1,1,1,1,1,1,1,1,1,1,1,1,1,1,1,1,1,1,1,1,1,1,1,1,1,1,1,1,1,1,1,1,1,1,1,1,1,1,1,1,1,1,1,1,1,1,1,1,1,1,1,2,2,2,2,2,2,2,2,3,3,3,3,3,4,10,25,45,52,55,105,119	0.619258976028	-0.00171627202559	0.298546852227	0.619258976028
GO CC 500 medium	2	Pearson > Cutoff(5)	Label Propagation	0.0196499824524	0.159259147129	0.38067061144	80	1,1,1,1,1,1,1,1,1,1,1,1,1,1,1,1,1,1,1,1,1,1,1,1,1,1,1,1,1,1,1,1,1,1,1,1,1,1,1,1,1,1,1,1,1,1,1,1,1,1,1,1,1,1,1,1,2,2,2,2,2,2,2,2,3,3,3,3,3,4,4,5,7,9,10,11,19,43,121,187	0.619401714444	-0.00157371450241	0.280466632607	0.619401714444
GO CC 500 medium	2	Pearson > Cutoff(5)	Walkttrap	0.0847899913788	0.171523419045	0.43392504931	95	1,1,1,1,1,1,1,1,1,1,1,1,1,1,1,1,1,1,1,1,1,1,1,1,1,1,1,1,1,1,1,1,1,1,1,1,1,1,1,1,1,1,1,1,1,1,1,1,1,1,1,1,1,1,1,1,1,1,1,1,1,1,1,2,2,2,2,2,2,2,2,2,2,2,3,3,3,3,3,3,4,4,4,5,5,6,9,11,12,20,22,33,43,107,119	0.632714553259	-0.00174507261246	0.288454875765	0.632714553259
GO CC 500 medium	2	Spearman > Cutoff(5)	None	0.0170772075653	1.58909286642e-16	0.120315581854	1	507	0.0	0.0	0.0	0.0
GO CC 500 medium	2	Spearman > Cutoff(5)	Louvain	0.0296518802643	0.164812602393	0.58382642998	207	1,1,1,1,1,1,1,1,1,1,1,1,1,1,1,1,1,1,1,1,1,1,1,1,1,1,1,1,1,1,1,1,1,1,1,1,1,1,1,1,1,1,1,1,1,1,1,1,1,1,1,1,1,1,1,1,1,1,1,1,1,1,1,1,1,1,1,1,1,1,1,1,1,1,1,1,1,1,1,1,1,1,1,1,1,1,1,1,1,1,1,1,1,1,1,1,1,1,1,1,1,1,1,1,1,1,1,1,1,1,1,1,1,1,1,1,1,1,1,1,1,1,1,1,1,1,1,1,1,1,1,1,1,1,1,1,1,1,1,1,1,1,1,1,1,1,1,1,1,1,1,1,1,1,1,1,1,1,1,1,1,1,1,1,1,1,1,1,1,1,1,1,1,1,1,1,1,1,1,1,1,1,1,1,1,1,1,1,1,1,1,1,1,1,1,1,1,1,1,1,1,1,2,2,35,104,162	0.508622568945	-0.00168032126632	0.251877054967	0.508622568945
GO CC 500 medium	2	Spearman > Cutoff(5)	Greedy Modularity	0.0257499217987	0.13804650499	0.538461538462	207	1,1,1,1,1,1,1,1,1,1,1,1,1,1,1,1,1,1,1,1,1,1,1,1,1,1,1,1,1,1,1,1,1,1,1,1,1,1,1,1,1,1,1,1,1,1,1,1,1,1,1,1,1,1,1,1,1,1,1,1,1,1,1,1,1,1,1,1,1,1,1,1,1,1,1,1,1,1,1,1,1,1,1,1,1,1,1,1,1,1,1,1,1,1,1,1,1,1,1,1,1,1,1,1,1,1,1,1,1,1,1,1,1,1,1,1,1,1,1,1,1,1,1,1,1,1,1,1,1,1,1,1,1,1,1,1,1,1,1,1,1,1,1,1,1,1,1,1,1,1,1,1,1,1,1,1,1,1,1,1,1,1,1,1,1,1,1,1,1,1,1,1,1,1,1,1,1,1,1,1,1,1,1,1,1,1,1,1,1,1,1,1,1,1,1,1,1,1,1,1,1,1,2,2,6,104,191	0.48941836584	-0.00161075700843	0.13943535142	0.48941836584
GO CC 500 medium	2	Spearman > Cutoff(5)	Infomap	0.301534891129	0.139329164844	0.58382642998	212	1,1,1,1,1,1,1,1,1,1,1,1,1,1,1,1,1,1,1,1,1,1,1,1,1,1,1,1,1,1,1,1,1,1,1,1,1,1,1,1,1,1,1,1,1,1,1,1,1,1,1,1,1,1,1,1,1,1,1,1,1,1,1,1,1,1,1,1,1,1,1,1,1,1,1,1,1,1,1,1,1,1,1,1,1,1,1,1,1,1,1,1,1,1,1,1,1,1,1,1,1,1,1,1,1,1,1,1,1,1,1,1,1,1,1,1,1,1,1,1,1,1,1,1,1,1,1,1,1,1,1,1,1,1,1,1,1,1,1,1,1,1,1,1,1,1,1,1,1,1,1,1,1,1,1,1,1,1,1,1,1,1,1,1,1,1,1,1,1,1,1,1,1,1,1,1,1,1,1,1,1,1,1,1,1,1,1,1,1,1,1,1,1,1,1,1,1,1,1,1,1,1,2,2,2,2,6,6,28,31,102,124	0.509388302802	-0.0017624329235	0.25770187663	0.509388302802
GO CC 500 medium	2	Spearman > Cutoff(5)	Leading Eigenvector	0.104024171829	0.156034147392	0.581854043393	210	1,1,1,1,1,1,1,1,1,1,1,1,1,1,1,1,1,1,1,1,1,1,1,1,1,1,1,1,1,1,1,1,1,1,1,1,1,1,1,1,1,1,1,1,1,1,1,1,1,1,1,1,1,1,1,1,1,1,1,1,1,1,1,1,1,1,1,1,1,1,1,1,1,1,1,1,1,1,1,1,1,1,1,1,1,1,1,1,1,1,1,1,1,1,1,1,1,1,1,1,1,1,1,1,1,1,1,1,1,1,1,1,1,1,1,1,1,1,1,1,1,1,1,1,1,1,1,1,1,1,1,1,1,1,1,1,1,1,1,1,1,1,1,1,1,1,1,1,1,1,1,1,1,1,1,1,1,1,1,1,1,1,1,1,1,1,1,1,1,1,1,1,1,1,1,1,1,1,1,1,1,1,1,1,1,1,1,1,1,1,1,1,1,1,1,1,1,1,1,1,1,1,1,2,2,2,20,37,104,137	0.506362973069	-0.00173357082977	0.27837044052	0.506362973069
GO CC 500 medium	2	Spearman > Cutoff(5)	Label Propagation	0.0182058811188	0.156153283009	0.579881656805	207	1,1,1,1,1,1,1,1,1,1,1,1,1,1,1,1,1,1,1,1,1,1,1,1,1,1,1,1,1,1,1,1,1,1,1,1,1,1,1,1,1,1,1,1,1,1,1,1,1,1,1,1,1,1,1,1,1,1,1,1,1,1,1,1,1,1,1,1,1,1,1,1,1,1,1,1,1,1,1,1,1,1,1,1,1,1,1,1,1,1,1,1,1,1,1,1,1,1,1,1,1,1,1,1,1,1,1,1,1,1,1,1,1,1,1,1,1,1,1,1,1,1,1,1,1,1,1,1,1,1,1,1,1,1,1,1,1,1,1,1,1,1,1,1,1,1,1,1,1,1,1,1,1,1,1,1,1,1,1,1,1,1,1,1,1,1,1,1,1,1,1,1,1,1,1,1,1,1,1,1,1,1,1,1,1,1,1,1,1,1,1,1,1,1,1,1,1,1,1,1,2,2,2,6,27,104,164	0.507996760819	-0.00167884510169	0.224186044226	0.507996760819
GO CC 500 medium	2	Spearman > Cutoff(5)	Walkttrap	0.0728371143341	0.149712032072	0.585798816568	211	1,1,1,1,1,1,1,1,1,1,1,1,1,1,1,1,1,1,1,1,1,1,1,1,1,1,1,1,1,1,1,1,1,1,1,1,1,1,1,1,1,1,1,1,1,1,1,1,1,1,1,1,1,1,1,1,1,1,1,1,1,1,1,1,1,1,1,1,1,1,1,1,1,1,1,1,1,1,1,1,1,1,1,1,1,1,1,1,1,1,1,1,1,1,1,1,1,1,1,1,1,1,1,1,1,1,1,1,1,1,1,1,1,1,1,1,1,1,1,1,1,1,1,1,1,1,1,1,1,1,1,1,1,1,1,1,1,1,1,1,1,1,1,1,1,1,1,1,1,1,1,1,1,1,1,1,1,1,1,1,1,1,1,1,1,1,1,1,1,1,1,1,1,1,1,1,1,1,1,1,1,1,1,1,1,1,1,1,1,1,1,1,1,1,1,1,1,1,1,1,1,1,2,2,2,2,6,14,27,104,146	0.508002796625	-0.00172017771115	0.243110855966	0.508002796625
GO CC 500 medium	2	Cosine > Cutoff(5)	None	0.0168118476868	1.58909286642e-16	0.120315581854	1	507	0.0	0.0	0.0	0.0
GO CC 500 medium	2	Cosine > Cutoff(5)	Louvain	0.0254440307617	0.129432955879	0.394477317554	96	1,1,1,1,1,1,1,1,1,1,1,1,1,1,1,1,1,1,1,1,1,1,1,1,1,1,1,1,1,1,1,1,1,1,1,1,1,1,1,1,1,1,1,1,1,1,1,1,1,1,1,1,1,1,1,1,1,1,1,1,1,1,1,1,1,1,1,1,1,1,1,1,1,2,2,2,2,2,2,2,2,2,3,3,3,3,4,4,8,14,26,41,52,66,86,103	0.582692981504	-0.00176209463578	0.247038958606	0.582692981504
GO CC 500 medium	2	Cosine > Cutoff(5)	Greedy Modularity	0.0401089191437	0.0959258542567	0.378698224852	99	1,1,1,1,1,1,1,1,1,1,1,1,1,1,1,1,1,1,1,1,1,1,1,1,1,1,1,1,1,1,1,1,1,1,1,1,1,1,1,1,1,1,1,1,1,1,1,1,1,1,1,1,1,1,1,1,1,1,1,1,1,1,1,1,1,1,1,1,1,1,1,1,1,2,2,2,2,2,2,2,2,2,2,3,3,3,3,3,3,3,4,4,7,8,14,16,41,88,211	0.471928248574	-0.00155558535563	0.264366509065	0.471928248574
GO CC 500 medium	2	Cosine > Cutoff(5)	Infomap	0.436031103134	0.109398319796	0.420118343195	106	1,1,1,1,1,1,1,1,1,1,1,1,1,1,1,1,1,1,1,1,1,1,1,1,1,1,1,1,1,1,1,1,1,1,1,1,1,1,1,1,1,1,1,1,1,1,1,1,1,1,1,1,1,1,1,1,1,1,1,1,1,1,1,1,1,1,1,1,1,1,1,1,1,2,2,2,2,2,2,2,2,2,2,2,2,2,3,3,3,3,3,4,5,5,6,8,14,14,15,20,30,30,35,41,63,103	0.571689498236	-0.00181761995302	0.221592882292	0.571689498236
GO CC 500 medium	2	Cosine > Cutoff(5)	Label Propagation	0.0186030864716	0.10137655897	0.429980276134	101	1,1,1,1,1,1,1,1,1,1,1,1,1,1,1,1,1,1,1,1,1,1,1,1,1,1,1,1,1,1,1,1,1,1,1,1,1,1,1,1,1,1,1,1,1,1,1,1,1,1,1,1,1,1,1,1,1,1,1,1,1,1,1,1,1,1,1,1,1,1,1,1,1,2,2,2,2,2,2,2,2,2,2,3,3,3,3,3,3,4,4,5,6,15,19,30,34,35,41,65,138	0.565010449125	-0.00175273021645	0.227493757676	0.565010449125
GO CC 500 medium	2	Cosine > Cutoff(5)	Walkttrap	0.0888888835907	0.101893541344	0.455621301775	125	1,1,1,1,1,1,1,1,1,1,1,1,1,1,1,1,1,1,1,1,1,1,1,1,1,1,1,1,1,1,1,1,1,1,1,1,1,1,1,1,1,1,1,1,1,1,1,1,1,1,1,1,1,1,1,1,1,1,1,1,1,1,1,1,1,1,1,1,1,1,1,1,1,1,1,1,1,1,1,1,1,1,1,1,1,1,1,1,1,2,2,2,2,2,2,2,2,2,2,2,2,3,3,3,3,3,3,3,3,3,4,4,5,5,7,8,8,10,17,27,30,30,41,66,105	0.556179925841	-0.00181900385736	0.201509470861	0.556179925841
GO CC 500 medium	2	KNN(10) > Cutoff(5)	None	0.0164330005646	1.58909286642e-16	0.120315581854	1	507	0.0	0.0	0.0	0.0
GO CC 500 medium	2	KNN(10) > Cutoff(5)	Louvain	0.0508840084076	0.149541450531	0.25641025641	6	44,44,75,97,110,137	0.604864877592	-0.00159359659469	0.353004995917	0.604864877592
GO CC 500 medium	2	KNN(10) > Cutoff(5)	Greedy Modularity	0.0733301639557	0.148715528207	0.242603550296	4	44,79,182,202	0.543427527003	-0.00134503199948	0.286602084635	0.543427527003
GO CC 500 medium	2	KNN(10) > Cutoff(5)	Infomap	0.56113910675	0.159093087255	0.266272189349	12	2,3,11,12,20,39,42,44,52,76,98,108	0.591819356615	-0.00170221770823	0.351381406951	0.591819356615
GO CC 500 medium	2	KNN(10) > Cutoff(5)	Leading Eigenvector	0.161237001419	0.144389311903	0.252465483235	5	53,53,91,143,167	0.520646102193	-0.00149778428459	0.30106626033	0.520646102193
GO CC 500 medium	2	KNN(10) > Cutoff(5)	Label Propagation	0.0243470668793	0.144702543605	0.248520710059	8	8,39,43,44,44,99,112,118	0.595361941413	-0.00164126441065	0.354083898378	0.595361941413
GO CC 500 medium	2	KNN(10) > Cutoff(5)	Spinglass	29.0222239494	0.141959631679	0.246548323471	6	39,44,78,101,107,138	0.605611065988	-0.00159005995027	0.357870255185	0.605611065988
GO CC 500 medium	2	KNN(10) > Cutoff(5)	Walkttrap	0.125285863876	0.146692721097	0.254437869822	6	43,46,63,102,104,149	0.598907802097	-0.00158144898997	0.348009332904	0.598907802097
GO CC 500 medium	2	KNN(50) > Cutoff(5)	None	0.0163249969482	1.58909286642e-16	0.120315581854	1	507	0.0	0.0	0.0	0.0
GO CC 500 medium	2	KNN(50) > Cutoff(5)	Louvain	0.0391280651093	0.162272450509	0.390532544379	103	1,1,1,1,1,1,1,1,1,1,1,1,1,1,1,1,1,1,1,1,1,1,1,1,1,1,1,1,1,1,1,1,1,1,1,1,1,1,1,1,1,1,1,1,1,1,1,1,1,1,1,1,1,1,1,1,1,1,1,1,1,1,1,1,1,1,1,1,1,1,1,1,1,1,1,1,1,1,1,1,1,1,1,1,1,1,1,1,1,2,2,2,2,2,2,2,6,12,15,47,58,105,161	0.628332491889	-0.00164536999351	0.342771794124	0.628332491889
GO CC 500 medium	2	KNN(50) > Cutoff(5)	Greedy Modularity	0.0275418758392	0.168004314179	0.394477317554	103	1,1,1,1,1,1,1,1,1,1,1,1,1,1,1,1,1,1,1,1,1,1,1,1,1,1,1,1,1,1,1,1,1,1,1,1,1,1,1,1,1,1,1,1,1,1,1,1,1,1,1,1,1,1,1,1,1,1,1,1,1,1,1,1,1,1,1,1,1,1,1,1,1,1,1,1,1,1,1,1,1,1,1,1,1,1,1,1,1,2,2,2,2,2,2,2,2,3,6,47,53,127,166	0.623896717624	-0.0016005622465	0.336909012176	0.623896717624
GO CC 500 medium	2	KNN(50) > Cutoff(5)	Infomap	0.376368045807	0.164545765593	0.400394477318	111	1,1,1,1,1,1,1,1,1,1,1,1,1,1,1,1,1,1,1,1,1,1,1,1,1,1,1,1,1,1,1,1,1,1,1,1,1,1,1,1,1,1,1,1,1,1,1,1,1,1,1,1,1,1,1,1,1,1,1,1,1,1,1,1,1,1,1,1,1,1,1,1,1,1,1,1,1,1,1,1,1,1,1,1,1,1,1,1,1,2,2,2,2,2,2,2,2,2,3,4,4,5,6,11,11,12,14,42,46,96,146	0.620294558204	-0.00170549294849	0.33347875092	0.620294558204
GO CC 500 medium	2	KNN(50) > Cutoff(5)	Leading Eigenvector	0.29402089119	0.163108956207	0.388560157791	106	1,1,1,1,1,1,1,1,1,1,1,1,1,1,1,1,1,1,1,1,1,1,1,1,1,1,1,1,1,1,1,1,1,1,1,1,1,1,1,1,1,1,1,1,1,1,1,1,1,1,1,1,1,1,1,1,1,1,1,1,1,1,1,1,1,1,1,1,1,1,1,1,1,1,1,1,1,1,1,1,1,1,1,1,1,1,1,1,1,1,1,1,2,2,2,2,2,2,2,2,6,6,43,48,121,175	0.608505538685	-0.00159482673187	0.315060532249	0.608505538685
GO CC 500 medium	2	KNN(50) > Cutoff(5)	Label Propagation	0.0200960636139	0.157389183141	0.388560157791	101	1,1,1,1,1,1,1,1,1,1,1,1,1,1,1,1,1,1,1,1,1,1,1,1,1,1,1,1,1,1,1,1,1,1,1,1,1,1,1,1,1,1,1,1,1,1,1,1,1,1,1,1,1,1,1,1,1,1,1,1,1,1,1,1,1,1,1,1,1,1,1,1,1,1,1,1,1,1,1,1,1,1,1,1,1,1,1,1,1,2,2,2,2,2,2,2,6,44,47,129,178	0.618484369548	-0.00157170015277	0.32508487985	0.618484369548
GO CC 500 medium	2	KNN(50) > Cutoff(5)	Walkttrap	0.0975961685181	0.164515772213	0.406311637081	113	1,1,1,1,1,1,1,1,1,1,1,1,1,1,1,1,1,1,1,1,1,1,1,1,1,1,1,1,1,1,1,1,1,1,1,1,1,1,1,1,1,1,1,1,1,1,1,1,1,1,1,1,1,1,1,1,1,1,1,1,1,1,1,1,1,1,1,1,1,1,1,1,1,1,1,1,1,1,1,1,1,1,1,1,1,1,1,1,1,1,1,1,2,2,2,2,2,2,2,2,2,2,3,3,3,4,6,8,23,29,46,108,162	0.618592089926	-0.00165591841989	0.327818238217	0.618592089926
GO CC 500 medium	2	KNN(100) > Cutoff(5)	None	0.0164618492126	1.58909286642e-16	0.120315581854	1	507	0.0	0.0	0.0	0.0
GO CC 500 medium	2	KNN(100) > Cutoff(5)	Louvain	0.0264987945557	0.171551253114	0.475345167653	150	1,1,1,1,1,1,1,1,1,1,1,1,1,1,1,1,1,1,1,1,1,1,1,1,1,1,1,1,1,1,1,1,1,1,1,1,1,1,1,1,1,1,1,1,1,1,1,1,1,1,1,1,1,1,1,1,1,1,1,1,1,1,1,1,1,1,1,1,1,1,1,1,1,1,1,1,1,1,1,1,1,1,1,1,1,1,1,1,1,1,1,1,1,1,1,1,1,1,1,1,1,1,1,1,1,1,1,1,1,1,1,1,1,1,1,1,1,1,1,1,1,1,1,1,1,1,1,1,1,1,1,1,1,1,1,1,1,1,1,1,1,1,2,2,2,2,37,51,115,154	0.574795192231	-0.00166053143433	0.326383833335	0.574795192231
GO CC 500 medium	2	KNN(100) > Cutoff(5)	Greedy Modularity	0.0269150733948	0.136832036057	0.424063116371	150	1,1,1,1,1,1,1,1,1,1,1,1,1,1,1,1,1,1,1,1,1,1,1,1,1,1,1,1,1,1,1,1,1,1,1,1,1,1,1,1,1,1,1,1,1,1,1,1,1,1,1,1,1,1,1,1,1,1,1,1,1,1,1,1,1,1,1,1,1,1,1,1,1,1,1,1,1,1,1,1,1,1,1,1,1,1,1,1,1,1,1,1,1,1,1,1,1,1,1,1,1,1,1,1,1,1,1,1,1,1,1,1,1,1,1,1,1,1,1,1,1,1,1,1,1,1,1,1,1,1,1,1,1,1,1,1,1,1,1,1,1,1,2,2,2,2,3,36,115,203	0.510716794705	-0.00154652847059	0.188443531256	0.510716794705
GO CC 500 medium	2	KNN(100) > Cutoff(5)	Infomap	0.333200931549	0.158881804549	0.481262327416	161	1,1,1,1,1,1,1,1,1,1,1,1,1,1,1,1,1,1,1,1,1,1,1,1,1,1,1,1,1,1,1,1,1,1,1,1,1,1,1,1,1,1,1,1,1,1,1,1,1,1,1,1,1,1,1,1,1,1,1,1,1,1,1,1,1,1,1,1,1,1,1,1,1,1,1,1,1,1,1,1,1,1,1,1,1,1,1,1,1,1,1,1,1,1,1,1,1,1,1,1,1,1,1,1,1,1,1,1,1,1,1,1,1,1,1,1,1,1,1,1,1,1,1,1,1,1,1,1,1,1,1,1,1,1,1,1,1,1,1,1,1,1,2,2,2,2,2,2,2,2,2,3,4,4,7,14,22,28,48,105,112	0.569233727553	-0.00176404747856	0.309330332889	0.569233727553
GO CC 500 medium	2	KNN(100) > Cutoff(5)	Label Propagation	0.0185980796814	0.168992073138	0.473372781065	152	1,1,1,1,1,1,1,1,1,1,1,1,1,1,1,1,1,1,1,1,1,1,1,1,1,1,1,1,1,1,1,1,1,1,1,1,1,1,1,1,1,1,1,1,1,1,1,1,1,1,1,1,1,1,1,1,1,1,1,1,1,1,1,1,1,1,1,1,1,1,1,1,1,1,1,1,1,1,1,1,1,1,1,1,1,1,1,1,1,1,1,1,1,1,1,1,1,1,1,1,1,1,1,1,1,1,1,1,1,1,1,1,1,1,1,1,1,1,1,1,1,1,1,1,1,1,1,1,1,1,1,1,1,1,1,1,1,1,1,1,2,2,2,2,2,2,6,8,20,50,115,156	0.572133628156	-0.001663191606	0.311931374972	0.572133628156
GO CC 500 medium	2	KNN(100) > Cutoff(5)	Walkttrap	0.0842270851135	0.166068747847	0.481262327416	155	1,1,1,1,1,1,1,1,1,1,1,1,1,1,1,1,1,1,1,1,1,1,1,1,1,1,1,1,1,1,1,1,1,1,1,1,1,1,1,1,1,1,1,1,1,1,1,1,1,1,1,1,1,1,1,1,1,1,1,1,1,1,1,1,1,1,1,1,1,1,1,1,1,1,1,1,1,1,1,1,1,1,1,1,1,1,1,1,1,1,1,1,1,1,1,1,1,1,1,1,1,1,1,1,1,1,1,1,1,1,1,1,1,1,1,1,1,1,1,1,1,1,1,1,1,1,1,1,1,1,1,1,1,1,1,1,1,1,1,1,1,1,2,2,2,2,2,2,2,3,14,19,53,113,149	0.572316837593	-0.00168016749917	0.308936628089	0.572316837593
GO CC 500 medium	2	KNN(250) > Cutoff(5)	None	0.0166280269623	1.58909286642e-16	0.120315581854	1	507	0.0	0.0	0.0	0.0
GO CC 500 medium	2	KNN(250) > Cutoff(5)	Louvain	0.0265979766846	0.152191866924	0.544378698225	190	1,1,1,1,1,1,1,1,1,1,1,1,1,1,1,1,1,1,1,1,1,1,1,1,1,1,1,1,1,1,1,1,1,1,1,1,1,1,1,1,1,1,1,1,1,1,1,1,1,1,1,1,1,1,1,1,1,1,1,1,1,1,1,1,1,1,1,1,1,1,1,1,1,1,1,1,1,1,1,1,1,1,1,1,1,1,1,1,1,1,1,1,1,1,1,1,1,1,1,1,1,1,1,1,1,1,1,1,1,1,1,1,1,1,1,1,1,1,1,1,1,1,1,1,1,1,1,1,1,1,1,1,1,1,1,1,1,1,1,1,1,1,1,1,1,1,1,1,1,1,1,1,1,1,1,1,1,1,1,1,1,1,1,1,1,1,1,1,1,1,1,1,1,1,1,1,1,1,1,1,1,1,1,2,2,8,14,32,108,158	0.487908539718	-0.00168333510242	0.258310354813	0.487908539718
GO CC 500 medium	2	KNN(250) > Cutoff(5)	Greedy Modularity	0.0254371166229	0.132857454765	0.504930966469	189	1,1,1,1,1,1,1,1,1,1,1,1,1,1,1,1,1,1,1,1,1,1,1,1,1,1,1,1,1,1,1,1,1,1,1,1,1,1,1,1,1,1,1,1,1,1,1,1,1,1,1,1,1,1,1,1,1,1,1,1,1,1,1,1,1,1,1,1,1,1,1,1,1,1,1,1,1,1,1,1,1,1,1,1,1,1,1,1,1,1,1,1,1,1,1,1,1,1,1,1,1,1,1,1,1,1,1,1,1,1,1,1,1,1,1,1,1,1,1,1,1,1,1,1,1,1,1,1,1,1,1,1,1,1,1,1,1,1,1,1,1,1,1,1,1,1,1,1,1,1,1,1,1,1,1,1,1,1,1,1,1,1,1,1,1,1,1,1,1,1,1,1,1,1,1,1,1,1,1,1,1,1,1,2,2,6,8,108,198	0.473544467917	-0.00158295590802	0.140224443571	0.473544467917
GO CC 500 medium	2	KNN(250) > Cutoff(5)	Infomap	0.313235044479	0.132473892056	0.544378698225	195	1,1,1,1,1,1,1,1,1,1,1,1,1,1,1,1,1,1,1,1,1,1,1,1,1,1,1,1,1,1,1,1,1,1,1,1,1,1,1,1,1,1,1,1,1,1,1,1,1,1,1,1,1,1,1,1,1,1,1,1,1,1,1,1,1,1,1,1,1,1,1,1,1,1,1,1,1,1,1,1,1,1,1,1,1,1,1,1,1,1,1,1,1,1,1,1,1,1,1,1,1,1,1,1,1,1,1,1,1,1,1,1,1,1,1,1,1,1,1,1,1,1,1,1,1,1,1,1,1,1,1,1,1,1,1,1,1,1,1,1,1,1,1,1,1,1,1,1,1,1,1,1,1,1,1,1,1,1,1,1,1,1,1,1,1,1,1,1,1,1,1,1,1,1,1,1,1,1,1,1,1,1,1,2,2,2,3,6,8,11,14,22,26,108,120	0.479467507706	-0.00176220227278	0.235441813287	0.479467507706
GO CC 500 medium	2	KNN(250) > Cutoff(5)	Leading Eigenvector	0.112973928452	0.150826367057	0.520710059172	189	1,1,1,1,1,1,1,1,1,1,1,1,1,1,1,1,1,1,1,1,1,1,1,1,1,1,1,1,1,1,1,1,1,1,1,1,1,1,1,1,1,1,1,1,1,1,1,1,1,1,1,1,1,1,1,1,1,1,1,1,1,1,1,1,1,1,1,1,1,1,1,1,1,1,1,1,1,1,1,1,1,1,1,1,1,1,1,1,1,1,1,1,1,1,1,1,1,1,1,1,1,1,1,1,1,1,1,1,1,1,1,1,1,1,1,1,1,1,1,1,1,1,1,1,1,1,1,1,1,1,1,1,1,1,1,1,1,1,1,1,1,1,1,1,1,1,1,1,1,1,1,1,1,1,1,1,1,1,1,1,1,1,1,1,1,1,1,1,1,1,1,1,1,1,1,1,1,1,1,1,1,1,1,2,2,8,57,108,147	0.484291139633	-0.00169352986436	0.255792750307	0.484291139633
GO CC 500 medium	2	KNN(250) > Cutoff(5)	Label Propagation	0.0194158554077	0.143481290491	0.538461538462	191	1,1,1,1,1,1,1,1,1,1,1,1,1,1,1,1,1,1,1,1,1,1,1,1,1,1,1,1,1,1,1,1,1,1,1,1,1,1,1,1,1,1,1,1,1,1,1,1,1,1,1,1,1,1,1,1,1,1,1,1,1,1,1,1,1,1,1,1,1,1,1,1,1,1,1,1,1,1,1,1,1,1,1,1,1,1,1,1,1,1,1,1,1,1,1,1,1,1,1,1,1,1,1,1,1,1,1,1,1,1,1,1,1,1,1,1,1,1,1,1,1,1,1,1,1,1,1,1,1,1,1,1,1,1,1,1,1,1,1,1,1,1,1,1,1,1,1,1,1,1,1,1,1,1,1,1,1,1,1,1,1,1,1,1,1,1,1,1,1,1,1,1,1,1,1,1,1,1,1,1,1,2,2,2,4,4,4,8,26,108,166	0.483758304103	-0.00166722030528	0.22223699666	0.483758304103
GO CC 500 medium	2	KNN(250) > Cutoff(5)	Walkttrap	0.0801179409027	0.148094981433	0.546351084813	194	1,1,1,1,1,1,1,1,1,1,1,1,1,1,1,1,1,1,1,1,1,1,1,1,1,1,1,1,1,1,1,1,1,1,1,1,1,1,1,1,1,1,1,1,1,1,1,1,1,1,1,1,1,1,1,1,1,1,1,1,1,1,1,1,1,1,1,1,1,1,1,1,1,1,1,1,1,1,1,1,1,1,1,1,1,1,1,1,1,1,1,1,1,1,1,1,1,1,1,1,1,1,1,1,1,1,1,1,1,1,1,1,1,1,1,1,1,1,1,1,1,1,1,1,1,1,1,1,1,1,1,1,1,1,1,1,1,1,1,1,1,1,1,1,1,1,1,1,1,1,1,1,1,1,1,1,1,1,1,1,1,1,1,1,1,1,1,1,1,1,1,1,1,1,1,1,1,1,1,1,1,1,1,2,2,2,4,4,4,5,14,26,108,153	0.487025769292	-0.00169786609794	0.238410752987	0.487025769292
GO CC 500 medium	2	KNN(500) > Cutoff(5)	None	0.0184199810028	1.58909286642e-16	0.120315581854	1	507	0.0	0.0	0.0	0.0
GO CC 500 medium	2	KNN(500) > Cutoff(5)	Louvain	0.0499660968781	0.0902564840151	0.179487179487	12	1,1,1,1,1,1,1,1,19,20,190,270	0.429930310509	-0.00113234127997	0.146676045698	0.429930310509
GO CC 500 medium	2	KNN(500) > Cutoff(5)	Greedy Modularity	0.0928518772125	0.0712275139263	0.155818540434	13	1,1,1,1,1,1,1,1,2,2,18,204,273	0.427045415184	-0.00108070627158	0.148165502676	0.427045415184
GO CC 500 medium	2	KNN(500) > Cutoff(5)	Infomap	0.580852985382	0.101592950018	0.18540433925	22	1,1,1,1,1,1,1,1,2,2,2,2,3,3,5,9,15,17,18,21,147,253	0.424582411143	-0.00130705151386	0.142357240219	0.424582411143
GO CC 500 medium	2	KNN(500) > Cutoff(5)	Leading Eigenvector	0.12406206131	0.0773479699019	0.169625246548	10	1,1,1,1,1,1,1,1,235,264	0.426306801191	-0.00101578578157	0.144036183898	0.426306801191
GO CC 500 medium	2	KNN(500) > Cutoff(5)	Label Propagation	0.0218560695648	0.0795137242456	0.163708086785	12	1,1,1,1,1,1,1,1,6,11,196,286	0.426037345445	-0.00105078318452	0.135998626264	0.426037345445
GO CC 500 medium	2	KNN(500) > Cutoff(5)	Walkttrap	0.155078887939	0.08062604272	0.169625246548	13	1,1,1,1,1,1,1,1,2,7,17,211,262	0.428622430222	-0.0011035406931	0.145078094449	0.428622430222
GO CC 500 medium	2	Topological Overlap > Cutoff(5)	None	0.0169022083282	1.58909286642e-16	0.120315581854	1	507	0.0	0.0	0.0	0.0
GO CC 500 medium	2	Topological Overlap > Cutoff(5)	Louvain	0.0288348197937	0.163091872937	0.613412228797	227	1,1,1,1,1,1,1,1,1,1,1,1,1,1,1,1,1,1,1,1,1,1,1,1,1,1,1,1,1,1,1,1,1,1,1,1,1,1,1,1,1,1,1,1,1,1,1,1,1,1,1,1,1,1,1,1,1,1,1,1,1,1,1,1,1,1,1,1,1,1,1,1,1,1,1,1,1,1,1,1,1,1,1,1,1,1,1,1,1,1,1,1,1,1,1,1,1,1,1,1,1,1,1,1,1,1,1,1,1,1,1,1,1,1,1,1,1,1,1,1,1,1,1,1,1,1,1,1,1,1,1,1,1,1,1,1,1,1,1,1,1,1,1,1,1,1,1,1,1,1,1,1,1,1,1,1,1,1,1,1,1,1,1,1,1,1,1,1,1,1,1,1,1,1,1,1,1,1,1,1,1,1,1,1,1,1,1,1,1,1,1,1,1,1,1,1,1,1,1,1,1,1,1,1,1,1,1,1,1,1,1,2,2,2,2,2,2,2,2,2,3,3,5,6,14,56,191	0.243563849501	-0.00166768160673	0.24181078885	0.243563849501
GO CC 500 medium	2	Topological Overlap > Cutoff(5)	Greedy Modularity	0.0307099819183	0.169039016217	0.613412228797	229	1,1,1,1,1,1,1,1,1,1,1,1,1,1,1,1,1,1,1,1,1,1,1,1,1,1,1,1,1,1,1,1,1,1,1,1,1,1,1,1,1,1,1,1,1,1,1,1,1,1,1,1,1,1,1,1,1,1,1,1,1,1,1,1,1,1,1,1,1,1,1,1,1,1,1,1,1,1,1,1,1,1,1,1,1,1,1,1,1,1,1,1,1,1,1,1,1,1,1,1,1,1,1,1,1,1,1,1,1,1,1,1,1,1,1,1,1,1,1,1,1,1,1,1,1,1,1,1,1,1,1,1,1,1,1,1,1,1,1,1,1,1,1,1,1,1,1,1,1,1,1,1,1,1,1,1,1,1,1,1,1,1,1,1,1,1,1,1,1,1,1,1,1,1,1,1,1,1,1,1,1,1,1,1,1,1,1,1,1,1,1,1,1,1,1,1,1,1,1,1,1,1,1,1,1,1,1,1,1,1,1,2,2,2,2,2,2,2,2,2,2,2,3,3,6,8,15,59,180	0.252644165014	-0.00169582099487	0.250196912923	0.252644165014
GO CC 500 medium	2	Topological Overlap > Cutoff(5)	Infomap	0.269305944443	0.174538769475	0.642998027613	234	1,1,1,1,1,1,1,1,1,1,1,1,1,1,1,1,1,1,1,1,1,1,1,1,1,1,1,1,1,1,1,1,1,1,1,1,1,1,1,1,1,1,1,1,1,1,1,1,1,1,1,1,1,1,1,1,1,1,1,1,1,1,1,1,1,1,1,1,1,1,1,1,1,1,1,1,1,1,1,1,1,1,1,1,1,1,1,1,1,1,1,1,1,1,1,1,1,1,1,1,1,1,1,1,1,1,1,1,1,1,1,1,1,1,1,1,1,1,1,1,1,1,1,1,1,1,1,1,1,1,1,1,1,1,1,1,1,1,1,1,1,1,1,1,1,1,1,1,1,1,1,1,1,1,1,1,1,1,1,1,1,1,1,1,1,1,1,1,1,1,1,1,1,1,1,1,1,1,1,1,1,1,1,1,1,1,1,1,1,1,1,1,1,1,1,1,1,1,1,1,1,1,1,1,1,1,1,1,1,1,1,2,2,2,2,2,2,2,2,2,2,2,2,2,2,3,3,3,4,5,6,12,50,182	0.236058861585	-0.00169843503639	0.238948406672	0.236058861585
GO CC 500 medium	2	Topological Overlap > Cutoff(5)	Leading Eigenvector	0.0806090831757	0.142716921541	0.589743589744	224	1,1,1,1,1,1,1,1,1,1,1,1,1,1,1,1,1,1,1,1,1,1,1,1,1,1,1,1,1,1,1,1,1,1,1,1,1,1,1,1,1,1,1,1,1,1,1,1,1,1,1,1,1,1,1,1,1,1,1,1,1,1,1,1,1,1,1,1,1,1,1,1,1,1,1,1,1,1,1,1,1,1,1,1,1,1,1,1,1,1,1,1,1,1,1,1,1,1,1,1,1,1,1,1,1,1,1,1,1,1,1,1,1,1,1,1,1,1,1,1,1,1,1,1,1,1,1,1,1,1,1,1,1,1,1,1,1,1,1,1,1,1,1,1,1,1,1,1,1,1,1,1,1,1,1,1,1,1,1,1,1,1,1,1,1,1,1,1,1,1,1,1,1,1,1,1,1,1,1,1,1,1,1,1,1,1,1,1,1,1,1,1,1,1,1,1,1,1,1,1,1,1,1,1,1,1,1,1,1,1,1,2,2,2,2,2,2,2,2,2,3,6,58,211	0.242146584849	-0.00160588258983	0.235893402679	0.242146584849
GO CC 500 medium	2	Topological Overlap > Cutoff(5)	Label Propagation	0.0179290771484	0.153356873608	0.611439842209	227	1,1,1,1,1,1,1,1,1,1,1,1,1,1,1,1,1,1,1,1,1,1,1,1,1,1,1,1,1,1,1,1,1,1,1,1,1,1,1,1,1,1,1,1,1,1,1,1,1,1,1,1,1,1,1,1,1,1,1,1,1,1,1,1,1,1,1,1,1,1,1,1,1,1,1,1,1,1,1,1,1,1,1,1,1,1,1,1,1,1,1,1,1,1,1,1,1,1,1,1,1,1,1,1,1,1,1,1,1,1,1,1,1,1,1,1,1,1,1,1,1,1,1,1,1,1,1,1,1,1,1,1,1,1,1,1,1,1,1,1,1,1,1,1,1,1,1,1,1,1,1,1,1,1,1,1,1,1,1,1,1,1,1,1,1,1,1,1,1,1,1,1,1,1,1,1,1,1,1,1,1,1,1,1,1,1,1,1,1,1,1,1,1,1,1,1,1,1,1,1,1,1,1,1,1,1,1,1,1,1,1,2,2,2,2,2,2,2,2,2,2,2,3,6,11,54,200	0.238557134913	-0.00164309423972	0.232324312819	0.238557134913
GO CC 500 medium	2	Topological Overlap > Cutoff(5)	Walkttrap	0.092383146286	0.173449483416	0.660749506903	248	1,1,1,1,1,1,1,1,1,1,1,1,1,1,1,1,1,1,1,1,1,1,1,1,1,1,1,1,1,1,1,1,1,1,1,1,1,1,1,1,1,1,1,1,1,1,1,1,1,1,1,1,1,1,1,1,1,1,1,1,1,1,1,1,1,1,1,1,1,1,1,1,1,1,1,1,1,1,1,1,1,1,1,1,1,1,1,1,1,1,1,1,1,1,1,1,1,1,1,1,1,1,1,1,1,1,1,1,1,1,1,1,1,1,1,1,1,1,1,1,1,1,1,1,1,1,1,1,1,1,1,1,1,1,1,1,1,1,1,1,1,1,1,1,1,1,1,1,1,1,1,1,1,1,1,1,1,1,1,1,1,1,1,1,1,1,1,1,1,1,1,1,1,1,1,1,1,1,1,1,1,1,1,1,1,1,1,1,1,1,1,1,1,1,1,1,1,1,1,1,1,1,1,1,1,1,1,1,1,1,1,1,1,1,1,1,1,1,1,1,1,1,1,1,1,1,1,1,1,1,2,2,2,2,2,2,2,2,2,2,2,3,3,3,4,9,59,174	0.254462578846	-0.0017136887375	0.246160788096	0.254462578846
GO CC 500 medium	2	None > Cutoff(5)	None	0.0155370235443	1.58909286642e-16	0.120315581854	1	507	0.0	0.0	0.0	0.0
GO CC 500 medium	2	None > Cutoff(5)	Louvain	0.0314729213715	0.161103396773	0.370808678501	66	1,1,1,1,1,1,1,1,1,1,1,1,1,1,1,1,1,1,1,1,1,1,1,1,1,1,1,1,1,1,1,1,1,1,1,1,1,1,1,1,1,1,1,1,1,1,1,1,1,1,1,1,1,1,1,1,1,1,1,2,2,38,43,90,120,153	0.367082330168	-0.00159748690354	0.367082330168	0.367082330168
GO CC 500 medium	2	None > Cutoff(5)	Greedy Modularity	0.0351309776306	0.161226521603	0.347140039448	66	1,1,1,1,1,1,1,1,1,1,1,1,1,1,1,1,1,1,1,1,1,1,1,1,1,1,1,1,1,1,1,1,1,1,1,1,1,1,1,1,1,1,1,1,1,1,1,1,1,1,1,1,1,1,1,1,1,1,1,2,2,46,58,99,105,136	0.376103853238	-0.00163131567616	0.376103853238	0.376103853238
GO CC 500 medium	2	None > Cutoff(5)	Infomap	0.525316953659	0.162999734533	0.41617357002	90	1,1,1,1,1,1,1,1,1,1,1,1,1,1,1,1,1,1,1,1,1,1,1,1,1,1,1,1,1,1,1,1,1,1,1,1,1,1,1,1,1,1,1,1,1,1,1,1,1,1,1,1,1,1,1,1,1,1,1,2,2,2,2,2,2,2,2,2,3,3,3,4,4,4,5,5,5,7,7,7,7,7,7,22,31,33,34,40,47,145	0.332659796517	-0.00175283785345	0.332659796517	0.332659796517
GO CC 500 medium	2	None > Cutoff(5)	Leading Eigenvector	0.36702299118	0.184404689641	0.374753451677	67	1,1,1,1,1,1,1,1,1,1,1,1,1,1,1,1,1,1,1,1,1,1,1,1,1,1,1,1,1,1,1,1,1,1,1,1,1,1,1,1,1,1,1,1,1,1,1,1,1,1,1,1,1,1,1,1,1,1,1,2,2,5,47,70,79,80,163	0.341312550433	-0.00161946022903	0.341312550433	0.341312550433
GO CC 500 medium	2	None > Cutoff(5)	Label Propagation	0.0209109783173	0.109225854082	0.347140039448	74	1,1,1,1,1,1,1,1,1,1,1,1,1,1,1,1,1,1,1,1,1,1,1,1,1,1,1,1,1,1,1,1,1,1,1,1,1,1,1,1,1,1,1,1,1,1,1,1,1,1,1,1,1,1,1,1,1,1,1,2,2,2,2,2,2,2,4,5,5,15,33,43,48,281	0.250343730618	-0.00132599562652	0.250343730618	0.250343730618
GO CC 500 medium	2	None > Cutoff(5)	Walkttrap	0.0908379554749	0.140987286872	0.502958579882	144	1,1,1,1,1,1,1,1,1,1,1,1,1,1,1,1,1,1,1,1,1,1,1,1,1,1,1,1,1,1,1,1,1,1,1,1,1,1,1,1,1,1,1,1,1,1,1,1,1,1,1,1,1,1,1,1,1,1,1,1,1,1,1,1,1,1,1,1,1,1,1,1,1,1,1,1,1,1,1,1,1,1,1,1,1,1,1,1,1,1,1,1,1,1,1,1,1,1,1,1,1,1,1,1,1,2,2,2,2,2,2,2,2,2,2,2,2,2,2,2,2,3,3,3,3,3,3,3,4,4,5,5,5,5,5,6,10,13,14,17,20,38,48,150	0.305896161821	-0.00176234066321	0.305896161821	0.305896161821
GO CC 500 medium	2	Log > Cutoff(5)	None	0.0168299674988	1.58909286642e-16	0.120315581854	1	507	0.0	0.0	0.0	0.0
GO CC 500 medium	2	Log > Cutoff(5)	Louvain	0.032114982605	0.134465883355	0.366863905325	67	1,1,1,1,1,1,1,1,1,1,1,1,1,1,1,1,1,1,1,1,1,1,1,1,1,1,1,1,1,1,1,1,1,1,1,1,1,1,1,1,1,1,1,1,1,1,1,1,1,1,1,1,1,1,1,1,1,1,1,2,2,29,34,40,74,91,176	0.337897298983	-0.0016041911512	0.337897298983	0.337897298983
GO CC 500 medium	2	Log > Cutoff(5)	Greedy Modularity	0.0310668945312	0.161469246486	0.388560157791	67	1,1,1,1,1,1,1,1,1,1,1,1,1,1,1,1,1,1,1,1,1,1,1,1,1,1,1,1,1,1,1,1,1,1,1,1,1,1,1,1,1,1,1,1,1,1,1,1,1,1,1,1,1,1,1,1,1,1,1,2,2,3,39,54,58,91,199	0.30892132777	-0.00154758946392	0.30892132777	0.30892132777
GO CC 500 medium	2	Log > Cutoff(5)	Infomap	0.617887973785	0.157392846035	0.437869822485	94	1,1,1,1,1,1,1,1,1,1,1,1,1,1,1,1,1,1,1,1,1,1,1,1,1,1,1,1,1,1,1,1,1,1,1,1,1,1,1,1,1,1,1,1,1,1,1,1,1,1,1,1,1,1,1,1,1,1,1,2,2,2,2,2,2,2,2,2,3,3,3,3,3,4,4,4,5,5,5,5,6,7,7,7,7,9,13,21,24,24,38,41,46,133	0.321422813923	-0.0017818229609	0.321422813923	0.321422813923
GO CC 500 medium	2	Log > Cutoff(5)	Leading Eigenvector	0.292018890381	0.163934361677	0.374753451677	69	1,1,1,1,1,1,1,1,1,1,1,1,1,1,1,1,1,1,1,1,1,1,1,1,1,1,1,1,1,1,1,1,1,1,1,1,1,1,1,1,1,1,1,1,1,1,1,1,1,1,1,1,1,1,1,1,1,1,1,1,1,1,1,2,2,45,65,115,215	0.312896444998	-0.00147061362949	0.312896444998	0.312896444998
GO CC 500 medium	2	Log > Cutoff(5)	Label Propagation	0.0199000835419	0.163293706245	0.424063116371	87	1,1,1,1,1,1,1,1,1,1,1,1,1,1,1,1,1,1,1,1,1,1,1,1,1,1,1,1,1,1,1,1,1,1,1,1,1,1,1,1,1,1,1,1,1,1,1,1,1,1,1,1,1,1,1,1,1,1,1,2,2,2,2,2,2,2,2,2,3,3,4,5,5,5,5,5,6,7,9,10,15,20,31,47,75,80,95	0.325343157461	-0.00178126939917	0.325343157461	0.325343157461
GO CC 500 medium	2	Log > Cutoff(5)	Walkttrap	0.0876541137695	0.163029172686	0.61932938856	200	1,1,1,1,1,1,1,1,1,1,1,1,1,1,1,1,1,1,1,1,1,1,1,1,1,1,1,1,1,1,1,1,1,1,1,1,1,1,1,1,1,1,1,1,1,1,1,1,1,1,1,1,1,1,1,1,1,1,1,1,1,1,1,1,1,1,1,1,1,1,1,1,1,1,1,1,1,1,1,1,1,1,1,1,1,1,1,1,1,1,1,1,1,1,1,1,1,1,1,1,1,1,1,1,1,1,1,1,1,1,1,1,1,1,1,1,1,1,1,1,1,1,1,1,1,1,1,1,1,1,1,1,1,1,1,1,1,1,1,1,1,1,1,1,1,1,1,1,1,1,1,1,2,2,2,2,2,2,2,2,2,2,2,2,2,2,2,2,2,2,2,2,2,2,2,2,2,2,2,3,3,3,4,4,4,4,4,4,4,5,6,7,9,10,11,12,29,37,38,100	0.2633165489	-0.00186396537152	0.2633165489	0.2633165489
