test_case	test_number	transform	cluster_alg	seconds	adjusted_rand	annotation_correspondence	n_clusters	cluster_sizes	transformed_modularity	modularity	modularity_cutoff	transformed_modularity_cutoff
GO BP 500 large	1	Pearson > Cutoff(5)	None	0.0256779193878	-7.54619983892e-17	0.261324041812	1	574	0.0	0.0	0.0	0.0
GO BP 500 large	1	Pearson > Cutoff(5)	Louvain	0.0323138237	0.164546390385	0.493031358885	65	1,1,1,1,1,1,1,1,1,1,1,1,1,1,1,1,1,1,1,1,1,1,1,1,1,1,1,1,1,1,1,1,1,1,1,1,1,1,1,1,1,1,1,1,1,1,1,1,1,1,1,1,2,2,2,2,2,4,4,19,56,75,88,131,135	0.578441284097	-0.0014678763171	0.288337633695	0.578441284097
GO BP 500 large	1	Pearson > Cutoff(5)	Greedy Modularity	0.0353510379791	0.201053660096	0.466898954704	64	1,1,1,1,1,1,1,1,1,1,1,1,1,1,1,1,1,1,1,1,1,1,1,1,1,1,1,1,1,1,1,1,1,1,1,1,1,1,1,1,1,1,1,1,1,1,1,1,1,1,1,1,2,2,2,2,3,4,4,4,44,73,180,202	0.53456789674	-0.00131830251715	0.20953454912	0.53456789674
GO BP 500 large	1	Pearson > Cutoff(5)	Infomap	0.548382043839	0.116597469347	0.559233449477	87	1,1,1,1,1,1,1,1,1,1,1,1,1,1,1,1,1,1,1,1,1,1,1,1,1,1,1,1,1,1,1,1,1,1,1,1,1,1,1,1,1,1,1,1,1,1,1,1,1,1,1,1,2,2,2,2,2,2,2,2,2,2,2,2,3,3,4,4,4,4,4,4,4,5,7,8,10,13,13,17,22,28,29,37,42,106,127	0.561399335625	-0.00156668464858	0.220067928436	0.561399335625
GO BP 500 large	1	Pearson > Cutoff(5)	Leading Eigenvector	0.332274913788	0.160173657016	0.494773519164	71	1,1,1,1,1,1,1,1,1,1,1,1,1,1,1,1,1,1,1,1,1,1,1,1,1,1,1,1,1,1,1,1,1,1,1,1,1,1,1,1,1,1,1,1,1,1,1,1,1,1,1,1,1,1,1,1,1,2,2,2,2,2,2,4,4,9,63,63,78,132,152	0.567689844364	-0.00145522732516	0.288796268032	0.567689844364
GO BP 500 large	1	Pearson > Cutoff(5)	Label Propagation	0.0260701179504	0.189370275071	0.487804878049	71	1,1,1,1,1,1,1,1,1,1,1,1,1,1,1,1,1,1,1,1,1,1,1,1,1,1,1,1,1,1,1,1,1,1,1,1,1,1,1,1,1,1,1,1,1,1,1,1,1,1,2,2,2,2,2,2,2,2,2,2,3,3,4,5,10,12,12,16,18,192,229	0.521503424801	-0.00126625519941	0.187321480997	0.521503424801
GO BP 500 large	1	Pearson > Cutoff(5)	Walkttrap	0.126428842545	0.187852838123	0.536585365854	81	1,1,1,1,1,1,1,1,1,1,1,1,1,1,1,1,1,1,1,1,1,1,1,1,1,1,1,1,1,1,1,1,1,1,1,1,1,1,1,1,1,1,1,1,1,1,1,1,1,1,1,1,2,2,2,2,2,2,2,2,2,2,2,2,2,2,3,3,4,4,4,4,8,10,19,25,28,32,33,143,174	0.544624144537	-0.00145407260144	0.201389207718	0.544624144537
GO BP 500 large	1	Spearman > Cutoff(5)	None	0.023078918457	-7.54619983892e-17	0.261324041812	1	574	0.0	0.0	0.0	0.0
GO BP 500 large	1	Spearman > Cutoff(5)	Louvain	0.0321879386902	0.141053927288	0.69512195122	237	1,1,1,1,1,1,1,1,1,1,1,1,1,1,1,1,1,1,1,1,1,1,1,1,1,1,1,1,1,1,1,1,1,1,1,1,1,1,1,1,1,1,1,1,1,1,1,1,1,1,1,1,1,1,1,1,1,1,1,1,1,1,1,1,1,1,1,1,1,1,1,1,1,1,1,1,1,1,1,1,1,1,1,1,1,1,1,1,1,1,1,1,1,1,1,1,1,1,1,1,1,1,1,1,1,1,1,1,1,1,1,1,1,1,1,1,1,1,1,1,1,1,1,1,1,1,1,1,1,1,1,1,1,1,1,1,1,1,1,1,1,1,1,1,1,1,1,1,1,1,1,1,1,1,1,1,1,1,1,1,1,1,1,1,1,1,1,1,1,1,1,1,1,1,1,1,1,1,1,1,1,1,1,1,1,1,1,1,1,1,1,1,1,1,1,1,1,1,1,1,1,1,1,1,1,1,1,1,1,1,1,1,1,1,1,1,1,1,1,1,1,1,1,1,1,1,1,1,2,2,2,2,13,14,95,97,119	0.522936529409	-0.00156932250368	0.238367840111	0.522936529409
GO BP 500 large	1	Spearman > Cutoff(5)	Greedy Modularity	0.0327758789062	0.204873658604	0.696864111498	241	1,1,1,1,1,1,1,1,1,1,1,1,1,1,1,1,1,1,1,1,1,1,1,1,1,1,1,1,1,1,1,1,1,1,1,1,1,1,1,1,1,1,1,1,1,1,1,1,1,1,1,1,1,1,1,1,1,1,1,1,1,1,1,1,1,1,1,1,1,1,1,1,1,1,1,1,1,1,1,1,1,1,1,1,1,1,1,1,1,1,1,1,1,1,1,1,1,1,1,1,1,1,1,1,1,1,1,1,1,1,1,1,1,1,1,1,1,1,1,1,1,1,1,1,1,1,1,1,1,1,1,1,1,1,1,1,1,1,1,1,1,1,1,1,1,1,1,1,1,1,1,1,1,1,1,1,1,1,1,1,1,1,1,1,1,1,1,1,1,1,1,1,1,1,1,1,1,1,1,1,1,1,1,1,1,1,1,1,1,1,1,1,1,1,1,1,1,1,1,1,1,1,1,1,1,1,1,1,1,1,1,1,1,1,1,1,1,1,1,1,1,1,1,1,1,1,1,1,2,2,2,2,2,2,3,3,6,7,16,123,176	0.503477876666	-0.00149775082066	0.181466591972	0.503477876666
GO BP 500 large	1	Spearman > Cutoff(5)	Infomap	0.37833404541	0.18742620148	0.707317073171	244	1,1,1,1,1,1,1,1,1,1,1,1,1,1,1,1,1,1,1,1,1,1,1,1,1,1,1,1,1,1,1,1,1,1,1,1,1,1,1,1,1,1,1,1,1,1,1,1,1,1,1,1,1,1,1,1,1,1,1,1,1,1,1,1,1,1,1,1,1,1,1,1,1,1,1,1,1,1,1,1,1,1,1,1,1,1,1,1,1,1,1,1,1,1,1,1,1,1,1,1,1,1,1,1,1,1,1,1,1,1,1,1,1,1,1,1,1,1,1,1,1,1,1,1,1,1,1,1,1,1,1,1,1,1,1,1,1,1,1,1,1,1,1,1,1,1,1,1,1,1,1,1,1,1,1,1,1,1,1,1,1,1,1,1,1,1,1,1,1,1,1,1,1,1,1,1,1,1,1,1,1,1,1,1,1,1,1,1,1,1,1,1,1,1,1,1,1,1,1,1,1,1,1,1,1,1,1,1,1,1,1,1,1,1,1,1,1,1,1,1,1,1,1,1,1,1,1,1,2,2,2,2,2,2,2,3,6,7,7,9,9,10,117,164	0.502681151853	-0.00152672485161	0.179580255143	0.502681151853
GO BP 500 large	1	Spearman > Cutoff(5)	Leading Eigenvector	0.13046503067	0.160151661064	0.691637630662	235	1,1,1,1,1,1,1,1,1,1,1,1,1,1,1,1,1,1,1,1,1,1,1,1,1,1,1,1,1,1,1,1,1,1,1,1,1,1,1,1,1,1,1,1,1,1,1,1,1,1,1,1,1,1,1,1,1,1,1,1,1,1,1,1,1,1,1,1,1,1,1,1,1,1,1,1,1,1,1,1,1,1,1,1,1,1,1,1,1,1,1,1,1,1,1,1,1,1,1,1,1,1,1,1,1,1,1,1,1,1,1,1,1,1,1,1,1,1,1,1,1,1,1,1,1,1,1,1,1,1,1,1,1,1,1,1,1,1,1,1,1,1,1,1,1,1,1,1,1,1,1,1,1,1,1,1,1,1,1,1,1,1,1,1,1,1,1,1,1,1,1,1,1,1,1,1,1,1,1,1,1,1,1,1,1,1,1,1,1,1,1,1,1,1,1,1,1,1,1,1,1,1,1,1,1,1,1,1,1,1,1,1,1,1,1,1,1,1,1,1,1,1,1,1,1,1,1,1,2,2,2,2,98,107,133	0.521041825877	-0.00153869584062	0.248999637706	0.521041825877
GO BP 500 large	1	Spearman > Cutoff(5)	Label Propagation	0.0240330696106	0.23374018774	0.688153310105	237	1,1,1,1,1,1,1,1,1,1,1,1,1,1,1,1,1,1,1,1,1,1,1,1,1,1,1,1,1,1,1,1,1,1,1,1,1,1,1,1,1,1,1,1,1,1,1,1,1,1,1,1,1,1,1,1,1,1,1,1,1,1,1,1,1,1,1,1,1,1,1,1,1,1,1,1,1,1,1,1,1,1,1,1,1,1,1,1,1,1,1,1,1,1,1,1,1,1,1,1,1,1,1,1,1,1,1,1,1,1,1,1,1,1,1,1,1,1,1,1,1,1,1,1,1,1,1,1,1,1,1,1,1,1,1,1,1,1,1,1,1,1,1,1,1,1,1,1,1,1,1,1,1,1,1,1,1,1,1,1,1,1,1,1,1,1,1,1,1,1,1,1,1,1,1,1,1,1,1,1,1,1,1,1,1,1,1,1,1,1,1,1,1,1,1,1,1,1,1,1,1,1,1,1,1,1,1,1,1,1,1,1,1,1,1,1,1,1,1,1,1,1,1,1,1,1,2,2,2,2,2,2,3,4,5,121,203	0.501057814169	-0.00144779048066	0.159075073935	0.501057814169
GO BP 500 large	1	Spearman > Cutoff(5)	Walkttrap	0.100519180298	0.123504070136	0.724738675958	266	1,1,1,1,1,1,1,1,1,1,1,1,1,1,1,1,1,1,1,1,1,1,1,1,1,1,1,1,1,1,1,1,1,1,1,1,1,1,1,1,1,1,1,1,1,1,1,1,1,1,1,1,1,1,1,1,1,1,1,1,1,1,1,1,1,1,1,1,1,1,1,1,1,1,1,1,1,1,1,1,1,1,1,1,1,1,1,1,1,1,1,1,1,1,1,1,1,1,1,1,1,1,1,1,1,1,1,1,1,1,1,1,1,1,1,1,1,1,1,1,1,1,1,1,1,1,1,1,1,1,1,1,1,1,1,1,1,1,1,1,1,1,1,1,1,1,1,1,1,1,1,1,1,1,1,1,1,1,1,1,1,1,1,1,1,1,1,1,1,1,1,1,1,1,1,1,1,1,1,1,1,1,1,1,1,1,1,1,1,1,1,1,1,1,1,1,1,1,1,1,1,1,1,1,1,1,1,1,1,1,1,1,1,1,1,1,1,1,1,1,1,1,1,1,1,1,1,1,1,1,1,1,1,1,1,1,1,1,1,1,1,1,1,1,1,1,1,1,2,2,2,2,2,2,2,2,3,3,3,3,3,4,4,82,86,119	0.517159431984	-0.00159350813901	0.205663464551	0.517159431984
GO BP 500 large	1	Cosine > Cutoff(5)	None	0.0221819877625	-7.54619983892e-17	0.261324041812	1	574	0.0	0.0	0.0	0.0
GO BP 500 large	1	Cosine > Cutoff(5)	Louvain	0.0319788455963	0.121994168516	0.520905923345	87	1,1,1,1,1,1,1,1,1,1,1,1,1,1,1,1,1,1,1,1,1,1,1,1,1,1,1,1,1,1,1,1,1,1,1,1,1,1,1,1,1,1,1,1,1,1,1,1,1,1,1,1,1,1,1,1,1,1,1,1,1,1,1,1,1,1,1,2,2,2,2,2,2,2,2,2,2,3,3,8,10,38,43,74,89,105,114	0.51257269006	-0.00152802788846	0.248364101027	0.51257269006
GO BP 500 large	1	Cosine > Cutoff(5)	Greedy Modularity	0.0493040084839	0.168793697646	0.515679442509	85	1,1,1,1,1,1,1,1,1,1,1,1,1,1,1,1,1,1,1,1,1,1,1,1,1,1,1,1,1,1,1,1,1,1,1,1,1,1,1,1,1,1,1,1,1,1,1,1,1,1,1,1,1,1,1,1,1,1,1,1,1,1,1,1,1,1,1,2,2,2,2,2,2,2,2,2,3,3,6,8,10,24,118,128,189	0.476776226636	-0.00139070051622	0.172598813978	0.476776226636
GO BP 500 large	1	Cosine > Cutoff(5)	Infomap	0.419902801514	0.0865321126718	0.58362369338	109	1,1,1,1,1,1,1,1,1,1,1,1,1,1,1,1,1,1,1,1,1,1,1,1,1,1,1,1,1,1,1,1,1,1,1,1,1,1,1,1,1,1,1,1,1,1,1,1,1,1,1,1,1,1,1,1,1,1,1,1,1,1,1,1,1,1,1,2,2,2,2,2,2,2,2,2,2,2,2,2,2,2,2,2,2,2,3,3,3,3,4,6,6,6,7,7,8,8,9,12,12,13,14,18,21,24,30,81,171	0.38696243962	-0.00153700083333	0.16726866277	0.38696243962
GO BP 500 large	1	Cosine > Cutoff(5)	Leading Eigenvector	0.400487184525	0.11689683937	0.51393728223	88	1,1,1,1,1,1,1,1,1,1,1,1,1,1,1,1,1,1,1,1,1,1,1,1,1,1,1,1,1,1,1,1,1,1,1,1,1,1,1,1,1,1,1,1,1,1,1,1,1,1,1,1,1,1,1,1,1,1,1,1,1,1,1,1,1,1,1,1,1,2,2,2,2,2,2,2,2,2,3,3,10,16,28,34,73,98,111,111	0.504166958433	-0.00152276277205	0.23751540001	0.504166958433
GO BP 500 large	1	Cosine > Cutoff(5)	Label Propagation	0.0250101089478	0.142177763533	0.545296167247	97	1,1,1,1,1,1,1,1,1,1,1,1,1,1,1,1,1,1,1,1,1,1,1,1,1,1,1,1,1,1,1,1,1,1,1,1,1,1,1,1,1,1,1,1,1,1,1,1,1,1,1,1,1,1,1,1,1,1,1,1,1,1,1,1,1,1,1,2,2,2,2,2,2,2,2,2,2,2,2,2,2,2,3,3,3,3,5,7,7,8,8,9,9,15,16,138,243	0.366455040224	-0.00132595123756	0.171164449552	0.366455040224
GO BP 500 large	1	Cosine > Cutoff(5)	Walkttrap	0.130417823792	0.0506694303396	0.61149825784	158	1,1,1,1,1,1,1,1,1,1,1,1,1,1,1,1,1,1,1,1,1,1,1,1,1,1,1,1,1,1,1,1,1,1,1,1,1,1,1,1,1,1,1,1,1,1,1,1,1,1,1,1,1,1,1,1,1,1,1,1,1,1,1,1,1,1,1,1,1,1,1,1,1,1,1,1,1,1,1,1,1,1,1,1,1,1,1,1,1,1,1,1,1,1,1,1,1,1,1,1,1,1,1,1,1,1,1,1,1,1,1,2,2,2,2,2,2,2,2,2,2,2,2,2,2,2,2,2,2,2,3,3,3,3,3,3,3,3,4,4,5,5,5,5,5,6,6,6,7,8,9,13,16,18,44,46,88,101	0.458482652642	-0.00162091428821	0.117293386355	0.458482652642
GO BP 500 large	1	KNN(10) > Cutoff(5)	None	0.0214681625366	-7.54619983892e-17	0.261324041812	1	574	0.0	0.0	0.0	0.0
GO BP 500 large	1	KNN(10) > Cutoff(5)	Louvain	0.0413031578064	0.190761819671	0.407665505226	6	10,79,86,113,140,146	0.581128416757	-0.00138807325491	0.322739777989	0.581128416757
GO BP 500 large	1	KNN(10) > Cutoff(5)	Greedy Modularity	0.0826411247253	0.212737596817	0.393728222997	3	157,158,259	0.516135948909	-0.00112708450673	0.30996124597	0.516135948909
GO BP 500 large	1	KNN(10) > Cutoff(5)	Infomap	0.703114032745	0.184468542208	0.442508710801	9	3,10,24,44,68,80,93,115,137	0.568031585728	-0.00145764271056	0.290390047224	0.568031585728
GO BP 500 large	1	KNN(10) > Cutoff(5)	Leading Eigenvector	0.236364841461	0.198340471047	0.411149825784	7	1,10,52,92,112,137,170	0.557037978608	-0.00136656784986	0.296895189611	0.557037978608
GO BP 500 large	1	KNN(10) > Cutoff(5)	Label Propagation	0.0293598175049	0.248631613108	0.404181184669	4	10,92,158,314	0.51372963124	-0.00104535337374	0.202055437929	0.51372963124
GO BP 500 large	1	KNN(10) > Cutoff(5)	Walkttrap	0.192492008209	0.197368622407	0.41637630662	7	1,10,75,83,109,146,150	0.576245096776	-0.00138335901587	0.316764001398	0.576245096776
GO BP 500 large	1	KNN(50) > Cutoff(5)	None	0.0206658840179	-7.54619983892e-17	0.261324041812	1	574	0.0	0.0	0.0	0.0
GO BP 500 large	1	KNN(50) > Cutoff(5)	Louvain	0.031405210495	0.193642019501	0.554006968641	89	1,1,1,1,1,1,1,1,1,1,1,1,1,1,1,1,1,1,1,1,1,1,1,1,1,1,1,1,1,1,1,1,1,1,1,1,1,1,1,1,1,1,1,1,1,1,1,1,1,1,1,1,1,1,1,1,1,1,1,1,1,1,1,1,1,1,1,1,1,1,1,1,1,1,1,1,1,1,1,1,1,15,15,51,57,62,88,96,109	0.63068270149	-0.0015382720888	0.300034367913	0.63068270149
GO BP 500 large	1	KNN(50) > Cutoff(5)	Greedy Modularity	0.0379841327667	0.240924726214	0.522648083624	87	1,1,1,1,1,1,1,1,1,1,1,1,1,1,1,1,1,1,1,1,1,1,1,1,1,1,1,1,1,1,1,1,1,1,1,1,1,1,1,1,1,1,1,1,1,1,1,1,1,1,1,1,1,1,1,1,1,1,1,1,1,1,1,1,1,1,1,1,1,1,1,1,1,1,1,1,1,1,1,1,1,3,4,39,113,161,173	0.572874961723	-0.00137311481554	0.299897555084	0.572874961723
GO BP 500 large	1	KNN(50) > Cutoff(5)	Infomap	0.402866125107	0.163791929442	0.559233449477	97	1,1,1,1,1,1,1,1,1,1,1,1,1,1,1,1,1,1,1,1,1,1,1,1,1,1,1,1,1,1,1,1,1,1,1,1,1,1,1,1,1,1,1,1,1,1,1,1,1,1,1,1,1,1,1,1,1,1,1,1,1,1,1,1,1,1,1,1,1,1,1,1,1,1,1,1,1,1,1,1,1,2,3,3,4,5,7,8,9,13,34,46,48,51,60,89,111	0.620260474211	-0.00157291380038	0.285907369144	0.620260474211
GO BP 500 large	1	KNN(50) > Cutoff(5)	Label Propagation	0.0251700878143	0.226358173901	0.562717770035	93	1,1,1,1,1,1,1,1,1,1,1,1,1,1,1,1,1,1,1,1,1,1,1,1,1,1,1,1,1,1,1,1,1,1,1,1,1,1,1,1,1,1,1,1,1,1,1,1,1,1,1,1,1,1,1,1,1,1,1,1,1,1,1,1,1,1,1,1,1,1,1,1,1,1,1,1,1,1,1,2,2,3,4,4,5,8,8,34,43,50,64,104,164	0.609914147704	-0.0014931107382	0.286077285299	0.609914147704
GO BP 500 large	1	KNN(50) > Cutoff(5)	Walkttrap	0.125077962875	0.166692947459	0.588850174216	115	1,1,1,1,1,1,1,1,1,1,1,1,1,1,1,1,1,1,1,1,1,1,1,1,1,1,1,1,1,1,1,1,1,1,1,1,1,1,1,1,1,1,1,1,1,1,1,1,1,1,1,1,1,1,1,1,1,1,1,1,1,1,1,1,1,1,1,1,1,1,1,1,1,1,1,1,1,1,1,1,1,1,1,1,1,1,1,1,1,1,1,1,1,2,2,2,2,2,3,3,3,3,4,5,5,5,8,8,35,36,46,47,58,90,112	0.61318748377	-0.00157982095511	0.277105097707	0.61318748377
GO BP 500 large	1	KNN(100) > Cutoff(5)	None	0.0206611156464	-7.54619983892e-17	0.261324041812	1	574	0.0	0.0	0.0	0.0
GO BP 500 large	1	KNN(100) > Cutoff(5)	Louvain	0.0320150852203	0.157067959224	0.613240418118	151	1,1,1,1,1,1,1,1,1,1,1,1,1,1,1,1,1,1,1,1,1,1,1,1,1,1,1,1,1,1,1,1,1,1,1,1,1,1,1,1,1,1,1,1,1,1,1,1,1,1,1,1,1,1,1,1,1,1,1,1,1,1,1,1,1,1,1,1,1,1,1,1,1,1,1,1,1,1,1,1,1,1,1,1,1,1,1,1,1,1,1,1,1,1,1,1,1,1,1,1,1,1,1,1,1,1,1,1,1,1,1,1,1,1,1,1,1,1,1,1,1,1,1,1,1,1,1,1,1,1,1,1,1,1,1,1,1,1,1,1,2,2,2,2,4,31,43,47,72,104,125	0.546647435671	-0.00155019010884	0.274603460559	0.546647435671
GO BP 500 large	1	KNN(100) > Cutoff(5)	Greedy Modularity	0.0355751514435	0.267804795129	0.590592334495	149	1,1,1,1,1,1,1,1,1,1,1,1,1,1,1,1,1,1,1,1,1,1,1,1,1,1,1,1,1,1,1,1,1,1,1,1,1,1,1,1,1,1,1,1,1,1,1,1,1,1,1,1,1,1,1,1,1,1,1,1,1,1,1,1,1,1,1,1,1,1,1,1,1,1,1,1,1,1,1,1,1,1,1,1,1,1,1,1,1,1,1,1,1,1,1,1,1,1,1,1,1,1,1,1,1,1,1,1,1,1,1,1,1,1,1,1,1,1,1,1,1,1,1,1,1,1,1,1,1,1,1,1,1,1,1,1,1,1,1,1,2,2,2,2,3,4,42,169,208	0.473854457301	-0.0013544485477	0.222917799005	0.473854457301
GO BP 500 large	1	KNN(100) > Cutoff(5)	Infomap	0.471840143204	0.187492079631	0.606271777003	157	1,1,1,1,1,1,1,1,1,1,1,1,1,1,1,1,1,1,1,1,1,1,1,1,1,1,1,1,1,1,1,1,1,1,1,1,1,1,1,1,1,1,1,1,1,1,1,1,1,1,1,1,1,1,1,1,1,1,1,1,1,1,1,1,1,1,1,1,1,1,1,1,1,1,1,1,1,1,1,1,1,1,1,1,1,1,1,1,1,1,1,1,1,1,1,1,1,1,1,1,1,1,1,1,1,1,1,1,1,1,1,1,1,1,1,1,1,1,1,1,1,1,1,1,1,1,1,1,1,1,1,1,1,1,1,1,1,1,1,1,2,2,2,2,2,2,3,3,4,9,10,17,26,43,44,105,158	0.513112260779	-0.00152740285452	0.237086714897	0.513112260779
GO BP 500 large	1	KNN(100) > Cutoff(5)	Label Propagation	0.0276231765747	0.277800899046	0.599303135889	149	1,1,1,1,1,1,1,1,1,1,1,1,1,1,1,1,1,1,1,1,1,1,1,1,1,1,1,1,1,1,1,1,1,1,1,1,1,1,1,1,1,1,1,1,1,1,1,1,1,1,1,1,1,1,1,1,1,1,1,1,1,1,1,1,1,1,1,1,1,1,1,1,1,1,1,1,1,1,1,1,1,1,1,1,1,1,1,1,1,1,1,1,1,1,1,1,1,1,1,1,1,1,1,1,1,1,1,1,1,1,1,1,1,1,1,1,1,1,1,1,1,1,1,1,1,1,1,1,1,1,1,1,1,1,1,1,1,1,2,2,2,2,2,3,4,10,42,127,240	0.473435887955	-0.00134383356452	0.18355231517	0.473435887955
GO BP 500 large	1	KNN(100) > Cutoff(5)	Walkttrap	0.122164011002	0.156064782828	0.637630662021	186	1,1,1,1,1,1,1,1,1,1,1,1,1,1,1,1,1,1,1,1,1,1,1,1,1,1,1,1,1,1,1,1,1,1,1,1,1,1,1,1,1,1,1,1,1,1,1,1,1,1,1,1,1,1,1,1,1,1,1,1,1,1,1,1,1,1,1,1,1,1,1,1,1,1,1,1,1,1,1,1,1,1,1,1,1,1,1,1,1,1,1,1,1,1,1,1,1,1,1,1,1,1,1,1,1,1,1,1,1,1,1,1,1,1,1,1,1,1,1,1,1,1,1,1,1,1,1,1,1,1,1,1,1,1,1,1,1,1,1,1,1,1,1,1,1,1,1,1,1,1,1,1,1,1,1,1,1,1,1,1,1,1,2,2,2,2,2,2,2,2,2,3,3,4,5,6,7,7,8,8,12,22,32,55,107,115	0.521165949109	-0.00158698236093	0.232797468713	0.521165949109
GO BP 500 large	1	KNN(250) > Cutoff(5)	None	0.0248730182648	-7.54619983892e-17	0.261324041812	1	574	0.0	0.0	0.0	0.0
GO BP 500 large	1	KNN(250) > Cutoff(5)	Louvain	0.0329887866974	0.137288476881	0.682926829268	236	1,1,1,1,1,1,1,1,1,1,1,1,1,1,1,1,1,1,1,1,1,1,1,1,1,1,1,1,1,1,1,1,1,1,1,1,1,1,1,1,1,1,1,1,1,1,1,1,1,1,1,1,1,1,1,1,1,1,1,1,1,1,1,1,1,1,1,1,1,1,1,1,1,1,1,1,1,1,1,1,1,1,1,1,1,1,1,1,1,1,1,1,1,1,1,1,1,1,1,1,1,1,1,1,1,1,1,1,1,1,1,1,1,1,1,1,1,1,1,1,1,1,1,1,1,1,1,1,1,1,1,1,1,1,1,1,1,1,1,1,1,1,1,1,1,1,1,1,1,1,1,1,1,1,1,1,1,1,1,1,1,1,1,1,1,1,1,1,1,1,1,1,1,1,1,1,1,1,1,1,1,1,1,1,1,1,1,1,1,1,1,1,1,1,1,1,1,1,1,1,1,1,1,1,1,1,1,1,1,1,1,1,1,1,1,1,1,1,1,1,1,1,1,1,1,2,2,3,3,4,5,5,13,95,96,121	0.533808935705	-0.00156845381244	0.234225200683	0.533808935705
GO BP 500 large	1	KNN(250) > Cutoff(5)	Greedy Modularity	0.0336310863495	0.228004699822	0.682926829268	236	1,1,1,1,1,1,1,1,1,1,1,1,1,1,1,1,1,1,1,1,1,1,1,1,1,1,1,1,1,1,1,1,1,1,1,1,1,1,1,1,1,1,1,1,1,1,1,1,1,1,1,1,1,1,1,1,1,1,1,1,1,1,1,1,1,1,1,1,1,1,1,1,1,1,1,1,1,1,1,1,1,1,1,1,1,1,1,1,1,1,1,1,1,1,1,1,1,1,1,1,1,1,1,1,1,1,1,1,1,1,1,1,1,1,1,1,1,1,1,1,1,1,1,1,1,1,1,1,1,1,1,1,1,1,1,1,1,1,1,1,1,1,1,1,1,1,1,1,1,1,1,1,1,1,1,1,1,1,1,1,1,1,1,1,1,1,1,1,1,1,1,1,1,1,1,1,1,1,1,1,1,1,1,1,1,1,1,1,1,1,1,1,1,1,1,1,1,1,1,1,1,1,1,1,1,1,1,1,1,1,1,1,1,1,1,1,1,1,1,1,1,1,1,1,1,2,2,3,3,4,5,5,7,10,121,187	0.502966576335	-0.00147995324407	0.171330496774	0.502966576335
GO BP 500 large	1	KNN(250) > Cutoff(5)	Infomap	0.378252029419	0.12884676508	0.684668989547	238	1,1,1,1,1,1,1,1,1,1,1,1,1,1,1,1,1,1,1,1,1,1,1,1,1,1,1,1,1,1,1,1,1,1,1,1,1,1,1,1,1,1,1,1,1,1,1,1,1,1,1,1,1,1,1,1,1,1,1,1,1,1,1,1,1,1,1,1,1,1,1,1,1,1,1,1,1,1,1,1,1,1,1,1,1,1,1,1,1,1,1,1,1,1,1,1,1,1,1,1,1,1,1,1,1,1,1,1,1,1,1,1,1,1,1,1,1,1,1,1,1,1,1,1,1,1,1,1,1,1,1,1,1,1,1,1,1,1,1,1,1,1,1,1,1,1,1,1,1,1,1,1,1,1,1,1,1,1,1,1,1,1,1,1,1,1,1,1,1,1,1,1,1,1,1,1,1,1,1,1,1,1,1,1,1,1,1,1,1,1,1,1,1,1,1,1,1,1,1,1,1,1,1,1,1,1,1,1,1,1,1,1,1,1,1,1,1,1,1,1,1,1,1,1,1,2,3,3,3,4,5,5,9,10,16,84,85,120	0.530997578615	-0.00158926002698	0.210515209335	0.530997578615
GO BP 500 large	1	KNN(250) > Cutoff(5)	Leading Eigenvector	0.303399085999	0.146837777154	0.686411149826	234	1,1,1,1,1,1,1,1,1,1,1,1,1,1,1,1,1,1,1,1,1,1,1,1,1,1,1,1,1,1,1,1,1,1,1,1,1,1,1,1,1,1,1,1,1,1,1,1,1,1,1,1,1,1,1,1,1,1,1,1,1,1,1,1,1,1,1,1,1,1,1,1,1,1,1,1,1,1,1,1,1,1,1,1,1,1,1,1,1,1,1,1,1,1,1,1,1,1,1,1,1,1,1,1,1,1,1,1,1,1,1,1,1,1,1,1,1,1,1,1,1,1,1,1,1,1,1,1,1,1,1,1,1,1,1,1,1,1,1,1,1,1,1,1,1,1,1,1,1,1,1,1,1,1,1,1,1,1,1,1,1,1,1,1,1,1,1,1,1,1,1,1,1,1,1,1,1,1,1,1,1,1,1,1,1,1,1,1,1,1,1,1,1,1,1,1,1,1,1,1,1,1,1,1,1,1,1,1,1,1,1,1,1,1,1,1,1,1,1,1,1,1,1,1,1,2,3,4,5,6,7,100,104,118	0.532206807803	-0.00155925839787	0.231281930394	0.532206807803
GO BP 500 large	1	KNN(250) > Cutoff(5)	Label Propagation	0.0246691703796	0.231824403748	0.677700348432	233	1,1,1,1,1,1,1,1,1,1,1,1,1,1,1,1,1,1,1,1,1,1,1,1,1,1,1,1,1,1,1,1,1,1,1,1,1,1,1,1,1,1,1,1,1,1,1,1,1,1,1,1,1,1,1,1,1,1,1,1,1,1,1,1,1,1,1,1,1,1,1,1,1,1,1,1,1,1,1,1,1,1,1,1,1,1,1,1,1,1,1,1,1,1,1,1,1,1,1,1,1,1,1,1,1,1,1,1,1,1,1,1,1,1,1,1,1,1,1,1,1,1,1,1,1,1,1,1,1,1,1,1,1,1,1,1,1,1,1,1,1,1,1,1,1,1,1,1,1,1,1,1,1,1,1,1,1,1,1,1,1,1,1,1,1,1,1,1,1,1,1,1,1,1,1,1,1,1,1,1,1,1,1,1,1,1,1,1,1,1,1,1,1,1,1,1,1,1,1,1,1,1,1,1,1,1,1,1,1,1,1,1,1,1,1,1,1,1,1,1,1,1,1,2,2,2,2,2,4,5,5,123,204	0.501674846276	-0.00144300208505	0.159663380157	0.501674846276
GO BP 500 large	1	KNN(250) > Cutoff(5)	Walkttrap	0.107938051224	0.133950077059	0.709059233449	255	1,1,1,1,1,1,1,1,1,1,1,1,1,1,1,1,1,1,1,1,1,1,1,1,1,1,1,1,1,1,1,1,1,1,1,1,1,1,1,1,1,1,1,1,1,1,1,1,1,1,1,1,1,1,1,1,1,1,1,1,1,1,1,1,1,1,1,1,1,1,1,1,1,1,1,1,1,1,1,1,1,1,1,1,1,1,1,1,1,1,1,1,1,1,1,1,1,1,1,1,1,1,1,1,1,1,1,1,1,1,1,1,1,1,1,1,1,1,1,1,1,1,1,1,1,1,1,1,1,1,1,1,1,1,1,1,1,1,1,1,1,1,1,1,1,1,1,1,1,1,1,1,1,1,1,1,1,1,1,1,1,1,1,1,1,1,1,1,1,1,1,1,1,1,1,1,1,1,1,1,1,1,1,1,1,1,1,1,1,1,1,1,1,1,1,1,1,1,1,1,1,1,1,1,1,1,1,1,1,1,1,1,1,1,1,1,1,1,1,1,1,1,1,1,1,1,1,1,1,1,1,1,1,1,1,2,2,2,2,2,2,2,2,2,2,2,2,2,3,3,4,7,85,91,120	0.530891190564	-0.00158483182042	0.210138028928	0.530891190564
GO BP 500 large	1	KNN(500) > Cutoff(5)	None	0.0248649120331	-7.54619983892e-17	0.261324041812	1	574	0.0	0.0	0.0	0.0
GO BP 500 large	1	KNN(500) > Cutoff(5)	Louvain	0.0316770076752	0.141882739429	0.602787456446	183	1,1,1,1,1,1,1,1,1,1,1,1,1,1,1,1,1,1,1,1,1,1,1,1,1,1,1,1,1,1,1,1,1,1,1,1,1,1,1,1,1,1,1,1,1,1,1,1,1,1,1,1,1,1,1,1,1,1,1,1,1,1,1,1,1,1,1,1,1,1,1,1,1,1,1,1,1,1,1,1,1,1,1,1,1,1,1,1,1,1,1,1,1,1,1,1,1,1,1,1,1,1,1,1,1,1,1,1,1,1,1,1,1,1,1,1,1,1,1,1,1,1,1,1,1,1,1,1,1,1,1,1,1,1,1,1,1,1,1,1,1,1,1,1,1,1,1,1,1,1,1,1,1,1,1,1,1,1,1,1,1,1,1,1,1,1,1,1,1,1,1,1,1,1,1,2,2,3,8,9,61,146,168	0.438006952333	-0.00146129757004	0.203000717676	0.438006952333
GO BP 500 large	1	KNN(500) > Cutoff(5)	Greedy Modularity	0.0422389507294	0.195867418674	0.601045296167	184	1,1,1,1,1,1,1,1,1,1,1,1,1,1,1,1,1,1,1,1,1,1,1,1,1,1,1,1,1,1,1,1,1,1,1,1,1,1,1,1,1,1,1,1,1,1,1,1,1,1,1,1,1,1,1,1,1,1,1,1,1,1,1,1,1,1,1,1,1,1,1,1,1,1,1,1,1,1,1,1,1,1,1,1,1,1,1,1,1,1,1,1,1,1,1,1,1,1,1,1,1,1,1,1,1,1,1,1,1,1,1,1,1,1,1,1,1,1,1,1,1,1,1,1,1,1,1,1,1,1,1,1,1,1,1,1,1,1,1,1,1,1,1,1,1,1,1,1,1,1,1,1,1,1,1,1,1,1,1,1,1,1,1,1,1,1,1,1,1,1,1,1,1,1,1,2,2,2,2,3,9,13,168,198	0.415659313224	-0.00138565786952	0.170467032058	0.415659313224
GO BP 500 large	1	KNN(500) > Cutoff(5)	Infomap	0.39896607399	0.197967495574	0.608013937282	187	1,1,1,1,1,1,1,1,1,1,1,1,1,1,1,1,1,1,1,1,1,1,1,1,1,1,1,1,1,1,1,1,1,1,1,1,1,1,1,1,1,1,1,1,1,1,1,1,1,1,1,1,1,1,1,1,1,1,1,1,1,1,1,1,1,1,1,1,1,1,1,1,1,1,1,1,1,1,1,1,1,1,1,1,1,1,1,1,1,1,1,1,1,1,1,1,1,1,1,1,1,1,1,1,1,1,1,1,1,1,1,1,1,1,1,1,1,1,1,1,1,1,1,1,1,1,1,1,1,1,1,1,1,1,1,1,1,1,1,1,1,1,1,1,1,1,1,1,1,1,1,1,1,1,1,1,1,1,1,1,1,1,1,1,1,1,1,1,1,1,1,1,1,1,1,2,2,2,3,5,5,6,8,9,23,140,194	0.412767476322	-0.00143696362156	0.163723460245	0.412767476322
GO BP 500 large	1	KNN(500) > Cutoff(5)	Label Propagation	0.0233271121979	0.198623912031	0.595818815331	180	1,1,1,1,1,1,1,1,1,1,1,1,1,1,1,1,1,1,1,1,1,1,1,1,1,1,1,1,1,1,1,1,1,1,1,1,1,1,1,1,1,1,1,1,1,1,1,1,1,1,1,1,1,1,1,1,1,1,1,1,1,1,1,1,1,1,1,1,1,1,1,1,1,1,1,1,1,1,1,1,1,1,1,1,1,1,1,1,1,1,1,1,1,1,1,1,1,1,1,1,1,1,1,1,1,1,1,1,1,1,1,1,1,1,1,1,1,1,1,1,1,1,1,1,1,1,1,1,1,1,1,1,1,1,1,1,1,1,1,1,1,1,1,1,1,1,1,1,1,1,1,1,1,1,1,1,1,1,1,1,1,1,1,1,1,1,1,1,1,1,1,1,1,2,2,2,2,7,168,218	0.413945014356	-0.00134272121598	0.160439768095	0.413945014356
GO BP 500 large	1	KNN(500) > Cutoff(5)	Walkttrap	0.130894899368	0.195180149508	0.606271777003	183	1,1,1,1,1,1,1,1,1,1,1,1,1,1,1,1,1,1,1,1,1,1,1,1,1,1,1,1,1,1,1,1,1,1,1,1,1,1,1,1,1,1,1,1,1,1,1,1,1,1,1,1,1,1,1,1,1,1,1,1,1,1,1,1,1,1,1,1,1,1,1,1,1,1,1,1,1,1,1,1,1,1,1,1,1,1,1,1,1,1,1,1,1,1,1,1,1,1,1,1,1,1,1,1,1,1,1,1,1,1,1,1,1,1,1,1,1,1,1,1,1,1,1,1,1,1,1,1,1,1,1,1,1,1,1,1,1,1,1,1,1,1,1,1,1,1,1,1,1,1,1,1,1,1,1,1,1,1,1,1,1,1,1,1,1,1,1,1,1,1,1,1,1,1,1,2,2,2,3,6,9,168,207	0.415481657293	-0.00136707635205	0.166345071154	0.415481657293
GO BP 500 large	1	Topological Overlap > Cutoff(5)	None	0.0225391387939	-7.54619983892e-17	0.261324041812	1	574	0.0	0.0	0.0	0.0
GO BP 500 large	1	Topological Overlap > Cutoff(5)	Louvain	0.0333871841431	0.150481665262	0.771777003484	264	1,1,1,1,1,1,1,1,1,1,1,1,1,1,1,1,1,1,1,1,1,1,1,1,1,1,1,1,1,1,1,1,1,1,1,1,1,1,1,1,1,1,1,1,1,1,1,1,1,1,1,1,1,1,1,1,1,1,1,1,1,1,1,1,1,1,1,1,1,1,1,1,1,1,1,1,1,1,1,1,1,1,1,1,1,1,1,1,1,1,1,1,1,1,1,1,1,1,1,1,1,1,1,1,1,1,1,1,1,1,1,1,1,1,1,1,1,1,1,1,1,1,1,1,1,1,1,1,1,1,1,1,1,1,1,1,1,1,1,1,1,1,1,1,1,1,1,1,1,1,1,1,1,1,1,1,1,1,1,1,1,1,1,1,1,1,1,1,1,1,1,1,1,1,1,1,1,1,1,1,1,1,1,1,1,1,1,1,1,1,1,1,1,1,1,1,1,1,1,1,1,1,1,1,1,1,1,1,1,1,1,1,1,1,1,1,1,1,1,1,1,1,1,1,1,1,1,1,1,1,1,1,1,1,1,1,1,1,1,1,1,1,1,1,1,1,1,1,1,2,2,2,2,2,2,2,3,3,3,3,45,46,84,124	0.204453564546	-0.00160278830395	0.256416492242	0.204453564546
GO BP 500 large	1	Topological Overlap > Cutoff(5)	Greedy Modularity	0.0473449230194	0.20633373889	0.761324041812	264	1,1,1,1,1,1,1,1,1,1,1,1,1,1,1,1,1,1,1,1,1,1,1,1,1,1,1,1,1,1,1,1,1,1,1,1,1,1,1,1,1,1,1,1,1,1,1,1,1,1,1,1,1,1,1,1,1,1,1,1,1,1,1,1,1,1,1,1,1,1,1,1,1,1,1,1,1,1,1,1,1,1,1,1,1,1,1,1,1,1,1,1,1,1,1,1,1,1,1,1,1,1,1,1,1,1,1,1,1,1,1,1,1,1,1,1,1,1,1,1,1,1,1,1,1,1,1,1,1,1,1,1,1,1,1,1,1,1,1,1,1,1,1,1,1,1,1,1,1,1,1,1,1,1,1,1,1,1,1,1,1,1,1,1,1,1,1,1,1,1,1,1,1,1,1,1,1,1,1,1,1,1,1,1,1,1,1,1,1,1,1,1,1,1,1,1,1,1,1,1,1,1,1,1,1,1,1,1,1,1,1,1,1,1,1,1,1,1,1,1,1,1,1,1,1,1,1,1,1,1,1,1,1,1,1,1,1,1,1,1,1,1,1,1,1,1,1,1,1,2,2,2,2,2,2,2,3,3,3,3,3,45,97,154	0.185222293913	-0.00155730913948	0.240991204936	0.185222293913
GO BP 500 large	1	Topological Overlap > Cutoff(5)	Infomap	0.157077074051	0.276607904316	0.752613240418	264	1,1,1,1,1,1,1,1,1,1,1,1,1,1,1,1,1,1,1,1,1,1,1,1,1,1,1,1,1,1,1,1,1,1,1,1,1,1,1,1,1,1,1,1,1,1,1,1,1,1,1,1,1,1,1,1,1,1,1,1,1,1,1,1,1,1,1,1,1,1,1,1,1,1,1,1,1,1,1,1,1,1,1,1,1,1,1,1,1,1,1,1,1,1,1,1,1,1,1,1,1,1,1,1,1,1,1,1,1,1,1,1,1,1,1,1,1,1,1,1,1,1,1,1,1,1,1,1,1,1,1,1,1,1,1,1,1,1,1,1,1,1,1,1,1,1,1,1,1,1,1,1,1,1,1,1,1,1,1,1,1,1,1,1,1,1,1,1,1,1,1,1,1,1,1,1,1,1,1,1,1,1,1,1,1,1,1,1,1,1,1,1,1,1,1,1,1,1,1,1,1,1,1,1,1,1,1,1,1,1,1,1,1,1,1,1,1,1,1,1,1,1,1,1,1,1,1,1,1,1,1,1,1,1,1,1,1,1,1,1,1,1,1,1,1,1,1,1,1,2,2,2,2,2,2,2,2,3,3,3,5,20,25,250	0.0346225997639	-0.00140695139865	0.138113793461	0.0346225997639
GO BP 500 large	1	Topological Overlap > Cutoff(5)	Leading Eigenvector	0.178998947144	0.137428933152	0.759581881533	264	1,1,1,1,1,1,1,1,1,1,1,1,1,1,1,1,1,1,1,1,1,1,1,1,1,1,1,1,1,1,1,1,1,1,1,1,1,1,1,1,1,1,1,1,1,1,1,1,1,1,1,1,1,1,1,1,1,1,1,1,1,1,1,1,1,1,1,1,1,1,1,1,1,1,1,1,1,1,1,1,1,1,1,1,1,1,1,1,1,1,1,1,1,1,1,1,1,1,1,1,1,1,1,1,1,1,1,1,1,1,1,1,1,1,1,1,1,1,1,1,1,1,1,1,1,1,1,1,1,1,1,1,1,1,1,1,1,1,1,1,1,1,1,1,1,1,1,1,1,1,1,1,1,1,1,1,1,1,1,1,1,1,1,1,1,1,1,1,1,1,1,1,1,1,1,1,1,1,1,1,1,1,1,1,1,1,1,1,1,1,1,1,1,1,1,1,1,1,1,1,1,1,1,1,1,1,1,1,1,1,1,1,1,1,1,1,1,1,1,1,1,1,1,1,1,1,1,1,1,1,1,1,1,1,1,1,1,1,1,1,1,1,1,1,1,1,1,1,1,1,2,2,2,2,2,2,2,3,3,3,45,47,92,117	0.199445912829	-0.00160381590212	0.25007346919	0.199445912829
GO BP 500 large	1	Topological Overlap > Cutoff(5)	Label Propagation	0.0242190361023	0.25657519467	0.735191637631	262	1,1,1,1,1,1,1,1,1,1,1,1,1,1,1,1,1,1,1,1,1,1,1,1,1,1,1,1,1,1,1,1,1,1,1,1,1,1,1,1,1,1,1,1,1,1,1,1,1,1,1,1,1,1,1,1,1,1,1,1,1,1,1,1,1,1,1,1,1,1,1,1,1,1,1,1,1,1,1,1,1,1,1,1,1,1,1,1,1,1,1,1,1,1,1,1,1,1,1,1,1,1,1,1,1,1,1,1,1,1,1,1,1,1,1,1,1,1,1,1,1,1,1,1,1,1,1,1,1,1,1,1,1,1,1,1,1,1,1,1,1,1,1,1,1,1,1,1,1,1,1,1,1,1,1,1,1,1,1,1,1,1,1,1,1,1,1,1,1,1,1,1,1,1,1,1,1,1,1,1,1,1,1,1,1,1,1,1,1,1,1,1,1,1,1,1,1,1,1,1,1,1,1,1,1,1,1,1,1,1,1,1,1,1,1,1,1,1,1,1,1,1,1,1,1,1,1,1,1,1,1,1,1,1,1,1,1,1,1,1,1,1,1,1,1,1,1,2,2,2,2,2,2,2,2,3,3,3,10,14,18,260	0.0301045191065	-0.00138223607354	0.129263038771	0.0301045191065
GO BP 500 large	1	Topological Overlap > Cutoff(5)	Walkttrap	0.152896881104	0.171170311446	0.801393728223	309	1,1,1,1,1,1,1,1,1,1,1,1,1,1,1,1,1,1,1,1,1,1,1,1,1,1,1,1,1,1,1,1,1,1,1,1,1,1,1,1,1,1,1,1,1,1,1,1,1,1,1,1,1,1,1,1,1,1,1,1,1,1,1,1,1,1,1,1,1,1,1,1,1,1,1,1,1,1,1,1,1,1,1,1,1,1,1,1,1,1,1,1,1,1,1,1,1,1,1,1,1,1,1,1,1,1,1,1,1,1,1,1,1,1,1,1,1,1,1,1,1,1,1,1,1,1,1,1,1,1,1,1,1,1,1,1,1,1,1,1,1,1,1,1,1,1,1,1,1,1,1,1,1,1,1,1,1,1,1,1,1,1,1,1,1,1,1,1,1,1,1,1,1,1,1,1,1,1,1,1,1,1,1,1,1,1,1,1,1,1,1,1,1,1,1,1,1,1,1,1,1,1,1,1,1,1,1,1,1,1,1,1,1,1,1,1,1,1,1,1,1,1,1,1,1,1,1,1,1,1,1,1,1,1,1,1,1,1,1,1,1,1,1,1,1,1,1,1,1,1,1,1,1,1,1,1,1,1,1,1,1,1,1,1,1,1,1,1,1,1,1,1,1,1,1,1,1,1,1,1,1,1,1,1,1,1,1,2,2,2,2,2,2,2,2,2,2,2,2,2,2,2,3,3,3,3,22,76,147	0.170115357129	-0.00159555274156	0.213613863331	0.170115357129
GO BP 500 large	1	None > Cutoff(5)	None	0.0205149650574	-7.54619983892e-17	0.261324041812	1	574	0.0	0.0	0.0	0.0
GO BP 500 large	1	None > Cutoff(5)	Louvain	0.0520458221436	0.207763889024	0.512195121951	69	1,1,1,1,1,1,1,1,1,1,1,1,1,1,1,1,1,1,1,1,1,1,1,1,1,1,1,1,1,1,1,1,1,1,1,1,1,1,1,1,1,1,1,1,1,1,1,1,1,1,1,1,1,1,1,1,1,1,1,1,1,2,2,4,11,69,82,118,225	0.33653948716	-0.00134136521015	0.33653948716	0.33653948716
GO BP 500 large	1	None > Cutoff(5)	Greedy Modularity	0.0487840175629	0.261928060315	0.506968641115	67	1,1,1,1,1,1,1,1,1,1,1,1,1,1,1,1,1,1,1,1,1,1,1,1,1,1,1,1,1,1,1,1,1,1,1,1,1,1,1,1,1,1,1,1,1,1,1,1,1,1,1,1,1,1,1,1,1,1,1,1,1,2,2,16,101,164,228	0.318321899004	-0.00127162625377	0.318321899004	0.318321899004
GO BP 500 large	1	None > Cutoff(5)	Infomap	1.07700395584	0.29513390872	0.557491289199	87	1,1,1,1,1,1,1,1,1,1,1,1,1,1,1,1,1,1,1,1,1,1,1,1,1,1,1,1,1,1,1,1,1,1,1,1,1,1,1,1,1,1,1,1,1,1,1,1,1,1,1,1,1,1,1,1,1,1,1,1,1,2,2,2,2,2,3,3,3,3,4,5,5,5,6,8,9,10,11,13,13,19,21,23,36,53,250	0.193748824674	-0.00138032919033	0.193748824674	0.193748824674
GO BP 500 large	1	None > Cutoff(5)	Leading Eigenvector	0.259872913361	0.173692281267	0.503484320557	69	1,1,1,1,1,1,1,1,1,1,1,1,1,1,1,1,1,1,1,1,1,1,1,1,1,1,1,1,1,1,1,1,1,1,1,1,1,1,1,1,1,1,1,1,1,1,1,1,1,1,1,1,1,1,1,1,1,1,1,1,1,2,2,11,44,48,71,103,232	0.308899632944	-0.0013537387634	0.308899632944	0.308899632944
GO BP 500 large	1	None > Cutoff(5)	Label Propagation	0.0264420509338	0.235129845377	0.501742160279	74	1,1,1,1,1,1,1,1,1,1,1,1,1,1,1,1,1,1,1,1,1,1,1,1,1,1,1,1,1,1,1,1,1,1,1,1,1,1,1,1,1,1,1,1,1,1,1,1,1,1,1,1,1,1,1,1,1,1,1,2,2,2,2,3,3,4,5,5,7,13,20,70,79,298	0.177920225084	-0.00121169715211	0.177920225084	0.177920225084
GO BP 500 large	1	None > Cutoff(5)	Walkttrap	0.130550146103	0.121844425597	0.635888501742	166	1,1,1,1,1,1,1,1,1,1,1,1,1,1,1,1,1,1,1,1,1,1,1,1,1,1,1,1,1,1,1,1,1,1,1,1,1,1,1,1,1,1,1,1,1,1,1,1,1,1,1,1,1,1,1,1,1,1,1,1,1,1,1,1,1,1,1,1,1,1,1,1,1,1,1,1,1,1,1,1,1,1,1,1,1,1,1,1,1,1,1,1,1,1,1,1,1,1,1,1,1,1,1,1,1,1,1,1,1,1,1,1,1,1,2,2,2,2,2,2,2,2,2,2,2,2,2,2,2,2,2,2,2,2,3,3,3,3,3,3,3,4,4,4,4,4,4,4,5,5,5,5,5,6,6,6,7,7,9,12,15,19,28,30,98,103	0.25983275982	-0.00162121091448	0.25983275982	0.25983275982
GO BP 500 large	1	Log > Cutoff(5)	None	0.020318031311	-7.54619983892e-17	0.261324041812	1	574	0.0	0.0	0.0	0.0
GO BP 500 large	1	Log > Cutoff(5)	Louvain	0.0427401065826	0.219442882409	0.526132404181	68	1,1,1,1,1,1,1,1,1,1,1,1,1,1,1,1,1,1,1,1,1,1,1,1,1,1,1,1,1,1,1,1,1,1,1,1,1,1,1,1,1,1,1,1,1,1,1,1,1,1,1,1,1,1,1,1,1,1,1,1,1,2,2,54,54,64,114,223	0.303747437901	-0.00135999969659	0.303747437901	0.303747437901
GO BP 500 large	1	Log > Cutoff(5)	Greedy Modularity	0.0387790203094	0.223637901227	0.533101045296	68	1,1,1,1,1,1,1,1,1,1,1,1,1,1,1,1,1,1,1,1,1,1,1,1,1,1,1,1,1,1,1,1,1,1,1,1,1,1,1,1,1,1,1,1,1,1,1,1,1,1,1,1,1,1,1,1,1,1,1,1,1,2,2,44,56,66,117,226	0.305097083755	-0.00135184247399	0.305097083755	0.305097083755
GO BP 500 large	1	Log > Cutoff(5)	Infomap	1.15939188004	0.30062707417	0.56968641115	92	1,1,1,1,1,1,1,1,1,1,1,1,1,1,1,1,1,1,1,1,1,1,1,1,1,1,1,1,1,1,1,1,1,1,1,1,1,1,1,1,1,1,1,1,1,1,1,1,1,1,1,1,1,1,1,1,1,1,1,1,1,2,2,2,2,2,2,2,2,3,3,4,4,5,5,5,5,5,6,6,6,7,8,9,11,13,17,19,21,41,48,246	0.190238678364	-0.00139321124577	0.190238678364	0.190238678364
GO BP 500 large	1	Log > Cutoff(5)	Leading Eigenvector	0.527740955353	0.208126303044	0.526132404181	72	1,1,1,1,1,1,1,1,1,1,1,1,1,1,1,1,1,1,1,1,1,1,1,1,1,1,1,1,1,1,1,1,1,1,1,1,1,1,1,1,1,1,1,1,1,1,1,1,1,1,1,1,1,1,1,1,1,1,1,1,1,1,1,2,2,5,27,31,51,69,110,214	0.305699531847	-0.00139007548228	0.305699531847	0.305699531847
GO BP 500 large	1	Log > Cutoff(5)	Label Propagation	0.0267610549927	0.152357897166	0.531358885017	85	1,1,1,1,1,1,1,1,1,1,1,1,1,1,1,1,1,1,1,1,1,1,1,1,1,1,1,1,1,1,1,1,1,1,1,1,1,1,1,1,1,1,1,1,1,1,1,1,1,1,1,1,1,1,1,1,1,1,1,2,2,2,2,2,2,2,3,4,4,5,5,5,5,6,6,6,6,7,7,8,31,43,48,126,176	0.273660760101	-0.00146712415761	0.273660760101	0.273660760101
GO BP 500 large	1	Log > Cutoff(5)	Walkttrap	0.129793167114	0.123453755785	0.750871080139	240	1,1,1,1,1,1,1,1,1,1,1,1,1,1,1,1,1,1,1,1,1,1,1,1,1,1,1,1,1,1,1,1,1,1,1,1,1,1,1,1,1,1,1,1,1,1,1,1,1,1,1,1,1,1,1,1,1,1,1,1,1,1,1,1,1,1,1,1,1,1,1,1,1,1,1,1,1,1,1,1,1,1,1,1,1,1,1,1,1,1,1,1,1,1,1,1,1,1,1,1,1,1,1,1,1,1,1,1,1,1,1,1,1,1,1,1,1,1,1,1,1,1,1,1,1,1,1,1,1,1,1,1,1,1,1,1,1,1,1,1,1,1,1,1,1,1,1,1,1,1,1,1,1,1,1,1,1,1,1,1,1,1,1,1,1,1,1,1,1,1,1,1,1,1,1,1,1,1,1,1,1,1,1,1,1,1,1,2,2,2,2,2,2,2,2,2,2,2,2,2,2,2,2,2,2,2,2,2,2,2,3,3,3,3,3,3,3,3,3,3,4,4,4,4,4,4,4,4,4,6,6,8,9,10,18,18,20,23,76,81	0.193716495135	-0.00166710323698	0.193716495135	0.193716495135
GO BP 500 large	2	Pearson > Cutoff(5)	None	0.0267369747162	1.51960503823e-16	0.26724137931	1	580	0.0	0.0	0.0	0.0
GO BP 500 large	2	Pearson > Cutoff(5)	Louvain	0.0369558334351	0.0528724546295	0.394827586207	61	1,1,1,1,1,1,1,1,1,1,1,1,1,1,1,1,1,1,1,1,1,1,1,1,1,1,1,1,1,1,1,1,1,1,1,1,1,1,1,1,1,1,1,2,2,2,2,2,2,2,2,3,3,3,4,8,61,91,103,110,135	0.368730221793	-0.00145440188607	0.404901354624	0.368730221793
GO BP 500 large	2	Pearson > Cutoff(5)	Greedy Modularity	0.038409948349	0.0521175663078	0.384482758621	61	1,1,1,1,1,1,1,1,1,1,1,1,1,1,1,1,1,1,1,1,1,1,1,1,1,1,1,1,1,1,1,1,1,1,1,1,1,1,1,1,1,1,1,2,2,2,2,2,2,2,3,3,3,4,4,6,8,12,62,160,258	0.359839971666	-0.00123227960792	0.325008051962	0.359839971666
GO BP 500 large	2	Pearson > Cutoff(5)	Infomap	0.501140117645	0.0350871060358	0.463793103448	83	1,1,1,1,1,1,1,1,1,1,1,1,1,1,1,1,1,1,1,1,1,1,1,1,1,1,1,1,1,1,1,1,1,1,1,1,1,1,1,1,1,1,1,2,2,2,2,2,2,2,2,3,3,3,3,3,4,4,4,4,4,5,5,5,6,6,7,8,8,8,8,9,12,12,13,18,23,27,32,33,33,42,166	0.339890778912	-0.00154591232167	0.291023277877	0.339890778912
GO BP 500 large	2	Pearson > Cutoff(5)	Leading Eigenvector	0.329530000687	0.0499042215867	0.393103448276	60	1,1,1,1,1,1,1,1,1,1,1,1,1,1,1,1,1,1,1,1,1,1,1,1,1,1,1,1,1,1,1,1,1,1,1,1,1,1,1,1,1,1,1,1,1,2,2,2,2,2,3,3,3,6,8,20,86,88,148,160	0.365195353756	-0.00140245492762	0.403156369251	0.365195353756
GO BP 500 large	2	Pearson > Cutoff(5)	Label Propagation	0.0264620780945	0.0690639258202	0.437931034483	70	1,1,1,1,1,1,1,1,1,1,1,1,1,1,1,1,1,1,1,1,1,1,1,1,1,1,1,1,1,1,1,1,1,1,1,1,1,1,1,1,1,1,1,2,2,2,2,2,2,3,3,3,3,3,4,4,4,5,6,8,8,8,13,16,22,27,32,33,113,207	0.347903605498	-0.00142018815498	0.359711444249	0.347903605498
GO BP 500 large	2	Pearson > Cutoff(5)	Walkttrap	0.14066696167	0.0537939283259	0.410344827586	69	1,1,1,1,1,1,1,1,1,1,1,1,1,1,1,1,1,1,1,1,1,1,1,1,1,1,1,1,1,1,1,1,1,1,1,1,1,1,1,1,1,1,1,2,2,2,2,2,2,2,2,2,3,3,3,3,3,4,5,6,6,8,17,23,34,34,81,96,190	0.357793140209	-0.00144315817792	0.375616848183	0.357793140209
GO BP 500 large	2	Spearman > Cutoff(5)	None	0.017991065979	1.51960503823e-16	0.26724137931	1	580	0.0	0.0	0.0	0.0
GO BP 500 large	2	Spearman > Cutoff(5)	Louvain	0.0326211452484	0.0343617750456	0.589655172414	243	1,1,1,1,1,1,1,1,1,1,1,1,1,1,1,1,1,1,1,1,1,1,1,1,1,1,1,1,1,1,1,1,1,1,1,1,1,1,1,1,1,1,1,1,1,1,1,1,1,1,1,1,1,1,1,1,1,1,1,1,1,1,1,1,1,1,1,1,1,1,1,1,1,1,1,1,1,1,1,1,1,1,1,1,1,1,1,1,1,1,1,1,1,1,1,1,1,1,1,1,1,1,1,1,1,1,1,1,1,1,1,1,1,1,1,1,1,1,1,1,1,1,1,1,1,1,1,1,1,1,1,1,1,1,1,1,1,1,1,1,1,1,1,1,1,1,1,1,1,1,1,1,1,1,1,1,1,1,1,1,1,1,1,1,1,1,1,1,1,1,1,1,1,1,1,1,1,1,1,1,1,1,1,1,1,1,1,1,1,1,1,1,1,1,1,1,1,1,1,1,1,1,1,1,1,1,1,1,1,1,1,1,1,1,1,1,1,1,1,1,1,1,1,1,1,1,1,1,1,2,2,2,2,2,2,2,4,7,10,15,17,139,145	0.302072537249	-0.00151516925118	0.333258789647	0.302072537249
GO BP 500 large	2	Spearman > Cutoff(5)	Greedy Modularity	0.0363168716431	0.0385325585907	0.591379310345	242	1,1,1,1,1,1,1,1,1,1,1,1,1,1,1,1,1,1,1,1,1,1,1,1,1,1,1,1,1,1,1,1,1,1,1,1,1,1,1,1,1,1,1,1,1,1,1,1,1,1,1,1,1,1,1,1,1,1,1,1,1,1,1,1,1,1,1,1,1,1,1,1,1,1,1,1,1,1,1,1,1,1,1,1,1,1,1,1,1,1,1,1,1,1,1,1,1,1,1,1,1,1,1,1,1,1,1,1,1,1,1,1,1,1,1,1,1,1,1,1,1,1,1,1,1,1,1,1,1,1,1,1,1,1,1,1,1,1,1,1,1,1,1,1,1,1,1,1,1,1,1,1,1,1,1,1,1,1,1,1,1,1,1,1,1,1,1,1,1,1,1,1,1,1,1,1,1,1,1,1,1,1,1,1,1,1,1,1,1,1,1,1,1,1,1,1,1,1,1,1,1,1,1,1,1,1,1,1,1,1,1,1,1,1,1,1,1,1,1,1,1,1,1,1,1,1,1,1,1,2,2,2,2,2,2,2,4,6,10,16,145,156	0.293852245565	-0.00149081301765	0.3353555871	0.293852245565
GO BP 500 large	2	Spearman > Cutoff(5)	Infomap	0.370198965073	0.0178296148596	0.601724137931	252	1,1,1,1,1,1,1,1,1,1,1,1,1,1,1,1,1,1,1,1,1,1,1,1,1,1,1,1,1,1,1,1,1,1,1,1,1,1,1,1,1,1,1,1,1,1,1,1,1,1,1,1,1,1,1,1,1,1,1,1,1,1,1,1,1,1,1,1,1,1,1,1,1,1,1,1,1,1,1,1,1,1,1,1,1,1,1,1,1,1,1,1,1,1,1,1,1,1,1,1,1,1,1,1,1,1,1,1,1,1,1,1,1,1,1,1,1,1,1,1,1,1,1,1,1,1,1,1,1,1,1,1,1,1,1,1,1,1,1,1,1,1,1,1,1,1,1,1,1,1,1,1,1,1,1,1,1,1,1,1,1,1,1,1,1,1,1,1,1,1,1,1,1,1,1,1,1,1,1,1,1,1,1,1,1,1,1,1,1,1,1,1,1,1,1,1,1,1,1,1,1,1,1,1,1,1,1,1,1,1,1,1,1,1,1,1,1,1,1,1,1,1,1,1,1,1,1,1,1,2,2,2,2,2,2,2,2,2,3,3,4,4,5,5,6,8,10,11,15,42,72,145	0.292555198804	-0.00157882198797	0.31656041234	0.292555198804
GO BP 500 large	2	Spearman > Cutoff(5)	Leading Eigenvector	0.0637431144714	0.0392675574135	0.586206896552	237	1,1,1,1,1,1,1,1,1,1,1,1,1,1,1,1,1,1,1,1,1,1,1,1,1,1,1,1,1,1,1,1,1,1,1,1,1,1,1,1,1,1,1,1,1,1,1,1,1,1,1,1,1,1,1,1,1,1,1,1,1,1,1,1,1,1,1,1,1,1,1,1,1,1,1,1,1,1,1,1,1,1,1,1,1,1,1,1,1,1,1,1,1,1,1,1,1,1,1,1,1,1,1,1,1,1,1,1,1,1,1,1,1,1,1,1,1,1,1,1,1,1,1,1,1,1,1,1,1,1,1,1,1,1,1,1,1,1,1,1,1,1,1,1,1,1,1,1,1,1,1,1,1,1,1,1,1,1,1,1,1,1,1,1,1,1,1,1,1,1,1,1,1,1,1,1,1,1,1,1,1,1,1,1,1,1,1,1,1,1,1,1,1,1,1,1,1,1,1,1,1,1,1,1,1,1,1,1,1,1,1,1,1,1,1,1,1,1,1,1,1,1,1,1,1,1,1,1,1,2,2,2,2,2,4,155,182	0.288612348031	-0.0014323457353	0.33546960826	0.288612348031
GO BP 500 large	2	Spearman > Cutoff(5)	Label Propagation	0.0266342163086	0.0322694597536	0.603448275862	245	1,1,1,1,1,1,1,1,1,1,1,1,1,1,1,1,1,1,1,1,1,1,1,1,1,1,1,1,1,1,1,1,1,1,1,1,1,1,1,1,1,1,1,1,1,1,1,1,1,1,1,1,1,1,1,1,1,1,1,1,1,1,1,1,1,1,1,1,1,1,1,1,1,1,1,1,1,1,1,1,1,1,1,1,1,1,1,1,1,1,1,1,1,1,1,1,1,1,1,1,1,1,1,1,1,1,1,1,1,1,1,1,1,1,1,1,1,1,1,1,1,1,1,1,1,1,1,1,1,1,1,1,1,1,1,1,1,1,1,1,1,1,1,1,1,1,1,1,1,1,1,1,1,1,1,1,1,1,1,1,1,1,1,1,1,1,1,1,1,1,1,1,1,1,1,1,1,1,1,1,1,1,1,1,1,1,1,1,1,1,1,1,1,1,1,1,1,1,1,1,1,1,1,1,1,1,1,1,1,1,1,1,1,1,1,1,1,1,1,1,1,1,1,1,1,1,1,1,1,2,2,2,2,2,2,2,3,3,4,4,5,5,13,140,160	0.296217543498	-0.00149235325164	0.33368178984	0.296217543498
GO BP 500 large	2	Spearman > Cutoff(5)	Walkttrap	0.11687707901	0.0194540100903	0.593103448276	246	1,1,1,1,1,1,1,1,1,1,1,1,1,1,1,1,1,1,1,1,1,1,1,1,1,1,1,1,1,1,1,1,1,1,1,1,1,1,1,1,1,1,1,1,1,1,1,1,1,1,1,1,1,1,1,1,1,1,1,1,1,1,1,1,1,1,1,1,1,1,1,1,1,1,1,1,1,1,1,1,1,1,1,1,1,1,1,1,1,1,1,1,1,1,1,1,1,1,1,1,1,1,1,1,1,1,1,1,1,1,1,1,1,1,1,1,1,1,1,1,1,1,1,1,1,1,1,1,1,1,1,1,1,1,1,1,1,1,1,1,1,1,1,1,1,1,1,1,1,1,1,1,1,1,1,1,1,1,1,1,1,1,1,1,1,1,1,1,1,1,1,1,1,1,1,1,1,1,1,1,1,1,1,1,1,1,1,1,1,1,1,1,1,1,1,1,1,1,1,1,1,1,1,1,1,1,1,1,1,1,1,1,1,1,1,1,1,1,1,1,1,1,1,1,1,1,1,1,1,2,2,2,2,2,2,2,3,4,4,5,5,7,15,42,94,158	0.298233092286	-0.0015413326926	0.345184155944	0.298233092286
GO BP 500 large	2	Cosine > Cutoff(5)	None	0.0230791568756	1.51960503823e-16	0.26724137931	1	580	0.0	0.0	0.0	0.0
GO BP 500 large	2	Cosine > Cutoff(5)	Louvain	0.0355949401855	0.0249057923868	0.529310344828	170	1,1,1,1,1,1,1,1,1,1,1,1,1,1,1,1,1,1,1,1,1,1,1,1,1,1,1,1,1,1,1,1,1,1,1,1,1,1,1,1,1,1,1,1,1,1,1,1,1,1,1,1,1,1,1,1,1,1,1,1,1,1,1,1,1,1,1,1,1,1,1,1,1,1,1,1,1,1,1,1,1,1,1,1,1,1,1,1,1,1,1,1,1,1,1,1,1,1,1,1,1,1,1,1,1,1,1,1,1,1,1,1,1,1,1,1,1,1,1,1,1,1,1,1,1,1,1,1,1,1,1,1,1,2,2,2,2,2,2,2,2,2,2,2,2,2,2,3,3,3,3,3,3,3,4,4,4,5,5,6,6,6,6,8,14,14,27,55,102,132	0.32459301183	-0.00156009274262	0.207274640489	0.32459301183
GO BP 500 large	2	Cosine > Cutoff(5)	Greedy Modularity	0.0443029403687	0.0168686658532	0.522413793103	170	1,1,1,1,1,1,1,1,1,1,1,1,1,1,1,1,1,1,1,1,1,1,1,1,1,1,1,1,1,1,1,1,1,1,1,1,1,1,1,1,1,1,1,1,1,1,1,1,1,1,1,1,1,1,1,1,1,1,1,1,1,1,1,1,1,1,1,1,1,1,1,1,1,1,1,1,1,1,1,1,1,1,1,1,1,1,1,1,1,1,1,1,1,1,1,1,1,1,1,1,1,1,1,1,1,1,1,1,1,1,1,1,1,1,1,1,1,1,1,1,1,1,1,1,1,1,1,1,1,1,1,1,1,2,2,2,2,2,2,2,2,2,2,2,2,2,2,3,3,3,3,3,3,3,3,4,4,4,4,5,5,6,6,6,12,14,27,55,98,145	0.311184055559	-0.00154636412364	0.205148689135	0.311184055559
GO BP 500 large	2	Cosine > Cutoff(5)	Infomap	0.609197854996	-0.00135171878848	0.531034482759	182	1,1,1,1,1,1,1,1,1,1,1,1,1,1,1,1,1,1,1,1,1,1,1,1,1,1,1,1,1,1,1,1,1,1,1,1,1,1,1,1,1,1,1,1,1,1,1,1,1,1,1,1,1,1,1,1,1,1,1,1,1,1,1,1,1,1,1,1,1,1,1,1,1,1,1,1,1,1,1,1,1,1,1,1,1,1,1,1,1,1,1,1,1,1,1,1,1,1,1,1,1,1,1,1,1,1,1,1,1,1,1,1,1,1,1,1,1,1,1,1,1,1,1,1,1,1,1,1,1,1,1,1,1,2,2,2,2,2,2,2,2,2,2,2,2,2,2,2,2,3,3,3,3,3,3,3,3,3,4,4,4,4,4,5,5,5,5,6,6,6,6,6,6,7,7,8,8,9,11,15,23,224	0.0731695111278	-0.00145997753312	0.145989585469	0.0731695111278
GO BP 500 large	2	Cosine > Cutoff(5)	Leading Eigenvector	0.339025974274	0.0209415591265	0.510344827586	174	1,1,1,1,1,1,1,1,1,1,1,1,1,1,1,1,1,1,1,1,1,1,1,1,1,1,1,1,1,1,1,1,1,1,1,1,1,1,1,1,1,1,1,1,1,1,1,1,1,1,1,1,1,1,1,1,1,1,1,1,1,1,1,1,1,1,1,1,1,1,1,1,1,1,1,1,1,1,1,1,1,1,1,1,1,1,1,1,1,1,1,1,1,1,1,1,1,1,1,1,1,1,1,1,1,1,1,1,1,1,1,1,1,1,1,1,1,1,1,1,1,1,1,1,1,1,1,1,1,1,1,1,1,1,1,1,1,1,1,1,2,2,2,2,2,2,2,2,2,2,2,2,2,2,3,3,3,3,3,3,3,4,4,4,4,5,5,6,6,8,27,55,106,157	0.31955451228	-0.00152099133567	0.204865343477	0.31955451228
GO BP 500 large	2	Cosine > Cutoff(5)	Label Propagation	0.0244410037994	0.00676306924961	0.522413793103	181	1,1,1,1,1,1,1,1,1,1,1,1,1,1,1,1,1,1,1,1,1,1,1,1,1,1,1,1,1,1,1,1,1,1,1,1,1,1,1,1,1,1,1,1,1,1,1,1,1,1,1,1,1,1,1,1,1,1,1,1,1,1,1,1,1,1,1,1,1,1,1,1,1,1,1,1,1,1,1,1,1,1,1,1,1,1,1,1,1,1,1,1,1,1,1,1,1,1,1,1,1,1,1,1,1,1,1,1,1,1,1,1,1,1,1,1,1,1,1,1,1,1,1,1,1,1,1,1,1,1,1,1,1,2,2,2,2,2,2,2,2,2,2,2,2,2,2,2,2,2,2,3,3,3,3,3,3,3,3,3,3,3,3,3,4,4,4,4,4,4,6,6,6,6,6,8,8,10,25,84,183	0.284480199525	-0.00151150349428	0.148396295108	0.284480199525
GO BP 500 large	2	Cosine > Cutoff(5)	Walkttrap	0.155321121216	0.00674904511954	0.613793103448	257	1,1,1,1,1,1,1,1,1,1,1,1,1,1,1,1,1,1,1,1,1,1,1,1,1,1,1,1,1,1,1,1,1,1,1,1,1,1,1,1,1,1,1,1,1,1,1,1,1,1,1,1,1,1,1,1,1,1,1,1,1,1,1,1,1,1,1,1,1,1,1,1,1,1,1,1,1,1,1,1,1,1,1,1,1,1,1,1,1,1,1,1,1,1,1,1,1,1,1,1,1,1,1,1,1,1,1,1,1,1,1,1,1,1,1,1,1,1,1,1,1,1,1,1,1,1,1,1,1,1,1,1,1,1,1,1,1,1,1,1,1,1,1,1,1,1,1,1,1,1,1,1,1,1,1,1,1,1,1,1,1,1,1,1,1,1,1,1,1,1,1,1,1,1,1,1,1,1,1,1,1,1,1,1,1,1,1,1,1,1,1,1,1,1,1,1,1,1,1,1,1,1,1,1,1,2,2,2,2,2,2,2,2,2,2,2,2,2,2,2,2,2,2,2,2,2,2,2,2,2,2,3,3,3,3,3,3,3,3,3,3,3,3,3,3,3,3,4,4,4,4,4,5,8,11,91,140	0.289548602324	-0.00158015685743	0.113601984218	0.289548602324
GO BP 500 large	2	KNN(10) > Cutoff(5)	None	0.0224251747131	1.51960503823e-16	0.26724137931	1	580	0.0	0.0	0.0	0.0
GO BP 500 large	2	KNN(10) > Cutoff(5)	Louvain	0.0491700172424	0.0927750237815	0.35	7	1,14,34,39,158,161,173	0.530211889448	-0.00129745204225	0.43264270495	0.530211889448
GO BP 500 large	2	KNN(10) > Cutoff(5)	Greedy Modularity	0.132146835327	0.0485781504694	0.310344827586	5	1,15,146,190,228	0.518250885912	-0.00116428341127	0.431622452745	0.518250885912
GO BP 500 large	2	KNN(10) > Cutoff(5)	Infomap	0.737703084946	0.0675423040347	0.343103448276	12	1,4,5,15,31,35,40,52,54,70,81,192	0.506388317076	-0.00142934741313	0.411264836748	0.506388317076
GO BP 500 large	2	KNN(10) > Cutoff(5)	Leading Eigenvector	0.242396116257	0.0876146310006	0.33275862069	8	1,1,6,12,73,116,182,189	0.533152179036	-0.00127627895897	0.460903643672	0.533152179036
GO BP 500 large	2	KNN(10) > Cutoff(5)	Label Propagation	0.0289421081543	0.103739055243	0.336206896552	8	1,11,28,38,44,65,182,211	0.514091955671	-0.0012847810506	0.431190177596	0.514091955671
GO BP 500 large	2	KNN(10) > Cutoff(5)	Walkttrap	0.192028045654	0.0566020555149	0.31724137931	6	1,11,101,115,138,214	0.52810555745	-0.0012733217097	0.461979383017	0.52810555745
GO BP 500 large	2	KNN(50) > Cutoff(5)	None	0.0260689258575	1.51960503823e-16	0.26724137931	1	580	0.0	0.0	0.0	0.0
GO BP 500 large	2	KNN(50) > Cutoff(5)	Louvain	0.039134979248	0.0424423483327	0.368965517241	64	1,1,1,1,1,1,1,1,1,1,1,1,1,1,1,1,1,1,1,1,1,1,1,1,1,1,1,1,1,1,1,1,1,1,1,1,1,1,1,1,1,1,1,1,1,1,1,1,1,1,1,1,1,1,1,1,2,3,15,32,80,84,136,172	0.557225362511	-0.0014044161589	0.46617963723	0.557225362511
GO BP 500 large	2	KNN(50) > Cutoff(5)	Greedy Modularity	0.047345161438	0.0709850757896	0.386206896552	66	1,1,1,1,1,1,1,1,1,1,1,1,1,1,1,1,1,1,1,1,1,1,1,1,1,1,1,1,1,1,1,1,1,1,1,1,1,1,1,1,1,1,1,1,1,1,1,1,1,1,1,1,1,1,1,1,2,2,2,3,3,6,10,39,213,244	0.475238903292	-0.0011795728007	0.390309311292	0.475238903292
GO BP 500 large	2	KNN(50) > Cutoff(5)	Infomap	0.630331993103	0.0384805891524	0.386206896552	74	1,1,1,1,1,1,1,1,1,1,1,1,1,1,1,1,1,1,1,1,1,1,1,1,1,1,1,1,1,1,1,1,1,1,1,1,1,1,1,1,1,1,1,1,1,1,1,1,1,1,1,1,1,1,1,1,2,2,3,3,4,5,5,6,9,10,16,27,30,39,50,72,100,141	0.54627733932	-0.00151489200906	0.432105605834	0.54627733932
GO BP 500 large	2	KNN(50) > Cutoff(5)	Leading Eigenvector	0.272121906281	0.04415933226	0.379310344828	70	1,1,1,1,1,1,1,1,1,1,1,1,1,1,1,1,1,1,1,1,1,1,1,1,1,1,1,1,1,1,1,1,1,1,1,1,1,1,1,1,1,1,1,1,1,1,1,1,1,1,1,1,1,1,1,1,1,1,1,1,1,1,2,2,3,30,91,104,134,152	0.556671156975	-0.00141323656557	0.476193549664	0.556671156975
GO BP 500 large	2	KNN(50) > Cutoff(5)	Label Propagation	0.0250489711761	0.0518564678802	0.393103448276	66	1,1,1,1,1,1,1,1,1,1,1,1,1,1,1,1,1,1,1,1,1,1,1,1,1,1,1,1,1,1,1,1,1,1,1,1,1,1,1,1,1,1,1,1,1,1,1,1,1,1,1,1,1,1,1,1,2,3,3,4,26,37,44,85,122,198	0.541654419146	-0.00139140631578	0.453522008933	0.541654419146
GO BP 500 large	2	KNN(50) > Cutoff(5)	Walkttrap	0.151767969131	0.0450396852137	0.384482758621	77	1,1,1,1,1,1,1,1,1,1,1,1,1,1,1,1,1,1,1,1,1,1,1,1,1,1,1,1,1,1,1,1,1,1,1,1,1,1,1,1,1,1,1,1,1,1,1,1,1,1,1,1,1,1,1,1,1,1,1,1,1,1,2,2,2,2,3,3,4,4,6,10,27,81,98,126,148	0.561050387653	-0.00144505779985	0.471992581449	0.561050387653
GO BP 500 large	2	KNN(100) > Cutoff(5)	None	0.022078037262	1.51960503823e-16	0.26724137931	1	580	0.0	0.0	0.0	0.0
GO BP 500 large	2	KNN(100) > Cutoff(5)	Louvain	0.034166097641	0.0345071005482	0.451724137931	126	1,1,1,1,1,1,1,1,1,1,1,1,1,1,1,1,1,1,1,1,1,1,1,1,1,1,1,1,1,1,1,1,1,1,1,1,1,1,1,1,1,1,1,1,1,1,1,1,1,1,1,1,1,1,1,1,1,1,1,1,1,1,1,1,1,1,1,1,1,1,1,1,1,1,1,1,1,1,1,1,1,1,1,1,1,1,1,1,1,1,1,1,1,1,1,1,1,1,1,1,1,1,1,1,1,1,1,1,1,1,1,1,1,1,1,1,2,2,3,4,5,25,55,78,142,148	0.4592019266	-0.00146026504347	0.438372952193	0.4592019266
GO BP 500 large	2	KNN(100) > Cutoff(5)	Greedy Modularity	0.0369820594788	0.0585635023184	0.45	126	1,1,1,1,1,1,1,1,1,1,1,1,1,1,1,1,1,1,1,1,1,1,1,1,1,1,1,1,1,1,1,1,1,1,1,1,1,1,1,1,1,1,1,1,1,1,1,1,1,1,1,1,1,1,1,1,1,1,1,1,1,1,1,1,1,1,1,1,1,1,1,1,1,1,1,1,1,1,1,1,1,1,1,1,1,1,1,1,1,1,1,1,1,1,1,1,1,1,1,1,1,1,1,1,1,1,1,1,1,1,1,1,1,1,1,1,2,2,3,3,3,4,10,24,197,216	0.424067728069	-0.00128400066538	0.359931158903	0.424067728069
GO BP 500 large	2	KNN(100) > Cutoff(5)	Infomap	0.458801984787	0.0294172173146	0.455172413793	137	1,1,1,1,1,1,1,1,1,1,1,1,1,1,1,1,1,1,1,1,1,1,1,1,1,1,1,1,1,1,1,1,1,1,1,1,1,1,1,1,1,1,1,1,1,1,1,1,1,1,1,1,1,1,1,1,1,1,1,1,1,1,1,1,1,1,1,1,1,1,1,1,1,1,1,1,1,1,1,1,1,1,1,1,1,1,1,1,1,1,1,1,1,1,1,1,1,1,1,1,1,1,1,1,1,1,1,1,1,1,1,1,1,1,1,1,2,2,2,2,2,3,3,3,4,4,5,5,6,9,15,21,23,25,65,119,144	0.455865469662	-0.00151505630069	0.405415436015	0.455865469662
GO BP 500 large	2	KNN(100) > Cutoff(5)	Label Propagation	0.0292880535126	0.0395904854908	0.448275862069	126	1,1,1,1,1,1,1,1,1,1,1,1,1,1,1,1,1,1,1,1,1,1,1,1,1,1,1,1,1,1,1,1,1,1,1,1,1,1,1,1,1,1,1,1,1,1,1,1,1,1,1,1,1,1,1,1,1,1,1,1,1,1,1,1,1,1,1,1,1,1,1,1,1,1,1,1,1,1,1,1,1,1,1,1,1,1,1,1,1,1,1,1,1,1,1,1,1,1,1,1,1,1,1,1,1,1,1,1,1,1,1,1,1,1,1,1,2,2,3,3,3,23,23,90,130,185	0.455598856175	-0.00141684071311	0.434673814227	0.455598856175
GO BP 500 large	2	KNN(100) > Cutoff(5)	Walkttrap	0.125889062881	0.0364528919757	0.45	134	1,1,1,1,1,1,1,1,1,1,1,1,1,1,1,1,1,1,1,1,1,1,1,1,1,1,1,1,1,1,1,1,1,1,1,1,1,1,1,1,1,1,1,1,1,1,1,1,1,1,1,1,1,1,1,1,1,1,1,1,1,1,1,1,1,1,1,1,1,1,1,1,1,1,1,1,1,1,1,1,1,1,1,1,1,1,1,1,1,1,1,1,1,1,1,1,1,1,1,1,1,1,1,1,1,1,1,1,1,1,1,1,1,1,1,1,2,2,2,2,2,2,2,2,2,2,3,3,3,16,25,91,122,181	0.454499743357	-0.00143452259934	0.430055692151	0.454499743357
GO BP 500 large	2	KNN(250) > Cutoff(5)	None	0.0237708091736	1.51960503823e-16	0.26724137931	1	580	0.0	0.0	0.0	0.0
GO BP 500 large	2	KNN(250) > Cutoff(5)	Louvain	0.0370149612427	0.0409489847119	0.560344827586	223	1,1,1,1,1,1,1,1,1,1,1,1,1,1,1,1,1,1,1,1,1,1,1,1,1,1,1,1,1,1,1,1,1,1,1,1,1,1,1,1,1,1,1,1,1,1,1,1,1,1,1,1,1,1,1,1,1,1,1,1,1,1,1,1,1,1,1,1,1,1,1,1,1,1,1,1,1,1,1,1,1,1,1,1,1,1,1,1,1,1,1,1,1,1,1,1,1,1,1,1,1,1,1,1,1,1,1,1,1,1,1,1,1,1,1,1,1,1,1,1,1,1,1,1,1,1,1,1,1,1,1,1,1,1,1,1,1,1,1,1,1,1,1,1,1,1,1,1,1,1,1,1,1,1,1,1,1,1,1,1,1,1,1,1,1,1,1,1,1,1,1,1,1,1,1,1,1,1,1,1,1,1,1,1,1,1,1,1,1,1,1,1,1,1,1,1,1,1,1,1,1,1,1,1,1,1,1,2,2,2,2,2,2,3,3,3,4,5,5,8,13,147,170	0.308007489807	-0.00146493708658	0.335897797339	0.308007489807
GO BP 500 large	2	KNN(250) > Cutoff(5)	Greedy Modularity	0.0342772006989	0.0413404530118	0.572413793103	224	1,1,1,1,1,1,1,1,1,1,1,1,1,1,1,1,1,1,1,1,1,1,1,1,1,1,1,1,1,1,1,1,1,1,1,1,1,1,1,1,1,1,1,1,1,1,1,1,1,1,1,1,1,1,1,1,1,1,1,1,1,1,1,1,1,1,1,1,1,1,1,1,1,1,1,1,1,1,1,1,1,1,1,1,1,1,1,1,1,1,1,1,1,1,1,1,1,1,1,1,1,1,1,1,1,1,1,1,1,1,1,1,1,1,1,1,1,1,1,1,1,1,1,1,1,1,1,1,1,1,1,1,1,1,1,1,1,1,1,1,1,1,1,1,1,1,1,1,1,1,1,1,1,1,1,1,1,1,1,1,1,1,1,1,1,1,1,1,1,1,1,1,1,1,1,1,1,1,1,1,1,1,1,1,1,1,1,1,1,1,1,1,1,1,1,1,1,1,1,1,1,1,1,1,1,1,1,2,2,2,2,2,2,2,3,3,4,5,5,5,6,7,156,165	0.306822712045	-0.00146019316588	0.34066839064	0.306822712045
GO BP 500 large	2	KNN(250) > Cutoff(5)	Infomap	0.358206987381	0.0296646495254	0.575862068966	229	1,1,1,1,1,1,1,1,1,1,1,1,1,1,1,1,1,1,1,1,1,1,1,1,1,1,1,1,1,1,1,1,1,1,1,1,1,1,1,1,1,1,1,1,1,1,1,1,1,1,1,1,1,1,1,1,1,1,1,1,1,1,1,1,1,1,1,1,1,1,1,1,1,1,1,1,1,1,1,1,1,1,1,1,1,1,1,1,1,1,1,1,1,1,1,1,1,1,1,1,1,1,1,1,1,1,1,1,1,1,1,1,1,1,1,1,1,1,1,1,1,1,1,1,1,1,1,1,1,1,1,1,1,1,1,1,1,1,1,1,1,1,1,1,1,1,1,1,1,1,1,1,1,1,1,1,1,1,1,1,1,1,1,1,1,1,1,1,1,1,1,1,1,1,1,1,1,1,1,1,1,1,1,1,1,1,1,1,1,1,1,1,1,1,1,1,1,1,1,1,1,1,1,1,1,1,1,2,2,2,2,2,2,2,2,2,3,3,4,4,5,5,5,6,7,14,52,82,165	0.298349402196	-0.00153560302214	0.334412793501	0.298349402196
GO BP 500 large	2	KNN(250) > Cutoff(5)	Leading Eigenvector	0.0707471370697	0.0503697467792	0.563793103448	217	1,1,1,1,1,1,1,1,1,1,1,1,1,1,1,1,1,1,1,1,1,1,1,1,1,1,1,1,1,1,1,1,1,1,1,1,1,1,1,1,1,1,1,1,1,1,1,1,1,1,1,1,1,1,1,1,1,1,1,1,1,1,1,1,1,1,1,1,1,1,1,1,1,1,1,1,1,1,1,1,1,1,1,1,1,1,1,1,1,1,1,1,1,1,1,1,1,1,1,1,1,1,1,1,1,1,1,1,1,1,1,1,1,1,1,1,1,1,1,1,1,1,1,1,1,1,1,1,1,1,1,1,1,1,1,1,1,1,1,1,1,1,1,1,1,1,1,1,1,1,1,1,1,1,1,1,1,1,1,1,1,1,1,1,1,1,1,1,1,1,1,1,1,1,1,1,1,1,1,1,1,1,1,1,1,1,1,1,1,1,1,1,1,1,1,1,1,1,1,1,1,1,1,1,1,1,1,2,2,2,2,2,2,3,5,174,179	0.305131506297	-0.00140581263772	0.344450946653	0.305131506297
GO BP 500 large	2	KNN(250) > Cutoff(5)	Label Propagation	0.0268659591675	0.0354557641595	0.568965517241	225	1,1,1,1,1,1,1,1,1,1,1,1,1,1,1,1,1,1,1,1,1,1,1,1,1,1,1,1,1,1,1,1,1,1,1,1,1,1,1,1,1,1,1,1,1,1,1,1,1,1,1,1,1,1,1,1,1,1,1,1,1,1,1,1,1,1,1,1,1,1,1,1,1,1,1,1,1,1,1,1,1,1,1,1,1,1,1,1,1,1,1,1,1,1,1,1,1,1,1,1,1,1,1,1,1,1,1,1,1,1,1,1,1,1,1,1,1,1,1,1,1,1,1,1,1,1,1,1,1,1,1,1,1,1,1,1,1,1,1,1,1,1,1,1,1,1,1,1,1,1,1,1,1,1,1,1,1,1,1,1,1,1,1,1,1,1,1,1,1,1,1,1,1,1,1,1,1,1,1,1,1,1,1,1,1,1,1,1,1,1,1,1,1,1,1,1,1,1,1,1,1,1,1,1,1,1,1,2,2,2,2,2,2,2,2,3,3,3,4,4,5,6,34,124,171	0.303656394009	-0.00149026880164	0.345279902896	0.303656394009
GO BP 500 large	2	KNN(250) > Cutoff(5)	Walkttrap	0.116420030594	0.0471155742681	0.568965517241	222	1,1,1,1,1,1,1,1,1,1,1,1,1,1,1,1,1,1,1,1,1,1,1,1,1,1,1,1,1,1,1,1,1,1,1,1,1,1,1,1,1,1,1,1,1,1,1,1,1,1,1,1,1,1,1,1,1,1,1,1,1,1,1,1,1,1,1,1,1,1,1,1,1,1,1,1,1,1,1,1,1,1,1,1,1,1,1,1,1,1,1,1,1,1,1,1,1,1,1,1,1,1,1,1,1,1,1,1,1,1,1,1,1,1,1,1,1,1,1,1,1,1,1,1,1,1,1,1,1,1,1,1,1,1,1,1,1,1,1,1,1,1,1,1,1,1,1,1,1,1,1,1,1,1,1,1,1,1,1,1,1,1,1,1,1,1,1,1,1,1,1,1,1,1,1,1,1,1,1,1,1,1,1,1,1,1,1,1,1,1,1,1,1,1,1,1,1,1,1,1,1,1,1,1,1,1,1,2,2,2,2,2,2,2,3,3,4,5,5,5,165,169	0.305785520504	-0.00143893793678	0.343027007653	0.305785520504
GO BP 500 large	2	KNN(500) > Cutoff(5)	None	0.0261881351471	1.51960503823e-16	0.26724137931	1	580	0.0	0.0	0.0	0.0
GO BP 500 large	2	KNN(500) > Cutoff(5)	Louvain	0.0356779098511	0.0209004977876	0.534482758621	204	1,1,1,1,1,1,1,1,1,1,1,1,1,1,1,1,1,1,1,1,1,1,1,1,1,1,1,1,1,1,1,1,1,1,1,1,1,1,1,1,1,1,1,1,1,1,1,1,1,1,1,1,1,1,1,1,1,1,1,1,1,1,1,1,1,1,1,1,1,1,1,1,1,1,1,1,1,1,1,1,1,1,1,1,1,1,1,1,1,1,1,1,1,1,1,1,1,1,1,1,1,1,1,1,1,1,1,1,1,1,1,1,1,1,1,1,1,1,1,1,1,1,1,1,1,1,1,1,1,1,1,1,1,1,1,1,1,1,1,1,1,1,1,1,1,1,1,1,1,1,1,1,1,1,1,1,1,1,1,1,1,1,1,1,1,1,1,1,1,1,1,1,1,1,1,1,1,1,1,1,1,1,1,1,1,1,1,1,1,1,1,1,1,1,1,1,2,2,2,6,14,51,152,155	0.391156974493	-0.0014695372521	0.322909777019	0.391156974493
GO BP 500 large	2	KNN(500) > Cutoff(5)	Greedy Modularity	0.0384500026703	0.0213809988625	0.53275862069	204	1,1,1,1,1,1,1,1,1,1,1,1,1,1,1,1,1,1,1,1,1,1,1,1,1,1,1,1,1,1,1,1,1,1,1,1,1,1,1,1,1,1,1,1,1,1,1,1,1,1,1,1,1,1,1,1,1,1,1,1,1,1,1,1,1,1,1,1,1,1,1,1,1,1,1,1,1,1,1,1,1,1,1,1,1,1,1,1,1,1,1,1,1,1,1,1,1,1,1,1,1,1,1,1,1,1,1,1,1,1,1,1,1,1,1,1,1,1,1,1,1,1,1,1,1,1,1,1,1,1,1,1,1,1,1,1,1,1,1,1,1,1,1,1,1,1,1,1,1,1,1,1,1,1,1,1,1,1,1,1,1,1,1,1,1,1,1,1,1,1,1,1,1,1,1,1,1,1,1,1,1,1,1,1,1,1,1,1,1,1,1,1,1,1,1,1,2,2,5,5,14,41,153,162	0.389003716963	-0.00146125079322	0.327678341423	0.389003716963
GO BP 500 large	2	KNN(500) > Cutoff(5)	Infomap	0.400424003601	0.0182981652739	0.536206896552	212	1,1,1,1,1,1,1,1,1,1,1,1,1,1,1,1,1,1,1,1,1,1,1,1,1,1,1,1,1,1,1,1,1,1,1,1,1,1,1,1,1,1,1,1,1,1,1,1,1,1,1,1,1,1,1,1,1,1,1,1,1,1,1,1,1,1,1,1,1,1,1,1,1,1,1,1,1,1,1,1,1,1,1,1,1,1,1,1,1,1,1,1,1,1,1,1,1,1,1,1,1,1,1,1,1,1,1,1,1,1,1,1,1,1,1,1,1,1,1,1,1,1,1,1,1,1,1,1,1,1,1,1,1,1,1,1,1,1,1,1,1,1,1,1,1,1,1,1,1,1,1,1,1,1,1,1,1,1,1,1,1,1,1,1,1,1,1,1,1,1,1,1,1,1,1,1,1,1,1,1,1,1,1,1,1,1,1,1,1,1,1,1,1,1,1,1,2,2,2,3,4,5,5,5,5,6,15,16,21,22,108,163	0.377526270838	-0.00152171011153	0.303545274085	0.377526270838
GO BP 500 large	2	KNN(500) > Cutoff(5)	Leading Eigenvector	0.208914995193	0.0284071531283	0.536206896552	202	1,1,1,1,1,1,1,1,1,1,1,1,1,1,1,1,1,1,1,1,1,1,1,1,1,1,1,1,1,1,1,1,1,1,1,1,1,1,1,1,1,1,1,1,1,1,1,1,1,1,1,1,1,1,1,1,1,1,1,1,1,1,1,1,1,1,1,1,1,1,1,1,1,1,1,1,1,1,1,1,1,1,1,1,1,1,1,1,1,1,1,1,1,1,1,1,1,1,1,1,1,1,1,1,1,1,1,1,1,1,1,1,1,1,1,1,1,1,1,1,1,1,1,1,1,1,1,1,1,1,1,1,1,1,1,1,1,1,1,1,1,1,1,1,1,1,1,1,1,1,1,1,1,1,1,1,1,1,1,1,1,1,1,1,1,1,1,1,1,1,1,1,1,1,1,1,1,1,1,1,1,1,1,1,1,1,1,1,1,1,1,1,1,1,1,1,2,2,6,98,124,152	0.381038468037	-0.00147901482527	0.297713850648	0.381038468037
GO BP 500 large	2	KNN(500) > Cutoff(5)	Label Propagation	0.0243911743164	0.0237967727204	0.539655172414	203	1,1,1,1,1,1,1,1,1,1,1,1,1,1,1,1,1,1,1,1,1,1,1,1,1,1,1,1,1,1,1,1,1,1,1,1,1,1,1,1,1,1,1,1,1,1,1,1,1,1,1,1,1,1,1,1,1,1,1,1,1,1,1,1,1,1,1,1,1,1,1,1,1,1,1,1,1,1,1,1,1,1,1,1,1,1,1,1,1,1,1,1,1,1,1,1,1,1,1,1,1,1,1,1,1,1,1,1,1,1,1,1,1,1,1,1,1,1,1,1,1,1,1,1,1,1,1,1,1,1,1,1,1,1,1,1,1,1,1,1,1,1,1,1,1,1,1,1,1,1,1,1,1,1,1,1,1,1,1,1,1,1,1,1,1,1,1,1,1,1,1,1,1,1,1,1,1,1,1,1,1,1,1,1,1,1,1,1,1,1,1,1,1,1,1,1,2,2,4,6,14,152,204	0.377132823548	-0.00139251528426	0.321444418838	0.377132823548
GO BP 500 large	2	KNN(500) > Cutoff(5)	Walkttrap	0.127017974854	0.0188504872395	0.534482758621	210	1,1,1,1,1,1,1,1,1,1,1,1,1,1,1,1,1,1,1,1,1,1,1,1,1,1,1,1,1,1,1,1,1,1,1,1,1,1,1,1,1,1,1,1,1,1,1,1,1,1,1,1,1,1,1,1,1,1,1,1,1,1,1,1,1,1,1,1,1,1,1,1,1,1,1,1,1,1,1,1,1,1,1,1,1,1,1,1,1,1,1,1,1,1,1,1,1,1,1,1,1,1,1,1,1,1,1,1,1,1,1,1,1,1,1,1,1,1,1,1,1,1,1,1,1,1,1,1,1,1,1,1,1,1,1,1,1,1,1,1,1,1,1,1,1,1,1,1,1,1,1,1,1,1,1,1,1,1,1,1,1,1,1,1,1,1,1,1,1,1,1,1,1,1,1,1,1,1,1,1,1,1,1,1,1,1,1,1,1,1,1,1,1,1,1,1,2,2,2,2,2,2,2,4,4,6,12,18,144,182	0.382901811787	-0.00144669044788	0.318112058715	0.382901811787
GO BP 500 large	2	Topological Overlap > Cutoff(5)	None	0.0229890346527	1.51960503823e-16	0.26724137931	1	580	0.0	0.0	0.0	0.0
GO BP 500 large	2	Topological Overlap > Cutoff(5)	Louvain	0.0322360992432	0.0387803945806	0.434482758621	100	1,1,1,1,1,1,1,1,1,1,1,1,1,1,1,1,1,1,1,1,1,1,1,1,1,1,1,1,1,1,1,1,1,1,1,1,1,1,1,1,1,1,1,1,1,1,1,1,1,1,1,1,1,1,1,1,1,1,1,1,1,1,1,1,1,1,1,1,1,1,1,1,1,1,1,1,1,1,1,1,1,1,1,1,1,1,1,1,1,1,1,2,2,3,8,68,72,99,101,134	0.449617415143	-0.001480996593	0.454045294586	0.449617415143
GO BP 500 large	2	Topological Overlap > Cutoff(5)	Greedy Modularity	0.0636491775513	0.0219205096909	0.408620689655	99	1,1,1,1,1,1,1,1,1,1,1,1,1,1,1,1,1,1,1,1,1,1,1,1,1,1,1,1,1,1,1,1,1,1,1,1,1,1,1,1,1,1,1,1,1,1,1,1,1,1,1,1,1,1,1,1,1,1,1,1,1,1,1,1,1,1,1,1,1,1,1,1,1,1,1,1,1,1,1,1,1,1,1,1,1,1,1,1,1,1,1,2,2,2,3,15,139,140,186	0.395492823927	-0.00134794091252	0.435038400579	0.395492823927
GO BP 500 large	2	Topological Overlap > Cutoff(5)	Infomap	0.408436059952	0.0619588373156	0.45	105	1,1,1,1,1,1,1,1,1,1,1,1,1,1,1,1,1,1,1,1,1,1,1,1,1,1,1,1,1,1,1,1,1,1,1,1,1,1,1,1,1,1,1,1,1,1,1,1,1,1,1,1,1,1,1,1,1,1,1,1,1,1,1,1,1,1,1,1,1,1,1,1,1,1,1,1,1,1,1,1,1,1,1,1,1,1,1,1,1,1,1,2,2,2,2,3,3,3,6,7,10,63,91,129,166	0.435282009555	-0.00143567264072	0.444045640983	0.435282009555
GO BP 500 large	2	Topological Overlap > Cutoff(5)	Label Propagation	0.0251569747925	0.00956957076524	0.398275862069	97	1,1,1,1,1,1,1,1,1,1,1,1,1,1,1,1,1,1,1,1,1,1,1,1,1,1,1,1,1,1,1,1,1,1,1,1,1,1,1,1,1,1,1,1,1,1,1,1,1,1,1,1,1,1,1,1,1,1,1,1,1,1,1,1,1,1,1,1,1,1,1,1,1,1,1,1,1,1,1,1,1,1,1,1,1,1,1,1,1,1,1,2,2,2,7,132,344	0.231539649729	-0.00102932810886	0.318154665543	0.231539649729
GO BP 500 large	2	Topological Overlap > Cutoff(5)	Walkttrap	0.124288082123	0.043988116737	0.456896551724	125	1,1,1,1,1,1,1,1,1,1,1,1,1,1,1,1,1,1,1,1,1,1,1,1,1,1,1,1,1,1,1,1,1,1,1,1,1,1,1,1,1,1,1,1,1,1,1,1,1,1,1,1,1,1,1,1,1,1,1,1,1,1,1,1,1,1,1,1,1,1,1,1,1,1,1,1,1,1,1,1,1,1,1,1,1,1,1,1,1,1,1,1,1,1,1,1,1,1,1,1,1,1,1,1,1,1,1,1,1,1,1,1,1,1,1,2,2,2,3,4,5,76,104,124,143	0.42628002166	-0.00145709216144	0.440202218072	0.42628002166
GO BP 500 large	2	None > Cutoff(5)	None	0.0206959247589	1.51960503823e-16	0.26724137931	1	580	0.0	0.0	0.0	0.0
GO BP 500 large	2	None > Cutoff(5)	Louvain	0.0388169288635	0.0726005306442	0.41724137931	52	1,1,1,1,1,1,1,1,1,1,1,1,1,1,1,1,1,1,1,1,1,1,1,1,1,1,1,1,1,1,1,1,1,1,1,1,1,1,1,1,1,1,1,1,3,12,16,62,66,104,113,160	0.458002547785	-0.00143016887125	0.458002547785	0.458002547785
GO BP 500 large	2	None > Cutoff(5)	Greedy Modularity	0.0521039962769	0.0775136259853	0.398275862069	51	1,1,1,1,1,1,1,1,1,1,1,1,1,1,1,1,1,1,1,1,1,1,1,1,1,1,1,1,1,1,1,1,1,1,1,1,1,1,1,1,1,1,1,1,3,14,63,82,89,123,162	0.457010078031	-0.00141785726754	0.457010078031	0.457010078031
GO BP 500 large	2	None > Cutoff(5)	Infomap	0.819178819656	0.0610422437679	0.448275862069	66	1,1,1,1,1,1,1,1,1,1,1,1,1,1,1,1,1,1,1,1,1,1,1,1,1,1,1,1,1,1,1,1,1,1,1,1,1,1,1,1,1,1,1,1,2,2,2,2,2,3,3,3,3,3,3,6,6,8,13,15,35,47,50,87,91,150	0.452761611015	-0.00149642973761	0.452761611015	0.452761611015
GO BP 500 large	2	None > Cutoff(5)	Label Propagation	0.0294330120087	0.0557734252504	0.381034482759	56	1,1,1,1,1,1,1,1,1,1,1,1,1,1,1,1,1,1,1,1,1,1,1,1,1,1,1,1,1,1,1,1,1,1,1,1,1,1,1,1,1,1,1,1,2,2,2,2,3,6,7,9,27,66,202,208	0.426897689886	-0.00126818759639	0.426897689886	0.426897689886
GO BP 500 large	2	None > Cutoff(5)	Walkttrap	0.131020069122	0.051211931654	0.422413793103	74	1,1,1,1,1,1,1,1,1,1,1,1,1,1,1,1,1,1,1,1,1,1,1,1,1,1,1,1,1,1,1,1,1,1,1,1,1,1,1,1,1,1,1,1,1,1,1,1,1,1,1,1,1,1,1,1,1,1,1,1,1,1,1,1,1,2,2,3,14,18,100,107,133,136	0.490026022189	-0.00142812549416	0.490026022189	0.490026022189
GO BP 500 large	2	Log > Cutoff(5)	None	0.0214200019836	1.51960503823e-16	0.26724137931	1	580	0.0	0.0	0.0	0.0
GO BP 500 large	2	Log > Cutoff(5)	Louvain	0.0396630764008	0.0411573214675	0.4	53	1,1,1,1,1,1,1,1,1,1,1,1,1,1,1,1,1,1,1,1,1,1,1,1,1,1,1,1,1,1,1,1,1,1,1,1,1,1,1,1,1,1,1,1,3,8,12,18,61,69,100,105,160	0.461362739845	-0.00144118667841	0.461362739845	0.461362739845
GO BP 500 large	2	Log > Cutoff(5)	Greedy Modularity	0.0512640476227	0.058177928496	0.403448275862	52	1,1,1,1,1,1,1,1,1,1,1,1,1,1,1,1,1,1,1,1,1,1,1,1,1,1,1,1,1,1,1,1,1,1,1,1,1,1,1,1,1,1,1,1,3,14,22,45,89,90,114,159	0.457647208111	-0.00143418374786	0.457647208111	0.457647208111
GO BP 500 large	2	Log > Cutoff(5)	Infomap	1.05100512505	0.0531358578316	0.453448275862	72	1,1,1,1,1,1,1,1,1,1,1,1,1,1,1,1,1,1,1,1,1,1,1,1,1,1,1,1,1,1,1,1,1,1,1,1,1,1,1,1,1,1,1,1,2,2,2,2,2,2,3,3,3,3,3,3,3,5,5,6,7,7,7,11,15,24,39,39,43,50,102,143	0.403691693966	-0.00152416421769	0.403691693966	0.403691693966
GO BP 500 large	2	Log > Cutoff(5)	Leading Eigenvector	0.336865186691	0.0485977535582	0.386206896552	52	1,1,1,1,1,1,1,1,1,1,1,1,1,1,1,1,1,1,1,1,1,1,1,1,1,1,1,1,1,1,1,1,1,1,1,1,1,1,1,1,1,1,1,1,5,11,15,57,64,69,113,202	0.405290188765	-0.00138778163179	0.405290188765	0.405290188765
GO BP 500 large	2	Log > Cutoff(5)	Label Propagation	0.0295171737671	0.0404051437855	0.387931034483	61	1,1,1,1,1,1,1,1,1,1,1,1,1,1,1,1,1,1,1,1,1,1,1,1,1,1,1,1,1,1,1,1,1,1,1,1,1,1,1,1,1,1,1,1,2,2,2,2,2,3,3,3,3,3,6,7,9,13,83,158,235	0.388609689784	-0.00127776785183	0.388609689784	0.388609689784
GO BP 500 large	2	Log > Cutoff(5)	Walkttrap	0.130693912506	0.0457665911877	0.431034482759	82	1,1,1,1,1,1,1,1,1,1,1,1,1,1,1,1,1,1,1,1,1,1,1,1,1,1,1,1,1,1,1,1,1,1,1,1,1,1,1,1,1,1,1,1,1,1,1,1,1,1,1,1,1,1,1,1,1,1,1,1,1,1,1,1,1,1,1,2,2,2,3,3,3,3,4,6,11,24,85,103,127,135	0.469164702572	-0.00145474073755	0.469164702572	0.469164702572
