test_case	test_number	transform	cluster_alg	seconds	adjusted_rand	annotation_correspondence	n_clusters	cluster_sizes	transformed_modularity	modularity	modularity_cutoff	transformed_modularity_cutoff
GO CC 1000 medium	1	None	None	0.209157943726	-4.44024984287e-17	0.0556088207095	1	1043	0.0	0.0	0.0	0.0
GO CC 1000 medium	1	None	Louvain	1.75468993187	0.0352802153992	0.111217641419	4	70,117,162,694	-0.00049524557106	-0.00049524557106	0.392734647707	0.392734647707
GO CC 1000 medium	1	None	Greedy Modularity	2.22325181961	0.0309591351797	0.106423777565	3	68,168,807	-0.000356187234684	-0.000356187234684	0.318470331412	0.318470331412
GO CC 1000 medium	1	None	Infomap	21.0806760788	0.0240126526834	0.120805369128	4	9,66,87,881	-0.000264377397176	-0.000264377397176	0.252862653289	0.252862653289
GO CC 1000 medium	1	None	Leading Eigenvector	5.56634688377	0.0498716711133	0.111217641419	5	2,75,126,258,582	-0.00058317905202	-0.00058317905202	0.414571546341	0.414571546341
GO CC 1000 medium	1	None	Label Propagation	0.540539979935	0.0218776833948	0.113135186961	3	67,75,901	-0.000234605143921	-0.000234605143921	0.237031572258	0.237031572258
GO CC 1000 medium	1	None	Walkttrap	9.69812202454	0.044754668039	0.117929050815	4	65,74,326,578	-0.000562652182613	-0.000562652182613	0.321301924852	0.321301924852
GO CC 1000 medium	1	Pearson	None	0.214905023575	-4.44024984287e-17	0.0556088207095	1	1043	0.0	0.0	0.0	0.0
GO CC 1000 medium	1	Pearson	Louvain	1.527146101	0.0671444360453	0.0843720038351	3	306,363,374	-0.000637444514927	-0.000637444514927	0.391728387283	0.490750357566
GO CC 1000 medium	1	Pearson	Greedy Modularity	1.95776700974	0.024200522025	0.0594439117929	2	446,597	-0.000469789006525	-0.000469789006525	0.243546767734	0.373562162066
GO CC 1000 medium	1	Pearson	Infomap	7.11580991745	-4.44024984287e-17	0.0556088207095	1	1043	0.0	0.0	0.0	0.0
GO CC 1000 medium	1	Pearson	Leading Eigenvector	5.97909379005	0.0709755399073	0.0930009587728	3	256,377,410	-0.000628195602306	-0.000628195602306	0.403697475528	0.487104655866
GO CC 1000 medium	1	Pearson	Label Propagation	0.371689081192	-4.44024984287e-17	0.0556088207095	1	1043	0.0	0.0	0.0	0.0
GO CC 1000 medium	1	Pearson	Walkttrap	9.7896490097	0.0294736065706	0.065196548418	2	457,586	-0.000472506161321	-0.000472506161321	0.255582610134	0.431354063853
GO CC 1000 medium	1	Spearman	None	0.220306158066	-4.44024984287e-17	0.0556088207095	1	1043	0.0	0.0	0.0	0.0
GO CC 1000 medium	1	Spearman	Louvain	1.42753100395	0.0249500949714	0.0632790028763	2	477,566	-0.000476352523303	-0.000476352523303	0.219811355475	0.490271446452
GO CC 1000 medium	1	Spearman	Greedy Modularity	2.18094992638	0.0249500949714	0.0632790028763	2	477,566	-0.000476352523303	-0.000476352523303	0.219811355475	0.490271446452
GO CC 1000 medium	1	Spearman	Infomap	7.03995394707	-4.44024984287e-17	0.0556088207095	1	1043	0.0	0.0	0.0	0.0
GO CC 1000 medium	1	Spearman	Leading Eigenvector	4.92962002754	0.0249338123123	0.0642377756472	2	474,569	-0.000475865552704	-0.000475865552704	0.219223450062	0.490271446452
GO CC 1000 medium	1	Spearman	Label Propagation	0.360820055008	-4.44024984287e-17	0.0556088207095	1	1043	0.0	0.0	0.0	0.0
GO CC 1000 medium	1	Spearman	Walkttrap	9.94118905067	0.0245037163941	0.0623202301055	2	458,585	-0.000472732002758	-0.000472732002758	0.214922122832	0.491322847037
GO CC 1000 medium	1	Cosine	None	0.218215942383	-4.44024984287e-17	0.0556088207095	1	1043	0.0	0.0	0.0	0.0
GO CC 1000 medium	1	Cosine	Louvain	1.68464899063	0.066005932527	0.0910834132311	3	244,371,428	-0.000624141042749	-0.000624141042749	0.398896277279	0.243480724025
GO CC 1000 medium	1	Cosine	Greedy Modularity	1.97611808777	0.0354442422908	0.0872483221477	3	81,393,569	-0.000532031259581	-0.000532031259581	0.266762456385	0.250278593634
GO CC 1000 medium	1	Cosine	Infomap	7.12612009048	-4.44024984287e-17	0.0556088207095	1	1043	0.0	0.0	0.0	0.0
GO CC 1000 medium	1	Cosine	Leading Eigenvector	3.44391202927	0.028831628707	0.0661553211889	2	492,551	-0.000478310992019	-0.000478310992019	0.196633265002	0.237317549184
GO CC 1000 medium	1	Cosine	Label Propagation	0.342772006989	-4.44024984287e-17	0.0556088207095	1	1043	0.0	0.0	0.0	0.0
GO CC 1000 medium	1	Cosine	Walkttrap	9.78760004044	0.0280700102865	0.0690316395014	2	427,616	-0.000464090039001	-0.000464090039001	0.180174705869	0.233251574067
GO CC 1000 medium	1	KNN(10)	None	0.136064052582	-4.44024984287e-17	0.0556088207095	1	1043	0.0	0.0	0.0	0.0
GO CC 1000 medium	1	KNN(10)	Louvain	0.424168109894	0.0836770617622	0.116011505273	5	82,158,174,275,354	0.483026588447	-0.000727759917298	0.431996288936	0.483026588447
GO CC 1000 medium	1	KNN(10)	Greedy Modularity	1.64175581932	0.0493525582252	0.0920421860019	4	80,162,292,509	0.446734527997	-0.000627115797933	0.323553473068	0.446734527997
GO CC 1000 medium	1	KNN(10)	Infomap	3.5225520134	0.0948404269324	0.126558005753	8	13,59,80,84,104,150,270,283	0.468363562073	-0.000780245114499	0.419574770662	0.468363562073
GO CC 1000 medium	1	KNN(10)	Leading Eigenvector	1.06824398041	0.088810230924	0.111217641419	6	11,94,182,209,249,298	0.473099717062	-0.000750995119568	0.415010607694	0.473099717062
GO CC 1000 medium	1	KNN(10)	Label Propagation	0.171983957291	0.0673880884094	0.119846596357	4	79,139,330,495	0.421624346899	-0.000624912079531	0.421804912232	0.421624346899
GO CC 1000 medium	1	KNN(10)	Walkttrap	1.33891487122	0.0806883818722	0.120805369128	5	79,120,197,283,364	0.457418601314	-0.000719705494155	0.410851076176	0.457418601314
GO CC 1000 medium	1	KNN(50)	None	0.166394948959	-4.44024984287e-17	0.0556088207095	1	1043	0.0	0.0	0.0	0.0
GO CC 1000 medium	1	KNN(50)	Louvain	0.832886219025	0.0748366162667	0.105465004794	5	85,156,179,301,322	0.153257811445	-0.00073218676235	0.446258361062	0.679649118731
GO CC 1000 medium	1	KNN(50)	Greedy Modularity	4.84548997879	0.0296316264191	0.065196548418	2	487,556	0.174284732715	-0.000477746388425	0.236907462648	0.481965520918
GO CC 1000 medium	1	KNN(50)	Infomap	4.64146208763	0.074388247144	0.111217641419	5	84,152,164,302,341	0.156391333586	-0.000726316649361	0.448151154621	0.677790915402
GO CC 1000 medium	1	KNN(50)	Leading Eigenvector	2.67735886574	0.0577093361927	0.0891658676894	4	130,193,317,403	0.169785131708	-0.00067999621765	0.397579615748	0.58368485531
GO CC 1000 medium	1	KNN(50)	Label Propagation	0.353903055191	0.0549353690336	0.109300095877	4	80,139,291,533	0.14723930812	-0.00061167565403	0.434150848847	0.622297791594
GO CC 1000 medium	1	KNN(50)	Walkttrap	5.63633584976	0.072534317307	0.107382550336	5	80,160,259,270,274	0.130976991856	-0.000741740913789	0.432268129282	0.659949377749
GO CC 1000 medium	1	KNN(100)	None	0.195045948029	-4.44024984287e-17	0.0556088207095	1	1043	0.0	0.0	0.0	0.0
GO CC 1000 medium	1	KNN(100)	Louvain	1.22939586639	0.0784281706263	0.0882070949185	4	154,248,294,347	0.0527031678661	-0.000702035166056	0.435901126785	0.617668647578
GO CC 1000 medium	1	KNN(100)	Greedy Modularity	4.47734308243	0.0288985143065	0.0642377756472	3	13,491,539	0.0720675566572	-0.000490568183163	0.226966428388	0.47656414305
GO CC 1000 medium	1	KNN(100)	Infomap	6.74491596222	-4.44024984287e-17	0.0556088207095	1	1043	0.0	0.0	0.0	0.0
GO CC 1000 medium	1	KNN(100)	Leading Eigenvector	3.30175089836	0.0547256729038	0.0824544582934	3	278,294,471	0.0625906359055	-0.000619553638549	0.395376752308	0.578218526477
GO CC 1000 medium	1	KNN(100)	Label Propagation	0.860166788101	0.0175777557164	0.0661553211889	2	247,796	0.0417390644416	-0.000346899505566	0.16252091797	0.478312195473
GO CC 1000 medium	1	KNN(100)	Walkttrap	8.00183296204	0.0648083722134	0.0958772770853	3	210,398,435	0.0534455075985	-0.000614112271414	0.397200709722	0.582435340567
GO CC 1000 medium	1	KNN(250)	None	0.219679117203	-4.44024984287e-17	0.0556088207095	1	1043	0.0	0.0	0.0	0.0
GO CC 1000 medium	1	KNN(250)	Louvain	1.37810015678	0.0552649235705	0.0795781399808	3	306,315,422	-5.21407498964e-05	-0.000632447773122	0.396808282927	0.570438168751
GO CC 1000 medium	1	KNN(250)	Greedy Modularity	2.24073600769	0.0273709216486	0.0632790028763	2	489,554	0.000326356524069	-0.00047798281618	0.230792902958	0.495126596583
GO CC 1000 medium	1	KNN(250)	Infomap	6.99586296082	-4.44024984287e-17	0.0556088207095	1	1043	0.0	0.0	0.0	0.0
GO CC 1000 medium	1	KNN(250)	Leading Eigenvector	4.1471619606	0.0530420720012	0.0795781399808	3	279,290,474	-1.57031782462e-05	-0.000618622042619	0.400772456826	0.569873596742
GO CC 1000 medium	1	KNN(250)	Label Propagation	0.316333055496	-4.44024984287e-17	0.0556088207095	1	1043	0.0	0.0	0.0	0.0
GO CC 1000 medium	1	KNN(250)	Walkttrap	9.78969788551	0.0423803456995	0.0680728667306	3	304,364,375	-3.64068701823e-05	-0.00063721867349	0.272376139212	0.498297572273
GO CC 1000 medium	1	KNN(500)	None	0.217590808868	-4.44024984287e-17	0.0556088207095	1	1043	0.0	0.0	0.0	0.0
GO CC 1000 medium	1	KNN(500)	Louvain	1.25907707214	0.0253906125881	0.0632790028763	2	466,577	-0.00047441169845	-0.00047441169845	0.216081569755	0.489051616739
GO CC 1000 medium	1	KNN(500)	Greedy Modularity	2.15274119377	0.0253906125881	0.0632790028763	2	466,577	-0.00047441169845	-0.00047441169845	0.216081569755	0.489051616739
GO CC 1000 medium	1	KNN(500)	Infomap	7.07831692696	-4.44024984287e-17	0.0556088207095	1	1043	0.0	0.0	0.0	0.0
GO CC 1000 medium	1	KNN(500)	Leading Eigenvector	4.30618095398	0.0240264920869	0.0613614573346	2	466,577	-0.00047441169845	-0.00047441169845	0.214076501485	0.485540356058
GO CC 1000 medium	1	KNN(500)	Label Propagation	0.336154937744	-4.44024984287e-17	0.0556088207095	1	1043	0.0	0.0	0.0	0.0
GO CC 1000 medium	1	KNN(500)	Walkttrap	9.804708004	0.0241973407589	0.0623202301055	2	508,535	-0.000479524889746	-0.000479524889746	0.227155595465	0.482861323222
GO CC 1000 medium	1	KNN(1000)	None	0.213103055954	-4.44024984287e-17	0.0556088207095	1	1043	0.0	0.0	0.0	0.0
GO CC 1000 medium	1	KNN(1000)	Louvain	0.984843969345	0.0171829766514	0.0594439117929	2	504,539	-0.000479306105853	-0.000479306105853	0.213803658673	0.402532735829
GO CC 1000 medium	1	KNN(1000)	Greedy Modularity	2.14261293411	0.0141593677609	0.0565675934803	2	459,584	-0.000472954315423	-0.000472954315423	0.211983650281	0.403492829699
GO CC 1000 medium	1	KNN(1000)	Infomap	6.99465107918	-4.44024984287e-17	0.0556088207095	1	1043	0.0	0.0	0.0	0.0
GO CC 1000 medium	1	KNN(1000)	Leading Eigenvector	3.42096686363	0.0173354400001	0.0584851390221	2	507,536	-0.000479475486931	-0.000479475486931	0.214223076987	0.402320285221
GO CC 1000 medium	1	KNN(1000)	Label Propagation	0.311719179153	-4.44024984287e-17	0.0556088207095	1	1043	0.0	0.0	0.0	0.0
GO CC 1000 medium	1	KNN(1000)	Walkttrap	9.89238595963	-4.44024984287e-17	0.0556088207095	1	1043	0.0	0.0	0.0	0.0
GO CC 1000 medium	1	Topological Overlap	None	0.241626977921	-4.44024984287e-17	0.0556088207095	1	1043	0.0	0.0	0.0	0.0
GO CC 1000 medium	1	Topological Overlap	Louvain	1.77724313736	0.0573858431747	0.103547459252	4	94,162,259,528	-0.000623625841969	-0.000623625841969	0.426905445267	0.213266969548
GO CC 1000 medium	1	Topological Overlap	Greedy Modularity	2.24759101868	0.0340794841944	0.07861936721	3	116,373,554	-0.000554324279605	-0.000554324279605	0.297014115931	0.172613976735
GO CC 1000 medium	1	Topological Overlap	Infomap	7.41104102135	-4.44024984287e-17	0.0556088207095	1	1043	0.0	0.0	0.0	0.0
GO CC 1000 medium	1	Topological Overlap	Leading Eigenvector	6.68844604492	0.0413503101735	0.0910834132311	4	69,106,203,665	-0.000519098308511	-0.000519098308511	0.3334150652	0.207580896997
GO CC 1000 medium	1	Topological Overlap	Label Propagation	0.371523141861	-4.44024984287e-17	0.0556088207095	1	1043	0.0	0.0	0.0	0.0
GO CC 1000 medium	1	Topological Overlap	Walkttrap	9.8996219635	0.0269418223403	0.0824544582934	3	87,447,509	-0.000548185979909	-0.000548185979909	0.26655190632	0.157664704478
GO CC 1000 medium	1	Cutoff(0.1)	None	0.130032062531	-4.44024984287e-17	0.0556088207095	1	1043	0.0	0.0	0.0	0.0
GO CC 1000 medium	1	Cutoff(0.1)	Louvain	0.0981690883636	0.0531394643809	0.946308724832	910	1,1,1,1,1,1,1,1,1,1,1,1,1,1,1,1,1,1,1,1,1,1,1,1,1,1,1,1,1,1,1,1,1,1,1,1,1,1,1,1,1,1,1,1,1,1,1,1,1,1,1,1,1,1,1,1,1,1,1,1,1,1,1,1,1,1,1,1,1,1,1,1,1,1,1,1,1,1,1,1,1,1,1,1,1,1,1,1,1,1,1,1,1,1,1,1,1,1,1,1,1,1,1,1,1,1,1,1,1,1,1,1,1,1,1,1,1,1,1,1,1,1,1,1,1,1,1,1,1,1,1,1,1,1,1,1,1,1,1,1,1,1,1,1,1,1,1,1,1,1,1,1,1,1,1,1,1,1,1,1,1,1,1,1,1,1,1,1,1,1,1,1,1,1,1,1,1,1,1,1,1,1,1,1,1,1,1,1,1,1,1,1,1,1,1,1,1,1,1,1,1,1,1,1,1,1,1,1,1,1,1,1,1,1,1,1,1,1,1,1,1,1,1,1,1,1,1,1,1,1,1,1,1,1,1,1,1,1,1,1,1,1,1,1,1,1,1,1,1,1,1,1,1,1,1,1,1,1,1,1,1,1,1,1,1,1,1,1,1,1,1,1,1,1,1,1,1,1,1,1,1,1,1,1,1,1,1,1,1,1,1,1,1,1,1,1,1,1,1,1,1,1,1,1,1,1,1,1,1,1,1,1,1,1,1,1,1,1,1,1,1,1,1,1,1,1,1,1,1,1,1,1,1,1,1,1,1,1,1,1,1,1,1,1,1,1,1,1,1,1,1,1,1,1,1,1,1,1,1,1,1,1,1,1,1,1,1,1,1,1,1,1,1,1,1,1,1,1,1,1,1,1,1,1,1,1,1,1,1,1,1,1,1,1,1,1,1,1,1,1,1,1,1,1,1,1,1,1,1,1,1,1,1,1,1,1,1,1,1,1,1,1,1,1,1,1,1,1,1,1,1,1,1,1,1,1,1,1,1,1,1,1,1,1,1,1,1,1,1,1,1,1,1,1,1,1,1,1,1,1,1,1,1,1,1,1,1,1,1,1,1,1,1,1,1,1,1,1,1,1,1,1,1,1,1,1,1,1,1,1,1,1,1,1,1,1,1,1,1,1,1,1,1,1,1,1,1,1,1,1,1,1,1,1,1,1,1,1,1,1,1,1,1,1,1,1,1,1,1,1,1,1,1,1,1,1,1,1,1,1,1,1,1,1,1,1,1,1,1,1,1,1,1,1,1,1,1,1,1,1,1,1,1,1,1,1,1,1,1,1,1,1,1,1,1,1,1,1,1,1,1,1,1,1,1,1,1,1,1,1,1,1,1,1,1,1,1,1,1,1,1,1,1,1,1,1,1,1,1,1,1,1,1,1,1,1,1,1,1,1,1,1,1,1,1,1,1,1,1,1,1,1,1,1,1,1,1,1,1,1,1,1,1,1,1,1,1,1,1,1,1,1,1,1,1,1,1,1,1,1,1,1,1,1,1,1,1,1,1,1,1,1,1,1,1,1,1,1,1,1,1,1,1,1,1,1,1,1,1,1,1,1,1,1,1,1,1,1,1,1,1,1,1,1,1,1,1,1,1,1,1,1,1,1,1,1,1,1,1,1,1,1,1,1,1,1,1,1,1,1,1,1,1,1,1,1,1,1,1,1,1,1,1,1,1,1,1,1,1,1,1,1,1,1,1,1,1,1,1,1,1,1,1,1,1,1,1,1,1,1,1,1,1,1,1,1,1,1,1,1,1,1,1,1,1,1,1,1,1,1,1,1,1,1,1,1,1,1,1,1,1,1,1,1,1,1,1,1,1,1,1,1,1,1,1,1,1,1,1,1,1,1,1,1,1,1,1,1,1,1,1,1,1,1,1,1,1,1,1,1,1,1,1,1,1,1,1,1,1,1,1,1,1,1,1,1,1,1,1,1,1,1,1,1,1,1,1,1,1,1,1,1,1,1,1,1,1,1,1,1,1,1,1,1,1,1,1,1,2,2,2,2,2,2,2,2,2,2,2,2,2,3,3,4,6,10,11,16,29,47	0.440853765679	-0.000955690388108	0.0397483389262	0.440853765679
GO CC 1000 medium	1	Cutoff(0.1)	Greedy Modularity	0.103765964508	0.0510854245812	0.946308724832	911	1,1,1,1,1,1,1,1,1,1,1,1,1,1,1,1,1,1,1,1,1,1,1,1,1,1,1,1,1,1,1,1,1,1,1,1,1,1,1,1,1,1,1,1,1,1,1,1,1,1,1,1,1,1,1,1,1,1,1,1,1,1,1,1,1,1,1,1,1,1,1,1,1,1,1,1,1,1,1,1,1,1,1,1,1,1,1,1,1,1,1,1,1,1,1,1,1,1,1,1,1,1,1,1,1,1,1,1,1,1,1,1,1,1,1,1,1,1,1,1,1,1,1,1,1,1,1,1,1,1,1,1,1,1,1,1,1,1,1,1,1,1,1,1,1,1,1,1,1,1,1,1,1,1,1,1,1,1,1,1,1,1,1,1,1,1,1,1,1,1,1,1,1,1,1,1,1,1,1,1,1,1,1,1,1,1,1,1,1,1,1,1,1,1,1,1,1,1,1,1,1,1,1,1,1,1,1,1,1,1,1,1,1,1,1,1,1,1,1,1,1,1,1,1,1,1,1,1,1,1,1,1,1,1,1,1,1,1,1,1,1,1,1,1,1,1,1,1,1,1,1,1,1,1,1,1,1,1,1,1,1,1,1,1,1,1,1,1,1,1,1,1,1,1,1,1,1,1,1,1,1,1,1,1,1,1,1,1,1,1,1,1,1,1,1,1,1,1,1,1,1,1,1,1,1,1,1,1,1,1,1,1,1,1,1,1,1,1,1,1,1,1,1,1,1,1,1,1,1,1,1,1,1,1,1,1,1,1,1,1,1,1,1,1,1,1,1,1,1,1,1,1,1,1,1,1,1,1,1,1,1,1,1,1,1,1,1,1,1,1,1,1,1,1,1,1,1,1,1,1,1,1,1,1,1,1,1,1,1,1,1,1,1,1,1,1,1,1,1,1,1,1,1,1,1,1,1,1,1,1,1,1,1,1,1,1,1,1,1,1,1,1,1,1,1,1,1,1,1,1,1,1,1,1,1,1,1,1,1,1,1,1,1,1,1,1,1,1,1,1,1,1,1,1,1,1,1,1,1,1,1,1,1,1,1,1,1,1,1,1,1,1,1,1,1,1,1,1,1,1,1,1,1,1,1,1,1,1,1,1,1,1,1,1,1,1,1,1,1,1,1,1,1,1,1,1,1,1,1,1,1,1,1,1,1,1,1,1,1,1,1,1,1,1,1,1,1,1,1,1,1,1,1,1,1,1,1,1,1,1,1,1,1,1,1,1,1,1,1,1,1,1,1,1,1,1,1,1,1,1,1,1,1,1,1,1,1,1,1,1,1,1,1,1,1,1,1,1,1,1,1,1,1,1,1,1,1,1,1,1,1,1,1,1,1,1,1,1,1,1,1,1,1,1,1,1,1,1,1,1,1,1,1,1,1,1,1,1,1,1,1,1,1,1,1,1,1,1,1,1,1,1,1,1,1,1,1,1,1,1,1,1,1,1,1,1,1,1,1,1,1,1,1,1,1,1,1,1,1,1,1,1,1,1,1,1,1,1,1,1,1,1,1,1,1,1,1,1,1,1,1,1,1,1,1,1,1,1,1,1,1,1,1,1,1,1,1,1,1,1,1,1,1,1,1,1,1,1,1,1,1,1,1,1,1,1,1,1,1,1,1,1,1,1,1,1,1,1,1,1,1,1,1,1,1,1,1,1,1,1,1,1,1,1,1,1,1,1,1,1,1,1,1,1,1,1,1,1,1,1,1,1,1,1,1,1,1,1,1,1,1,1,1,1,1,1,1,1,1,1,1,1,1,1,1,1,1,1,1,1,1,1,1,1,1,1,1,1,1,1,1,1,1,1,1,1,1,1,1,1,1,1,1,1,1,1,1,1,1,1,1,1,1,1,1,1,1,1,1,1,1,1,1,1,1,1,1,1,1,1,1,1,1,1,1,1,1,1,1,1,1,1,1,1,1,1,1,1,1,1,1,1,1,1,1,1,1,1,1,1,1,1,1,1,1,1,1,1,1,1,1,1,1,1,1,1,1,1,2,2,2,2,2,2,2,2,2,2,2,2,2,2,3,3,4,6,10,11,16,29,45	0.442543320177	-0.000955849182869	0.0373051745901	0.442543320177
GO CC 1000 medium	1	Cutoff(0.1)	Infomap	0.171528100967	0.0475989094371	0.95493767977	914	1,1,1,1,1,1,1,1,1,1,1,1,1,1,1,1,1,1,1,1,1,1,1,1,1,1,1,1,1,1,1,1,1,1,1,1,1,1,1,1,1,1,1,1,1,1,1,1,1,1,1,1,1,1,1,1,1,1,1,1,1,1,1,1,1,1,1,1,1,1,1,1,1,1,1,1,1,1,1,1,1,1,1,1,1,1,1,1,1,1,1,1,1,1,1,1,1,1,1,1,1,1,1,1,1,1,1,1,1,1,1,1,1,1,1,1,1,1,1,1,1,1,1,1,1,1,1,1,1,1,1,1,1,1,1,1,1,1,1,1,1,1,1,1,1,1,1,1,1,1,1,1,1,1,1,1,1,1,1,1,1,1,1,1,1,1,1,1,1,1,1,1,1,1,1,1,1,1,1,1,1,1,1,1,1,1,1,1,1,1,1,1,1,1,1,1,1,1,1,1,1,1,1,1,1,1,1,1,1,1,1,1,1,1,1,1,1,1,1,1,1,1,1,1,1,1,1,1,1,1,1,1,1,1,1,1,1,1,1,1,1,1,1,1,1,1,1,1,1,1,1,1,1,1,1,1,1,1,1,1,1,1,1,1,1,1,1,1,1,1,1,1,1,1,1,1,1,1,1,1,1,1,1,1,1,1,1,1,1,1,1,1,1,1,1,1,1,1,1,1,1,1,1,1,1,1,1,1,1,1,1,1,1,1,1,1,1,1,1,1,1,1,1,1,1,1,1,1,1,1,1,1,1,1,1,1,1,1,1,1,1,1,1,1,1,1,1,1,1,1,1,1,1,1,1,1,1,1,1,1,1,1,1,1,1,1,1,1,1,1,1,1,1,1,1,1,1,1,1,1,1,1,1,1,1,1,1,1,1,1,1,1,1,1,1,1,1,1,1,1,1,1,1,1,1,1,1,1,1,1,1,1,1,1,1,1,1,1,1,1,1,1,1,1,1,1,1,1,1,1,1,1,1,1,1,1,1,1,1,1,1,1,1,1,1,1,1,1,1,1,1,1,1,1,1,1,1,1,1,1,1,1,1,1,1,1,1,1,1,1,1,1,1,1,1,1,1,1,1,1,1,1,1,1,1,1,1,1,1,1,1,1,1,1,1,1,1,1,1,1,1,1,1,1,1,1,1,1,1,1,1,1,1,1,1,1,1,1,1,1,1,1,1,1,1,1,1,1,1,1,1,1,1,1,1,1,1,1,1,1,1,1,1,1,1,1,1,1,1,1,1,1,1,1,1,1,1,1,1,1,1,1,1,1,1,1,1,1,1,1,1,1,1,1,1,1,1,1,1,1,1,1,1,1,1,1,1,1,1,1,1,1,1,1,1,1,1,1,1,1,1,1,1,1,1,1,1,1,1,1,1,1,1,1,1,1,1,1,1,1,1,1,1,1,1,1,1,1,1,1,1,1,1,1,1,1,1,1,1,1,1,1,1,1,1,1,1,1,1,1,1,1,1,1,1,1,1,1,1,1,1,1,1,1,1,1,1,1,1,1,1,1,1,1,1,1,1,1,1,1,1,1,1,1,1,1,1,1,1,1,1,1,1,1,1,1,1,1,1,1,1,1,1,1,1,1,1,1,1,1,1,1,1,1,1,1,1,1,1,1,1,1,1,1,1,1,1,1,1,1,1,1,1,1,1,1,1,1,1,1,1,1,1,1,1,1,1,1,1,1,1,1,1,1,1,1,1,1,1,1,1,1,1,1,1,1,1,1,1,1,1,1,1,1,1,1,1,1,1,1,1,1,1,1,1,1,1,1,1,1,1,1,1,1,1,1,1,1,1,1,1,1,1,1,1,1,1,1,1,1,1,1,1,1,1,1,1,1,1,1,1,1,1,1,1,1,1,1,1,1,1,1,1,1,1,1,1,1,1,1,1,1,1,1,1,1,1,1,1,1,1,1,1,1,1,1,1,1,1,1,1,1,1,1,1,1,1,1,1,1,1,1,1,1,1,1,1,1,1,1,1,1,1,1,1,1,1,1,2,2,2,2,2,2,2,2,2,2,2,2,2,2,3,3,3,4,4,5,6,7,10,11,26,45	0.439147315636	-0.000956133249052	0.0355314195068	0.439147315636
GO CC 1000 medium	1	Cutoff(0.1)	Leading Eigenvector	0.115159034729	0.0523018071054	0.937679769895	909	1,1,1,1,1,1,1,1,1,1,1,1,1,1,1,1,1,1,1,1,1,1,1,1,1,1,1,1,1,1,1,1,1,1,1,1,1,1,1,1,1,1,1,1,1,1,1,1,1,1,1,1,1,1,1,1,1,1,1,1,1,1,1,1,1,1,1,1,1,1,1,1,1,1,1,1,1,1,1,1,1,1,1,1,1,1,1,1,1,1,1,1,1,1,1,1,1,1,1,1,1,1,1,1,1,1,1,1,1,1,1,1,1,1,1,1,1,1,1,1,1,1,1,1,1,1,1,1,1,1,1,1,1,1,1,1,1,1,1,1,1,1,1,1,1,1,1,1,1,1,1,1,1,1,1,1,1,1,1,1,1,1,1,1,1,1,1,1,1,1,1,1,1,1,1,1,1,1,1,1,1,1,1,1,1,1,1,1,1,1,1,1,1,1,1,1,1,1,1,1,1,1,1,1,1,1,1,1,1,1,1,1,1,1,1,1,1,1,1,1,1,1,1,1,1,1,1,1,1,1,1,1,1,1,1,1,1,1,1,1,1,1,1,1,1,1,1,1,1,1,1,1,1,1,1,1,1,1,1,1,1,1,1,1,1,1,1,1,1,1,1,1,1,1,1,1,1,1,1,1,1,1,1,1,1,1,1,1,1,1,1,1,1,1,1,1,1,1,1,1,1,1,1,1,1,1,1,1,1,1,1,1,1,1,1,1,1,1,1,1,1,1,1,1,1,1,1,1,1,1,1,1,1,1,1,1,1,1,1,1,1,1,1,1,1,1,1,1,1,1,1,1,1,1,1,1,1,1,1,1,1,1,1,1,1,1,1,1,1,1,1,1,1,1,1,1,1,1,1,1,1,1,1,1,1,1,1,1,1,1,1,1,1,1,1,1,1,1,1,1,1,1,1,1,1,1,1,1,1,1,1,1,1,1,1,1,1,1,1,1,1,1,1,1,1,1,1,1,1,1,1,1,1,1,1,1,1,1,1,1,1,1,1,1,1,1,1,1,1,1,1,1,1,1,1,1,1,1,1,1,1,1,1,1,1,1,1,1,1,1,1,1,1,1,1,1,1,1,1,1,1,1,1,1,1,1,1,1,1,1,1,1,1,1,1,1,1,1,1,1,1,1,1,1,1,1,1,1,1,1,1,1,1,1,1,1,1,1,1,1,1,1,1,1,1,1,1,1,1,1,1,1,1,1,1,1,1,1,1,1,1,1,1,1,1,1,1,1,1,1,1,1,1,1,1,1,1,1,1,1,1,1,1,1,1,1,1,1,1,1,1,1,1,1,1,1,1,1,1,1,1,1,1,1,1,1,1,1,1,1,1,1,1,1,1,1,1,1,1,1,1,1,1,1,1,1,1,1,1,1,1,1,1,1,1,1,1,1,1,1,1,1,1,1,1,1,1,1,1,1,1,1,1,1,1,1,1,1,1,1,1,1,1,1,1,1,1,1,1,1,1,1,1,1,1,1,1,1,1,1,1,1,1,1,1,1,1,1,1,1,1,1,1,1,1,1,1,1,1,1,1,1,1,1,1,1,1,1,1,1,1,1,1,1,1,1,1,1,1,1,1,1,1,1,1,1,1,1,1,1,1,1,1,1,1,1,1,1,1,1,1,1,1,1,1,1,1,1,1,1,1,1,1,1,1,1,1,1,1,1,1,1,1,1,1,1,1,1,1,1,1,1,1,1,1,1,1,1,1,1,1,1,1,1,1,1,1,1,1,1,1,1,1,1,1,1,1,1,1,1,1,1,1,1,1,1,1,1,1,1,1,1,1,1,1,1,1,1,1,1,1,1,1,1,1,1,1,1,1,1,1,1,1,1,1,1,1,1,1,1,1,1,1,1,1,1,1,1,1,1,1,1,1,1,1,1,1,1,1,1,1,1,1,1,1,1,1,1,1,1,1,1,1,1,1,1,1,1,1,1,1,1,1,1,1,1,1,1,1,1,1,1,1,1,1,1,1,1,1,1,1,1,1,1,1,1,1,1,2,2,2,2,2,2,2,2,2,2,2,2,2,3,3,4,10,11,16,35,47	0.439169279844	-0.000955383384904	0.0399485243291	0.439169279844
GO CC 1000 medium	1	Cutoff(0.1)	Label Propagation	0.102178096771	0.0368145637537	0.953020134228	918	1,1,1,1,1,1,1,1,1,1,1,1,1,1,1,1,1,1,1,1,1,1,1,1,1,1,1,1,1,1,1,1,1,1,1,1,1,1,1,1,1,1,1,1,1,1,1,1,1,1,1,1,1,1,1,1,1,1,1,1,1,1,1,1,1,1,1,1,1,1,1,1,1,1,1,1,1,1,1,1,1,1,1,1,1,1,1,1,1,1,1,1,1,1,1,1,1,1,1,1,1,1,1,1,1,1,1,1,1,1,1,1,1,1,1,1,1,1,1,1,1,1,1,1,1,1,1,1,1,1,1,1,1,1,1,1,1,1,1,1,1,1,1,1,1,1,1,1,1,1,1,1,1,1,1,1,1,1,1,1,1,1,1,1,1,1,1,1,1,1,1,1,1,1,1,1,1,1,1,1,1,1,1,1,1,1,1,1,1,1,1,1,1,1,1,1,1,1,1,1,1,1,1,1,1,1,1,1,1,1,1,1,1,1,1,1,1,1,1,1,1,1,1,1,1,1,1,1,1,1,1,1,1,1,1,1,1,1,1,1,1,1,1,1,1,1,1,1,1,1,1,1,1,1,1,1,1,1,1,1,1,1,1,1,1,1,1,1,1,1,1,1,1,1,1,1,1,1,1,1,1,1,1,1,1,1,1,1,1,1,1,1,1,1,1,1,1,1,1,1,1,1,1,1,1,1,1,1,1,1,1,1,1,1,1,1,1,1,1,1,1,1,1,1,1,1,1,1,1,1,1,1,1,1,1,1,1,1,1,1,1,1,1,1,1,1,1,1,1,1,1,1,1,1,1,1,1,1,1,1,1,1,1,1,1,1,1,1,1,1,1,1,1,1,1,1,1,1,1,1,1,1,1,1,1,1,1,1,1,1,1,1,1,1,1,1,1,1,1,1,1,1,1,1,1,1,1,1,1,1,1,1,1,1,1,1,1,1,1,1,1,1,1,1,1,1,1,1,1,1,1,1,1,1,1,1,1,1,1,1,1,1,1,1,1,1,1,1,1,1,1,1,1,1,1,1,1,1,1,1,1,1,1,1,1,1,1,1,1,1,1,1,1,1,1,1,1,1,1,1,1,1,1,1,1,1,1,1,1,1,1,1,1,1,1,1,1,1,1,1,1,1,1,1,1,1,1,1,1,1,1,1,1,1,1,1,1,1,1,1,1,1,1,1,1,1,1,1,1,1,1,1,1,1,1,1,1,1,1,1,1,1,1,1,1,1,1,1,1,1,1,1,1,1,1,1,1,1,1,1,1,1,1,1,1,1,1,1,1,1,1,1,1,1,1,1,1,1,1,1,1,1,1,1,1,1,1,1,1,1,1,1,1,1,1,1,1,1,1,1,1,1,1,1,1,1,1,1,1,1,1,1,1,1,1,1,1,1,1,1,1,1,1,1,1,1,1,1,1,1,1,1,1,1,1,1,1,1,1,1,1,1,1,1,1,1,1,1,1,1,1,1,1,1,1,1,1,1,1,1,1,1,1,1,1,1,1,1,1,1,1,1,1,1,1,1,1,1,1,1,1,1,1,1,1,1,1,1,1,1,1,1,1,1,1,1,1,1,1,1,1,1,1,1,1,1,1,1,1,1,1,1,1,1,1,1,1,1,1,1,1,1,1,1,1,1,1,1,1,1,1,1,1,1,1,1,1,1,1,1,1,1,1,1,1,1,1,1,1,1,1,1,1,1,1,1,1,1,1,1,1,1,1,1,1,1,1,1,1,1,1,1,1,1,1,1,1,1,1,1,1,1,1,1,1,1,1,1,1,1,1,1,1,1,1,1,1,1,1,1,1,1,1,1,1,1,1,1,1,1,1,1,1,1,1,1,1,1,1,1,1,1,1,1,1,1,1,1,1,1,1,1,1,1,1,1,1,1,1,1,1,1,1,1,1,1,1,1,1,1,1,1,1,1,1,1,1,1,1,1,1,1,1,1,1,1,1,1,1,1,1,1,1,1,1,1,1,1,1,1,1,1,1,1,1,1,2,2,2,2,2,2,2,2,2,2,2,2,2,2,2,2,2,2,3,3,3,3,4,4,5,6,7,7,9,10,10,47	0.40128439933	-0.00095645260296	0.0330072366781	0.40128439933
GO CC 1000 medium	1	Cutoff(0.1)	Walkttrap	0.103893041611	0.0534057415623	0.950143815916	911	1,1,1,1,1,1,1,1,1,1,1,1,1,1,1,1,1,1,1,1,1,1,1,1,1,1,1,1,1,1,1,1,1,1,1,1,1,1,1,1,1,1,1,1,1,1,1,1,1,1,1,1,1,1,1,1,1,1,1,1,1,1,1,1,1,1,1,1,1,1,1,1,1,1,1,1,1,1,1,1,1,1,1,1,1,1,1,1,1,1,1,1,1,1,1,1,1,1,1,1,1,1,1,1,1,1,1,1,1,1,1,1,1,1,1,1,1,1,1,1,1,1,1,1,1,1,1,1,1,1,1,1,1,1,1,1,1,1,1,1,1,1,1,1,1,1,1,1,1,1,1,1,1,1,1,1,1,1,1,1,1,1,1,1,1,1,1,1,1,1,1,1,1,1,1,1,1,1,1,1,1,1,1,1,1,1,1,1,1,1,1,1,1,1,1,1,1,1,1,1,1,1,1,1,1,1,1,1,1,1,1,1,1,1,1,1,1,1,1,1,1,1,1,1,1,1,1,1,1,1,1,1,1,1,1,1,1,1,1,1,1,1,1,1,1,1,1,1,1,1,1,1,1,1,1,1,1,1,1,1,1,1,1,1,1,1,1,1,1,1,1,1,1,1,1,1,1,1,1,1,1,1,1,1,1,1,1,1,1,1,1,1,1,1,1,1,1,1,1,1,1,1,1,1,1,1,1,1,1,1,1,1,1,1,1,1,1,1,1,1,1,1,1,1,1,1,1,1,1,1,1,1,1,1,1,1,1,1,1,1,1,1,1,1,1,1,1,1,1,1,1,1,1,1,1,1,1,1,1,1,1,1,1,1,1,1,1,1,1,1,1,1,1,1,1,1,1,1,1,1,1,1,1,1,1,1,1,1,1,1,1,1,1,1,1,1,1,1,1,1,1,1,1,1,1,1,1,1,1,1,1,1,1,1,1,1,1,1,1,1,1,1,1,1,1,1,1,1,1,1,1,1,1,1,1,1,1,1,1,1,1,1,1,1,1,1,1,1,1,1,1,1,1,1,1,1,1,1,1,1,1,1,1,1,1,1,1,1,1,1,1,1,1,1,1,1,1,1,1,1,1,1,1,1,1,1,1,1,1,1,1,1,1,1,1,1,1,1,1,1,1,1,1,1,1,1,1,1,1,1,1,1,1,1,1,1,1,1,1,1,1,1,1,1,1,1,1,1,1,1,1,1,1,1,1,1,1,1,1,1,1,1,1,1,1,1,1,1,1,1,1,1,1,1,1,1,1,1,1,1,1,1,1,1,1,1,1,1,1,1,1,1,1,1,1,1,1,1,1,1,1,1,1,1,1,1,1,1,1,1,1,1,1,1,1,1,1,1,1,1,1,1,1,1,1,1,1,1,1,1,1,1,1,1,1,1,1,1,1,1,1,1,1,1,1,1,1,1,1,1,1,1,1,1,1,1,1,1,1,1,1,1,1,1,1,1,1,1,1,1,1,1,1,1,1,1,1,1,1,1,1,1,1,1,1,1,1,1,1,1,1,1,1,1,1,1,1,1,1,1,1,1,1,1,1,1,1,1,1,1,1,1,1,1,1,1,1,1,1,1,1,1,1,1,1,1,1,1,1,1,1,1,1,1,1,1,1,1,1,1,1,1,1,1,1,1,1,1,1,1,1,1,1,1,1,1,1,1,1,1,1,1,1,1,1,1,1,1,1,1,1,1,1,1,1,1,1,1,1,1,1,1,1,1,1,1,1,1,1,1,1,1,1,1,1,1,1,1,1,1,1,1,1,1,1,1,1,1,1,1,1,1,1,1,1,1,1,1,1,1,1,1,1,1,1,1,1,1,1,1,1,1,1,1,1,1,1,1,1,1,1,1,1,1,1,1,1,1,1,1,1,1,1,1,1,1,1,1,1,1,1,1,1,1,1,1,1,1,1,1,1,1,1,1,1,1,1,1,1,1,1,1,1,1,1,1,1,1,1,1,1,1,1,1,1,1,1,1,1,1,1,1,1,1,1,1,1,1,2,2,2,2,2,2,2,2,2,2,2,2,2,3,3,4,5,6,10,11,11,29,47	0.439395680147	-0.000955787429351	0.039268692957	0.439395680147
GO CC 1000 medium	1	Cutoff(1)	None	0.0994410514832	-4.44024984287e-17	0.0556088207095	1	1043	0.0	0.0	0.0	0.0
GO CC 1000 medium	1	Cutoff(1)	Louvain	0.109360218048	0.119233947625	0.574304889741	504	1,1,1,1,1,1,1,1,1,1,1,1,1,1,1,1,1,1,1,1,1,1,1,1,1,1,1,1,1,1,1,1,1,1,1,1,1,1,1,1,1,1,1,1,1,1,1,1,1,1,1,1,1,1,1,1,1,1,1,1,1,1,1,1,1,1,1,1,1,1,1,1,1,1,1,1,1,1,1,1,1,1,1,1,1,1,1,1,1,1,1,1,1,1,1,1,1,1,1,1,1,1,1,1,1,1,1,1,1,1,1,1,1,1,1,1,1,1,1,1,1,1,1,1,1,1,1,1,1,1,1,1,1,1,1,1,1,1,1,1,1,1,1,1,1,1,1,1,1,1,1,1,1,1,1,1,1,1,1,1,1,1,1,1,1,1,1,1,1,1,1,1,1,1,1,1,1,1,1,1,1,1,1,1,1,1,1,1,1,1,1,1,1,1,1,1,1,1,1,1,1,1,1,1,1,1,1,1,1,1,1,1,1,1,1,1,1,1,1,1,1,1,1,1,1,1,1,1,1,1,1,1,1,1,1,1,1,1,1,1,1,1,1,1,1,1,1,1,1,1,1,1,1,1,1,1,1,1,1,1,1,1,1,1,1,1,1,1,1,1,1,1,1,1,1,1,1,1,1,1,1,1,1,1,1,1,1,1,1,1,1,1,1,1,1,1,1,1,1,1,1,1,1,1,1,1,1,1,1,1,1,1,1,1,1,1,1,1,1,1,1,1,1,1,1,1,1,1,1,1,1,1,1,1,1,1,1,1,1,1,1,1,1,1,1,1,1,1,1,1,1,1,1,1,1,1,1,1,1,1,1,1,1,1,1,1,1,1,1,1,1,1,1,1,1,1,1,1,1,1,1,1,1,1,1,1,1,1,1,1,1,1,1,1,1,1,1,1,1,1,1,1,1,1,1,1,1,1,1,1,1,1,1,1,1,1,1,1,1,1,1,1,1,1,1,1,1,1,1,1,1,1,1,1,1,1,1,1,1,1,1,1,1,1,1,1,1,1,1,1,1,1,1,1,1,1,1,1,1,1,1,1,1,1,1,1,1,1,1,1,1,1,1,1,1,1,1,1,1,1,1,1,1,2,2,2,2,2,2,2,2,3,3,3,3,4,4,5,6,7,72,100,112,222	0.541219571123	-0.000891142082249	0.243835671614	0.541219571123
GO CC 1000 medium	1	Cutoff(1)	Greedy Modularity	0.117018938065	0.0875090761147	0.558964525407	505	1,1,1,1,1,1,1,1,1,1,1,1,1,1,1,1,1,1,1,1,1,1,1,1,1,1,1,1,1,1,1,1,1,1,1,1,1,1,1,1,1,1,1,1,1,1,1,1,1,1,1,1,1,1,1,1,1,1,1,1,1,1,1,1,1,1,1,1,1,1,1,1,1,1,1,1,1,1,1,1,1,1,1,1,1,1,1,1,1,1,1,1,1,1,1,1,1,1,1,1,1,1,1,1,1,1,1,1,1,1,1,1,1,1,1,1,1,1,1,1,1,1,1,1,1,1,1,1,1,1,1,1,1,1,1,1,1,1,1,1,1,1,1,1,1,1,1,1,1,1,1,1,1,1,1,1,1,1,1,1,1,1,1,1,1,1,1,1,1,1,1,1,1,1,1,1,1,1,1,1,1,1,1,1,1,1,1,1,1,1,1,1,1,1,1,1,1,1,1,1,1,1,1,1,1,1,1,1,1,1,1,1,1,1,1,1,1,1,1,1,1,1,1,1,1,1,1,1,1,1,1,1,1,1,1,1,1,1,1,1,1,1,1,1,1,1,1,1,1,1,1,1,1,1,1,1,1,1,1,1,1,1,1,1,1,1,1,1,1,1,1,1,1,1,1,1,1,1,1,1,1,1,1,1,1,1,1,1,1,1,1,1,1,1,1,1,1,1,1,1,1,1,1,1,1,1,1,1,1,1,1,1,1,1,1,1,1,1,1,1,1,1,1,1,1,1,1,1,1,1,1,1,1,1,1,1,1,1,1,1,1,1,1,1,1,1,1,1,1,1,1,1,1,1,1,1,1,1,1,1,1,1,1,1,1,1,1,1,1,1,1,1,1,1,1,1,1,1,1,1,1,1,1,1,1,1,1,1,1,1,1,1,1,1,1,1,1,1,1,1,1,1,1,1,1,1,1,1,1,1,1,1,1,1,1,1,1,1,1,1,1,1,1,1,1,1,1,1,1,1,1,1,1,1,1,1,1,1,1,1,1,1,1,1,1,1,1,1,1,1,1,1,1,1,1,1,1,1,1,1,1,1,1,1,1,1,1,1,1,1,1,1,1,1,1,1,1,1,1,1,1,1,1,2,2,2,2,2,2,2,2,3,3,3,3,4,4,4,4,5,6,7,72,186,240	0.512060580666	-0.000873145342697	0.229549513293	0.512060580666
GO CC 1000 medium	1	Cutoff(1)	Infomap	0.623753786087	0.141086569334	0.652924256951	541	1,1,1,1,1,1,1,1,1,1,1,1,1,1,1,1,1,1,1,1,1,1,1,1,1,1,1,1,1,1,1,1,1,1,1,1,1,1,1,1,1,1,1,1,1,1,1,1,1,1,1,1,1,1,1,1,1,1,1,1,1,1,1,1,1,1,1,1,1,1,1,1,1,1,1,1,1,1,1,1,1,1,1,1,1,1,1,1,1,1,1,1,1,1,1,1,1,1,1,1,1,1,1,1,1,1,1,1,1,1,1,1,1,1,1,1,1,1,1,1,1,1,1,1,1,1,1,1,1,1,1,1,1,1,1,1,1,1,1,1,1,1,1,1,1,1,1,1,1,1,1,1,1,1,1,1,1,1,1,1,1,1,1,1,1,1,1,1,1,1,1,1,1,1,1,1,1,1,1,1,1,1,1,1,1,1,1,1,1,1,1,1,1,1,1,1,1,1,1,1,1,1,1,1,1,1,1,1,1,1,1,1,1,1,1,1,1,1,1,1,1,1,1,1,1,1,1,1,1,1,1,1,1,1,1,1,1,1,1,1,1,1,1,1,1,1,1,1,1,1,1,1,1,1,1,1,1,1,1,1,1,1,1,1,1,1,1,1,1,1,1,1,1,1,1,1,1,1,1,1,1,1,1,1,1,1,1,1,1,1,1,1,1,1,1,1,1,1,1,1,1,1,1,1,1,1,1,1,1,1,1,1,1,1,1,1,1,1,1,1,1,1,1,1,1,1,1,1,1,1,1,1,1,1,1,1,1,1,1,1,1,1,1,1,1,1,1,1,1,1,1,1,1,1,1,1,1,1,1,1,1,1,1,1,1,1,1,1,1,1,1,1,1,1,1,1,1,1,1,1,1,1,1,1,1,1,1,1,1,1,1,1,1,1,1,1,1,1,1,1,1,1,1,1,1,1,1,1,1,1,1,1,1,1,1,1,1,1,1,1,1,1,1,1,1,1,1,1,1,1,1,1,1,1,1,1,1,1,1,1,1,1,1,1,1,1,1,1,1,1,1,1,1,1,1,1,1,1,1,1,1,1,1,1,1,1,1,1,1,1,1,1,1,1,1,1,1,1,1,1,1,1,1,2,2,2,2,2,2,2,2,2,2,2,3,3,3,3,3,3,3,3,3,3,4,4,4,4,4,4,4,4,4,4,5,5,5,6,6,6,6,6,7,8,8,9,10,10,10,11,11,14,14,14,15,16,18,27,55,72,94	0.514654519896	-0.000941167725045	0.184956619344	0.514654519896
GO CC 1000 medium	1	Cutoff(1)	Leading Eigenvector	0.318855047226	0.123288953403	0.575263662512	503	1,1,1,1,1,1,1,1,1,1,1,1,1,1,1,1,1,1,1,1,1,1,1,1,1,1,1,1,1,1,1,1,1,1,1,1,1,1,1,1,1,1,1,1,1,1,1,1,1,1,1,1,1,1,1,1,1,1,1,1,1,1,1,1,1,1,1,1,1,1,1,1,1,1,1,1,1,1,1,1,1,1,1,1,1,1,1,1,1,1,1,1,1,1,1,1,1,1,1,1,1,1,1,1,1,1,1,1,1,1,1,1,1,1,1,1,1,1,1,1,1,1,1,1,1,1,1,1,1,1,1,1,1,1,1,1,1,1,1,1,1,1,1,1,1,1,1,1,1,1,1,1,1,1,1,1,1,1,1,1,1,1,1,1,1,1,1,1,1,1,1,1,1,1,1,1,1,1,1,1,1,1,1,1,1,1,1,1,1,1,1,1,1,1,1,1,1,1,1,1,1,1,1,1,1,1,1,1,1,1,1,1,1,1,1,1,1,1,1,1,1,1,1,1,1,1,1,1,1,1,1,1,1,1,1,1,1,1,1,1,1,1,1,1,1,1,1,1,1,1,1,1,1,1,1,1,1,1,1,1,1,1,1,1,1,1,1,1,1,1,1,1,1,1,1,1,1,1,1,1,1,1,1,1,1,1,1,1,1,1,1,1,1,1,1,1,1,1,1,1,1,1,1,1,1,1,1,1,1,1,1,1,1,1,1,1,1,1,1,1,1,1,1,1,1,1,1,1,1,1,1,1,1,1,1,1,1,1,1,1,1,1,1,1,1,1,1,1,1,1,1,1,1,1,1,1,1,1,1,1,1,1,1,1,1,1,1,1,1,1,1,1,1,1,1,1,1,1,1,1,1,1,1,1,1,1,1,1,1,1,1,1,1,1,1,1,1,1,1,1,1,1,1,1,1,1,1,1,1,1,1,1,1,1,1,1,1,1,1,1,1,1,1,1,1,1,1,1,1,1,1,1,1,1,1,1,1,1,1,1,1,1,1,1,1,1,1,1,1,1,1,1,1,1,1,1,1,1,1,1,1,1,1,1,1,1,1,1,1,1,1,1,1,1,1,1,1,1,1,1,1,1,1,2,2,2,2,2,2,2,2,3,3,3,3,4,4,5,6,74,106,120,213	0.537739055066	-0.000891653754256	0.250741877051	0.537739055066
GO CC 1000 medium	1	Cutoff(1)	Label Propagation	0.100549936295	0.0711068923344	0.592521572387	532	1,1,1,1,1,1,1,1,1,1,1,1,1,1,1,1,1,1,1,1,1,1,1,1,1,1,1,1,1,1,1,1,1,1,1,1,1,1,1,1,1,1,1,1,1,1,1,1,1,1,1,1,1,1,1,1,1,1,1,1,1,1,1,1,1,1,1,1,1,1,1,1,1,1,1,1,1,1,1,1,1,1,1,1,1,1,1,1,1,1,1,1,1,1,1,1,1,1,1,1,1,1,1,1,1,1,1,1,1,1,1,1,1,1,1,1,1,1,1,1,1,1,1,1,1,1,1,1,1,1,1,1,1,1,1,1,1,1,1,1,1,1,1,1,1,1,1,1,1,1,1,1,1,1,1,1,1,1,1,1,1,1,1,1,1,1,1,1,1,1,1,1,1,1,1,1,1,1,1,1,1,1,1,1,1,1,1,1,1,1,1,1,1,1,1,1,1,1,1,1,1,1,1,1,1,1,1,1,1,1,1,1,1,1,1,1,1,1,1,1,1,1,1,1,1,1,1,1,1,1,1,1,1,1,1,1,1,1,1,1,1,1,1,1,1,1,1,1,1,1,1,1,1,1,1,1,1,1,1,1,1,1,1,1,1,1,1,1,1,1,1,1,1,1,1,1,1,1,1,1,1,1,1,1,1,1,1,1,1,1,1,1,1,1,1,1,1,1,1,1,1,1,1,1,1,1,1,1,1,1,1,1,1,1,1,1,1,1,1,1,1,1,1,1,1,1,1,1,1,1,1,1,1,1,1,1,1,1,1,1,1,1,1,1,1,1,1,1,1,1,1,1,1,1,1,1,1,1,1,1,1,1,1,1,1,1,1,1,1,1,1,1,1,1,1,1,1,1,1,1,1,1,1,1,1,1,1,1,1,1,1,1,1,1,1,1,1,1,1,1,1,1,1,1,1,1,1,1,1,1,1,1,1,1,1,1,1,1,1,1,1,1,1,1,1,1,1,1,1,1,1,1,1,1,1,1,1,1,1,1,1,1,1,1,1,1,1,1,1,1,1,1,1,1,1,1,1,1,1,1,1,1,1,1,1,1,1,1,1,1,1,1,1,1,1,1,1,1,1,1,1,2,2,2,2,2,2,2,2,2,2,2,2,2,2,2,2,2,2,2,2,3,3,3,3,3,3,3,3,3,4,4,4,4,4,4,4,4,4,5,5,6,7,8,8,9,11,12,15,23,73,277	0.46876008664	-0.000885407827	0.179340193428	0.46876008664
GO CC 1000 medium	1	Cutoff(1)	Walkttrap	0.216444969177	0.132628659139	0.658676893576	571	1,1,1,1,1,1,1,1,1,1,1,1,1,1,1,1,1,1,1,1,1,1,1,1,1,1,1,1,1,1,1,1,1,1,1,1,1,1,1,1,1,1,1,1,1,1,1,1,1,1,1,1,1,1,1,1,1,1,1,1,1,1,1,1,1,1,1,1,1,1,1,1,1,1,1,1,1,1,1,1,1,1,1,1,1,1,1,1,1,1,1,1,1,1,1,1,1,1,1,1,1,1,1,1,1,1,1,1,1,1,1,1,1,1,1,1,1,1,1,1,1,1,1,1,1,1,1,1,1,1,1,1,1,1,1,1,1,1,1,1,1,1,1,1,1,1,1,1,1,1,1,1,1,1,1,1,1,1,1,1,1,1,1,1,1,1,1,1,1,1,1,1,1,1,1,1,1,1,1,1,1,1,1,1,1,1,1,1,1,1,1,1,1,1,1,1,1,1,1,1,1,1,1,1,1,1,1,1,1,1,1,1,1,1,1,1,1,1,1,1,1,1,1,1,1,1,1,1,1,1,1,1,1,1,1,1,1,1,1,1,1,1,1,1,1,1,1,1,1,1,1,1,1,1,1,1,1,1,1,1,1,1,1,1,1,1,1,1,1,1,1,1,1,1,1,1,1,1,1,1,1,1,1,1,1,1,1,1,1,1,1,1,1,1,1,1,1,1,1,1,1,1,1,1,1,1,1,1,1,1,1,1,1,1,1,1,1,1,1,1,1,1,1,1,1,1,1,1,1,1,1,1,1,1,1,1,1,1,1,1,1,1,1,1,1,1,1,1,1,1,1,1,1,1,1,1,1,1,1,1,1,1,1,1,1,1,1,1,1,1,1,1,1,1,1,1,1,1,1,1,1,1,1,1,1,1,1,1,1,1,1,1,1,1,1,1,1,1,1,1,1,1,1,1,1,1,1,1,1,1,1,1,1,1,1,1,1,1,1,1,1,1,1,1,1,1,1,1,1,1,1,1,1,1,1,1,1,1,1,1,1,1,1,1,1,1,1,1,1,1,1,1,1,1,1,1,1,1,1,1,1,1,1,1,1,1,1,1,1,1,1,1,1,1,1,1,1,1,1,1,1,1,1,1,1,1,1,1,1,1,1,1,1,1,1,1,1,1,1,1,1,1,2,2,2,2,2,2,2,2,2,2,2,2,2,2,2,2,2,2,2,2,2,2,2,2,2,2,3,3,3,3,3,3,3,3,3,3,3,3,3,4,4,4,4,4,4,4,4,4,4,4,4,5,5,5,5,6,7,8,9,9,11,13,13,14,29,31,62,72,98	0.507717783575	-0.000939918539593	0.18294466293	0.507717783575
GO CC 1000 medium	1	Cutoff(5)	None	0.111927032471	-4.44024984287e-17	0.0556088207095	1	1043	0.0	0.0	0.0	0.0
GO CC 1000 medium	1	Cutoff(5)	Louvain	0.200715065002	0.0905696366913	0.209971236817	101	1,1,1,1,1,1,1,1,1,1,1,1,1,1,1,1,1,1,1,1,1,1,1,1,1,1,1,1,1,1,1,1,1,1,1,1,1,1,1,1,1,1,1,1,1,1,1,1,1,1,1,1,1,1,1,1,1,1,1,1,1,1,1,1,1,1,1,1,1,1,1,1,1,1,1,1,1,1,1,1,1,1,1,1,1,1,1,1,1,1,1,1,1,1,1,1,77,131,186,201,352	0.4387760432	-0.000763769275878	0.4387760432	0.4387760432
GO CC 1000 medium	1	Cutoff(5)	Greedy Modularity	0.314328193665	0.0718942106645	0.194630872483	100	1,1,1,1,1,1,1,1,1,1,1,1,1,1,1,1,1,1,1,1,1,1,1,1,1,1,1,1,1,1,1,1,1,1,1,1,1,1,1,1,1,1,1,1,1,1,1,1,1,1,1,1,1,1,1,1,1,1,1,1,1,1,1,1,1,1,1,1,1,1,1,1,1,1,1,1,1,1,1,1,1,1,1,1,1,1,1,1,1,1,1,1,1,1,1,1,78,199,215,455	0.387439718284	-0.000695889808815	0.387439718284	0.387439718284
GO CC 1000 medium	1	Cutoff(5)	Infomap	2.53928685188	0.132793180938	0.288590604027	139	1,1,1,1,1,1,1,1,1,1,1,1,1,1,1,1,1,1,1,1,1,1,1,1,1,1,1,1,1,1,1,1,1,1,1,1,1,1,1,1,1,1,1,1,1,1,1,1,1,1,1,1,1,1,1,1,1,1,1,1,1,1,1,1,1,1,1,1,1,1,1,1,1,1,1,1,1,1,1,1,1,1,1,1,1,1,1,1,1,1,1,1,1,1,1,1,2,2,2,2,2,2,2,2,3,3,3,3,3,3,4,4,4,5,5,6,6,7,7,7,8,8,9,10,11,11,12,13,14,17,18,19,22,47,74,115,134,148,168	0.392022785454	-0.000878521427542	0.392022785454	0.392022785454
GO CC 1000 medium	1	Cutoff(5)	Leading Eigenvector	1.7633497715	0.106373607382	0.214765100671	106	1,1,1,1,1,1,1,1,1,1,1,1,1,1,1,1,1,1,1,1,1,1,1,1,1,1,1,1,1,1,1,1,1,1,1,1,1,1,1,1,1,1,1,1,1,1,1,1,1,1,1,1,1,1,1,1,1,1,1,1,1,1,1,1,1,1,1,1,1,1,1,1,1,1,1,1,1,1,1,1,1,1,1,1,1,1,1,1,1,1,1,1,1,1,1,1,1,1,1,1,2,85,132,196,228,300	0.43545961639	-0.000778708334092	0.43545961639	0.43545961639
GO CC 1000 medium	1	Cutoff(5)	Label Propagation	0.11763715744	0.0320630803887	0.187919463087	104	1,1,1,1,1,1,1,1,1,1,1,1,1,1,1,1,1,1,1,1,1,1,1,1,1,1,1,1,1,1,1,1,1,1,1,1,1,1,1,1,1,1,1,1,1,1,1,1,1,1,1,1,1,1,1,1,1,1,1,1,1,1,1,1,1,1,1,1,1,1,1,1,1,1,1,1,1,1,1,1,1,1,1,1,1,1,1,1,1,1,1,1,1,1,2,2,2,2,2,2,20,77,169,671	0.271367632536	-0.000531611335659	0.271367632536	0.271367632536
GO CC 1000 medium	1	Cutoff(5)	Walkttrap	0.619726896286	0.0933856441081	0.241610738255	153	1,1,1,1,1,1,1,1,1,1,1,1,1,1,1,1,1,1,1,1,1,1,1,1,1,1,1,1,1,1,1,1,1,1,1,1,1,1,1,1,1,1,1,1,1,1,1,1,1,1,1,1,1,1,1,1,1,1,1,1,1,1,1,1,1,1,1,1,1,1,1,1,1,1,1,1,1,1,1,1,1,1,1,1,1,1,1,1,1,1,1,1,1,1,1,1,1,1,1,1,1,1,1,1,1,1,1,1,1,1,1,1,1,1,1,1,1,1,1,1,1,1,1,1,1,1,1,1,1,1,1,1,1,1,1,1,1,1,1,2,2,3,3,5,6,6,6,28,72,160,167,213,231	0.390090163013	-0.000819878522396	0.390090163013	0.390090163013
GO CC 1000 medium	1	Cutoff(10)	None	0.112746953964	-4.44024984287e-17	0.0556088207095	1	1043	0.0	0.0	0.0	0.0
GO CC 1000 medium	1	Cutoff(10)	Louvain	0.267987966537	0.0834316216073	0.137104506232	20	1,1,1,1,1,1,1,1,1,1,1,1,1,1,1,76,123,221,275,333	0.3891594	-0.000733608857652	0.441665344276	0.441665344276
GO CC 1000 medium	1	Cutoff(10)	Greedy Modularity	0.773578166962	0.070103495185	0.124640460211	19	1,1,1,1,1,1,1,1,1,1,1,1,1,1,1,76,210,272,470	0.327173403591	-0.000655534766949	0.376243793389	0.376243793389
GO CC 1000 medium	1	Cutoff(10)	Infomap	3.70245218277	0.0993025824155	0.16874400767	39	1,1,1,1,1,1,1,1,1,1,1,1,1,1,1,2,2,2,2,2,2,3,4,4,5,5,6,6,7,9,14,18,25,45,75,136,159,247,248	0.363777825794	-0.000804941228568	0.422841448041	0.422841448041
GO CC 1000 medium	1	Cutoff(10)	Leading Eigenvector	2.36215996742	0.094210647863	0.134228187919	21	1,1,1,1,1,1,1,1,1,1,1,1,1,1,1,1,89,139,220,269,310	0.380644965413	-0.000744332797162	0.436244311129	0.436244311129
GO CC 1000 medium	1	Cutoff(10)	Label Propagation	0.156830072403	0.0161230567674	0.0872483221477	18	1,1,1,1,1,1,1,1,1,1,1,1,1,1,1,9,218,801	0.185507192526	-0.000351666877161	0.147210918573	0.147210918573
GO CC 1000 medium	1	Cutoff(10)	Walkttrap	1.06083083153	0.0823523731998	0.129434324065	35	1,1,1,1,1,1,1,1,1,1,1,1,1,1,1,1,1,1,1,1,1,1,1,1,1,1,1,1,2,65,70,184,210,213,271	0.362825141012	-0.000778029045393	0.411597654943	0.411597654943
GO CC 1000 medium	1	Cutoff(20)	None	0.120959043503	-4.44024984287e-17	0.0556088207095	1	1043	0.0	0.0	0.0	0.0
GO CC 1000 medium	1	Cutoff(20)	Louvain	0.402849912643	0.0513552152312	0.116970278044	4	71,118,301,553	0.273906278804	-0.00059325193301	0.423735484453	0.423735484453
GO CC 1000 medium	1	Cutoff(20)	Greedy Modularity	1.65527415276	0.0324205051682	0.0910834132311	3	75,323,645	0.217830925785	-0.000495677845687	0.311891326986	0.311891326986
GO CC 1000 medium	1	Cutoff(20)	Infomap	5.80004382133	0.0762353394749	0.133269415149	12	5,6,6,7,7,10,20,70,120,158,283,351	0.286515030961	-0.000740689339595	0.423591103152	0.423591103152
GO CC 1000 medium	1	Cutoff(20)	Leading Eigenvector	1.70077800751	0.0614564554347	0.116970278044	4	83,126,300,534	0.268332246464	-0.000608649731644	0.425492340263	0.425492340263
GO CC 1000 medium	1	Cutoff(20)	Label Propagation	0.189888000488	0.024310310372	0.0997123681687	4	9,71,177,786	0.152139880991	-0.000382520699175	0.252316263981	0.252316263981
GO CC 1000 medium	1	Cutoff(20)	Walkttrap	2.23584008217	0.0776892667212	0.120805369128	5	67,107,263,277,329	0.276800583135	-0.000721432828275	0.421123154342	0.421123154342
GO CC 1000 medium	1	Log	None	0.208176136017	-4.44024984287e-17	0.0556088207095	1	1043	0.0	0.0	0.0	0.0
GO CC 1000 medium	1	Log	Louvain	1.75894999504	0.03429806553	0.12368168744	5	9,68,105,145,716	-0.000475006296609	-0.000475006296609	0.356157251782	0.356157251782
GO CC 1000 medium	1	Log	Greedy Modularity	2.07890892029	0.0297513282205	0.117929050815	4	11,69,115,848	-0.000309330429558	-0.000309330429558	0.301687965318	0.301687965318
GO CC 1000 medium	1	Log	Infomap	25.1125218868	0.025392121907	0.140939597315	8	2,6,6,9,20,66,87,847	-0.000315788083162	-0.000315788083162	0.249851116395	0.249851116395
GO CC 1000 medium	1	Log	Leading Eigenvector	3.294039011	0.0301163235	0.11217641419	3	70,116,857	-0.000295573510118	-0.000295573510118	0.315802421622	0.315802421622
GO CC 1000 medium	1	Log	Label Propagation	0.395253896713	0.0232369874994	0.122722914669	4	9,68,80,886	-0.000257378076999	-0.000257378076999	0.245359258654	0.245359258654
GO CC 1000 medium	1	Log	Walkttrap	9.8264439106	0.0239191532755	0.116011505273	4	9,65,94,875	-0.000272670012459	-0.000272670012459	0.257357550195	0.257357550195
GO CC 1000 medium	2	None	None	0.23903799057	-1.68568325541e-16	0.0457943925234	1	1070	0.0	0.0	0.0	0.0
GO CC 1000 medium	2	None	Louvain	2.09406995773	0.028634639449	0.100934579439	5	18,30,111,242,669	-0.000510851352739	-0.000510851352739	0.416418534865	0.416418534865
GO CC 1000 medium	2	None	Greedy Modularity	2.31352305412	0.0231352230344	0.0822429906542	4	5,32,271,762	-0.000400168935633	-0.000400168935633	0.373733365404	0.373733365404
GO CC 1000 medium	2	None	Infomap	22.444163084	0.0157668735713	0.1	6	6,16,29,92,128,799	-0.000392612751012	-0.000392612751012	0.339519798837	0.339519798837
GO CC 1000 medium	2	None	Leading Eigenvector	5.96087789536	0.029625819848	0.088785046729	6	1,39,105,127,256,542	-0.000618453448044	-0.000618453448044	0.399671398227	0.399671398227
GO CC 1000 medium	2	None	Label Propagation	0.781792879105	0.00242613780701	0.0710280373832	2	29,1041	-4.9332538387e-05	-4.9332538387e-05	0.0264234024076	0.0264234024076
GO CC 1000 medium	2	None	Walkttrap	10.6514389515	0.039959867336	0.0915887850467	5	29,99,176,345,421	-0.000659381691989	-0.000659381691989	0.420170240935	0.420170240935
GO CC 1000 medium	2	Pearson	None	0.23234295845	-1.68568325541e-16	0.0457943925234	1	1070	0.0	0.0	0.0	0.0
GO CC 1000 medium	2	Pearson	Louvain	1.52108001709	0.0282294900872	0.0532710280374	2	448,622	-0.00045535817075	-0.00045535817075	0.348733836396	0.302519110135
GO CC 1000 medium	2	Pearson	Greedy Modularity	2.37183308601	0.0285197924853	0.0532710280374	2	447,623	-0.00045507219923	-0.00045507219923	0.348374273966	0.304212238924
GO CC 1000 medium	2	Pearson	Infomap	7.20008897781	-1.68568325541e-16	0.0457943925234	1	1070	0.0	0.0	0.0	0.0
GO CC 1000 medium	2	Pearson	Leading Eigenvector	4.90085315704	0.0279185195954	0.0532710280374	2	453,617	-0.000456739004661	-0.000456739004661	0.348728002385	0.301321372931
GO CC 1000 medium	2	Pearson	Label Propagation	0.337970018387	-1.68568325541e-16	0.0457943925234	1	1070	0.0	0.0	0.0	0.0
GO CC 1000 medium	2	Pearson	Walkttrap	10.6086170673	0.0415097182986	0.0570093457944	3	299,340,431	-0.000616177114745	-0.000616177114745	0.401205497211	0.312610693067
GO CC 1000 medium	2	Spearman	None	0.232801914215	-1.68568325541e-16	0.0457943925234	1	1070	0.0	0.0	0.0	0.0
GO CC 1000 medium	2	Spearman	Louvain	1.04476904869	0.0274254465352	0.0523364485981	2	533,537	-0.000467720311029	-0.000467720311029	0.368820146172	0.389721122206
GO CC 1000 medium	2	Spearman	Greedy Modularity	2.70031905174	0.0274254465352	0.0523364485981	2	533,537	-0.000467720311029	-0.000467720311029	0.368820146172	0.389721122206
GO CC 1000 medium	2	Spearman	Infomap	7.16189098358	-1.68568325541e-16	0.0457943925234	1	1070	0.0	0.0	0.0	0.0
GO CC 1000 medium	2	Spearman	Leading Eigenvector	7.31779313087	0.0276121464622	0.0523364485981	2	532,538	-0.000467712140414	-0.000467712140414	0.369025552183	0.389721122206
GO CC 1000 medium	2	Spearman	Label Propagation	0.381441116333	-1.68568325541e-16	0.0457943925234	1	1070	0.0	0.0	0.0	0.0
GO CC 1000 medium	2	Spearman	Walkttrap	10.5757870674	0.02721258382	0.0551401869159	2	508,562	-0.000466535571875	-0.000466535571875	0.371729360626	0.389687684755
GO CC 1000 medium	2	Cosine	None	0.248632907867	-1.68568325541e-16	0.0457943925234	1	1070	0.0	0.0	0.0	0.0
GO CC 1000 medium	2	Cosine	Louvain	1.8959338665	0.0258265783588	0.0542056074766	2	498,572	-0.000465489733173	-0.000465489733173	0.338458486036	0.10157897326
GO CC 1000 medium	2	Cosine	Greedy Modularity	2.31744408607	0.0264547263482	0.0551401869159	2	497,573	-0.00046536717395	-0.00046536717395	0.339282531559	0.102676648962
GO CC 1000 medium	2	Cosine	Infomap	7.0643351078	-1.68568325541e-16	0.0457943925234	1	1070	0.0	0.0	0.0	0.0
GO CC 1000 medium	2	Cosine	Leading Eigenvector	5.59480881691	0.026503505351	0.0523364485981	2	497,573	-0.00046536717395	-0.00046536717395	0.347261576099	0.10759966131
GO CC 1000 medium	2	Cosine	Label Propagation	0.341120004654	-1.68568325541e-16	0.0457943925234	1	1070	0.0	0.0	0.0	0.0
GO CC 1000 medium	2	Cosine	Walkttrap	10.563368082	0.0392814770204	0.0542056074766	3	321,325,424	-0.000618072697392	-0.000618072697392	0.391097371212	0.223723848422
GO CC 1000 medium	2	KNN(10)	None	0.134995937347	-1.68568325541e-16	0.0457943925234	1	1070	0.0	0.0	0.0	0.0
GO CC 1000 medium	2	KNN(10)	Louvain	0.327075004578	0.0538381133693	0.0841121495327	6	29,39,105,193,317,387	0.434598358518	-0.000689604796347	0.426558234093	0.434598358518
GO CC 1000 medium	2	KNN(10)	Greedy Modularity	1.79677200317	0.0371851957497	0.0560747663551	3	119,417,534	0.39434066443	-0.000548815297613	0.367748689759	0.39434066443
GO CC 1000 medium	2	KNN(10)	Infomap	3.47550797462	0.0636333019488	0.100934579439	7	28,38,108,132,157,248,359	0.422926884763	-0.000734170598026	0.452718867393	0.422926884763
GO CC 1000 medium	2	KNN(10)	Leading Eigenvector	0.995110034943	0.0523471618082	0.081308411215	4	47,292,353,378	0.434126390362	-0.000645424647689	0.427279718799	0.434126390362
GO CC 1000 medium	2	KNN(10)	Label Propagation	0.182114839554	0.033450328062	0.0990654205607	4	36,126,235,673	0.305717106733	-0.000506230052976	0.405972134473	0.305717106733
GO CC 1000 medium	2	KNN(10)	Walkttrap	1.61481690407	0.0486114264711	0.0934579439252	5	19,34,288,345,384	0.414894183461	-0.000648712503108	0.41868475037	0.414894183461
GO CC 1000 medium	2	KNN(50)	None	0.184991836548	-1.68568325541e-16	0.0457943925234	1	1070	0.0	0.0	0.0	0.0
GO CC 1000 medium	2	KNN(50)	Louvain	1.22781300545	0.0471279688844	0.0579439252336	3	246,365,459	0.193092256608	-0.00060501605485	0.427250546303	0.542616985113
GO CC 1000 medium	2	KNN(50)	Greedy Modularity	6.74649810791	0.0354523707009	0.0598130841121	2	520,550	0.219223376445	-0.000467359169852	0.377786933337	0.482874199914
GO CC 1000 medium	2	KNN(50)	Infomap	10.7100958824	0.0452121283067	0.0579439252336	3	209,404,457	0.202733769496	-0.000595763650585	0.426878292457	0.53793988164
GO CC 1000 medium	2	KNN(50)	Leading Eigenvector	2.52366495132	0.0486091067469	0.0663551401869	3	250,336,484	0.198056725552	-0.000600742823279	0.428546377806	0.497117018997
GO CC 1000 medium	2	KNN(50)	Label Propagation	0.391872167587	0.0313044494982	0.0588785046729	2	430,640	0.200656524957	-0.00044971064176	0.396057298537	0.476567836062
GO CC 1000 medium	2	KNN(50)	Walkttrap	6.5102250576	0.0387396148281	0.0542056074766	3	218,343,509	0.191936792348	-0.000588812091464	0.395920454362	0.526189229803
GO CC 1000 medium	2	KNN(100)	None	0.204942941666	-1.68568325541e-16	0.0457943925234	1	1070	0.0	0.0	0.0	0.0
GO CC 1000 medium	2	KNN(100)	Louvain	2.08546686172	0.0350722093584	0.0532710280374	4	117,218,337,398	0.0762757970163	-0.000663220246849	0.456711856201	0.539067678785
GO CC 1000 medium	2	KNN(100)	Greedy Modularity	5.70418095589	0.0311862249776	0.0560747663551	2	535,535	0.107105080203	-0.000467726847521	0.373385614405	0.489892730125
GO CC 1000 medium	2	KNN(100)	Infomap	7.14886593819	-1.68568325541e-16	0.0457943925234	1	1070	0.0	0.0	0.0	0.0
GO CC 1000 medium	2	KNN(100)	Leading Eigenvector	2.68596196175	0.0292911086089	0.0532710280374	2	504,566	0.105153549977	-0.000466156455345	0.363450234328	0.489634577352
GO CC 1000 medium	2	KNN(100)	Label Propagation	0.732282876968	0.027885737953	0.0551401869159	2	426,644	0.0983118366468	-0.000448311832496	0.389877347679	0.488835115671
GO CC 1000 medium	2	KNN(100)	Walkttrap	8.41213083267	0.0377961920831	0.0570093457944	3	307,376,387	0.0650724284444	-0.000620563100801	0.437714625701	0.510898896078
GO CC 1000 medium	2	KNN(250)	None	0.226761102676	-1.68568325541e-16	0.0457943925234	1	1070	0.0	0.0	0.0	0.0
GO CC 1000 medium	2	KNN(250)	Louvain	1.73892498016	0.0302865150709	0.0532710280374	3	41,491,538	0.00208411507068	-0.000500608669954	0.36734139096	0.472631767625
GO CC 1000 medium	2	KNN(250)	Greedy Modularity	2.6498029232	0.0281675019793	0.0532710280374	2	504,566	0.00212653807783	-0.000466156455345	0.36225659627	0.472602010973
GO CC 1000 medium	2	KNN(250)	Infomap	8.61559700966	-1.68568325541e-16	0.0457943925234	1	1070	0.0	0.0	0.0	0.0
GO CC 1000 medium	2	KNN(250)	Leading Eigenvector	4.62162208557	0.0279109813303	0.0532710280374	2	508,562	0.00212827858107	-0.000466535571875	0.361817463054	0.472158940049
GO CC 1000 medium	2	KNN(250)	Label Propagation	0.33235502243	-1.68568325541e-16	0.0457943925234	1	1070	0.0	0.0	0.0	0.0
GO CC 1000 medium	2	KNN(250)	Walkttrap	10.5935778618	0.0272439401996	0.0523364485981	2	517,553	0.00213131695957	-0.000467197391678	0.36434217407	0.471581738595
GO CC 1000 medium	2	KNN(500)	None	0.236556053162	-1.68568325541e-16	0.0457943925234	1	1070	0.0	0.0	0.0	0.0
GO CC 1000 medium	2	KNN(500)	Louvain	1.03014802933	0.0276655776009	0.0532710280374	2	518,552	-0.000467254585982	-0.000467254585982	0.363920004645	0.350906023071
GO CC 1000 medium	2	KNN(500)	Greedy Modularity	2.60422706604	0.0276655776009	0.0532710280374	2	518,552	-0.000467254585982	-0.000467254585982	0.363920004645	0.350906023071
GO CC 1000 medium	2	KNN(500)	Infomap	7.12854886055	-1.68568325541e-16	0.0457943925234	1	1070	0.0	0.0	0.0	0.0
GO CC 1000 medium	2	KNN(500)	Leading Eigenvector	9.32708692551	0.0275618146863	0.0532710280374	2	519,551	-0.00046730851204	-0.00046730851204	0.36383595583	0.350853553338
GO CC 1000 medium	2	KNN(500)	Label Propagation	0.354191064835	-1.68568325541e-16	0.0457943925234	1	1070	0.0	0.0	0.0	0.0
GO CC 1000 medium	2	KNN(500)	Walkttrap	10.5573499203	0.0283847784337	0.0560747663551	2	481,589	-0.000462961744936	-0.000462961744936	0.358656693487	0.350943081941
GO CC 1000 medium	2	KNN(1000)	None	0.247406005859	-1.68568325541e-16	0.0457943925234	1	1070	0.0	0.0	0.0	0.0
GO CC 1000 medium	2	KNN(1000)	Louvain	1.02578806877	0.0273439890459	0.0551401869159	2	504,566	-0.000466156455345	-0.000466156455345	0.368793607524	0.461050838244
GO CC 1000 medium	2	KNN(1000)	Greedy Modularity	2.55025196075	0.026877692703	0.0560747663551	2	512,558	-0.000466862396469	-0.000466862396469	0.36874254162	0.4610276735
GO CC 1000 medium	2	KNN(1000)	Infomap	7.13763809204	-1.68568325541e-16	0.0457943925234	1	1070	0.0	0.0	0.0	0.0
GO CC 1000 medium	2	KNN(1000)	Leading Eigenvector	4.59239196777	0.0269729496395	0.0551401869159	2	506,564	-0.000466352550102	-0.000466352550102	0.368173980014	0.461050838244
GO CC 1000 medium	2	KNN(1000)	Label Propagation	0.354173898697	-1.68568325541e-16	0.0457943925234	1	1070	0.0	0.0	0.0	0.0
GO CC 1000 medium	2	KNN(1000)	Walkttrap	10.6671090126	-1.68568325541e-16	0.0457943925234	1	1070	0.0	0.0	0.0	0.0
GO CC 1000 medium	2	Topological Overlap	None	0.378180027008	-1.68568325541e-16	0.0457943925234	1	1070	0.0	0.0	0.0	0.0
GO CC 1000 medium	2	Topological Overlap	Louvain	1.46336603165	0.0342555591834	0.092523364486	5	18,39,158,230,625	-0.000551161898201	-0.000551161898201	0.432287814551	0.227308836921
GO CC 1000 medium	2	Topological Overlap	Greedy Modularity	2.60896801949	0.0297267126557	0.0672897196262	3	26,333,711	-0.000431256491043	-0.000431256491043	0.381267545849	0.126465456313
GO CC 1000 medium	2	Topological Overlap	Infomap	8.67018389702	-1.68568325541e-16	0.0457943925234	1	1070	0.0	0.0	0.0	0.0
GO CC 1000 medium	2	Topological Overlap	Leading Eigenvector	7.08425784111	0.0372136067745	0.0747663551402	4	66,196,249,559	-0.000594531521865	-0.000594531521865	0.416225994802	0.211024227218
GO CC 1000 medium	2	Topological Overlap	Label Propagation	0.380618810654	-1.68568325541e-16	0.0457943925234	1	1070	0.0	0.0	0.0	0.0
GO CC 1000 medium	2	Topological Overlap	Walkttrap	10.6488668919	0.0346619117548	0.081308411215	4	30,254,337,449	-0.000624491532424	-0.000624491532424	0.416657408937	0.11386382588
GO CC 1000 medium	2	Cutoff(0.1)	None	0.115355014801	-1.68568325541e-16	0.0457943925234	1	1070	0.0	0.0	0.0	0.0
GO CC 1000 medium	2	Cutoff(0.1)	Louvain	0.101667165756	0.0567315513083	0.944859813084	905	1,1,1,1,1,1,1,1,1,1,1,1,1,1,1,1,1,1,1,1,1,1,1,1,1,1,1,1,1,1,1,1,1,1,1,1,1,1,1,1,1,1,1,1,1,1,1,1,1,1,1,1,1,1,1,1,1,1,1,1,1,1,1,1,1,1,1,1,1,1,1,1,1,1,1,1,1,1,1,1,1,1,1,1,1,1,1,1,1,1,1,1,1,1,1,1,1,1,1,1,1,1,1,1,1,1,1,1,1,1,1,1,1,1,1,1,1,1,1,1,1,1,1,1,1,1,1,1,1,1,1,1,1,1,1,1,1,1,1,1,1,1,1,1,1,1,1,1,1,1,1,1,1,1,1,1,1,1,1,1,1,1,1,1,1,1,1,1,1,1,1,1,1,1,1,1,1,1,1,1,1,1,1,1,1,1,1,1,1,1,1,1,1,1,1,1,1,1,1,1,1,1,1,1,1,1,1,1,1,1,1,1,1,1,1,1,1,1,1,1,1,1,1,1,1,1,1,1,1,1,1,1,1,1,1,1,1,1,1,1,1,1,1,1,1,1,1,1,1,1,1,1,1,1,1,1,1,1,1,1,1,1,1,1,1,1,1,1,1,1,1,1,1,1,1,1,1,1,1,1,1,1,1,1,1,1,1,1,1,1,1,1,1,1,1,1,1,1,1,1,1,1,1,1,1,1,1,1,1,1,1,1,1,1,1,1,1,1,1,1,1,1,1,1,1,1,1,1,1,1,1,1,1,1,1,1,1,1,1,1,1,1,1,1,1,1,1,1,1,1,1,1,1,1,1,1,1,1,1,1,1,1,1,1,1,1,1,1,1,1,1,1,1,1,1,1,1,1,1,1,1,1,1,1,1,1,1,1,1,1,1,1,1,1,1,1,1,1,1,1,1,1,1,1,1,1,1,1,1,1,1,1,1,1,1,1,1,1,1,1,1,1,1,1,1,1,1,1,1,1,1,1,1,1,1,1,1,1,1,1,1,1,1,1,1,1,1,1,1,1,1,1,1,1,1,1,1,1,1,1,1,1,1,1,1,1,1,1,1,1,1,1,1,1,1,1,1,1,1,1,1,1,1,1,1,1,1,1,1,1,1,1,1,1,1,1,1,1,1,1,1,1,1,1,1,1,1,1,1,1,1,1,1,1,1,1,1,1,1,1,1,1,1,1,1,1,1,1,1,1,1,1,1,1,1,1,1,1,1,1,1,1,1,1,1,1,1,1,1,1,1,1,1,1,1,1,1,1,1,1,1,1,1,1,1,1,1,1,1,1,1,1,1,1,1,1,1,1,1,1,1,1,1,1,1,1,1,1,1,1,1,1,1,1,1,1,1,1,1,1,1,1,1,1,1,1,1,1,1,1,1,1,1,1,1,1,1,1,1,1,1,1,1,1,1,1,1,1,1,1,1,1,1,1,1,1,1,1,1,1,1,1,1,1,1,1,1,1,1,1,1,1,1,1,1,1,1,1,1,1,1,1,1,1,1,1,1,1,1,1,1,1,1,1,1,1,1,1,1,1,1,1,1,1,1,1,1,1,1,1,1,1,1,1,1,1,1,1,1,1,1,1,1,1,1,1,1,1,1,1,1,1,1,1,1,1,1,1,1,1,1,1,1,1,1,1,1,1,1,1,1,1,1,1,1,1,1,1,1,1,1,1,1,1,1,1,1,1,1,1,1,1,1,1,1,1,1,1,1,1,1,1,1,1,1,1,1,1,1,1,1,1,1,1,1,1,1,1,1,1,1,1,1,1,1,1,1,1,1,1,1,1,1,1,1,1,1,1,1,1,1,1,1,1,1,1,1,1,1,1,1,1,1,1,1,1,1,1,1,1,1,1,1,1,1,1,1,1,1,1,1,1,1,1,1,1,1,1,1,1,1,1,1,1,1,1,1,1,1,1,1,1,1,1,1,1,1,1,1,1,1,1,1,1,1,2,2,2,2,2,2,2,2,2,2,2,2,2,2,2,2,2,2,2,2,3,3,3,3,3,3,3,3,4,4,6,6,7,8,9,10,15,16,26,30	0.644705463118	-0.000932616857564	0.0260431621914	0.644705463118
GO CC 1000 medium	2	Cutoff(0.1)	Greedy Modularity	0.105712890625	0.0776416647816	0.944859813084	905	1,1,1,1,1,1,1,1,1,1,1,1,1,1,1,1,1,1,1,1,1,1,1,1,1,1,1,1,1,1,1,1,1,1,1,1,1,1,1,1,1,1,1,1,1,1,1,1,1,1,1,1,1,1,1,1,1,1,1,1,1,1,1,1,1,1,1,1,1,1,1,1,1,1,1,1,1,1,1,1,1,1,1,1,1,1,1,1,1,1,1,1,1,1,1,1,1,1,1,1,1,1,1,1,1,1,1,1,1,1,1,1,1,1,1,1,1,1,1,1,1,1,1,1,1,1,1,1,1,1,1,1,1,1,1,1,1,1,1,1,1,1,1,1,1,1,1,1,1,1,1,1,1,1,1,1,1,1,1,1,1,1,1,1,1,1,1,1,1,1,1,1,1,1,1,1,1,1,1,1,1,1,1,1,1,1,1,1,1,1,1,1,1,1,1,1,1,1,1,1,1,1,1,1,1,1,1,1,1,1,1,1,1,1,1,1,1,1,1,1,1,1,1,1,1,1,1,1,1,1,1,1,1,1,1,1,1,1,1,1,1,1,1,1,1,1,1,1,1,1,1,1,1,1,1,1,1,1,1,1,1,1,1,1,1,1,1,1,1,1,1,1,1,1,1,1,1,1,1,1,1,1,1,1,1,1,1,1,1,1,1,1,1,1,1,1,1,1,1,1,1,1,1,1,1,1,1,1,1,1,1,1,1,1,1,1,1,1,1,1,1,1,1,1,1,1,1,1,1,1,1,1,1,1,1,1,1,1,1,1,1,1,1,1,1,1,1,1,1,1,1,1,1,1,1,1,1,1,1,1,1,1,1,1,1,1,1,1,1,1,1,1,1,1,1,1,1,1,1,1,1,1,1,1,1,1,1,1,1,1,1,1,1,1,1,1,1,1,1,1,1,1,1,1,1,1,1,1,1,1,1,1,1,1,1,1,1,1,1,1,1,1,1,1,1,1,1,1,1,1,1,1,1,1,1,1,1,1,1,1,1,1,1,1,1,1,1,1,1,1,1,1,1,1,1,1,1,1,1,1,1,1,1,1,1,1,1,1,1,1,1,1,1,1,1,1,1,1,1,1,1,1,1,1,1,1,1,1,1,1,1,1,1,1,1,1,1,1,1,1,1,1,1,1,1,1,1,1,1,1,1,1,1,1,1,1,1,1,1,1,1,1,1,1,1,1,1,1,1,1,1,1,1,1,1,1,1,1,1,1,1,1,1,1,1,1,1,1,1,1,1,1,1,1,1,1,1,1,1,1,1,1,1,1,1,1,1,1,1,1,1,1,1,1,1,1,1,1,1,1,1,1,1,1,1,1,1,1,1,1,1,1,1,1,1,1,1,1,1,1,1,1,1,1,1,1,1,1,1,1,1,1,1,1,1,1,1,1,1,1,1,1,1,1,1,1,1,1,1,1,1,1,1,1,1,1,1,1,1,1,1,1,1,1,1,1,1,1,1,1,1,1,1,1,1,1,1,1,1,1,1,1,1,1,1,1,1,1,1,1,1,1,1,1,1,1,1,1,1,1,1,1,1,1,1,1,1,1,1,1,1,1,1,1,1,1,1,1,1,1,1,1,1,1,1,1,1,1,1,1,1,1,1,1,1,1,1,1,1,1,1,1,1,1,1,1,1,1,1,1,1,1,1,1,1,1,1,1,1,1,1,1,1,1,1,1,1,1,1,1,1,1,1,1,1,1,1,1,1,1,1,1,1,1,1,1,1,1,1,1,1,1,1,1,1,1,1,1,1,1,1,1,1,1,1,1,1,1,1,1,1,1,1,1,1,1,1,1,1,1,1,1,1,1,1,1,1,1,1,1,1,1,1,1,1,1,1,1,1,1,1,1,1,1,1,1,1,1,1,1,1,1,1,1,1,1,1,1,1,1,1,1,1,1,1,1,1,1,1,1,1,1,1,1,1,1,1,1,1,1,1,1,1,1,1,2,2,2,2,2,2,2,2,2,2,2,2,2,2,2,2,2,2,2,2,2,3,3,3,3,3,3,3,3,4,4,6,6,7,8,9,10,15,26,44	0.649831419095	-0.000931976281359	0.0328180491454	0.649831419095
GO CC 1000 medium	2	Cutoff(0.1)	Infomap	0.180122852325	0.0777442793379	0.956074766355	908	1,1,1,1,1,1,1,1,1,1,1,1,1,1,1,1,1,1,1,1,1,1,1,1,1,1,1,1,1,1,1,1,1,1,1,1,1,1,1,1,1,1,1,1,1,1,1,1,1,1,1,1,1,1,1,1,1,1,1,1,1,1,1,1,1,1,1,1,1,1,1,1,1,1,1,1,1,1,1,1,1,1,1,1,1,1,1,1,1,1,1,1,1,1,1,1,1,1,1,1,1,1,1,1,1,1,1,1,1,1,1,1,1,1,1,1,1,1,1,1,1,1,1,1,1,1,1,1,1,1,1,1,1,1,1,1,1,1,1,1,1,1,1,1,1,1,1,1,1,1,1,1,1,1,1,1,1,1,1,1,1,1,1,1,1,1,1,1,1,1,1,1,1,1,1,1,1,1,1,1,1,1,1,1,1,1,1,1,1,1,1,1,1,1,1,1,1,1,1,1,1,1,1,1,1,1,1,1,1,1,1,1,1,1,1,1,1,1,1,1,1,1,1,1,1,1,1,1,1,1,1,1,1,1,1,1,1,1,1,1,1,1,1,1,1,1,1,1,1,1,1,1,1,1,1,1,1,1,1,1,1,1,1,1,1,1,1,1,1,1,1,1,1,1,1,1,1,1,1,1,1,1,1,1,1,1,1,1,1,1,1,1,1,1,1,1,1,1,1,1,1,1,1,1,1,1,1,1,1,1,1,1,1,1,1,1,1,1,1,1,1,1,1,1,1,1,1,1,1,1,1,1,1,1,1,1,1,1,1,1,1,1,1,1,1,1,1,1,1,1,1,1,1,1,1,1,1,1,1,1,1,1,1,1,1,1,1,1,1,1,1,1,1,1,1,1,1,1,1,1,1,1,1,1,1,1,1,1,1,1,1,1,1,1,1,1,1,1,1,1,1,1,1,1,1,1,1,1,1,1,1,1,1,1,1,1,1,1,1,1,1,1,1,1,1,1,1,1,1,1,1,1,1,1,1,1,1,1,1,1,1,1,1,1,1,1,1,1,1,1,1,1,1,1,1,1,1,1,1,1,1,1,1,1,1,1,1,1,1,1,1,1,1,1,1,1,1,1,1,1,1,1,1,1,1,1,1,1,1,1,1,1,1,1,1,1,1,1,1,1,1,1,1,1,1,1,1,1,1,1,1,1,1,1,1,1,1,1,1,1,1,1,1,1,1,1,1,1,1,1,1,1,1,1,1,1,1,1,1,1,1,1,1,1,1,1,1,1,1,1,1,1,1,1,1,1,1,1,1,1,1,1,1,1,1,1,1,1,1,1,1,1,1,1,1,1,1,1,1,1,1,1,1,1,1,1,1,1,1,1,1,1,1,1,1,1,1,1,1,1,1,1,1,1,1,1,1,1,1,1,1,1,1,1,1,1,1,1,1,1,1,1,1,1,1,1,1,1,1,1,1,1,1,1,1,1,1,1,1,1,1,1,1,1,1,1,1,1,1,1,1,1,1,1,1,1,1,1,1,1,1,1,1,1,1,1,1,1,1,1,1,1,1,1,1,1,1,1,1,1,1,1,1,1,1,1,1,1,1,1,1,1,1,1,1,1,1,1,1,1,1,1,1,1,1,1,1,1,1,1,1,1,1,1,1,1,1,1,1,1,1,1,1,1,1,1,1,1,1,1,1,1,1,1,1,1,1,1,1,1,1,1,1,1,1,1,1,1,1,1,1,1,1,1,1,1,1,1,1,1,1,1,1,1,1,1,1,1,1,1,1,1,1,1,1,1,1,1,1,1,1,1,1,1,1,1,1,1,1,1,1,1,1,1,1,1,1,1,1,1,1,1,1,1,1,1,1,1,1,1,1,1,1,1,1,1,1,1,1,1,1,1,1,1,1,1,1,1,1,1,1,1,1,1,1,1,1,1,1,1,1,1,1,1,1,1,1,1,1,1,1,1,1,1,1,1,1,1,1,1,1,1,1,1,1,2,2,2,2,2,2,2,2,2,2,2,2,2,2,2,2,2,2,2,2,2,2,3,3,3,3,3,3,3,3,3,4,4,5,6,6,7,7,8,9,10,26,42	0.647539510674	-0.000932229570419	0.0310540590013	0.647539510674
GO CC 1000 medium	2	Cutoff(0.1)	Leading Eigenvector	0.151886940002	0.0572345210051	0.942990654206	905	1,1,1,1,1,1,1,1,1,1,1,1,1,1,1,1,1,1,1,1,1,1,1,1,1,1,1,1,1,1,1,1,1,1,1,1,1,1,1,1,1,1,1,1,1,1,1,1,1,1,1,1,1,1,1,1,1,1,1,1,1,1,1,1,1,1,1,1,1,1,1,1,1,1,1,1,1,1,1,1,1,1,1,1,1,1,1,1,1,1,1,1,1,1,1,1,1,1,1,1,1,1,1,1,1,1,1,1,1,1,1,1,1,1,1,1,1,1,1,1,1,1,1,1,1,1,1,1,1,1,1,1,1,1,1,1,1,1,1,1,1,1,1,1,1,1,1,1,1,1,1,1,1,1,1,1,1,1,1,1,1,1,1,1,1,1,1,1,1,1,1,1,1,1,1,1,1,1,1,1,1,1,1,1,1,1,1,1,1,1,1,1,1,1,1,1,1,1,1,1,1,1,1,1,1,1,1,1,1,1,1,1,1,1,1,1,1,1,1,1,1,1,1,1,1,1,1,1,1,1,1,1,1,1,1,1,1,1,1,1,1,1,1,1,1,1,1,1,1,1,1,1,1,1,1,1,1,1,1,1,1,1,1,1,1,1,1,1,1,1,1,1,1,1,1,1,1,1,1,1,1,1,1,1,1,1,1,1,1,1,1,1,1,1,1,1,1,1,1,1,1,1,1,1,1,1,1,1,1,1,1,1,1,1,1,1,1,1,1,1,1,1,1,1,1,1,1,1,1,1,1,1,1,1,1,1,1,1,1,1,1,1,1,1,1,1,1,1,1,1,1,1,1,1,1,1,1,1,1,1,1,1,1,1,1,1,1,1,1,1,1,1,1,1,1,1,1,1,1,1,1,1,1,1,1,1,1,1,1,1,1,1,1,1,1,1,1,1,1,1,1,1,1,1,1,1,1,1,1,1,1,1,1,1,1,1,1,1,1,1,1,1,1,1,1,1,1,1,1,1,1,1,1,1,1,1,1,1,1,1,1,1,1,1,1,1,1,1,1,1,1,1,1,1,1,1,1,1,1,1,1,1,1,1,1,1,1,1,1,1,1,1,1,1,1,1,1,1,1,1,1,1,1,1,1,1,1,1,1,1,1,1,1,1,1,1,1,1,1,1,1,1,1,1,1,1,1,1,1,1,1,1,1,1,1,1,1,1,1,1,1,1,1,1,1,1,1,1,1,1,1,1,1,1,1,1,1,1,1,1,1,1,1,1,1,1,1,1,1,1,1,1,1,1,1,1,1,1,1,1,1,1,1,1,1,1,1,1,1,1,1,1,1,1,1,1,1,1,1,1,1,1,1,1,1,1,1,1,1,1,1,1,1,1,1,1,1,1,1,1,1,1,1,1,1,1,1,1,1,1,1,1,1,1,1,1,1,1,1,1,1,1,1,1,1,1,1,1,1,1,1,1,1,1,1,1,1,1,1,1,1,1,1,1,1,1,1,1,1,1,1,1,1,1,1,1,1,1,1,1,1,1,1,1,1,1,1,1,1,1,1,1,1,1,1,1,1,1,1,1,1,1,1,1,1,1,1,1,1,1,1,1,1,1,1,1,1,1,1,1,1,1,1,1,1,1,1,1,1,1,1,1,1,1,1,1,1,1,1,1,1,1,1,1,1,1,1,1,1,1,1,1,1,1,1,1,1,1,1,1,1,1,1,1,1,1,1,1,1,1,1,1,1,1,1,1,1,1,1,1,1,1,1,1,1,1,1,1,1,1,1,1,1,1,1,1,1,1,1,1,1,1,1,1,1,1,1,1,1,1,1,1,1,1,1,1,1,1,1,1,1,1,1,1,1,1,1,1,1,1,1,1,1,1,1,1,1,1,1,1,1,1,1,1,1,1,1,1,1,1,1,1,1,1,1,1,1,1,1,1,1,1,1,1,1,1,1,1,1,1,1,1,1,1,1,1,1,1,1,1,1,1,1,1,1,2,2,2,2,2,2,2,2,2,2,2,2,2,2,2,2,2,2,2,2,2,3,3,3,3,3,3,3,4,4,5,6,7,8,9,10,15,17,26,31	0.636259666371	-0.000932553126768	0.0266141251397	0.636259666371
GO CC 1000 medium	2	Cutoff(0.1)	Label Propagation	0.102655887604	0.0748352222194	0.95046728972	910	1,1,1,1,1,1,1,1,1,1,1,1,1,1,1,1,1,1,1,1,1,1,1,1,1,1,1,1,1,1,1,1,1,1,1,1,1,1,1,1,1,1,1,1,1,1,1,1,1,1,1,1,1,1,1,1,1,1,1,1,1,1,1,1,1,1,1,1,1,1,1,1,1,1,1,1,1,1,1,1,1,1,1,1,1,1,1,1,1,1,1,1,1,1,1,1,1,1,1,1,1,1,1,1,1,1,1,1,1,1,1,1,1,1,1,1,1,1,1,1,1,1,1,1,1,1,1,1,1,1,1,1,1,1,1,1,1,1,1,1,1,1,1,1,1,1,1,1,1,1,1,1,1,1,1,1,1,1,1,1,1,1,1,1,1,1,1,1,1,1,1,1,1,1,1,1,1,1,1,1,1,1,1,1,1,1,1,1,1,1,1,1,1,1,1,1,1,1,1,1,1,1,1,1,1,1,1,1,1,1,1,1,1,1,1,1,1,1,1,1,1,1,1,1,1,1,1,1,1,1,1,1,1,1,1,1,1,1,1,1,1,1,1,1,1,1,1,1,1,1,1,1,1,1,1,1,1,1,1,1,1,1,1,1,1,1,1,1,1,1,1,1,1,1,1,1,1,1,1,1,1,1,1,1,1,1,1,1,1,1,1,1,1,1,1,1,1,1,1,1,1,1,1,1,1,1,1,1,1,1,1,1,1,1,1,1,1,1,1,1,1,1,1,1,1,1,1,1,1,1,1,1,1,1,1,1,1,1,1,1,1,1,1,1,1,1,1,1,1,1,1,1,1,1,1,1,1,1,1,1,1,1,1,1,1,1,1,1,1,1,1,1,1,1,1,1,1,1,1,1,1,1,1,1,1,1,1,1,1,1,1,1,1,1,1,1,1,1,1,1,1,1,1,1,1,1,1,1,1,1,1,1,1,1,1,1,1,1,1,1,1,1,1,1,1,1,1,1,1,1,1,1,1,1,1,1,1,1,1,1,1,1,1,1,1,1,1,1,1,1,1,1,1,1,1,1,1,1,1,1,1,1,1,1,1,1,1,1,1,1,1,1,1,1,1,1,1,1,1,1,1,1,1,1,1,1,1,1,1,1,1,1,1,1,1,1,1,1,1,1,1,1,1,1,1,1,1,1,1,1,1,1,1,1,1,1,1,1,1,1,1,1,1,1,1,1,1,1,1,1,1,1,1,1,1,1,1,1,1,1,1,1,1,1,1,1,1,1,1,1,1,1,1,1,1,1,1,1,1,1,1,1,1,1,1,1,1,1,1,1,1,1,1,1,1,1,1,1,1,1,1,1,1,1,1,1,1,1,1,1,1,1,1,1,1,1,1,1,1,1,1,1,1,1,1,1,1,1,1,1,1,1,1,1,1,1,1,1,1,1,1,1,1,1,1,1,1,1,1,1,1,1,1,1,1,1,1,1,1,1,1,1,1,1,1,1,1,1,1,1,1,1,1,1,1,1,1,1,1,1,1,1,1,1,1,1,1,1,1,1,1,1,1,1,1,1,1,1,1,1,1,1,1,1,1,1,1,1,1,1,1,1,1,1,1,1,1,1,1,1,1,1,1,1,1,1,1,1,1,1,1,1,1,1,1,1,1,1,1,1,1,1,1,1,1,1,1,1,1,1,1,1,1,1,1,1,1,1,1,1,1,1,1,1,1,1,1,1,1,1,1,1,1,1,1,1,1,1,1,1,1,1,1,1,1,1,1,1,1,1,1,1,1,1,1,1,1,1,1,1,1,1,1,1,1,1,1,1,1,1,1,1,1,1,1,1,1,1,1,1,1,1,1,1,1,1,1,1,1,1,1,1,1,1,1,1,1,1,1,1,1,1,1,1,1,1,1,1,1,1,1,1,1,1,1,1,1,1,1,1,1,1,1,1,1,1,1,1,1,1,1,1,1,1,1,1,1,1,1,1,1,1,1,2,2,2,2,2,2,2,2,2,2,2,2,2,2,2,2,2,2,2,2,2,2,2,2,2,3,3,3,3,3,3,3,3,3,3,4,4,4,5,5,6,6,6,7,9,26,45	0.637735320365	-0.000932113547688	0.0309221889918	0.637735320365
GO CC 1000 medium	2	Cutoff(0.1)	Walkttrap	0.109085798264	0.0780511008759	0.94953271028	906	1,1,1,1,1,1,1,1,1,1,1,1,1,1,1,1,1,1,1,1,1,1,1,1,1,1,1,1,1,1,1,1,1,1,1,1,1,1,1,1,1,1,1,1,1,1,1,1,1,1,1,1,1,1,1,1,1,1,1,1,1,1,1,1,1,1,1,1,1,1,1,1,1,1,1,1,1,1,1,1,1,1,1,1,1,1,1,1,1,1,1,1,1,1,1,1,1,1,1,1,1,1,1,1,1,1,1,1,1,1,1,1,1,1,1,1,1,1,1,1,1,1,1,1,1,1,1,1,1,1,1,1,1,1,1,1,1,1,1,1,1,1,1,1,1,1,1,1,1,1,1,1,1,1,1,1,1,1,1,1,1,1,1,1,1,1,1,1,1,1,1,1,1,1,1,1,1,1,1,1,1,1,1,1,1,1,1,1,1,1,1,1,1,1,1,1,1,1,1,1,1,1,1,1,1,1,1,1,1,1,1,1,1,1,1,1,1,1,1,1,1,1,1,1,1,1,1,1,1,1,1,1,1,1,1,1,1,1,1,1,1,1,1,1,1,1,1,1,1,1,1,1,1,1,1,1,1,1,1,1,1,1,1,1,1,1,1,1,1,1,1,1,1,1,1,1,1,1,1,1,1,1,1,1,1,1,1,1,1,1,1,1,1,1,1,1,1,1,1,1,1,1,1,1,1,1,1,1,1,1,1,1,1,1,1,1,1,1,1,1,1,1,1,1,1,1,1,1,1,1,1,1,1,1,1,1,1,1,1,1,1,1,1,1,1,1,1,1,1,1,1,1,1,1,1,1,1,1,1,1,1,1,1,1,1,1,1,1,1,1,1,1,1,1,1,1,1,1,1,1,1,1,1,1,1,1,1,1,1,1,1,1,1,1,1,1,1,1,1,1,1,1,1,1,1,1,1,1,1,1,1,1,1,1,1,1,1,1,1,1,1,1,1,1,1,1,1,1,1,1,1,1,1,1,1,1,1,1,1,1,1,1,1,1,1,1,1,1,1,1,1,1,1,1,1,1,1,1,1,1,1,1,1,1,1,1,1,1,1,1,1,1,1,1,1,1,1,1,1,1,1,1,1,1,1,1,1,1,1,1,1,1,1,1,1,1,1,1,1,1,1,1,1,1,1,1,1,1,1,1,1,1,1,1,1,1,1,1,1,1,1,1,1,1,1,1,1,1,1,1,1,1,1,1,1,1,1,1,1,1,1,1,1,1,1,1,1,1,1,1,1,1,1,1,1,1,1,1,1,1,1,1,1,1,1,1,1,1,1,1,1,1,1,1,1,1,1,1,1,1,1,1,1,1,1,1,1,1,1,1,1,1,1,1,1,1,1,1,1,1,1,1,1,1,1,1,1,1,1,1,1,1,1,1,1,1,1,1,1,1,1,1,1,1,1,1,1,1,1,1,1,1,1,1,1,1,1,1,1,1,1,1,1,1,1,1,1,1,1,1,1,1,1,1,1,1,1,1,1,1,1,1,1,1,1,1,1,1,1,1,1,1,1,1,1,1,1,1,1,1,1,1,1,1,1,1,1,1,1,1,1,1,1,1,1,1,1,1,1,1,1,1,1,1,1,1,1,1,1,1,1,1,1,1,1,1,1,1,1,1,1,1,1,1,1,1,1,1,1,1,1,1,1,1,1,1,1,1,1,1,1,1,1,1,1,1,1,1,1,1,1,1,1,1,1,1,1,1,1,1,1,1,1,1,1,1,1,1,1,1,1,1,1,1,1,1,1,1,1,1,1,1,1,1,1,1,1,1,1,1,1,1,1,1,1,1,1,1,1,1,1,1,1,1,1,1,1,1,1,1,1,1,1,1,1,1,1,1,1,1,1,1,1,1,1,1,1,1,1,1,1,1,1,1,1,1,1,1,1,1,1,1,1,1,1,1,1,1,1,1,1,1,1,1,1,1,1,1,1,1,1,1,1,1,1,2,2,2,2,2,2,2,2,2,2,2,2,2,2,2,2,2,2,2,2,3,3,3,3,3,3,3,3,3,4,4,4,5,5,6,7,8,9,10,26,50	0.640645511058	-0.000931670700363	0.0331508861907	0.640645511058
GO CC 1000 medium	2	Cutoff(1)	None	0.10356593132	-1.68568325541e-16	0.0457943925234	1	1070	0.0	0.0	0.0	0.0
GO CC 1000 medium	2	Cutoff(1)	Louvain	0.116791963577	0.0844016720636	0.426168224299	352	1,1,1,1,1,1,1,1,1,1,1,1,1,1,1,1,1,1,1,1,1,1,1,1,1,1,1,1,1,1,1,1,1,1,1,1,1,1,1,1,1,1,1,1,1,1,1,1,1,1,1,1,1,1,1,1,1,1,1,1,1,1,1,1,1,1,1,1,1,1,1,1,1,1,1,1,1,1,1,1,1,1,1,1,1,1,1,1,1,1,1,1,1,1,1,1,1,1,1,1,1,1,1,1,1,1,1,1,1,1,1,1,1,1,1,1,1,1,1,1,1,1,1,1,1,1,1,1,1,1,1,1,1,1,1,1,1,1,1,1,1,1,1,1,1,1,1,1,1,1,1,1,1,1,1,1,1,1,1,1,1,1,1,1,1,1,1,1,1,1,1,1,1,1,1,1,1,1,1,1,1,1,1,1,1,1,1,1,1,1,1,1,1,1,1,1,1,1,1,1,1,1,1,1,1,1,1,1,1,1,1,1,1,1,1,1,1,1,1,1,1,1,1,1,1,1,1,1,1,1,1,1,1,1,1,1,1,1,1,1,1,1,1,1,1,1,1,1,1,1,1,1,1,1,1,1,1,1,1,1,1,1,1,1,1,1,1,1,1,1,1,1,1,1,1,1,1,1,1,1,1,1,1,1,1,1,1,1,1,1,1,1,1,1,1,1,1,1,1,1,1,1,1,1,1,1,1,1,1,1,1,1,1,1,1,1,1,1,1,1,1,1,1,1,1,1,1,1,1,1,1,1,1,1,1,2,2,2,2,2,2,3,3,4,8,20,31,48,101,130,181,194	0.509534234664	-0.00085242390686	0.313630446442	0.509534234664
GO CC 1000 medium	2	Cutoff(1)	Greedy Modularity	0.13024687767	0.0860576820503	0.416822429907	350	1,1,1,1,1,1,1,1,1,1,1,1,1,1,1,1,1,1,1,1,1,1,1,1,1,1,1,1,1,1,1,1,1,1,1,1,1,1,1,1,1,1,1,1,1,1,1,1,1,1,1,1,1,1,1,1,1,1,1,1,1,1,1,1,1,1,1,1,1,1,1,1,1,1,1,1,1,1,1,1,1,1,1,1,1,1,1,1,1,1,1,1,1,1,1,1,1,1,1,1,1,1,1,1,1,1,1,1,1,1,1,1,1,1,1,1,1,1,1,1,1,1,1,1,1,1,1,1,1,1,1,1,1,1,1,1,1,1,1,1,1,1,1,1,1,1,1,1,1,1,1,1,1,1,1,1,1,1,1,1,1,1,1,1,1,1,1,1,1,1,1,1,1,1,1,1,1,1,1,1,1,1,1,1,1,1,1,1,1,1,1,1,1,1,1,1,1,1,1,1,1,1,1,1,1,1,1,1,1,1,1,1,1,1,1,1,1,1,1,1,1,1,1,1,1,1,1,1,1,1,1,1,1,1,1,1,1,1,1,1,1,1,1,1,1,1,1,1,1,1,1,1,1,1,1,1,1,1,1,1,1,1,1,1,1,1,1,1,1,1,1,1,1,1,1,1,1,1,1,1,1,1,1,1,1,1,1,1,1,1,1,1,1,1,1,1,1,1,1,1,1,1,1,1,1,1,1,1,1,1,1,1,1,1,1,1,1,1,1,1,1,1,1,1,1,1,1,1,1,1,1,1,1,1,1,2,2,2,2,2,2,3,3,4,31,44,109,158,173,198	0.501693392575	-0.000846175020616	0.316715882815	0.501693392575
GO CC 1000 medium	2	Cutoff(1)	Infomap	1.10440993309	0.104809124617	0.477570093458	394	1,1,1,1,1,1,1,1,1,1,1,1,1,1,1,1,1,1,1,1,1,1,1,1,1,1,1,1,1,1,1,1,1,1,1,1,1,1,1,1,1,1,1,1,1,1,1,1,1,1,1,1,1,1,1,1,1,1,1,1,1,1,1,1,1,1,1,1,1,1,1,1,1,1,1,1,1,1,1,1,1,1,1,1,1,1,1,1,1,1,1,1,1,1,1,1,1,1,1,1,1,1,1,1,1,1,1,1,1,1,1,1,1,1,1,1,1,1,1,1,1,1,1,1,1,1,1,1,1,1,1,1,1,1,1,1,1,1,1,1,1,1,1,1,1,1,1,1,1,1,1,1,1,1,1,1,1,1,1,1,1,1,1,1,1,1,1,1,1,1,1,1,1,1,1,1,1,1,1,1,1,1,1,1,1,1,1,1,1,1,1,1,1,1,1,1,1,1,1,1,1,1,1,1,1,1,1,1,1,1,1,1,1,1,1,1,1,1,1,1,1,1,1,1,1,1,1,1,1,1,1,1,1,1,1,1,1,1,1,1,1,1,1,1,1,1,1,1,1,1,1,1,1,1,1,1,1,1,1,1,1,1,1,1,1,1,1,1,1,1,1,1,1,1,1,1,1,1,1,1,1,1,1,1,1,1,1,1,1,1,1,1,1,1,1,1,1,1,1,1,1,1,1,1,1,1,1,1,1,1,1,1,1,1,1,1,1,1,1,1,1,1,1,1,1,1,1,1,1,1,1,1,1,1,1,2,2,2,2,2,2,2,2,2,2,2,2,2,3,3,3,3,3,3,3,3,4,4,4,4,4,4,5,5,5,5,6,6,6,6,7,7,8,9,9,10,11,11,12,12,13,13,15,15,16,18,20,23,28,31,47,51,113,118	0.469079125112	-0.000904978935746	0.216912541593	0.469079125112
GO CC 1000 medium	2	Cutoff(1)	Leading Eigenvector	0.274426937103	0.0437752276074	0.404672897196	346	1,1,1,1,1,1,1,1,1,1,1,1,1,1,1,1,1,1,1,1,1,1,1,1,1,1,1,1,1,1,1,1,1,1,1,1,1,1,1,1,1,1,1,1,1,1,1,1,1,1,1,1,1,1,1,1,1,1,1,1,1,1,1,1,1,1,1,1,1,1,1,1,1,1,1,1,1,1,1,1,1,1,1,1,1,1,1,1,1,1,1,1,1,1,1,1,1,1,1,1,1,1,1,1,1,1,1,1,1,1,1,1,1,1,1,1,1,1,1,1,1,1,1,1,1,1,1,1,1,1,1,1,1,1,1,1,1,1,1,1,1,1,1,1,1,1,1,1,1,1,1,1,1,1,1,1,1,1,1,1,1,1,1,1,1,1,1,1,1,1,1,1,1,1,1,1,1,1,1,1,1,1,1,1,1,1,1,1,1,1,1,1,1,1,1,1,1,1,1,1,1,1,1,1,1,1,1,1,1,1,1,1,1,1,1,1,1,1,1,1,1,1,1,1,1,1,1,1,1,1,1,1,1,1,1,1,1,1,1,1,1,1,1,1,1,1,1,1,1,1,1,1,1,1,1,1,1,1,1,1,1,1,1,1,1,1,1,1,1,1,1,1,1,1,1,1,1,1,1,1,1,1,1,1,1,1,1,1,1,1,1,1,1,1,1,1,1,1,1,1,1,1,1,1,1,1,1,1,1,1,1,1,1,1,1,1,1,1,1,1,1,1,1,1,1,1,1,1,1,1,1,1,1,1,1,2,2,2,2,2,3,27,34,104,108,449	0.451074342595	-0.000750528168971	0.253349382047	0.451074342595
GO CC 1000 medium	2	Cutoff(1)	Label Propagation	0.106074094772	0.0741730593635	0.442990654206	379	1,1,1,1,1,1,1,1,1,1,1,1,1,1,1,1,1,1,1,1,1,1,1,1,1,1,1,1,1,1,1,1,1,1,1,1,1,1,1,1,1,1,1,1,1,1,1,1,1,1,1,1,1,1,1,1,1,1,1,1,1,1,1,1,1,1,1,1,1,1,1,1,1,1,1,1,1,1,1,1,1,1,1,1,1,1,1,1,1,1,1,1,1,1,1,1,1,1,1,1,1,1,1,1,1,1,1,1,1,1,1,1,1,1,1,1,1,1,1,1,1,1,1,1,1,1,1,1,1,1,1,1,1,1,1,1,1,1,1,1,1,1,1,1,1,1,1,1,1,1,1,1,1,1,1,1,1,1,1,1,1,1,1,1,1,1,1,1,1,1,1,1,1,1,1,1,1,1,1,1,1,1,1,1,1,1,1,1,1,1,1,1,1,1,1,1,1,1,1,1,1,1,1,1,1,1,1,1,1,1,1,1,1,1,1,1,1,1,1,1,1,1,1,1,1,1,1,1,1,1,1,1,1,1,1,1,1,1,1,1,1,1,1,1,1,1,1,1,1,1,1,1,1,1,1,1,1,1,1,1,1,1,1,1,1,1,1,1,1,1,1,1,1,1,1,1,1,1,1,1,1,1,1,1,1,1,1,1,1,1,1,1,1,1,1,1,1,1,1,1,1,1,1,1,1,1,1,1,1,1,1,1,1,1,1,1,1,1,1,1,1,1,1,1,1,1,1,1,1,1,1,1,1,2,2,2,2,2,2,2,2,2,2,2,2,2,2,2,2,2,2,2,2,2,3,3,3,3,3,3,4,4,6,6,6,6,6,6,7,8,8,9,10,11,18,31,69,114,348	0.340666486146	-0.000819968590522	0.244675893076	0.340666486146
GO CC 1000 medium	2	Cutoff(1)	Walkttrap	0.2472448349	0.112472385075	0.545794392523	481	1,1,1,1,1,1,1,1,1,1,1,1,1,1,1,1,1,1,1,1,1,1,1,1,1,1,1,1,1,1,1,1,1,1,1,1,1,1,1,1,1,1,1,1,1,1,1,1,1,1,1,1,1,1,1,1,1,1,1,1,1,1,1,1,1,1,1,1,1,1,1,1,1,1,1,1,1,1,1,1,1,1,1,1,1,1,1,1,1,1,1,1,1,1,1,1,1,1,1,1,1,1,1,1,1,1,1,1,1,1,1,1,1,1,1,1,1,1,1,1,1,1,1,1,1,1,1,1,1,1,1,1,1,1,1,1,1,1,1,1,1,1,1,1,1,1,1,1,1,1,1,1,1,1,1,1,1,1,1,1,1,1,1,1,1,1,1,1,1,1,1,1,1,1,1,1,1,1,1,1,1,1,1,1,1,1,1,1,1,1,1,1,1,1,1,1,1,1,1,1,1,1,1,1,1,1,1,1,1,1,1,1,1,1,1,1,1,1,1,1,1,1,1,1,1,1,1,1,1,1,1,1,1,1,1,1,1,1,1,1,1,1,1,1,1,1,1,1,1,1,1,1,1,1,1,1,1,1,1,1,1,1,1,1,1,1,1,1,1,1,1,1,1,1,1,1,1,1,1,1,1,1,1,1,1,1,1,1,1,1,1,1,1,1,1,1,1,1,1,1,1,1,1,1,1,1,1,1,1,1,1,1,1,1,1,1,1,1,1,1,1,1,1,1,1,1,1,1,1,1,1,1,1,1,1,1,1,1,1,1,1,1,1,1,1,1,1,1,1,1,1,1,1,1,1,1,1,1,1,1,1,1,1,1,1,1,1,1,1,1,1,1,1,1,1,1,1,1,1,1,1,1,1,1,1,1,1,1,1,1,1,1,1,1,1,1,1,1,1,1,1,1,1,1,1,1,1,1,1,1,1,2,2,2,2,2,2,2,2,2,2,2,2,2,2,2,2,2,2,2,2,2,2,2,2,2,2,2,2,3,3,3,3,3,3,3,3,3,3,3,3,3,3,3,4,4,4,4,4,4,5,5,5,6,6,6,6,7,7,9,14,16,16,18,18,18,28,31,41,117,155	0.443229473122	-0.00089952586739	0.210868410907	0.443229473122
GO CC 1000 medium	2	Cutoff(5)	None	0.11585021019	-1.68568325541e-16	0.0457943925234	1	1070	0.0	0.0	0.0	0.0
GO CC 1000 medium	2	Cutoff(5)	Louvain	0.198615074158	0.059374716292	0.170093457944	85	1,1,1,1,1,1,1,1,1,1,1,1,1,1,1,1,1,1,1,1,1,1,1,1,1,1,1,1,1,1,1,1,1,1,1,1,1,1,1,1,1,1,1,1,1,1,1,1,1,1,1,1,1,1,1,1,1,1,1,1,1,1,1,1,1,1,1,1,1,1,1,1,1,1,1,1,1,1,2,26,34,120,238,281,291	0.460592679432	-0.000742136947512	0.460592679432	0.460592679432
GO CC 1000 medium	2	Cutoff(5)	Greedy Modularity	0.35977602005	0.0442869141142	0.167289719626	83	1,1,1,1,1,1,1,1,1,1,1,1,1,1,1,1,1,1,1,1,1,1,1,1,1,1,1,1,1,1,1,1,1,1,1,1,1,1,1,1,1,1,1,1,1,1,1,1,1,1,1,1,1,1,1,1,1,1,1,1,1,1,1,1,1,1,1,1,1,1,1,1,1,1,1,1,1,1,2,35,177,191,587	0.396063157569	-0.000597446797246	0.396063157569	0.396063157569
GO CC 1000 medium	2	Cutoff(5)	Infomap	2.88309717178	0.0802360353149	0.227102803738	123	1,1,1,1,1,1,1,1,1,1,1,1,1,1,1,1,1,1,1,1,1,1,1,1,1,1,1,1,1,1,1,1,1,1,1,1,1,1,1,1,1,1,1,1,1,1,1,1,1,1,1,1,1,1,1,1,1,1,1,1,1,1,1,1,1,1,1,1,1,1,1,1,1,1,1,1,1,1,2,2,2,2,2,2,2,2,2,2,2,2,2,2,2,3,3,3,3,3,4,4,4,4,5,5,6,7,7,8,8,8,9,10,10,11,14,23,25,33,81,114,127,183,237	0.425833930022	-0.000830209639185	0.425833930022	0.425833930022
GO CC 1000 medium	2	Cutoff(5)	Leading Eigenvector	0.488965034485	0.0281670836084	0.157009345794	82	1,1,1,1,1,1,1,1,1,1,1,1,1,1,1,1,1,1,1,1,1,1,1,1,1,1,1,1,1,1,1,1,1,1,1,1,1,1,1,1,1,1,1,1,1,1,1,1,1,1,1,1,1,1,1,1,1,1,1,1,1,1,1,1,1,1,1,1,1,1,1,1,1,1,1,1,1,1,44,127,156,665	0.355510194058	-0.00053942072465	0.355510194058	0.355510194058
GO CC 1000 medium	2	Cutoff(5)	Label Propagation	0.124806880951	0.0405611932692	0.157943925234	84	1,1,1,1,1,1,1,1,1,1,1,1,1,1,1,1,1,1,1,1,1,1,1,1,1,1,1,1,1,1,1,1,1,1,1,1,1,1,1,1,1,1,1,1,1,1,1,1,1,1,1,1,1,1,1,1,1,1,1,1,1,1,1,1,1,1,1,1,1,1,1,1,1,1,1,1,1,1,2,17,33,87,297,556	0.378749846021	-0.000603421150829	0.378749846021	0.378749846021
GO CC 1000 medium	2	Cutoff(5)	Walkttrap	0.713874101639	0.0749983526081	0.21308411215	130	1,1,1,1,1,1,1,1,1,1,1,1,1,1,1,1,1,1,1,1,1,1,1,1,1,1,1,1,1,1,1,1,1,1,1,1,1,1,1,1,1,1,1,1,1,1,1,1,1,1,1,1,1,1,1,1,1,1,1,1,1,1,1,1,1,1,1,1,1,1,1,1,1,1,1,1,1,1,1,1,1,1,1,1,1,1,1,1,1,1,1,1,1,1,1,1,1,1,1,1,1,1,1,1,1,1,1,1,1,1,1,1,1,1,2,2,2,2,2,3,5,8,20,32,62,104,117,182,199,214	0.414212742873	-0.000814098820809	0.414212742873	0.414212742873
GO CC 1000 medium	2	Cutoff(10)	None	0.116143941879	-1.68568325541e-16	0.0457943925234	1	1070	0.0	0.0	0.0	0.0
GO CC 1000 medium	2	Cutoff(10)	Louvain	0.255898952484	0.0547419740281	0.108411214953	14	1,1,1,1,1,1,1,2,27,34,117,243,291,349	0.408283634124	-0.000705764638412	0.459834313524	0.459834313524
GO CC 1000 medium	2	Cutoff(10)	Greedy Modularity	0.832570075989	0.0401513226356	0.103738317757	12	1,1,1,1,1,1,1,2,36,185,191,649	0.338603725875	-0.000532467531406	0.399392082131	0.399392082131
GO CC 1000 medium	2	Cutoff(10)	Infomap	3.73596000671	0.0663338585532	0.153271028037	31	1,1,1,1,1,1,1,2,2,2,2,2,2,3,4,4,4,5,5,6,8,9,14,18,25,33,102,122,147,207,335	0.386852850331	-0.000768345011729	0.439250202716	0.439250202716
GO CC 1000 medium	2	Cutoff(10)	Leading Eigenvector	0.830712080002	0.0286941005699	0.0990654205607	13	1,1,1,1,1,1,1,2,4,48,130,165,714	0.297908609901	-0.000480961609467	0.363116007128	0.363116007128
GO CC 1000 medium	2	Cutoff(10)	Label Propagation	0.160423994064	0.0244214931044	0.085046728972	11	1,1,1,1,1,1,1,2,33,320,708	0.330132735796	-0.00044132432267	0.331968825471	0.331968825471
GO CC 1000 medium	2	Cutoff(10)	Walkttrap	1.15495491028	0.0640861286613	0.118691588785	26	1,1,1,1,1,1,1,1,1,1,1,1,1,1,1,2,2,6,21,31,62,112,145,217,218,239	0.360979566461	-0.000779715239365	0.420669000673	0.420669000673
GO CC 1000 medium	2	Cutoff(20)	None	0.128102779388	-1.68568325541e-16	0.0457943925234	1	1070	0.0	0.0	0.0	0.0
GO CC 1000 medium	2	Cutoff(20)	Louvain	0.429399013519	0.0457333342468	0.0971962616822	6	22,33,107,197,259,452	0.312974112845	-0.000671366349862	0.446906603253	0.446906603253
GO CC 1000 medium	2	Cutoff(20)	Greedy Modularity	2.11602306366	0.0438757621808	0.0897196261682	4	34,202,404,430	0.289154909428	-0.000616737618924	0.414823432019	0.414823432019
GO CC 1000 medium	2	Cutoff(20)	Infomap	5.67039299011	0.0482947512966	0.117757009346	13	2,2,3,6,6,8,22,30,70,101,102,268,450	0.306123761851	-0.000689219143326	0.433561734949	0.433561734949
GO CC 1000 medium	2	Cutoff(20)	Leading Eigenvector	1.32585191727	0.0262366456491	0.0897196261682	4	48,123,165,734	0.210785299728	-0.000458768585391	0.358388729913	0.358388729913
GO CC 1000 medium	2	Cutoff(20)	Label Propagation	0.195240020752	0.0373749823573	0.0841121495327	3	30,468,572	0.322571124854	-0.000488432819693	0.393644593822	0.393644593822
GO CC 1000 medium	2	Cutoff(20)	Walkttrap	2.37470722198	0.0561518375089	0.0943925233645	6	29,91,182,196,217,355	0.263418045269	-0.000728103099433	0.401263365597	0.401263365597
GO CC 1000 medium	2	Log	None	0.230662822723	-1.68568325541e-16	0.0457943925234	1	1070	0.0	0.0	0.0	0.0
GO CC 1000 medium	2	Log	Louvain	1.87097096443	0.0264449917595	0.108411214953	7	3,6,20,31,88,220,702	-0.00048578063811	-0.00048578063811	0.392410487499	0.392410487499
GO CC 1000 medium	2	Log	Greedy Modularity	2.36793494225	0.0255537029891	0.0971962616822	5	33,36,98,237,666	-0.00051735189392	-0.00051735189392	0.385973558826	0.385973558826
GO CC 1000 medium	2	Log	Leading Eigenvector	6.27706384659	0.0173056731261	0.0971962616822	4	38,75,104,853	-0.00032633925978	-0.00032633925978	0.226743547183	0.226743547183
GO CC 1000 medium	2	Log	Label Propagation	0.544451951981	0.00359166690817	0.0878504672897	3	20,29,1021	-8.27013294653e-05	-8.27013294653e-05	0.0335525236799	0.0335525236799
GO CC 1000 medium	2	Log	Walkttrap	10.7724049091	0.0347734517502	0.0971962616822	6	16,29,113,149,288,475	-0.000653864892837	-0.000653864892837	0.411803173022	0.411803173022
