test_case	test_number	transform	cluster_alg	seconds	adjusted_rand	annotation_correspondence	n_clusters	cluster_sizes	transformed_modularity	modularity	modularity_cutoff	transformed_modularity_cutoff
GO CC 100 small	1	None	None	0.00116991996765	1.3011107197e-16	0.130841121495	1	107	0.0	0.0	0.0	0.0
GO CC 100 small	1	None	Louvain	0.00777006149292	0.190306494802	0.373831775701	4	9,12,17,69	-0.00508736859279	-0.00508736859279	0.524590561983	0.524590561983
GO CC 100 small	1	None	Greedy Modularity	0.00364685058594	0.200258660796	0.373831775701	4	11,12,17,67	-0.00527853631445	-0.00527853631445	0.499138025228	0.499138025228
GO CC 100 small	1	None	Infomap	0.0926470756531	0.172440623755	0.355140186916	4	7,12,18,70	-0.00497036076315	-0.00497036076315	0.529137175394	0.529137175394
GO CC 100 small	1	None	Leading Eigenvector	0.0676109790802	0.238435985638	0.355140186916	4	15,17,19,56	-0.00612890307632	-0.00612890307632	0.517634061358	0.517634061358
GO CC 100 small	1	None	Label Propagation	0.00292491912842	0.158066981525	0.355140186916	4	7,7,19,74	-0.00454352938462	-0.00454352938462	0.513548786558	0.513548786558
GO CC 100 small	1	None	Spinglass	17.7037651539	0.190306494802	0.373831775701	4	9,12,17,69	-0.00508736859279	-0.00508736859279	0.524590561983	0.524590561983
GO CC 100 small	1	None	Walkttrap	0.0161640644073	0.210013953042	0.289719626168	3	18,33,56	-0.00568559172178	-0.00568559172178	0.521798249341	0.521798249341
GO CC 100 small	1	Pearson	None	0.001060962677	1.3011107197e-16	0.130841121495	1	107	0.0	0.0	0.0	0.0
GO CC 100 small	1	Pearson	Louvain	0.010153055191	0.147470020741	0.196261682243	2	51,56	-0.00470668114707	-0.00470668114707	0.382783571489	0.48894001384
GO CC 100 small	1	Pearson	Greedy Modularity	0.0034818649292	0.165031011385	0.196261682243	2	50,57	-0.00469679316147	-0.00469679316147	0.405486287317	0.497808641601
GO CC 100 small	1	Pearson	Infomap	0.0609209537506	1.3011107197e-16	0.130841121495	1	107	0.0	0.0	0.0	0.0
GO CC 100 small	1	Pearson	Leading Eigenvector	0.0280070304871	0.165031011385	0.196261682243	2	50,57	-0.00469679316147	-0.00469679316147	0.405486287317	0.497808641601
GO CC 100 small	1	Pearson	Label Propagation	0.0019850730896	1.3011107197e-16	0.130841121495	1	107	0.0	0.0	0.0	0.0
GO CC 100 small	1	Pearson	Spinglass	6.84415698051	0.161068494654	0.214953271028	3	1,50,56	-0.0047890810271	-0.0047890810271	0.374952955602	0.497808641601
GO CC 100 small	1	Pearson	Walkttrap	0.0166227817535	0.129037591599	0.18691588785	2	43,64	-0.00453528939662	-0.00453528939662	0.412697738227	0.494087581493
GO CC 100 small	1	Spearman	None	0.00102591514587	1.3011107197e-16	0.130841121495	1	107	0.0	0.0	0.0	0.0
GO CC 100 small	1	Spearman	Louvain	0.0054919719696	0.159633364115	0.205607476636	2	49,58	-0.00468360918066	-0.00468360918066	0.400970025131	0.300981782682
GO CC 100 small	1	Spearman	Greedy Modularity	0.003573179245	0.159633364115	0.205607476636	2	49,58	-0.00468360918066	-0.00468360918066	0.400970025131	0.300981782682
GO CC 100 small	1	Spearman	Infomap	0.0529079437256	1.3011107197e-16	0.130841121495	1	107	0.0	0.0	0.0	0.0
GO CC 100 small	1	Spearman	Leading Eigenvector	0.0238070487976	0.159633364115	0.205607476636	2	49,58	-0.00468360918066	-0.00468360918066	0.400970025131	0.300981782682
GO CC 100 small	1	Spearman	Label Propagation	0.00191879272461	1.3011107197e-16	0.130841121495	1	107	0.0	0.0	0.0	0.0
GO CC 100 small	1	Spearman	Spinglass	7.80114603043	0.167930519998	0.214953271028	3	1,49,57	-0.00477754504389	-0.00477754504389	0.400970025131	0.300981782682
GO CC 100 small	1	Spearman	Walkttrap	0.0159950256348	0.136568558759	0.18691588785	2	44,63	-0.00456824934863	-0.00456824934863	0.405662324418	0.300981782682
GO CC 100 small	1	Cosine	None	0.00103402137756	1.3011107197e-16	0.130841121495	1	107	0.0	0.0	0.0	0.0
GO CC 100 small	1	Cosine	Louvain	0.00724005699158	0.130667385072	0.18691588785	2	49,58	-0.00468360918066	-0.00468360918066	0.34840777477	0.414889096626
GO CC 100 small	1	Cosine	Greedy Modularity	0.00346708297729	0.210181734086	0.317757009346	3	17,45,45	-0.00585863146983	-0.00585863146983	0.493383433088	0.492557879785
GO CC 100 small	1	Cosine	Infomap	0.0492398738861	1.3011107197e-16	0.130841121495	1	107	0.0	0.0	0.0	0.0
GO CC 100 small	1	Cosine	Leading Eigenvector	0.0247750282288	0.1278570822	0.18691588785	2	45,62	-0.00459791330544	-0.00459791330544	0.400970025131	0.407361992983
GO CC 100 small	1	Cosine	Label Propagation	0.00192999839783	1.3011107197e-16	0.130841121495	1	107	0.0	0.0	0.0	0.0
GO CC 100 small	1	Cosine	Spinglass	7.92563009262	0.118803627066	0.18691588785	2	46,61	-0.00462428126705	-0.00462428126705	0.405486287317	0.426635020457
GO CC 100 small	1	Cosine	Walkttrap	0.0161170959473	0.124389271547	0.196261682243	2	40,67	-0.00441663356938	-0.00441663356938	0.412697738227	0.426635020457
GO CC 100 small	1	KNN(10)	None	0.000838994979858	1.3011107197e-16	0.130841121495	1	107	0.0	0.0	0.0	0.0
GO CC 100 small	1	KNN(10)	Louvain	0.00629019737244	0.217182428165	0.242990654206	3	28,37,42	0.220296974198	-0.00620635896354	0.492472896357	0.543983673469
GO CC 100 small	1	KNN(10)	Greedy Modularity	0.00396108627319	0.24416738925	0.261682242991	3	33,34,40	0.213642132502	-0.00626568687716	0.470334713302	0.534853061224
GO CC 100 small	1	KNN(10)	Infomap	0.0466799736023	0.204950521807	0.261682242991	3	22,26,59	0.236576309426	-0.00560978383215	0.494263618594	0.5384
GO CC 100 small	1	KNN(10)	Leading Eigenvector	0.0283110141754	0.252754478457	0.261682242991	4	18,22,26,41	0.201479788981	-0.00682600606134	0.485018635652	0.540551020408
GO CC 100 small	1	KNN(10)	Label Propagation	0.00173306465149	0.107805547842	0.233644859813	2	25,82	0.148271817909	-0.00337839508106	0.441519260887	0.478840816327
GO CC 100 small	1	KNN(10)	Spinglass	6.32239294052	0.222369105653	0.261682242991	3	28,36,43	0.225910623554	-0.00619647097794	0.492472896357	0.536951020408
GO CC 100 small	1	KNN(10)	Walkttrap	0.0100629329681	0.194005917044	0.252336448598	3	22,25,60	0.232535378848	-0.00555375191374	0.490105500856	0.534126530612
GO CC 100 small	1	KNN(50)	None	0.00102591514587	1.3011107197e-16	0.130841121495	1	107	0.0	0.0	0.0	0.0
GO CC 100 small	1	KNN(50)	Louvain	0.00688695907593	0.154385865793	0.205607476636	2	47,60	-0.00464735323345	-0.00464735323345	0.405662324418	0.323789367599
GO CC 100 small	1	KNN(50)	Greedy Modularity	0.00353693962097	0.154385865793	0.205607476636	2	47,60	-0.00464735323345	-0.00464735323345	0.405662324418	0.323789367599
GO CC 100 small	1	KNN(50)	Infomap	0.0559689998627	1.3011107197e-16	0.130841121495	1	107	0.0	0.0	0.0	0.0
GO CC 100 small	1	KNN(50)	Leading Eigenvector	0.0240252017975	0.154385865793	0.205607476636	2	47,60	-0.00464735323345	-0.00464735323345	0.405662324418	0.323789367599
GO CC 100 small	1	KNN(50)	Label Propagation	0.00193405151367	1.3011107197e-16	0.130841121495	1	107	0.0	0.0	0.0	0.0
GO CC 100 small	1	KNN(50)	Spinglass	7.38891196251	0.15786137599	0.205607476636	3	1,47,59	-0.00474458509188	-0.00474458509188	0.405662324418	0.323789367599
GO CC 100 small	1	KNN(50)	Walkttrap	0.0160229206085	0.136568558759	0.18691588785	2	44,63	-0.00456824934863	-0.00456824934863	0.405662324418	0.323789367599
GO CC 100 small	1	KNN(100)	None	0.0010449886322	1.3011107197e-16	0.130841121495	1	107	0.0	0.0	0.0	0.0
GO CC 100 small	1	KNN(100)	Louvain	0.00697708129883	1.3011107197e-16	0.130841121495	1	107	0.0	0.0	0.0	0.0
GO CC 100 small	1	KNN(100)	Greedy Modularity	0.00347900390625	1.3011107197e-16	0.130841121495	1	107	0.0	0.0	0.0	0.0
GO CC 100 small	1	KNN(100)	Infomap	0.0496280193329	1.3011107197e-16	0.130841121495	1	107	0.0	0.0	0.0	0.0
GO CC 100 small	1	KNN(100)	Leading Eigenvector	0.00639796257019	1.3011107197e-16	0.130841121495	1	107	0.0	0.0	0.0	0.0
GO CC 100 small	1	KNN(100)	Label Propagation	0.00195717811584	1.3011107197e-16	0.130841121495	1	107	0.0	0.0	0.0	0.0
GO CC 100 small	1	KNN(100)	Spinglass	8.83506798744	1.3011107197e-16	0.130841121495	1	107	0.0	0.0	0.0	0.0
GO CC 100 small	1	KNN(100)	Walkttrap	0.0168879032135	0.0	1.0	107	1,1,1,1,1,1,1,1,1,1,1,1,1,1,1,1,1,1,1,1,1,1,1,1,1,1,1,1,1,1,1,1,1,1,1,1,1,1,1,1,1,1,1,1,1,1,1,1,1,1,1,1,1,1,1,1,1,1,1,1,1,1,1,1,1,1,1,1,1,1,1,1,1,1,1,1,1,1,1,1,1,1,1,1,1,1,1,1,1,1,1,1,1,1,1,1,1,1,1,1,1,1,1,1,1,1,1	-0.00934579439252	-0.00934579439252	-0.0208816423655	-0.0231826138812
GO CC 100 small	1	Topological Overlap	None	0.00103998184204	1.3011107197e-16	0.130841121495	1	107	0.0	0.0	0.0	0.0
GO CC 100 small	1	Topological Overlap	Louvain	0.0100688934326	0.203505388852	0.355140186916	4	11,11,19,66	-0.00534775221367	-0.00534775221367	0.521039468732	0.273883378455
GO CC 100 small	1	Topological Overlap	Greedy Modularity	0.00354099273682	0.219146529566	0.345794392523	4	14,14,19,60	-0.00584709548663	-0.00584709548663	0.522204955748	0.292142675036
GO CC 100 small	1	Topological Overlap	Infomap	0.0772318840027	0.191770054768	0.336448598131	4	10,10,20,67	-0.00524063236964	-0.00524063236964	0.521039468732	0.273883378455
GO CC 100 small	1	Topological Overlap	Leading Eigenvector	0.05952501297	0.229597343763	0.336448598131	4	16,16,19,56	-0.00613055107392	-0.00613055107392	0.522204955748	0.292142675036
GO CC 100 small	1	Topological Overlap	Label Propagation	0.00343298912048	0.07769575705	0.168224299065	2	32,75	-0.00395519424124	-0.00395519424124	0.314893952822	0.0537823695808
GO CC 100 small	1	Topological Overlap	Spinglass	16.8878810406	0.206539521261	0.336448598131	4	11,12,19,65	-0.0054367440841	-0.0054367440841	0.521039468732	0.273883378455
GO CC 100 small	1	Topological Overlap	Walkttrap	0.016786813736	0.179372137232	0.280373831776	3	18,41,48	-0.00588335143384	-0.00588335143384	0.51560659957	0.202594422659
GO CC 100 small	1	Cutoff(0.1)	None	0.000531911849976	1.3011107197e-16	0.130841121495	1	107	0.0	0.0	0.0	0.0
GO CC 100 small	1	Cutoff(0.1)	Louvain	0.000698089599609	0.0142733708908	1.0	102	1,1,1,1,1,1,1,1,1,1,1,1,1,1,1,1,1,1,1,1,1,1,1,1,1,1,1,1,1,1,1,1,1,1,1,1,1,1,1,1,1,1,1,1,1,1,1,1,1,1,1,1,1,1,1,1,1,1,1,1,1,1,1,1,1,1,1,1,1,1,1,1,1,1,1,1,1,1,1,1,1,1,1,1,1,1,1,1,1,1,1,1,1,1,1,1,1,1,1,2,3,3	0.486111111111	-0.00933425840932	-0.0069868518496	0.486111111111
GO CC 100 small	1	Cutoff(0.1)	Greedy Modularity	0.000927925109863	0.0142733708908	1.0	102	1,1,1,1,1,1,1,1,1,1,1,1,1,1,1,1,1,1,1,1,1,1,1,1,1,1,1,1,1,1,1,1,1,1,1,1,1,1,1,1,1,1,1,1,1,1,1,1,1,1,1,1,1,1,1,1,1,1,1,1,1,1,1,1,1,1,1,1,1,1,1,1,1,1,1,1,1,1,1,1,1,1,1,1,1,1,1,1,1,1,1,1,1,1,1,1,1,1,1,2,3,3	0.486111111111	-0.00933425840932	-0.0069868518496	0.486111111111
GO CC 100 small	1	Cutoff(0.1)	Infomap	0.00658702850342	0.0263740935438	1.0	101	1,1,1,1,1,1,1,1,1,1,1,1,1,1,1,1,1,1,1,1,1,1,1,1,1,1,1,1,1,1,1,1,1,1,1,1,1,1,1,1,1,1,1,1,1,1,1,1,1,1,1,1,1,1,1,1,1,1,1,1,1,1,1,1,1,1,1,1,1,1,1,1,1,1,1,1,1,1,1,1,1,1,1,1,1,1,1,1,1,1,1,1,1,1,1,1,1,1,1,3,5	0.444444444444	-0.00932437042372	0.00246451941871	0.444444444444
GO CC 100 small	1	Cutoff(0.1)	Leading Eigenvector	0.00184798240662	0.0142733708908	1.0	102	1,1,1,1,1,1,1,1,1,1,1,1,1,1,1,1,1,1,1,1,1,1,1,1,1,1,1,1,1,1,1,1,1,1,1,1,1,1,1,1,1,1,1,1,1,1,1,1,1,1,1,1,1,1,1,1,1,1,1,1,1,1,1,1,1,1,1,1,1,1,1,1,1,1,1,1,1,1,1,1,1,1,1,1,1,1,1,1,1,1,1,1,1,1,1,1,1,1,1,2,3,3	0.486111111111	-0.00933425840932	-0.0069868518496	0.486111111111
GO CC 100 small	1	Cutoff(0.1)	Label Propagation	0.000562906265259	0.0263740935438	0.981308411215	100	1,1,1,1,1,1,1,1,1,1,1,1,1,1,1,1,1,1,1,1,1,1,1,1,1,1,1,1,1,1,1,1,1,1,1,1,1,1,1,1,1,1,1,1,1,1,1,1,1,1,1,1,1,1,1,1,1,1,1,1,1,1,1,1,1,1,1,1,1,1,1,1,1,1,1,1,1,1,1,1,1,1,1,1,1,1,1,1,1,1,1,1,1,1,1,1,1,2,3,5	0.444444444444	-0.00932437042372	0.00246451941871	0.444444444444
GO CC 100 small	1	Cutoff(0.1)	Walkttrap	0.000952005386353	0.0142733708908	1.0	102	1,1,1,1,1,1,1,1,1,1,1,1,1,1,1,1,1,1,1,1,1,1,1,1,1,1,1,1,1,1,1,1,1,1,1,1,1,1,1,1,1,1,1,1,1,1,1,1,1,1,1,1,1,1,1,1,1,1,1,1,1,1,1,1,1,1,1,1,1,1,1,1,1,1,1,1,1,1,1,1,1,1,1,1,1,1,1,1,1,1,1,1,1,1,1,1,1,1,1,2,3,3	0.486111111111	-0.00933425840932	-0.0069868518496	0.486111111111
GO CC 100 small	1	Cutoff(1)	None	0.00049901008606	1.3011107197e-16	0.130841121495	1	107	0.0	0.0	0.0	0.0
GO CC 100 small	1	Cutoff(1)	Louvain	0.000875949859619	0.120379510947	0.981308411215	89	1,1,1,1,1,1,1,1,1,1,1,1,1,1,1,1,1,1,1,1,1,1,1,1,1,1,1,1,1,1,1,1,1,1,1,1,1,1,1,1,1,1,1,1,1,1,1,1,1,1,1,1,1,1,1,1,1,1,1,1,1,1,1,1,1,1,1,1,1,1,1,1,1,1,1,1,1,1,1,1,1,1,1,1,2,2,4,5,10	0.234096313912	-0.00924197054369	0.100966382984	0.234096313912
GO CC 100 small	1	Cutoff(1)	Greedy Modularity	0.00095796585083	0.109225780328	0.981308411215	89	1,1,1,1,1,1,1,1,1,1,1,1,1,1,1,1,1,1,1,1,1,1,1,1,1,1,1,1,1,1,1,1,1,1,1,1,1,1,1,1,1,1,1,1,1,1,1,1,1,1,1,1,1,1,1,1,1,1,1,1,1,1,1,1,1,1,1,1,1,1,1,1,1,1,1,1,1,1,1,1,1,1,1,1,2,2,4,7,8	0.223394768133	-0.00925185852929	0.0921341766927	0.223394768133
GO CC 100 small	1	Cutoff(1)	Infomap	0.00664401054382	0.209293911136	0.981308411215	88	1,1,1,1,1,1,1,1,1,1,1,1,1,1,1,1,1,1,1,1,1,1,1,1,1,1,1,1,1,1,1,1,1,1,1,1,1,1,1,1,1,1,1,1,1,1,1,1,1,1,1,1,1,1,1,1,1,1,1,1,1,1,1,1,1,1,1,1,1,1,1,1,1,1,1,1,1,1,1,1,1,1,1,1,2,2,4,15	0.190844233056	-0.00915957066367	0.181700639804	0.190844233056
GO CC 100 small	1	Cutoff(1)	Leading Eigenvector	0.00510215759277	0.112955717669	0.981308411215	89	1,1,1,1,1,1,1,1,1,1,1,1,1,1,1,1,1,1,1,1,1,1,1,1,1,1,1,1,1,1,1,1,1,1,1,1,1,1,1,1,1,1,1,1,1,1,1,1,1,1,1,1,1,1,1,1,1,1,1,1,1,1,1,1,1,1,1,1,1,1,1,1,1,1,1,1,1,1,1,1,1,1,1,1,2,2,4,6,9	0.226516052319	-0.00924856253409	0.0955274435771	0.226516052319
GO CC 100 small	1	Cutoff(1)	Label Propagation	0.00058388710022	0.209293911136	0.96261682243	87	1,1,1,1,1,1,1,1,1,1,1,1,1,1,1,1,1,1,1,1,1,1,1,1,1,1,1,1,1,1,1,1,1,1,1,1,1,1,1,1,1,1,1,1,1,1,1,1,1,1,1,1,1,1,1,1,1,1,1,1,1,1,1,1,1,1,1,1,1,1,1,1,1,1,1,1,1,1,1,1,1,1,2,2,2,4,15	0.190844233056	-0.00915957066367	0.181700639804	0.190844233056
GO CC 100 small	1	Cutoff(1)	Walkttrap	0.00109004974365	0.0903933293129	0.981308411215	92	1,1,1,1,1,1,1,1,1,1,1,1,1,1,1,1,1,1,1,1,1,1,1,1,1,1,1,1,1,1,1,1,1,1,1,1,1,1,1,1,1,1,1,1,1,1,1,1,1,1,1,1,1,1,1,1,1,1,1,1,1,1,1,1,1,1,1,1,1,1,1,1,1,1,1,1,1,1,1,1,1,1,1,1,1,1,1,2,2,3,4,9	0.191736028537	-0.0092683385053	0.0676043171582	0.191736028537
GO CC 100 small	1	Cutoff(5)	None	0.00053882598877	1.3011107197e-16	0.130841121495	1	107	0.0	0.0	0.0	0.0
GO CC 100 small	1	Cutoff(5)	Louvain	0.00108695030212	0.299105280825	0.626168224299	34	1,1,1,1,1,1,1,1,1,1,1,1,1,1,1,1,1,1,1,1,1,1,1,1,1,1,1,1,1,2,11,12,18,35	0.530836843958	-0.00791203648007	0.530836843958	0.530836843958
GO CC 100 small	1	Cutoff(5)	Greedy Modularity	0.00103497505188	0.299105280825	0.626168224299	34	1,1,1,1,1,1,1,1,1,1,1,1,1,1,1,1,1,1,1,1,1,1,1,1,1,1,1,1,1,2,11,12,18,35	0.530836843958	-0.00791203648007	0.530836843958	0.530836843958
GO CC 100 small	1	Cutoff(5)	Infomap	0.0359179973602	0.347187577271	0.663551401869	38	1,1,1,1,1,1,1,1,1,1,1,1,1,1,1,1,1,1,1,1,1,1,1,1,1,1,1,1,1,2,2,2,5,5,11,12,18,21	0.514004054924	-0.00851025960906	0.514004054924	0.514004054924
GO CC 100 small	1	Cutoff(5)	Leading Eigenvector	0.0346839427948	0.313326434782	0.644859813084	34	1,1,1,1,1,1,1,1,1,1,1,1,1,1,1,1,1,1,1,1,1,1,1,1,1,1,1,1,1,2,11,13,17,35	0.525634644102	-0.00792027646808	0.525634644102	0.525634644102
GO CC 100 small	1	Cutoff(5)	Label Propagation	0.000736951828003	0.342660346079	0.663551401869	37	1,1,1,1,1,1,1,1,1,1,1,1,1,1,1,1,1,1,1,1,1,1,1,1,1,1,1,2,2,2,2,4,5,10,12,19,22	0.507569595357	-0.00846905966905	0.507569595357	0.507569595357
GO CC 100 small	1	Cutoff(5)	Walkttrap	0.00212907791138	0.326145326359	0.691588785047	40	1,1,1,1,1,1,1,1,1,1,1,1,1,1,1,1,1,1,1,1,1,1,1,1,1,1,1,1,1,2,2,2,2,3,4,5,8,11,19,20	0.489565249062	-0.00857617951308	0.489565249062	0.489565249062
GO CC 100 small	1	Cutoff(10)	None	0.000571966171265	1.3011107197e-16	0.130841121495	1	107	0.0	0.0	0.0	0.0
GO CC 100 small	1	Cutoff(10)	Louvain	0.00144219398499	0.293288249941	0.457943925234	14	1,1,1,1,1,1,1,1,1,1,15,16,18,48	0.510541255874	-0.00686391000615	0.546813728466	0.546813728466
GO CC 100 small	1	Cutoff(10)	Greedy Modularity	0.00128316879272	0.279575932402	0.448598130841	14	1,1,1,1,1,1,1,1,1,1,15,16,18,48	0.491834409997	-0.00686391000615	0.528882225109	0.528882225109
GO CC 100 small	1	Cutoff(10)	Infomap	0.0294370651245	0.33445008935	0.523364485981	19	1,1,1,1,1,1,1,1,1,1,2,3,4,5,6,9,11,19,38	0.516844384748	-0.00769779679201	0.538618897886	0.538618897886
GO CC 100 small	1	Cutoff(10)	Leading Eigenvector	0.0531408786774	0.277466345089	0.439252336449	14	1,1,1,1,1,1,1,1,1,1,15,16,18,48	0.488429288914	-0.00686391000615	0.523224756887	0.523224756887
GO CC 100 small	1	Cutoff(10)	Label Propagation	0.00086784362793	0.319747341071	0.476635514019	16	1,1,1,1,1,1,1,1,2,2,2,5,13,14,19,42	0.519932750381	-0.0073467733031	0.539662980005	0.539662980005
GO CC 100 small	1	Cutoff(10)	Walkttrap	0.00311589241028	0.326849567035	0.514018691589	19	1,1,1,1,1,1,1,1,1,1,1,1,2,3,5,13,16,19,37	0.528078543169	-0.00761704490958	0.545599679491	0.545599679491
GO CC 100 small	1	Cutoff(20)	None	0.000639915466309	1.3011107197e-16	0.130841121495	1	107	0.0	0.0	0.0	0.0
GO CC 100 small	1	Cutoff(20)	Louvain	0.00212907791138	0.282009369577	0.383177570093	4	13,17,20,57	0.362336912727	-0.00604979919149	0.536051184305	0.536051184305
GO CC 100 small	1	Cutoff(20)	Greedy Modularity	0.00202202796936	0.260942535304	0.345794392523	4	14,18,20,55	0.358546878807	-0.00618328699713	0.528882225109	0.528882225109
GO CC 100 small	1	Cutoff(20)	Infomap	0.0701920986176	0.3106535677	0.457943925234	8	2,2,5,6,10,16,18,48	0.353228012968	-0.00691829392696	0.547117240709	0.547117240709
GO CC 100 small	1	Cutoff(20)	Leading Eigenvector	0.0615289211273	0.236116263478	0.336448598131	4	16,18,18,55	0.351367852926	-0.00619647097794	0.528882225109	0.528882225109
GO CC 100 small	1	Cutoff(20)	Label Propagation	0.00128483772278	0.241216828603	0.373831775701	4	12,14,19,62	0.336689717209	-0.00568888771698	0.533908387864	0.533908387864
GO CC 100 small	1	Cutoff(20)	Spinglass	7.1196911335	0.285747322862	0.401869158879	7	1,1,1,13,17,19,55	0.355374899271	-0.00626403887956	0.536051184305	0.536051184305
GO CC 100 small	1	Cutoff(20)	Walkttrap	0.00488495826721	0.254469782731	0.364485981308	4	10,18,22,57	0.365627705628	-0.00600859925148	0.543802887008	0.543802887008
GO CC 100 small	1	Log	None	0.00101709365845	1.3011107197e-16	0.130841121495	1	107	0.0	0.0	0.0	0.0
GO CC 100 small	1	Log	Louvain	0.0116119384766	0.162566109818	0.355140186916	4	9,11,16,71	-0.00490279286153	-0.00490279286153	0.487149291602	0.487149291602
GO CC 100 small	1	Log	Greedy Modularity	0.00356292724609	0.12966716417	0.327102803738	3	11,16,80	-0.0038497223948	-0.0038497223948	0.41733540531	0.41733540531
GO CC 100 small	1	Log	Infomap	0.0946490764618	0.172440623755	0.355140186916	4	7,12,18,70	-0.00497036076315	-0.00497036076315	0.529137175394	0.529137175394
GO CC 100 small	1	Log	Leading Eigenvector	0.0545990467072	0.144380536711	0.336448598131	3	11,17,79	-0.00395354624364	-0.00395354624364	0.456961963846	0.456961963846
GO CC 100 small	1	Log	Label Propagation	0.00261306762695	0.158066981525	0.355140186916	4	7,7,19,74	-0.00454352938462	-0.00454352938462	0.513548786558	0.513548786558
GO CC 100 small	1	Log	Spinglass	19.5664920807	0.169018877017	0.364485981308	5	1,8,12,16,70	-0.00501320870077	-0.00501320870077	0.485607449405	0.485607449405
GO CC 100 small	1	Log	Walkttrap	0.0165820121765	0.239234607165	0.355140186916	4	7,18,26,56	-0.00598552728507	-0.00598552728507	0.533173888235	0.533173888235
GO CC 100 small	2	None	None	0.00124788284302	-1.29983984101e-16	0.137931034483	1	116	0.0	0.0	0.0	0.0
GO CC 100 small	2	None	Louvain	0.0127348899841	0.0622101873126	0.301724137931	7	4,4,6,7,14,16,65	-0.00559763221837	-0.00559763221837	0.389415245357	0.389415245357
GO CC 100 small	2	None	Greedy Modularity	0.00404095649719	0.117542639815	0.310344827586	7	4,5,8,14,14,15,56	-0.00620250219718	-0.00620250219718	0.42413422677	0.42413422677
GO CC 100 small	2	None	Infomap	0.243902921677	0.124516560192	0.405172413793	9	3,4,4,5,6,9,11,14,60	-0.0060461148736	-0.0060461148736	0.394046790938	0.394046790938
GO CC 100 small	2	None	Label Propagation	0.00390601158142	0.0310359589563	0.275862068966	6	3,4,4,6,12,87	-0.00366153130331	-0.00366153130331	0.258019353873	0.258019353873
GO CC 100 small	2	None	Spinglass	18.8504431248	0.15774150013	0.396551724138	8	4,4,5,6,12,14,17,54	-0.00634467249134	-0.00634467249134	0.418547314848	0.418547314848
GO CC 100 small	2	None	Walkttrap	0.0205678939819	0.158560150036	0.344827586207	6	4,5,11,18,29,49	-0.00628651191646	-0.00628651191646	0.437223185905	0.437223185905
GO CC 100 small	2	Pearson	None	0.00124502182007	-1.29983984101e-16	0.137931034483	1	116	0.0	0.0	0.0	0.0
GO CC 100 small	2	Pearson	Louvain	0.0108599662781	0.118694552693	0.163793103448	2	50,66	-0.0042651088249	-0.0042651088249	0.267502575527	0.474988773345
GO CC 100 small	2	Pearson	Greedy Modularity	0.00401401519775	0.155637057174	0.198275862069	2	56,60	-0.00434265625808	-0.00434265625808	0.290620679939	0.478946719615
GO CC 100 small	2	Pearson	Infomap	0.0651729106903	-1.29983984101e-16	0.137931034483	1	116	0.0	0.0	0.0	0.0
GO CC 100 small	2	Pearson	Leading Eigenvector	0.0278329849243	0.120377744144	0.163793103448	2	51,65	-0.00428449568319	-0.00428449568319	0.267502575527	0.478101418521
GO CC 100 small	2	Pearson	Label Propagation	0.00234293937683	-1.29983984101e-16	0.137931034483	1	116	0.0	0.0	0.0	0.0
GO CC 100 small	2	Pearson	Spinglass	9.93693304062	0.174959043511	0.241379310345	4	4,25,43,44	-0.00583544434679	-0.00583544434679	0.415637189726	0.615938328241
GO CC 100 small	2	Pearson	Walkttrap	0.0203149318695	0.125233163373	0.172413793103	2	57,59	-0.00434653362974	-0.00434653362974	0.288630700279	0.479069992692
GO CC 100 small	2	Spearman	None	0.00125885009766	-1.29983984101e-16	0.137931034483	1	116	0.0	0.0	0.0	0.0
GO CC 100 small	2	Spearman	Louvain	0.00833606719971	0.0916451569889	0.155172413793	2	54,62	-0.00432714677144	-0.00432714677144	0.266881807536	0.483292866227
GO CC 100 small	2	Spearman	Greedy Modularity	0.00430202484131	0.0916451569889	0.155172413793	2	54,62	-0.00432714677144	-0.00432714677144	0.266881807536	0.483292866227
GO CC 100 small	2	Spearman	Infomap	0.0609359741211	-1.29983984101e-16	0.137931034483	1	116	0.0	0.0	0.0	0.0
GO CC 100 small	2	Spearman	Leading Eigenvector	0.0282378196716	0.0996240626962	0.163793103448	2	55,61	-0.00433619397198	-0.00433619397198	0.268893800245	0.483292866227
GO CC 100 small	2	Spearman	Label Propagation	0.00260806083679	-1.29983984101e-16	0.137931034483	1	116	0.0	0.0	0.0	0.0
GO CC 100 small	2	Spearman	Spinglass	9.90376901627	0.0903523811098	0.155172413793	3	1,54,61	-0.00440598666184	-0.00440598666184	0.266503183087	0.483292866227
GO CC 100 small	2	Spearman	Walkttrap	0.0204751491547	0.114107203705	0.172413793103	2	48,68	-0.00421858036499	-0.00421858036499	0.256848259648	0.483292866227
GO CC 100 small	2	Cosine	None	0.00125885009766	-1.29983984101e-16	0.137931034483	1	116	0.0	0.0	0.0	0.0
GO CC 100 small	2	Cosine	Louvain	0.010773897171	0.110150976534	0.181034482759	2	57,59	-0.00434653362974	-0.00434653362974	0.261581065255	0.38335725418
GO CC 100 small	2	Cosine	Greedy Modularity	0.00394415855408	0.101704951905	0.163793103448	2	57,59	-0.00434653362974	-0.00434653362974	0.266305065643	0.389961168981
GO CC 100 small	2	Cosine	Infomap	0.0614130496979	-1.29983984101e-16	0.137931034483	1	116	0.0	0.0	0.0	0.0
GO CC 100 small	2	Cosine	Leading Eigenvector	0.0278170108795	0.101704951905	0.163793103448	2	57,59	-0.00434653362974	-0.00434653362974	0.266305065643	0.389961168981
GO CC 100 small	2	Cosine	Label Propagation	0.00228810310364	-1.29983984101e-16	0.137931034483	1	116	0.0	0.0	0.0	0.0
GO CC 100 small	2	Cosine	Spinglass	11.9510159492	0.16889553138	0.23275862069	3	30,32,54	-0.00556790570232	-0.00556790570232	0.415544734919	0.43639109264
GO CC 100 small	2	Cosine	Walkttrap	0.0202701091766	0.0993374004987	0.181034482759	2	48,68	-0.00421858036499	-0.00421858036499	0.301468710652	0.364197096039
GO CC 100 small	2	KNN(10)	None	0.000994920730591	-1.29983984101e-16	0.137931034483	1	116	0.0	0.0	0.0	0.0
GO CC 100 small	2	KNN(10)	Louvain	0.0063910484314	0.123234158265	0.189655172414	3	29,38,49	0.247170811057	-0.00566742490824	0.388314592891	0.581109455082
GO CC 100 small	2	KNN(10)	Greedy Modularity	0.0058000087738	0.119589587336	0.172413793103	3	5,47,64	0.269649875451	-0.00460502507367	0.264059734611	0.466002457654
GO CC 100 small	2	KNN(10)	Infomap	0.0994668006897	0.125923131375	0.172413793103	2	47,69	0.26588763807	-0.00419143876338	0.256513661298	0.471275742545
GO CC 100 small	2	KNN(10)	Leading Eigenvector	0.029335975647	0.117736486467	0.181034482759	3	31,37,48	0.244848421093	-0.00570102879595	0.386113287957	0.582950974284
GO CC 100 small	2	KNN(10)	Label Propagation	0.00317192077637	0.125923131375	0.172413793103	2	47,69	0.26588763807	-0.00419143876338	0.256513661298	0.471275742545
GO CC 100 small	2	KNN(10)	Spinglass	7.1867120266	0.129921367938	0.206896551724	4	1,30,38,47	0.247310368549	-0.00575272708473	0.391924732982	0.583744376482
GO CC 100 small	2	KNN(10)	Walkttrap	0.0121569633484	0.125923131375	0.172413793103	2	47,69	0.26588763807	-0.00419143876338	0.256513661298	0.471275742545
GO CC 100 small	2	KNN(50)	None	0.00122404098511	-1.29983984101e-16	0.137931034483	1	116	0.0	0.0	0.0	0.0
GO CC 100 small	2	KNN(50)	Louvain	0.0100250244141	0.0875788996554	0.146551724138	2	55,61	-0.00433619397198	-0.00433619397198	0.266234623885	0.477902246901
GO CC 100 small	2	KNN(50)	Greedy Modularity	0.00429320335388	0.0875788996554	0.146551724138	2	55,61	-0.00433619397198	-0.00433619397198	0.266234623885	0.477902246901
GO CC 100 small	2	KNN(50)	Infomap	0.0657651424408	-1.29983984101e-16	0.137931034483	1	116	0.0	0.0	0.0	0.0
GO CC 100 small	2	KNN(50)	Leading Eigenvector	0.0280208587646	0.104875085189	0.163793103448	2	54,62	-0.00432714677144	-0.00432714677144	0.270210180595	0.477902246901
GO CC 100 small	2	KNN(50)	Label Propagation	0.00228595733643	-1.29983984101e-16	0.137931034483	1	116	0.0	0.0	0.0	0.0
GO CC 100 small	2	KNN(50)	Spinglass	12.6166870594	0.0903523811098	0.155172413793	3	1,54,61	-0.00440598666184	-0.00440598666184	0.266899417975	0.477902246901
GO CC 100 small	2	KNN(50)	Walkttrap	0.0196611881256	0.0946519588525	0.163793103448	2	54,62	-0.00432714677144	-0.00432714677144	0.267344081572	0.477902246901
GO CC 100 small	2	KNN(100)	None	0.00124979019165	-1.29983984101e-16	0.137931034483	1	116	0.0	0.0	0.0	0.0
GO CC 100 small	2	KNN(100)	Louvain	0.00833582878113	0.0826247513979	0.146551724138	2	54,62	-0.00432714677144	-0.00432714677144	0.261633896574	0.491173162502
GO CC 100 small	2	KNN(100)	Greedy Modularity	0.00425720214844	0.086480363999	0.155172413793	2	53,63	-0.00431551465646	-0.00431551465646	0.262237054126	0.491173162502
GO CC 100 small	2	KNN(100)	Infomap	0.0612590312958	-1.29983984101e-16	0.137931034483	1	116	0.0	0.0	0.0	0.0
GO CC 100 small	2	KNN(100)	Leading Eigenvector	0.0247390270233	0.0797495436788	0.146551724138	2	55,61	-0.00433619397198	-0.00433619397198	0.245044862595	0.491173162502
GO CC 100 small	2	KNN(100)	Label Propagation	0.00228881835938	-1.29983984101e-16	0.137931034483	1	116	0.0	0.0	0.0	0.0
GO CC 100 small	2	KNN(100)	Spinglass	10.30823493	0.0826247513979	0.146551724138	2	54,62	-0.00432714677144	-0.00432714677144	0.261633896574	0.491173162502
GO CC 100 small	2	KNN(100)	Walkttrap	0.019944190979	0.0913058627088	0.146551724138	2	52,64	-0.00430129762705	-0.00430129762705	0.262237054126	0.489149156981
GO CC 100 small	2	Topological Overlap	None	0.00127100944519	-1.29983984101e-16	0.137931034483	1	116	0.0	0.0	0.0	0.0
GO CC 100 small	2	Topological Overlap	Louvain	0.0163960456848	0.14299763995	0.327586206897	5	4,10,18,23,61	-0.0056648399938	-0.0056648399938	0.417358610184	0.445517702894
GO CC 100 small	2	Topological Overlap	Greedy Modularity	0.00404000282288	0.16828275992	0.301724137931	5	5,11,19,24,57	-0.00589618983612	-0.00589618983612	0.421598323486	0.445552923773
GO CC 100 small	2	Topological Overlap	Infomap	0.215471029282	0.0867379468232	0.275862068966	4	4,5,11,96	-0.0026353202709	-0.0026353202709	0.249632382076	0.224634363251
GO CC 100 small	2	Topological Overlap	Leading Eigenvector	0.0882039070129	0.274969477342	0.301724137931	5	9,12,24,30,41	-0.00651010701546	-0.00651010701546	0.40457783374	0.417530311969
GO CC 100 small	2	Topological Overlap	Label Propagation	0.00414609909058	0.0207584899007	0.181034482759	2	6,110	-0.00085302176498	-0.00085302176498	0.0792954063169	0.0812545677077
GO CC 100 small	2	Topological Overlap	Spinglass	19.1817851067	0.174631996271	0.362068965517	7	4,4,6,6,19,23,54	-0.00616889830947	-0.00616889830947	0.419260537647	0.454155623454
GO CC 100 small	2	Topological Overlap	Walkttrap	0.0201649665833	0.243413735636	0.353448275862	7	4,5,11,19,21,27,29	-0.0070581088766	-0.0070581088766	0.419216511548	0.424931099156
GO CC 100 small	2	Cutoff(0.1)	None	0.000633001327515	-1.29983984101e-16	0.137931034483	1	116	0.0	0.0	0.0	0.0
GO CC 100 small	2	Cutoff(0.1)	Louvain	0.000777959823608	0.0226094824831	1.0	109	1,1,1,1,1,1,1,1,1,1,1,1,1,1,1,1,1,1,1,1,1,1,1,1,1,1,1,1,1,1,1,1,1,1,1,1,1,1,1,1,1,1,1,1,1,1,1,1,1,1,1,1,1,1,1,1,1,1,1,1,1,1,1,1,1,1,1,1,1,1,1,1,1,1,1,1,1,1,1,1,1,1,1,1,1,1,1,1,1,1,1,1,1,1,1,1,1,1,1,1,1,1,1,1,1,2,2,2,5	0.612244897959	-0.00860388771132	0.00775739858588	0.612244897959
GO CC 100 small	2	Cutoff(0.1)	Greedy Modularity	0.00103712081909	0.0226094824831	1.0	109	1,1,1,1,1,1,1,1,1,1,1,1,1,1,1,1,1,1,1,1,1,1,1,1,1,1,1,1,1,1,1,1,1,1,1,1,1,1,1,1,1,1,1,1,1,1,1,1,1,1,1,1,1,1,1,1,1,1,1,1,1,1,1,1,1,1,1,1,1,1,1,1,1,1,1,1,1,1,1,1,1,1,1,1,1,1,1,1,1,1,1,1,1,1,1,1,1,1,1,1,1,1,1,1,1,2,2,2,5	0.612244897959	-0.00860388771132	0.00775739858588	0.612244897959
GO CC 100 small	2	Cutoff(0.1)	Infomap	0.00610685348511	0.0226094824831	1.0	109	1,1,1,1,1,1,1,1,1,1,1,1,1,1,1,1,1,1,1,1,1,1,1,1,1,1,1,1,1,1,1,1,1,1,1,1,1,1,1,1,1,1,1,1,1,1,1,1,1,1,1,1,1,1,1,1,1,1,1,1,1,1,1,1,1,1,1,1,1,1,1,1,1,1,1,1,1,1,1,1,1,1,1,1,1,1,1,1,1,1,1,1,1,1,1,1,1,1,1,1,1,1,1,1,1,2,2,2,5	0.612244897959	-0.00860388771132	0.00775739858588	0.612244897959
GO CC 100 small	2	Cutoff(0.1)	Leading Eigenvector	0.00204491615295	0.0226094824831	1.0	109	1,1,1,1,1,1,1,1,1,1,1,1,1,1,1,1,1,1,1,1,1,1,1,1,1,1,1,1,1,1,1,1,1,1,1,1,1,1,1,1,1,1,1,1,1,1,1,1,1,1,1,1,1,1,1,1,1,1,1,1,1,1,1,1,1,1,1,1,1,1,1,1,1,1,1,1,1,1,1,1,1,1,1,1,1,1,1,1,1,1,1,1,1,1,1,1,1,1,1,1,1,1,1,1,1,2,2,2,5	0.612244897959	-0.00860388771132	0.00775739858588	0.612244897959
GO CC 100 small	2	Cutoff(0.1)	Label Propagation	0.000645160675049	0.0226094824831	0.98275862069	108	1,1,1,1,1,1,1,1,1,1,1,1,1,1,1,1,1,1,1,1,1,1,1,1,1,1,1,1,1,1,1,1,1,1,1,1,1,1,1,1,1,1,1,1,1,1,1,1,1,1,1,1,1,1,1,1,1,1,1,1,1,1,1,1,1,1,1,1,1,1,1,1,1,1,1,1,1,1,1,1,1,1,1,1,1,1,1,1,1,1,1,1,1,1,1,1,1,1,1,1,1,1,1,2,2,2,2,5	0.612244897959	-0.00860388771132	0.00775739858588	0.612244897959
GO CC 100 small	2	Cutoff(0.1)	Walkttrap	0.00108003616333	0.0226094824831	1.0	109	1,1,1,1,1,1,1,1,1,1,1,1,1,1,1,1,1,1,1,1,1,1,1,1,1,1,1,1,1,1,1,1,1,1,1,1,1,1,1,1,1,1,1,1,1,1,1,1,1,1,1,1,1,1,1,1,1,1,1,1,1,1,1,1,1,1,1,1,1,1,1,1,1,1,1,1,1,1,1,1,1,1,1,1,1,1,1,1,1,1,1,1,1,1,1,1,1,1,1,1,1,1,1,1,1,2,2,2,5	0.612244897959	-0.00860388771132	0.00775739858588	0.612244897959
GO CC 100 small	2	Cutoff(1)	None	0.000586986541748	-1.29983984101e-16	0.137931034483	1	116	0.0	0.0	0.0	0.0
GO CC 100 small	2	Cutoff(1)	Louvain	0.000921010971069	0.152165503012	0.939655172414	79	1,1,1,1,1,1,1,1,1,1,1,1,1,1,1,1,1,1,1,1,1,1,1,1,1,1,1,1,1,1,1,1,1,1,1,1,1,1,1,1,1,1,1,1,1,1,1,1,1,1,1,1,1,1,1,1,1,1,1,1,1,1,1,1,1,1,1,1,1,2,2,3,3,3,4,5,7,9,9	0.717128027682	-0.00846559478881	0.185138550133	0.717128027682
GO CC 100 small	2	Cutoff(1)	Greedy Modularity	0.00102114677429	0.152165503012	0.939655172414	79	1,1,1,1,1,1,1,1,1,1,1,1,1,1,1,1,1,1,1,1,1,1,1,1,1,1,1,1,1,1,1,1,1,1,1,1,1,1,1,1,1,1,1,1,1,1,1,1,1,1,1,1,1,1,1,1,1,1,1,1,1,1,1,1,1,1,1,1,1,2,2,3,3,3,4,5,7,9,9	0.717128027682	-0.00846559478881	0.185138550133	0.717128027682
GO CC 100 small	2	Cutoff(1)	Infomap	0.00994110107422	0.152165503012	0.939655172414	79	1,1,1,1,1,1,1,1,1,1,1,1,1,1,1,1,1,1,1,1,1,1,1,1,1,1,1,1,1,1,1,1,1,1,1,1,1,1,1,1,1,1,1,1,1,1,1,1,1,1,1,1,1,1,1,1,1,1,1,1,1,1,1,1,1,1,1,1,1,2,2,3,3,3,4,5,7,9,9	0.717128027682	-0.00846559478881	0.185138550133	0.717128027682
GO CC 100 small	2	Cutoff(1)	Leading Eigenvector	0.0171999931335	0.191132678615	0.905172413793	77	1,1,1,1,1,1,1,1,1,1,1,1,1,1,1,1,1,1,1,1,1,1,1,1,1,1,1,1,1,1,1,1,1,1,1,1,1,1,1,1,1,1,1,1,1,1,1,1,1,1,1,1,1,1,1,1,1,1,1,1,1,1,1,1,1,1,1,1,1,2,2,3,4,5,7,10,14	0.68339100346	-0.00839063227007	0.192050647624	0.68339100346
GO CC 100 small	2	Cutoff(1)	Label Propagation	0.000709056854248	0.157032732351	0.913793103448	78	1,1,1,1,1,1,1,1,1,1,1,1,1,1,1,1,1,1,1,1,1,1,1,1,1,1,1,1,1,1,1,1,1,1,1,1,1,1,1,1,1,1,1,1,1,1,1,1,1,1,1,1,1,1,1,1,1,1,1,1,1,1,1,1,1,1,1,2,2,2,2,3,3,4,5,5,9,12	0.677984429066	-0.00844362301608	0.17494210568	0.677984429066
GO CC 100 small	2	Cutoff(1)	Walkttrap	0.001296043396	0.147721056554	0.905172413793	78	1,1,1,1,1,1,1,1,1,1,1,1,1,1,1,1,1,1,1,1,1,1,1,1,1,1,1,1,1,1,1,1,1,1,1,1,1,1,1,1,1,1,1,1,1,1,1,1,1,1,1,1,1,1,1,1,1,1,1,1,1,1,1,1,1,1,1,1,1,2,2,3,3,4,5,7,9,12	0.704692906574	-0.00843069844388	0.187815336932	0.704692906574
GO CC 100 small	2	Cutoff(5)	None	0.000639915466309	-1.29983984101e-16	0.137931034483	1	116	0.0	0.0	0.0	0.0
GO CC 100 small	2	Cutoff(5)	Louvain	0.00141191482544	0.307016768884	0.560344827586	28	1,1,1,1,1,1,1,1,1,1,1,1,1,1,1,1,1,1,1,2,4,4,9,9,13,13,21,22	0.460477771223	-0.00773923383136	0.460477771223	0.460477771223
GO CC 100 small	2	Cutoff(5)	Greedy Modularity	0.00126194953918	0.28460862601	0.543103448276	28	1,1,1,1,1,1,1,1,1,1,1,1,1,1,1,1,1,1,1,2,4,4,9,10,13,14,20,21	0.459632470128	-0.00776379051853	0.459632470128	0.459632470128
GO CC 100 small	2	Cutoff(5)	Infomap	0.0424020290375	0.270462552715	0.655172413793	34	1,1,1,1,1,1,1,1,1,1,1,1,1,1,1,1,1,1,1,2,2,2,3,4,4,4,5,7,7,7,9,11,14,16	0.448383801918	-0.00810499922453	0.448383801918	0.448383801918
GO CC 100 small	2	Cutoff(5)	Leading Eigenvector	0.0347599983215	0.234203751716	0.456896551724	25	1,1,1,1,1,1,1,1,1,1,1,1,1,1,1,1,1,1,1,2,3,5,24,24,39	0.40160166947	-0.00693144806907	0.40160166947	0.40160166947
GO CC 100 small	2	Cutoff(5)	Label Propagation	0.000915050506592	0.317937229921	0.629310344828	30	1,1,1,1,1,1,1,1,1,1,1,1,1,1,1,1,1,1,1,2,2,2,4,4,6,7,9,11,17,33	0.418903926247	-0.00757896913612	0.418903926247	0.418903926247
GO CC 100 small	2	Cutoff(5)	Walkttrap	0.00255990028381	0.394300468	0.706896551724	36	1,1,1,1,1,1,1,1,1,1,1,1,1,1,1,1,1,1,1,1,1,1,2,2,2,2,3,4,4,4,5,6,7,11,20,22	0.440938988632	-0.00791371555602	0.440938988632	0.440938988632
GO CC 100 small	2	Cutoff(10)	None	0.00068211555481	-1.29983984101e-16	0.137931034483	1	116	0.0	0.0	0.0	0.0
GO CC 100 small	2	Cutoff(10)	Louvain	0.00200986862183	0.325075956292	0.48275862069	13	1,1,1,1,2,4,6,9,12,15,19,19,26	0.349709336342	-0.00746264798635	0.460799161743	0.460799161743
GO CC 100 small	2	Cutoff(10)	Greedy Modularity	0.0015881061554	0.284132626147	0.431034482759	13	1,1,1,1,2,4,5,8,9,15,19,19,31	0.351253728509	-0.00733727963604	0.45196752635	0.45196752635
GO CC 100 small	2	Cutoff(10)	Infomap	0.0645999908447	0.323239454133	0.525862068966	17	1,1,1,1,2,2,2,4,4,6,6,9,12,15,15,15,20	0.344325490309	-0.00777800754795	0.450932913031	0.450932913031
GO CC 100 small	2	Cutoff(10)	Leading Eigenvector	0.100160121918	0.273871931475	0.405172413793	18	1,1,1,1,1,1,1,2,2,2,4,4,5,6,9,23,26,26	0.298392242493	-0.00735537403712	0.397476424024	0.397476424024
GO CC 100 small	2	Cutoff(10)	Label Propagation	0.001305103302	0.305448620772	0.51724137931	17	1,1,1,1,2,2,2,2,3,4,4,6,9,9,12,17,40	0.302865349757	-0.00721449620018	0.408971638387	0.408971638387
GO CC 100 small	2	Cutoff(10)	Walkttrap	0.00369000434875	0.277933977304	0.543103448276	24	1,1,1,1,1,1,1,1,1,1,1,2,2,3,4,4,4,7,9,9,12,14,16,19	0.33683424996	-0.00789174378328	0.458602259419	0.458602259419
GO CC 100 small	2	Cutoff(20)	None	0.000750064849854	-1.29983984101e-16	0.137931034483	1	116	0.0	0.0	0.0	0.0
GO CC 100 small	2	Cutoff(20)	Louvain	0.00388693809509	0.219182337047	0.396551724138	7	4,4,8,15,17,20,48	0.247917719996	-0.00655405056093	0.437513758156	0.437513758156
GO CC 100 small	2	Cutoff(20)	Greedy Modularity	0.00250601768494	0.269652571899	0.387931034483	8	4,7,8,10,16,17,19,35	0.239508013397	-0.00717055265471	0.447586929532	0.447586929532
GO CC 100 small	2	Cutoff(20)	Infomap	0.107650995255	0.310134882977	0.51724137931	12	2,2,4,4,4,6,8,13,13,15,21,24	0.217265840783	-0.00757379930724	0.439503737816	0.439503737816
GO CC 100 small	2	Cutoff(20)	Leading Eigenvector	0.182130098343	0.236066513049	0.344827586207	13	1,1,5,5,6,6,6,7,9,9,17,18,26	0.172548015252	-0.00762291268159	0.377228821245	0.377228821245
GO CC 100 small	2	Cutoff(20)	Label Propagation	0.00152587890625	0.358308986716	0.5	9	2,4,4,6,9,12,18,19,42	0.210208167284	-0.00692110841131	0.434929426164	0.434929426164
GO CC 100 small	2	Cutoff(20)	Spinglass	7.74998307228	0.316502516686	0.439655172414	9	1,2,8,10,13,16,16,21,29	0.233546262218	-0.00731789277775	0.450818445174	0.450818445174
GO CC 100 small	2	Cutoff(20)	Walkttrap	0.00615787506104	0.293060476533	0.456896551724	10	2,4,4,4,8,12,15,20,21,26	0.216423545412	-0.00740190249703	0.460446952954	0.460446952954
GO CC 100 small	2	Log	None	0.00120711326599	-1.29983984101e-16	0.137931034483	1	116	0.0	0.0	0.0	0.0
GO CC 100 small	2	Log	Louvain	0.0126688480377	0.0515736559559	0.318965517241	8	3,4,4,7,8,10,14,66	-0.00558987747506	-0.00558987747506	0.360556137678	0.360556137678
GO CC 100 small	2	Log	Greedy Modularity	0.00403308868408	0.121589734065	0.310344827586	7	3,4,7,9,14,22,57	-0.00605645453135	-0.00605645453135	0.388970581761	0.388970581761
GO CC 100 small	2	Log	Infomap	0.217489957809	0.0921397732511	0.431034482759	11	2,3,4,4,4,5,6,9,10,14,55	-0.00641834255286	-0.00641834255286	0.324837763826	0.324837763826
GO CC 100 small	2	Log	Leading Eigenvector	0.158365011215	0.104146292861	0.258620689655	7	2,8,9,14,14,17,52	-0.00641188026676	-0.00641188026676	0.369889670597	0.369889670597
GO CC 100 small	2	Log	Label Propagation	0.00457501411438	0.0310359589563	0.275862068966	6	3,4,4,6,12,87	-0.00366153130331	-0.00366153130331	0.258019353873	0.258019353873
GO CC 100 small	2	Log	Spinglass	18.9052429199	0.123619351549	0.370689655172	9	3,4,4,5,6,9,14,17,54	-0.00637956883627	-0.00637956883627	0.393144255915	0.393144255915
GO CC 100 small	2	Log	Walkttrap	0.0197420120239	0.164763812515	0.379310344828	8	3,4,5,6,9,14,28,47	-0.00652690895931	-0.00652690895931	0.314601695885	0.314601695885
