test_case	test_number	transform	cluster_alg	seconds	adjusted_rand	annotation_correspondence	n_clusters	cluster_sizes	transformed_modularity	modularity	modularity_cutoff	transformed_modularity_cutoff
GO BP 100 medium	1	None	None	0.00453591346741	-1.1068304409e-16	0.489655172414	1	145	0.0	0.0	0.0	0.0
GO BP 100 medium	1	None	Louvain	0.0289690494537	0.191211802721	0.668965517241	6	11,15,16,17,28,58	-0.00528008984014	-0.00528008984014	0.385528560482	0.385528560482
GO BP 100 medium	1	None	Greedy Modularity	0.0130851268768	0.262126544762	0.737931034483	6	2,14,16,20,33,60	-0.005112960761	-0.005112960761	0.357857204817	0.357857204817
GO BP 100 medium	1	None	Infomap	0.557855129242	-1.1068304409e-16	0.489655172414	1	145	0.0	0.0	0.0	0.0
GO BP 100 medium	1	None	Leading Eigenvector	0.215166807175	0.177220058027	0.724137931034	7	5,14,16,17,20,21,52	-0.00552054432554	-0.00552054432554	0.318052523529	0.318052523529
GO BP 100 medium	1	None	Label Propagation	0.0094780921936	-1.1068304409e-16	0.489655172414	1	145	0.0	0.0	0.0	0.0
GO BP 100 medium	1	None	Spinglass	26.6920199394	0.17398309706	0.696551724138	8	2,9,9,14,15,17,25,54	-0.00548553309552	-0.00548553309552	0.382107591551	0.382107591551
GO BP 100 medium	1	None	Walkttrap	0.0392661094666	0.102806887746	0.627586206897	6	3,13,21,23,27,58	-0.00521337032633	-0.00521337032633	0.395773395596	0.395773395596
GO BP 100 medium	1	Pearson	None	0.00228905677795	-1.1068304409e-16	0.489655172414	1	145	0.0	0.0	0.0	0.0
GO BP 100 medium	1	Pearson	Louvain	0.0250148773193	0.0901163183262	0.544827586207	2	59,86	-0.00335182983221	-0.00335182983221	0.212450664315	0.344092006535
GO BP 100 medium	1	Pearson	Greedy Modularity	0.0119230747223	0.0517274788304	0.51724137931	2	66,79	-0.0034443123266	-0.0034443123266	0.273981118709	0.351832106869
GO BP 100 medium	1	Pearson	Infomap	0.160345077515	-1.1068304409e-16	0.489655172414	1	145	0.0	0.0	0.0	0.0
GO BP 100 medium	1	Pearson	Leading Eigenvector	0.0436160564423	0.0735740981595	0.531034482759	2	65,80	-0.00343506407716	-0.00343506407716	0.268268660816	0.334613410632
GO BP 100 medium	1	Pearson	Label Propagation	0.00492596626282	-1.1068304409e-16	0.489655172414	1	145	0.0	0.0	0.0	0.0
GO BP 100 medium	1	Pearson	Spinglass	17.4015078545	0.0750826066222	0.544827586207	4	1,5,61,78	-0.00369731800766	-0.00369731800766	0.25389806127	0.351380314881
GO BP 100 medium	1	Pearson	Walkttrap	0.03919506073	0.039091744493	0.51724137931	2	65,80	-0.00343506407716	-0.00343506407716	0.276653920109	0.22736883575
GO BP 100 medium	1	Spearman	None	0.0045051574707	-1.1068304409e-16	0.489655172414	1	145	0.0	0.0	0.0	0.0
GO BP 100 medium	1	Spearman	Louvain	0.0320909023285	0.159752353069	0.572413793103	2	72,73	-0.00347205707491	-0.00347205707491	0.277964116873	0.301577752334
GO BP 100 medium	1	Spearman	Greedy Modularity	0.013377904892	0.159752353069	0.572413793103	2	72,73	-0.00347205707491	-0.00347205707491	0.277964116873	0.301577752334
GO BP 100 medium	1	Spearman	Infomap	0.163370132446	-1.1068304409e-16	0.489655172414	1	145	0.0	0.0	0.0	0.0
GO BP 100 medium	1	Spearman	Leading Eigenvector	0.0678420066833	0.148644006588	0.558620689655	2	70,75	-0.00346809353944	-0.00346809353944	0.284750032529	0.301577752334
GO BP 100 medium	1	Spearman	Label Propagation	0.00757789611816	-1.1068304409e-16	0.489655172414	1	145	0.0	0.0	0.0	0.0
GO BP 100 medium	1	Spearman	Spinglass	26.6821401119	0.159752353069	0.572413793103	2	72,73	-0.00347205707491	-0.00347205707491	0.277964116873	0.301577752334
GO BP 100 medium	1	Spearman	Walkttrap	0.0461668968201	0.148850921887	0.558620689655	2	52,93	-0.00319460959176	-0.00319460959176	0.292556998077	0.301577752334
GO BP 100 medium	1	Cosine	None	0.00322508811951	-1.1068304409e-16	0.489655172414	1	145	0.0	0.0	0.0	0.0
GO BP 100 medium	1	Cosine	Louvain	0.0299670696259	0.209632904317	0.641379310345	3	30,56,59	-0.00446161976483	-0.00446161976483	0.332813471353	0.216565585739
GO BP 100 medium	1	Cosine	Greedy Modularity	0.0117819309235	0.0517274788304	0.51724137931	2	66,79	-0.0034443123266	-0.0034443123266	0.273981118709	0.199972169614
GO BP 100 medium	1	Cosine	Infomap	0.11016702652	-1.1068304409e-16	0.489655172414	1	145	0.0	0.0	0.0	0.0
GO BP 100 medium	1	Cosine	Leading Eigenvector	0.0414469242096	0.0816005669964	0.531034482759	2	68,77	-0.00345884529	-0.00345884529	0.262277899059	0.179977663404
GO BP 100 medium	1	Cosine	Label Propagation	0.00674200057983	-1.1068304409e-16	0.489655172414	1	145	0.0	0.0	0.0	0.0
GO BP 100 medium	1	Cosine	Spinglass	17.8616449833	0.043992816972	0.51724137931	3	2,64,79	-0.00352886775003	-0.00352886775003	0.269114415417	0.202784122945
GO BP 100 medium	1	Cosine	Walkttrap	0.0399699211121	0.039091744493	0.51724137931	2	65,80	-0.00343506407716	-0.00343506407716	0.271190851393	0.138537495121
GO BP 100 medium	1	KNN(10)	None	0.00256490707397	-1.1068304409e-16	0.489655172414	1	145	0.0	0.0	0.0	0.0
GO BP 100 medium	1	KNN(10)	Louvain	0.0082700252533	0.195767494456	0.668965517241	4	24,30,42,49	0.158723831053	-0.00508125247721	0.357676488022	0.569136233036
GO BP 100 medium	1	KNN(10)	Greedy Modularity	0.0132179260254	0.257084018365	0.668965517241	3	43,50,52	0.147331867729	-0.00461487646981	0.3412294525	0.511885514731
GO BP 100 medium	1	KNN(10)	Infomap	0.112612009048	-1.1068304409e-16	0.489655172414	1	145	0.0	0.0	0.0	0.0
GO BP 100 medium	1	KNN(10)	Leading Eigenvector	0.0474038124084	0.227824493164	0.641379310345	3	33,51,61	0.174485667071	-0.00449663099485	0.330485839032	0.461936789202
GO BP 100 medium	1	KNN(10)	Label Propagation	0.00361704826355	-1.1068304409e-16	0.489655172414	1	145	0.0	0.0	0.0	0.0
GO BP 100 medium	1	KNN(10)	Spinglass	8.11015105247	0.216798358666	0.68275862069	4	13,33,49,50	0.165097357429	-0.0049101598626	0.340143344562	0.560981975407
GO BP 100 medium	1	KNN(10)	Walkttrap	0.0253250598907	0.17143173323	0.586206896552	2	53,92	0.143812667412	-0.00322103316158	0.200978762162	0.457385602498
GO BP 100 medium	1	KNN(50)	None	0.00293302536011	-1.1068304409e-16	0.489655172414	1	145	0.0	0.0	0.0	0.0
GO BP 100 medium	1	KNN(50)	Louvain	0.016040802002	0.171261448052	0.572413793103	2	67,78	-0.00335764854058	-0.00345223939754	0.278634576183	0.38599274434
GO BP 100 medium	1	KNN(50)	Greedy Modularity	0.00832891464233	0.171261448052	0.572413793103	2	67,78	-0.00335764854058	-0.00345223939754	0.278634576183	0.38599274434
GO BP 100 medium	1	KNN(50)	Infomap	0.137460947037	-1.1068304409e-16	0.489655172414	1	145	0.0	0.0	0.0	0.0
GO BP 100 medium	1	KNN(50)	Leading Eigenvector	0.0462119579315	0.171261448052	0.572413793103	2	67,78	-0.00335764854058	-0.00345223939754	0.278634576183	0.38599274434
GO BP 100 medium	1	KNN(50)	Label Propagation	0.00686120986938	-1.1068304409e-16	0.489655172414	1	145	0.0	0.0	0.0	0.0
GO BP 100 medium	1	KNN(50)	Spinglass	18.0580108166	0.159762220869	0.572413793103	2	68,77	-0.00336407339742	-0.00345884529	0.279661047579	0.38599274434
GO BP 100 medium	1	KNN(50)	Walkttrap	0.0383651256561	0.146639694961	0.586206896552	3	40,52,53	-0.00452201616707	-0.00459505879244	0.282554323469	0.386607859101
GO BP 100 medium	1	KNN(100)	None	0.00296306610107	-1.1068304409e-16	0.489655172414	1	145	0.0	0.0	0.0	0.0
GO BP 100 medium	1	KNN(100)	Louvain	0.0129380226135	0.137913823385	0.558620689655	2	71,74	-0.00347073589642	-0.00347073589642	0.272663693273	0.249636593631
GO BP 100 medium	1	KNN(100)	Greedy Modularity	0.00809097290039	0.137913823385	0.558620689655	2	71,74	-0.00347073589642	-0.00347073589642	0.272663693273	0.249636593631
GO BP 100 medium	1	KNN(100)	Infomap	0.152955055237	-1.1068304409e-16	0.489655172414	1	145	0.0	0.0	0.0	0.0
GO BP 100 medium	1	KNN(100)	Leading Eigenvector	0.0536820888519	0.137918885544	0.558620689655	2	69,76	-0.00346413000396	-0.00346413000396	0.277116555104	0.246979675849
GO BP 100 medium	1	KNN(100)	Label Propagation	0.00392079353333	-1.1068304409e-16	0.489655172414	1	145	0.0	0.0	0.0	0.0
GO BP 100 medium	1	KNN(100)	Spinglass	21.5362288952	0.147231380061	0.572413793103	4	1,1,69,74	-0.00356255780156	-0.00356255780156	0.275061805144	0.249636593631
GO BP 100 medium	1	KNN(100)	Walkttrap	0.0393760204315	0.148893891676	0.572413793103	2	50,95	-0.00313779891663	-0.00313779891663	0.285125923463	0.247430759296
GO BP 100 medium	1	Topological Overlap	None	0.00355815887451	-1.1068304409e-16	0.489655172414	1	145	0.0	0.0	0.0	0.0
GO BP 100 medium	1	Topological Overlap	Louvain	0.0392680168152	0.122305854881	0.627586206897	4	24,26,29,66	-0.00481437442198	-0.00481437442198	0.393904783935	0.399398574506
GO BP 100 medium	1	Topological Overlap	Greedy Modularity	0.0121500492096	0.141656338886	0.668965517241	4	25,27,28,65	-0.00484277975955	-0.00484277975955	0.386092396883	0.402458109847
GO BP 100 medium	1	Topological Overlap	Infomap	0.160631895065	-1.1068304409e-16	0.489655172414	1	145	0.0	0.0	0.0	0.0
GO BP 100 medium	1	Topological Overlap	Leading Eigenvector	0.0862867832184	0.233347427202	0.696551724138	4	28,31,36,50	-0.00511428193949	-0.00511428193949	0.397564299036	0.350538174616
GO BP 100 medium	1	Topological Overlap	Label Propagation	0.00532293319702	-1.1068304409e-16	0.489655172414	1	145	0.0	0.0	0.0	0.0
GO BP 100 medium	1	Topological Overlap	Walkttrap	0.0373861789703	0.233428838447	0.751724137931	5	8,23,29,41,44	-0.00527612630466	-0.00527612630466	0.387877878819	0.346806372797
GO BP 100 medium	1	Cutoff(5)	None	0.00123596191406	-1.1068304409e-16	0.489655172414	1	145	0.0	0.0	0.0	0.0
GO BP 100 medium	1	Cutoff(5)	Louvain	0.00241184234619	0.0752628304766	0.68275862069	20	1,1,1,1,1,1,1,1,1,1,1,1,7,10,11,14,15,17,29,30	0.392328933482	-0.00604174924032	0.392328933482	0.392328933482
GO BP 100 medium	1	Cutoff(5)	Greedy Modularity	0.00230598449707	0.0719893154068	0.696551724138	20	1,1,1,1,1,1,1,1,1,1,1,1,5,13,13,15,15,16,23,33	0.398921482167	-0.0060529792575	0.398921482167	0.398921482167
GO BP 100 medium	1	Cutoff(5)	Infomap	0.0771949291229	0.0773204524783	0.737931034483	27	1,1,1,1,1,1,1,1,1,1,1,1,2,2,3,3,4,5,5,8,9,9,12,13,13,22,23	0.375827682922	-0.00634165675783	0.375827682922	0.375827682922
GO BP 100 medium	1	Cutoff(5)	Leading Eigenvector	0.0973651409149	0.132117224352	0.751724137931	20	1,1,1,1,1,1,1,1,1,1,1,1,7,8,10,11,20,21,23,33	0.319261518889	-0.00601796802748	0.319261518889	0.319261518889
GO BP 100 medium	1	Cutoff(5)	Label Propagation	0.00160503387451	0.0378138409098	0.627586206897	23	1,1,1,1,1,1,1,1,1,1,1,1,2,2,3,4,4,5,5,9,15,22,62	0.308221529876	-0.00537719645924	0.308221529876	0.308221529876
GO BP 100 medium	1	Cutoff(5)	Walkttrap	0.00483894348145	0.073570781481	0.765517241379	30	1,1,1,1,1,1,1,1,1,1,1,1,1,1,1,1,1,2,2,3,4,4,4,5,7,11,17,21,23,25	0.358807775159	-0.00623067776457	0.358807775159	0.358807775159
GO BP 100 medium	1	Cutoff(10)	None	0.00115084648132	-1.1068304409e-16	0.489655172414	1	145	0.0	0.0	0.0	0.0
GO BP 100 medium	1	Cutoff(10)	Louvain	0.00373601913452	0.0597468320921	0.627586206897	13	1,1,1,1,1,1,7,11,13,13,14,29,52	0.310002493892	-0.00553904082442	0.382385895416	0.382385895416
GO BP 100 medium	1	Cutoff(10)	Greedy Modularity	0.00332403182983	0.0575319487925	0.641379310345	13	1,1,1,1,1,1,6,13,14,16,17,25,48	0.307820790383	-0.00566257101334	0.391081987596	0.391081987596
GO BP 100 medium	1	Cutoff(10)	Infomap	0.134522199631	0.0659919785797	0.627586206897	16	1,1,1,1,1,1,2,5,6,8,8,10,10,14,23,53	0.320216607151	-0.00564539569296	0.383356344605	0.383356344605
GO BP 100 medium	1	Cutoff(10)	Leading Eigenvector	0.0922000408173	0.107538962518	0.737931034483	18	1,1,1,1,1,1,1,1,1,2,4,7,11,17,20,22,23,30	0.242524197979	-0.00601928920597	0.298672454423	0.298672454423
GO BP 100 medium	1	Cutoff(10)	Label Propagation	0.00196504592896	0.00316464046026	0.558620689655	9	1,1,1,1,1,1,5,10,124	0.0562846976247	-0.00182256572863	0.0804641530165	0.0804641530165
GO BP 100 medium	1	Cutoff(10)	Walkttrap	0.00640606880188	0.118483928809	0.696551724138	15	1,1,1,1,1,1,1,1,2,4,10,19,23,31,48	0.336490606341	-0.00552979257498	0.382638898929	0.382638898929
GO BP 100 medium	1	Cutoff(20)	None	0.00128293037415	-1.1068304409e-16	0.489655172414	1	145	0.0	0.0	0.0	0.0
GO BP 100 medium	1	Cutoff(20)	Louvain	0.00448799133301	0.198376071041	0.68275862069	6	10,15,19,23,28,50	0.262619417633	-0.00545844893645	0.381581705677	0.381581705677
GO BP 100 medium	1	Cutoff(20)	Greedy Modularity	0.00733804702759	0.207683944364	0.710344827586	5	13,24,26,33,49	0.238186102366	-0.00532236755186	0.405711012159	0.405711012159
GO BP 100 medium	1	Cutoff(20)	Infomap	0.204311847687	0.0948586930949	0.641379310345	8	2,4,9,10,13,24,25,58	0.27577782707	-0.00531444048091	0.407480229583	0.407480229583
GO BP 100 medium	1	Cutoff(20)	Leading Eigenvector	0.107075929642	0.117011356735	0.68275862069	8	7,9,14,19,20,22,24,30	0.182144408425	-0.00593803672876	0.312889444693	0.312889444693
GO BP 100 medium	1	Cutoff(20)	Label Propagation	0.00232601165771	-0.00455125685339	0.531034482759	3	4,5,136	0.010540836868	-0.000821773021535	0.0403450245052	0.0403450245052
GO BP 100 medium	1	Cutoff(20)	Walkttrap	0.0105330944061	0.202934030627	0.696551724138	5	10,20,32,33,50	0.296168845132	-0.00525564803805	0.411096372652	0.411096372652
GO BP 100 medium	1	Log	None	0.00228309631348	-1.1068304409e-16	0.489655172414	1	145	0.0	0.0	0.0	0.0
GO BP 100 medium	1	Log	Louvain	0.0237681865692	0.177883521483	0.668965517241	7	3,9,9,11,13,30,70	-0.00487646981107	-0.00487646981107	0.348342465555	0.348342465555
GO BP 100 medium	1	Log	Greedy Modularity	0.0100448131561	0.175068374309	0.710344827586	8	2,4,9,14,15,16,26,59	-0.00531444048091	-0.00531444048091	0.366858708381	0.366858708381
GO BP 100 medium	1	Log	Infomap	0.420537948608	0.153589825405	0.68275862069	9	2,2,3,3,6,8,12,24,85	-0.0042786365438	-0.0042786365438	0.317445315098	0.317445315098
GO BP 100 medium	1	Log	Leading Eigenvector	0.145932912827	0.149107992794	0.710344827586	6	12,16,20,31,31,35	-0.00564077156824	-0.00564077156824	0.299876028279	0.299876028279
GO BP 100 medium	1	Log	Label Propagation	0.00667500495911	-0.006196518363	0.51724137931	4	2,3,3,137	-0.000737878187343	-0.000737878187343	0.0298706790614	0.0298706790614
GO BP 100 medium	1	Log	Walkttrap	0.0376038551331	0.217667733338	0.668965517241	6	1,2,5,26,29,82	-0.00421257761924	-0.00421257761924	0.340725252642	0.340725252642
GO BP 100 medium	2	None	None	0.00418186187744	-2.26184014047e-16	0.507246376812	1	138	0.0	0.0	0.0	0.0
GO BP 100 medium	2	None	Louvain	0.0255670547485	0.283804427892	0.811594202899	5	6,30,31,35,36	-0.00560591913923	-0.00560591913923	0.455001340488	0.455001340488
GO BP 100 medium	2	None	Greedy Modularity	0.0106291770935	0.43738008798	0.840579710145	4	5,36,41,56	-0.00494666979427	-0.00494666979427	0.431490051818	0.431490051818
GO BP 100 medium	2	None	Infomap	0.445867061615	0.287748185889	0.826086956522	6	3,5,24,28,30,48	-0.00553692792872	-0.00553692792872	0.449861336357	0.449861336357
GO BP 100 medium	2	None	Leading Eigenvector	0.0287959575653	-2.26184014047e-16	0.507246376812	1	138	0.0	0.0	0.0	0.0
GO BP 100 medium	2	None	Label Propagation	0.0106120109558	-2.26184014047e-16	0.507246376812	1	138	0.0	0.0	0.0	0.0
GO BP 100 medium	2	None	Walkttrap	0.0664448738098	0.304970667091	0.811594202899	7	1,1,6,12,31,36,51	-0.00536751617844	-0.00536751617844	0.412202400573	0.412202400573
GO BP 100 medium	2	Pearson	None	0.00455403327942	-2.26184014047e-16	0.507246376812	1	138	0.0	0.0	0.0	0.0
GO BP 100 medium	2	Pearson	Louvain	0.0244281291962	0.412842782462	0.782608695652	3	32,51,55	-0.00475042812879	-0.00475042812879	0.413852739651	0.537313924818
GO BP 100 medium	2	Pearson	Greedy Modularity	0.0117039680481	0.351077416023	0.753623188406	3	37,43,58	-0.00477649147499	-0.00477649147499	0.406561361409	0.531002641422
GO BP 100 medium	2	Pearson	Infomap	0.1258289814	-2.26184014047e-16	0.507246376812	1	138	0.0	0.0	0.0	0.0
GO BP 100 medium	2	Pearson	Leading Eigenvector	0.0469551086426	0.35644689408	0.768115942029	3	27,48,63	-0.00461551198377	-0.00461551198377	0.34027970061	0.469962070769
GO BP 100 medium	2	Pearson	Label Propagation	0.00600600242615	-2.26184014047e-16	0.507246376812	1	138	0.0	0.0	0.0	0.0
GO BP 100 medium	2	Pearson	Walkttrap	0.051805973053	0.152750287753	0.68115942029	3	23,37,78	-0.00423989317094	-0.00423989317094	0.394123386469	0.542869260622
GO BP 100 medium	2	Spearman	None	0.00380301475525	-2.26184014047e-16	0.507246376812	1	138	0.0	0.0	0.0	0.0
GO BP 100 medium	2	Spearman	Louvain	0.0350849628448	0.383119423294	0.68115942029	2	50,88	-0.00337290362541	-0.00337290362541	0.0469896145107	0.182090421953
GO BP 100 medium	2	Spearman	Greedy Modularity	0.00942897796631	0.383119423294	0.68115942029	2	50,88	-0.00337290362541	-0.00337290362541	0.0469896145107	0.182090421953
GO BP 100 medium	2	Spearman	Infomap	0.102824926376	-2.26184014047e-16	0.507246376812	1	138	0.0	0.0	0.0	0.0
GO BP 100 medium	2	Spearman	Leading Eigenvector	0.0404899120331	0.365016941202	0.666666666667	2	49,89	-0.00334300743419	-0.00334300743419	0.039852062814	0.182622068435
GO BP 100 medium	2	Spearman	Label Propagation	0.00413393974304	-2.26184014047e-16	0.507246376812	1	138	0.0	0.0	0.0	0.0
GO BP 100 medium	2	Spearman	Walkttrap	0.0318570137024	0.262001390993	0.63768115942	3	13,24,101	-0.00310383790438	-0.00310383790438	0.00615525932958	0.168925413303
GO BP 100 medium	2	Cosine	None	0.00213694572449	-2.26184014047e-16	0.507246376812	1	138	0.0	0.0	0.0	0.0
GO BP 100 medium	2	Cosine	Louvain	0.0152349472046	0.426577420888	0.797101449275	3	29,53,56	-0.0046983014364	-0.0046983014364	0.408446835348	0.519175577619
GO BP 100 medium	2	Cosine	Greedy Modularity	0.00720405578613	0.306216630509	0.739130434783	3	37,38,63	-0.00469983457441	-0.00469983457441	0.432452566486	0.535142773009
GO BP 100 medium	2	Cosine	Infomap	0.0906050205231	-2.26184014047e-16	0.507246376812	1	138	0.0	0.0	0.0	0.0
GO BP 100 medium	2	Cosine	Leading Eigenvector	0.0454230308533	0.404555082191	0.797101449275	3	28,49,61	-0.00465230729605	-0.00465230729605	0.339910516901	0.440091153216
GO BP 100 medium	2	Cosine	Label Propagation	0.00381803512573	-2.26184014047e-16	0.507246376812	1	138	0.0	0.0	0.0	0.0
GO BP 100 medium	2	Cosine	Walkttrap	0.0316169261932	0.182415268736	0.608695652174	2	53,85	-0.00345339337102	-0.00345339337102	0.363169090534	0.44359180588
GO BP 100 medium	2	KNN(10)	None	0.00231099128723	-2.26184014047e-16	0.507246376812	1	138	0.0	0.0	0.0	0.0
GO BP 100 medium	2	KNN(10)	Louvain	0.00829005241394	0.335994381638	0.797101449275	4	21,29,30,58	0.309950671651	-0.00517357421998	0.40931705409	0.699070632459
GO BP 100 medium	2	KNN(10)	Greedy Modularity	0.00851511955261	0.428183533754	0.811594202899	3	37,49,52	0.31862377669	-0.0048178862013	0.412850669585	0.632647646767
GO BP 100 medium	2	KNN(10)	Infomap	0.122677087784	0.316943310994	0.797101449275	4	21,28,29,60	0.306464261369	-0.00512758007963	0.40838530473	0.698403421165
GO BP 100 medium	2	KNN(10)	Leading Eigenvector	0.0402481555939	0.320426749292	0.811594202899	4	21,27,29,61	0.305372336864	-0.00510228330244	0.40838530473	0.695337926759
GO BP 100 medium	2	KNN(10)	Label Propagation	0.00295495986938	0.31065599303	0.782608695652	4	19,26,29,64	0.297191547692	-0.00500952845274	0.397402089404	0.680317792214
GO BP 100 medium	2	KNN(10)	Walkttrap	0.0183770656586	0.298383759784	0.768115942029	4	18,23,33,64	0.289720470315	-0.00498499824456	0.397709742494	0.680378208984
GO BP 100 medium	2	KNN(50)	None	0.00305700302124	-2.26184014047e-16	0.507246376812	1	138	0.0	0.0	0.0	0.0
GO BP 100 medium	2	KNN(50)	Louvain	0.0159778594971	0.219471954877	0.652173913043	3	29,42,67	-0.00418696173938	-0.00458024980951	0.197612172514	0.378116749207
GO BP 100 medium	2	KNN(50)	Greedy Modularity	0.00838088989258	0.401459078711	0.695652173913	2	49,89	-0.00290977143225	-0.00334300743419	0.0468577631862	0.302111812401
GO BP 100 medium	2	KNN(50)	Infomap	0.105841159821	-2.26184014047e-16	0.507246376812	1	138	0.0	0.0	0.0	0.0
GO BP 100 medium	2	KNN(50)	Leading Eigenvector	0.0498049259186	0.23971352663	0.68115942029	3	44,46,48	-0.00455514559531	-0.00486311377264	0.19196014574	0.442888890625
GO BP 100 medium	2	KNN(50)	Label Propagation	0.00368285179138	-2.26184014047e-16	0.507246376812	1	138	0.0	0.0	0.0	0.0
GO BP 100 medium	2	KNN(50)	Walkttrap	0.0323400497437	0.316789396194	0.666666666667	3	18,23,97	-0.00305420606384	-0.00336600450436	0.0103173661379	0.287334593573
GO BP 100 medium	2	KNN(100)	None	0.00293898582458	-2.26184014047e-16	0.507246376812	1	138	0.0	0.0	0.0	0.0
GO BP 100 medium	2	KNN(100)	Louvain	0.0123510360718	0.28163633421	0.63768115942	2	52,86	-0.00342809659383	-0.00342809659383	0.0473873660061	0.0335566531569
GO BP 100 medium	2	KNN(100)	Greedy Modularity	0.00766181945801	0.297609802227	0.63768115942	2	53,85	-0.00345339337102	-0.00345339337102	0.0473873660061	0.0335566531569
GO BP 100 medium	2	KNN(100)	Infomap	0.0923910140991	-2.26184014047e-16	0.507246376812	1	138	0.0	0.0	0.0	0.0
GO BP 100 medium	2	KNN(100)	Leading Eigenvector	0.0432620048523	0.297609802227	0.63768115942	2	53,85	-0.00345339337102	-0.00345339337102	0.0473873660061	0.0335566531569
GO BP 100 medium	2	KNN(100)	Label Propagation	0.00373005867004	-2.26184014047e-16	0.507246376812	1	138	0.0	0.0	0.0	0.0
GO BP 100 medium	2	KNN(100)	Walkttrap	0.032496213913	0.304361587168	0.666666666667	3	24,32,82	-0.00410880987096	-0.00410880987096	0.0492179018938	0.0336011687363
GO BP 100 medium	2	Topological Overlap	None	0.00317788124084	-2.26184014047e-16	0.507246376812	1	138	0.0	0.0	0.0	0.0
GO BP 100 medium	2	Topological Overlap	Louvain	0.0233709812164	0.417457580084	0.797101449275	3	33,47,58	-0.00474582871476	-0.00474582871476	0.414617477333	0.284086863653
GO BP 100 medium	2	Topological Overlap	Greedy Modularity	0.0106911659241	0.387507647495	0.797101449275	3	36,46,56	-0.00478952314808	-0.00478952314808	0.425495211599	0.290064123694
GO BP 100 medium	2	Topological Overlap	Infomap	0.155758857727	-2.26184014047e-16	0.507246376812	1	138	0.0	0.0	0.0	0.0
GO BP 100 medium	2	Topological Overlap	Leading Eigenvector	0.0789258480072	0.306217725166	0.782608695652	5	1,23,26,36,52	-0.00530389095096	-0.00530389095096	0.383535725116	0.256936478427
GO BP 100 medium	2	Topological Overlap	Label Propagation	0.0044481754303	-2.26184014047e-16	0.507246376812	1	138	0.0	0.0	0.0	0.0
GO BP 100 medium	2	Topological Overlap	Walkttrap	0.033175945282	0.283692615229	0.826086956522	10	1,1,3,3,6,7,12,23,25,57	-0.00551623056556	-0.00551623056556	0.398900799459	0.283392446677
GO BP 100 medium	2	Cutoff(5)	None	0.00117897987366	-2.26184014047e-16	0.507246376812	1	138	0.0	0.0	0.0	0.0
GO BP 100 medium	2	Cutoff(5)	Louvain	0.00179314613342	0.154913000623	0.985507246377	55	1,1,1,1,1,1,1,1,1,1,1,1,1,1,1,1,1,1,1,1,1,1,1,1,1,1,1,1,1,1,1,1,1,1,1,1,1,1,1,1,1,1,1,1,1,1,2,2,2,3,5,14,14,23,27	0.448850476203	-0.00663158846896	0.448850476203	0.448850476203
GO BP 100 medium	2	Cutoff(5)	Greedy Modularity	0.00195598602295	0.232266931598	0.985507246377	54	1,1,1,1,1,1,1,1,1,1,1,1,1,1,1,1,1,1,1,1,1,1,1,1,1,1,1,1,1,1,1,1,1,1,1,1,1,1,1,1,1,1,1,1,1,1,2,2,2,3,4,14,23,42	0.433942486452	-0.00631346233157	0.433942486452	0.433942486452
GO BP 100 medium	2	Cutoff(5)	Infomap	0.0192940235138	0.163647983318	0.985507246377	57	1,1,1,1,1,1,1,1,1,1,1,1,1,1,1,1,1,1,1,1,1,1,1,1,1,1,1,1,1,1,1,1,1,1,1,1,1,1,1,1,1,1,1,1,1,1,2,2,2,3,3,4,5,9,11,14,37	0.444369728694	-0.00657716206955	0.444369728694	0.444369728694
GO BP 100 medium	2	Cutoff(5)	Leading Eigenvector	0.0246040821075	0.149282789483	0.971014492754	55	1,1,1,1,1,1,1,1,1,1,1,1,1,1,1,1,1,1,1,1,1,1,1,1,1,1,1,1,1,1,1,1,1,1,1,1,1,1,1,1,1,1,1,1,1,1,2,2,2,3,5,13,15,23,27	0.447347371104	-0.00663082189996	0.447347371104	0.447347371104
GO BP 100 medium	2	Cutoff(5)	Label Propagation	0.00121188163757	0.225233600461	0.95652173913	53	1,1,1,1,1,1,1,1,1,1,1,1,1,1,1,1,1,1,1,1,1,1,1,1,1,1,1,1,1,1,1,1,1,1,1,1,1,1,1,1,1,1,1,1,2,2,2,2,3,3,13,24,43	0.433456834074	-0.00627590045028	0.433456834074	0.433456834074
GO BP 100 medium	2	Cutoff(5)	Walkttrap	0.00384092330933	0.186219183525	0.971014492754	55	1,1,1,1,1,1,1,1,1,1,1,1,1,1,1,1,1,1,1,1,1,1,1,1,1,1,1,1,1,1,1,1,1,1,1,1,1,1,1,1,1,1,1,1,1,1,2,2,2,3,4,5,13,23,38	0.457209850173	-0.0064368799415	0.457209850173	0.457209850173
GO BP 100 medium	2	Cutoff(10)	None	0.00106000900269	-2.26184014047e-16	0.507246376812	1	138	0.0	0.0	0.0	0.0
GO BP 100 medium	2	Cutoff(10)	Louvain	0.00243806838989	0.272161459338	0.95652173913	39	1,1,1,1,1,1,1,1,1,1,1,1,1,1,1,1,1,1,1,1,1,1,1,1,1,1,1,1,1,1,1,1,2,2,5,5,20,30,42	0.310042622348	-0.00609039075089	0.456598939036	0.456598939036
GO BP 100 medium	2	Cutoff(10)	Greedy Modularity	0.00276899337769	0.275958715959	0.913043478261	38	1,1,1,1,1,1,1,1,1,1,1,1,1,1,1,1,1,1,1,1,1,1,1,1,1,1,1,1,1,1,1,1,2,2,5,23,30,44	0.310917971524	-0.00598460422809	0.431925161188	0.431925161188
GO BP 100 medium	2	Cutoff(10)	Infomap	0.0300879478455	0.224416278084	0.95652173913	42	1,1,1,1,1,1,1,1,1,1,1,1,1,1,1,1,1,1,1,1,1,1,1,1,1,1,1,1,1,1,1,1,2,2,2,3,3,5,5,20,25,39	0.312600954186	-0.00628049986432	0.456339631432	0.456339631432
GO BP 100 medium	2	Cutoff(10)	Leading Eigenvector	0.0384840965271	0.166787310847	0.869565217391	40	1,1,1,1,1,1,1,1,1,1,1,1,1,1,1,1,1,1,1,1,1,1,1,1,1,1,1,1,1,1,1,1,1,2,2,3,19,22,26,31	0.281910331212	-0.00632879371168	0.429083765146	0.429083765146
GO BP 100 medium	2	Cutoff(10)	Label Propagation	0.00156402587891	0.278586908254	0.884057971014	36	1,1,1,1,1,1,1,1,1,1,1,1,1,1,1,1,1,1,1,1,1,1,1,1,1,1,1,1,1,1,1,2,3,18,26,58	0.297203617229	-0.00561128512228	0.410389444862	0.410389444862
GO BP 100 medium	2	Cutoff(10)	Walkttrap	0.00549912452698	0.187625381926	0.884057971014	43	1,1,1,1,1,1,1,1,1,1,1,1,1,1,1,1,1,1,1,1,1,1,1,1,1,1,1,1,1,1,1,1,1,1,1,2,2,2,3,5,19,25,45	0.30577983702	-0.00611415439006	0.452135771704	0.452135771704
GO BP 100 medium	2	Cutoff(20)	None	0.00124883651733	-2.26184014047e-16	0.507246376812	1	138	0.0	0.0	0.0	0.0
GO BP 100 medium	2	Cutoff(20)	Louvain	0.00438117980957	0.27630073182	0.869565217391	20	1,1,1,1,1,1,1,1,1,1,1,1,1,1,5,9,9,29,35,37	0.192462162702	-0.00590564762049	0.455062871107	0.455062871107
GO BP 100 medium	2	Cutoff(20)	Greedy Modularity	0.00379014015198	0.33281931523	0.898550724638	19	1,1,1,1,1,1,1,1,1,1,1,1,1,1,4,9,34,35,42	0.199567652469	-0.0056680112287	0.431925161188	0.431925161188
GO BP 100 medium	2	Cutoff(20)	Infomap	0.0557420253754	0.220484124331	0.855072463768	23	1,1,1,1,1,1,1,1,1,1,1,1,1,1,2,3,4,5,5,10,23,27,45	0.189590868071	-0.00596697314096	0.450832641114	0.450832641114
GO BP 100 medium	2	Cutoff(20)	Leading Eigenvector	0.0652508735657	0.307270312885	0.855072463768	19	1,1,1,1,1,1,1,1,1,1,1,1,1,1,1,9,29,33,52	0.205676180241	-0.00548633437433	0.414933920511	0.414933920511
GO BP 100 medium	2	Cutoff(20)	Label Propagation	0.00194001197815	0.303354018163	0.855072463768	19	1,1,1,1,1,1,1,1,1,1,1,1,1,1,3,6,26,27,62	0.192869847962	-0.00526479593166	0.410389444862	0.410389444862
GO BP 100 medium	2	Cutoff(20)	Walkttrap	0.00910377502441	0.274436457913	0.840579710145	27	1,1,1,1,1,1,1,1,1,1,1,1,1,1,1,1,1,1,1,1,1,1,3,4,28,29,52	0.20262508525	-0.00562201708836	0.415957965798	0.415957965798
GO BP 100 medium	2	Log	None	0.00226497650146	-2.26184014047e-16	0.507246376812	1	138	0.0	0.0	0.0	0.0
GO BP 100 medium	2	Log	Louvain	0.025890827179	0.317029874133	0.840579710145	6	5,5,15,22,35,56	-0.00533685341821	-0.00533685341821	0.444409284091	0.444409284091
GO BP 100 medium	2	Log	Greedy Modularity	0.0112240314484	0.327539057432	0.840579710145	6	4,5,14,22,36,57	-0.00528089388079	-0.00528089388079	0.444409284091	0.444409284091
GO BP 100 medium	2	Log	Infomap	0.364773035049	0.281348120279	0.869565217391	10	2,3,4,4,5,6,18,25,31,40	-0.00591331331055	-0.00591331331055	0.456418742226	0.456418742226
GO BP 100 medium	2	Log	Leading Eigenvector	0.243139982224	0.202077428155	0.797101449275	8	1,5,9,13,20,22,32,36	-0.00596544000294	-0.00596544000294	0.382839110619	0.382839110619
GO BP 100 medium	2	Log	Label Propagation	0.00843405723572	0.104814559913	0.666666666667	6	2,2,3,16,26,89	-0.00389953653238	-0.00389953653238	0.416779839053	0.416779839053
GO BP 100 medium	2	Log	Walkttrap	0.0326318740845	0.101536120401	0.884057971014	32	1,1,1,1,1,1,1,1,1,1,1,2,2,2,2,2,2,2,3,3,4,5,5,5,5,6,8,10,12,14,14,19	-0.00681249875433	-0.00681249875433	0.379868060775	0.379868060775
