transform	GO BP 100 small	GO BP 500 small	GO BP 100 small	GO BP 2600 small	GO BP 100 medium	GO BP 500 medium	GO BP 100 medium	GO BP 2600 medium	GO BP 100 large	GO BP 500 large	GO BP 100 large	GO BP 2600 large	GO CC 100 small	GO CC 500 small	GO CC 100 small	GO CC 100 medium	GO CC 500 medium	GO CC 100 medium	GO CC 100 large	GO CC 500 large	GO CC 100 large	GO CC 2600 large	100 Random Genes	500 Random Genes	100 Random Genes	2600 Random Genes	Whole Network
Cosine	0.165060731299	0.0549696568917	0.165060731299	-0.0030774842688	-0.0865950838021	0.138758223717	-0.0865950838021	0.0527287793474	0.208753985875	0.0519927082617	0.208753985875	0.114437761118	0.172404516438	0.0760285897901	0.172404516438	0.0533765996814	0.309440113218	0.0533765996814	0.167313936174	0.0890101039774	0.167313936174	0.208371381431	0.178796841965	0.196040085912	0.178796841965	0.193547511413	0.184355405058
Cutoff(0.1)	0.0884505102602	0.0758244740828	0.0884505102602	0.0489036223158	0.0468857074655	0.103557840852	0.0468857074655	0.0773907347114	0.047807129115	0.0732895926578	0.047807129115	0.0981846723412	0.103356524094	0.120533893518	0.103356524094	0.0427978909594	0.119372543283	0.0427978909594	0.0474046880437	0.0642220382685	0.0474046880437	0.0995126907858	0.0314686074853	0.0276318704933	0.0314686074853	0.0274359293789	0.0290405833275
Cutoff(1)	0.285060529282	0.299551827567	0.285060529282	0.219442139394	0.21304222912	0.372455047275	0.21304222912	0.313763546778	0.158340121108	0.285473969229	0.158340121108	0.379107350406	0.174217498873	0.373873432643	0.174217498873	0.164031793978	0.30965449727	0.164031793978	0.231617757809	0.260308198519	0.231617757809	0.379361079853	0.0923655331469	0.142924110297	0.0923655331469	0.151561355764	0.164194617635
Cutoff(10)	0.285060529282	0.299551827567	0.285060529282	0.219442139394	0.223158309683	0.372455047275	0.223158309683	0.313763546778	0.158340121108	0.285473969229	0.158340121108	0.379107350406	0.174217498873	0.373873432643	0.174217498873	0.164031793978	0.30965449727	0.164031793978	0.231617757809	0.260308198519	0.231617757809	0.379361079853	0.0923655331469	0.142924110297	0.0923655331469	0.151561355764	0.164194617635
Cutoff(20)	0.285060529282	0.299551827567	0.285060529282	0.219442139394	0.223158309683	0.372455047275	0.223158309683	0.313763546778	0.158340121108	0.285473969229	0.158340121108	0.379107350406	0.174217498873	0.373873432643	0.174217498873	0.164031793978	0.30965449727	0.164031793978	0.231617757809	0.260308198519	0.231617757809	0.379361079853	0.0923655331469	0.142924110297	0.0923655331469	0.151561355764	0.164194617635
Cutoff(5)	0.285060529282	0.299551827567	0.285060529282	0.219442139394	0.223158309683	0.372455047275	0.223158309683	0.313763546778	0.158340121108	0.285473969229	0.158340121108	0.379107350406	0.174217498873	0.373873432643	0.174217498873	0.164031793978	0.30965449727	0.164031793978	0.231617757809	0.260308198519	0.231617757809	0.379361079853	0.0923655331469	0.142924110297	0.0923655331469	0.151561355764	0.164194617635
KNN(10)	0.0434676182179	0.0985180355435	0.0434676182179	0.126334068927	-0.014412057085	0.263966699062	-0.014412057085	0.155777053149	0.204111838021	0.192669251348	0.204111838021	0.244769101555	0.0291495116789	0.281816674408	0.0291495116789	-0.0206519154223	0.148777935677	-0.0206519154223	0.180354214367	0.218695771551	0.180354214367	0.276061249459	0.0869864748643	0.0246662280773	0.0869864748643	0.0716213179918	0.0387221622708
KNN(100)		0.0895615230008		0.190106057		0.293363658432		0.256035853113		0.18379277284		0.414951518514		0.138243893545			0.133106441741			0.0337414958487		0.416914973058		0.060449245358		0.067372880251	0.161418040505
KNN(1000)				0.023452632778				0.0229655288481				0.039935107147										0.0419808345129				0.0561547717293	0.0954089535311
KNN(250)		0.0424319745984		0.144142175362		0.0672379479839		0.196902691958		0.0146921423576		0.28142087623		0.0660319663349			-0.0169565457477			-0.00226479747452		0.197448259043		0.0422485367275		-0.000643025282535	0.148431205106
KNN(50)	0.0741511920793	0.180692377329	0.0741511920793	0.190302694343	-0.024464039323	0.357201845265	-0.024464039323	0.28310988154	0.2054007117	0.161246975333	0.2054007117	0.438441481333	0.00233231694623	0.217932872763	0.00233231694623	-0.0192469636681	0.404589499969	-0.0192469636681	0.133108450209	0.218899912023	0.133108450209	0.447427224304	0.0355158300283	0.0340575796546	0.0355158300283	0.0783502669079	0.151475210829
KNN(500)				0.0457462380017				0.079193405032				0.112089074272										0.0645771231958				0.0276877553438	0.132834874214
Log	0.273932016235	0.288259716464	0.273932016235	0.222012055446	0.1474634818	0.306196595856	0.1474634818	0.305976592267	0.161963832305	0.266657835501	0.161963832305	0.35932616014	0.150732163539	0.336021709214	0.150732163539	0.138852428624	0.26085607344	0.138852428624	0.190536702101	0.236035534408	0.190536702101	0.341891391229	0.0854868232149	0.135557122955	0.0854868232149	0.150455829463	0.159870665217
None	0.285060529282	0.299551827567	0.285060529282	0.219442139394	0.223158309683	0.372455047275	0.223158309683	0.313763546778	0.158340121108	0.285473969229	0.158340121108	0.379107350406	0.174217498873	0.373873432643	0.174217498873	0.164031793978	0.30965449727	0.164031793978	0.231617757809	0.260308198519	0.231617757809	0.379361079853	0.0923655331469	0.142924110297	0.0923655331469	0.151561355764	0.164194617635
Pearson	0.229438247774	0.147090251472	0.229438247774	0.135813729532	0.0422396846356	0.314560327367	0.0422396846356	0.197216607969	0.255822363843	0.223219492955	0.255822363843	0.404258252238	0.0755536800418	0.310971067178	0.0755536800418	0.0285298659812	0.453470103193	0.0285298659812	0.169798191774	0.230386336153	0.169798191774	0.416904636273	-0.0378697462399	0.0597590802515	-0.0378697462399	0.04214924518	0.041170613472
Spearman	-0.0248709564044	0.0294517632553	-0.0248709564044	0.0264379490107	0.0245456591343	0.0779906773117	0.0245456591343	0.0236529366195	0.163020558925	0.0962459545095	0.163020558925	0.0531004987599	0.163427325529	0.101213084577	0.163427325529	0.101284856965	-0.00535085105272	0.101284856965	0.184573434437	0.00600033072855	0.184573434437	0.0324165706255	-0.0985778211701	0.0154958691486	-0.0985778211701	0.020206279794	0.0226967751533
Topological Overlap	0.319359876397	0.252886313184	0.319359876397	0.178561585189	-0.0073431733392	0.42927197881	-0.0073431733392	0.282444132722	0.161302538361	0.240464062176	0.161302538361	0.434188448349	0.0266424563362	0.369478502962	0.0266424563362	0.00892262429353	0.346097111248	0.00892262429353	0.263135748027	0.341150949254	0.263135748027	0.450249898849	0.0789204694262	0.139823961312	0.0789204694262	0.124635883874	0.137849680518
