transform	GO BP 100 small	GO BP 500 small	GO BP 100 small	GO BP 2600 small	GO BP 100 medium	GO BP 500 medium	GO BP 100 medium	GO BP 2600 medium	GO BP 100 large	GO BP 500 large	GO BP 100 large	GO BP 2600 large	GO CC 100 small	GO CC 500 small	GO CC 100 small	GO CC 100 medium	GO CC 500 medium	GO CC 100 medium	GO CC 100 large	GO CC 500 large	GO CC 100 large	GO CC 2600 large	100 Random Genes	500 Random Genes	100 Random Genes	2600 Random Genes	Whole Network
Cosine	0.0291266554962	-0.0442680952118	0.0291266554962	-0.0383623529736	0.0387666959662	0.112508221017	0.0387666959662	-0.0503381177298	0.094634624109	0.0224087678059	0.094634624109	0.0179956878755	0.141854612469	0.012020032087	0.141854612469	0.00479004122562	0.218139681722	0.00479004122562	0.107585913885	-0.0112801537338	0.107585913885	0.0193239846876	0.0041063982895	0.0694158151528	0.0041063982895	0.0490435936632	0.0531711618066
Cutoff(0.1)	0.0450879213153	0.0503031529917	0.0450879213153	0.0376945476472	0.0533896058344	0.062479257101	0.0533896058344	0.0530135182126	0.0436433593937	0.0540942510448	0.0436433593937	0.0624550426889	0.0631655829953	0.0717000279312	0.0631655829953	0.0396492194501	0.0682409517535	0.0396492194501	0.049473647801	0.047080391451	0.049473647801	0.0648232656118	0.0418329215498	0.034613779392	0.0418329215498	0.034360959319	0.0335952427966
Cutoff(1)	0.0816381918795	0.0770143852401	0.0816381918795	0.0567634850071	0.120359339464	0.121388212873	0.120359339464	0.0775257987651	0.0786557056823	0.10166161272	0.0786557056823	0.0905957849834	0.155327399969	0.121244881584	0.155327399969	0.084601261888	0.15794372367	0.084601261888	0.099863566776	0.0713526243423	0.099863566776	0.0922417938768	0.0603591596728	0.0544332696513	0.0603591596728	0.0520195685532	0.0487263021591
Cutoff(10)	0.191747636418	0.19261703541	0.191747636418	0.136109378757	0.215299697326	0.309096782176	0.215299697326	0.199808756031	0.160576394964	0.240198038465	0.160576394964	0.243176685658	0.331588018184	0.262150268128	0.331588018184	0.153197249342	0.368784380175	0.153197249342	0.254182035844	0.174285227556	0.254182035844	0.235191058517	0.141442018571	0.106461386516	0.141442018571	0.108661248778	0.108071488304
Cutoff(20)	0.191747636418	0.19261703541	0.191747636418	0.136109378757	0.215299697326	0.309096782176	0.215299697326	0.199808756031	0.160576394964	0.240198038465	0.160576394964	0.243176685658	0.331588018184	0.262150268128	0.331588018184	0.153197249342	0.368784380175	0.153197249342	0.254182035844	0.174285227556	0.254182035844	0.235191058517	0.141442018571	0.106461386516	0.141442018571	0.108661248778	0.108071488304
Cutoff(5)	0.191747636418	0.19261703541	0.191747636418	0.136109378757	0.195623677341	0.309096782176	0.195623677341	0.199808756031	0.160576394964	0.240198038465	0.160576394964	0.243176685658	0.331588018184	0.262150268128	0.331588018184	0.145841683472	0.368784380175	0.145841683472	0.254182035844	0.174285227556	0.254182035844	0.235191058517	0.141442018571	0.106461386516	0.141442018571	0.108661248778	0.108071488304
KNN(10)	0.00519571859784	0.0622666634064	0.00519571859784	0.0623697381995	0.0719914474419	0.187238642745	0.0719914474419	0.0966808113342	0.122627096507	0.135703935783	0.122627096507	0.140805788653	0.199268097127	0.202366297123	0.199268097127	0.134291370035	0.268550178504	0.134291370035	0.16305885845	0.103035876277	0.16305885845	0.162424828095	0.0275621374711	0.0421708855352	0.0275621374711	0.0549778740831	0.0307465406426
KNN(100)		0.0480609930612		0.0876403575784		0.17244187758		0.127877119195		0.115810237963		0.21713277729		0.132577392372			0.189044907234			0.0686057474018		0.197534737383		-0.0362712785447		0.0251342229455	0.0772313889771
KNN(1000)				0.0181942287575				0.0223432206287				0.0260899738612										0.0336753308756				0.0471082818807	0.0306527177625
KNN(250)		0.0264079316536		0.0516488041996		0.0690484571444		0.0824825448897		0.0230634810305		0.134196959659		0.0594399248729			0.0662038455309			0.0439804498324		0.108840827061		0.0282532674014		0.0467661960351	0.0719583620001
KNN(50)	0.0179728068199	0.0719432100471	0.0179728068199	0.0900241596747	0.0712743043364	0.241858793218	0.0712743043364	0.149264225094	0.12971171257	0.156935499137	0.12971171257	0.23405916807	0.0502694412516	0.171468861911	0.0502694412516	0.0792174822718	0.371386029195	0.0792174822718	0.146512137696	0.143943634836	0.146512137696	0.230361169039	0.0754234192916	0.0528856792968	0.0754234192916	0.0414211227491	0.070545886924
KNN(500)				0.0373960672793				0.0595431910521				0.0856714479521										0.0612099485541				-0.0198453024481	0.0587536821795
Log	0.17777290094	0.169038503217	0.17777290094	0.128044332843	0.189054839307	0.258483092334	0.189054839307	0.183051105603	0.142813514683	0.217444178546	0.142813514683	0.220820664205	0.278828857383	0.234342205152	0.278828857383	0.140395522133	0.323214679712	0.140395522133	0.227200890669	0.145333553659	0.227200890669	0.207789627422	0.134956788884	0.0959599294656	0.134956788884	0.0953903068836	0.0971302283613
None	0.191747636418	0.19261703541	0.191747636418	0.136109378757	0.215299697326	0.309096782176	0.215299697326	0.199808756031	0.160576394964	0.240198038465	0.160576394964	0.243176685658	0.331588018184	0.262150268128	0.331588018184	0.153197249342	0.368784380175	0.153197249342	0.254182035844	0.174285227556	0.254182035844	0.235191058517	0.141442018571	0.106461386516	0.141442018571	0.108661248778	0.108071488304
Pearson	0.126798747662	0.0578025639542	0.126798747662	0.0448434382799	0.114289164883	0.239029216136	0.114289164883	0.0809617065086	0.165673663479	0.137386401553	0.165673663479	0.14704939006	0.231311770649	0.193286695282	0.231311770649	0.0985832340296	0.370898685088	0.0985832340296	0.227273142955	0.106880559675	0.227273142955	0.139423734977	-0.0168467549806	0.00700699756548	-0.0168467549806	-0.0114891019107	-0.00444461398004
Spearman	0.0459190820493	0.0163432621804	0.0459190820493	0.0150857375719	0.141622834143	0.0755331917995	0.141622834143	0.0115662842075	0.145805060744	0.0422203993297	0.145805060744	0.0245134247107	0.0768848356237	0.0922610353075	0.0768848356237	0.0763485736735	0.103539555988	0.0763485736735	0.159327371854	0.048149534084	0.159327371854	0.0160130814742	0.00230037641202	0.0361498931302	0.00230037641202	0.0165723096808	0.0167821060625
Topological Overlap	0.197604365627	0.176934011463	0.197604365627	0.111334777346	0.179656565416	0.349653975212	0.179656565416	0.198264136542	0.142563358763	0.254003062582	0.142563358763	0.274090445462	0.391575218521	0.248474183852	0.391575218521	0.133142582826	0.472725015391	0.133142582826	0.220004867425	0.205628192848	0.220004867425	0.253718102591	0.125139160516	0.10488393461	0.125139160516	0.105482855676	0.105893001437
